+--------------------------------------+
|   Flickr Photo Metadata              |
|   Created by Bulkr on Feb 09, 2016   |
|   http://clipyourphotos.com/bulkr    |
+--------------------------------------+

+--------+
|  INFO  |
+--------+
Photographer : Svenska Mässan
Photo URL    : https://www.flickr.com/photos/svenskamassan/24234227655/
License      : Creative Commons (http://creativecommons.org/licenses)
Taken Date   : Thu Jan 7 13:31:25 GMT+0100 2016
Upload Date  : Thu Jan 7 19:42:16 GMT+0100 2016
Geotag Info  : Latitude:57.697864, Longitude:11.988916
Views        : 1,166
Comments     : 0


+---------+
|  TITLE  |
+---------+
BIR Grupp: 6 DALMATINER, Mellanmöllan Honey Pie


+---------------+
|  DESCRIPTION  |
+---------------+
BIR Grupp 6
DALMATINER
DK UCH SE UCH
Mellanmöllan Honey Pie 

MyDOG, Nordens största hundevenemang: <a href="http://www.mydog.se" rel="nofollow">www.mydog.se</a>


+--------+
|  TAGS  |
+--------+
bir "bäst i ras" MyDOG "mydog 2016" hund Hundar hundmässa hundutställning hundmässan hundtävling hundevenemang "Svenska Mässan" mässan mässa "The Swedish Exhibition & Congress Centre" Göteborg gbg gbgftw gothenburg dog dogs "dog show" DALMATINER "Mellanmöllan Honey Pie" 