+--------------------------------------+
|   Flickr Photo Metadata              |
|   Created by Bulkr on Feb 03, 2016   |
|   http://clipyourphotos.com/bulkr    |
+--------------------------------------+

+--------+
|  INFO  |
+--------+
Photographer : blumenbiene
Photo URL    : https://www.flickr.com/photos/blumenbiene/14744305881/
License      : Creative Commons (http://creativecommons.org/licenses)
Taken Date   : Fri Jul 25 19:33:28 GMT+0200 2014
Upload Date  : Sat Jul 26 11:01:54 GMT+0200 2014
Views        : 860
Comments     : 0


+---------+
|  TITLE  |
+---------+
Gibt's Futter??


+---------------+
|  DESCRIPTION  |
+---------------+
Juli 2014
Canon EOS 60D
EF 85mm f/1.8 USM

Creative Commons Licence BY 2.0

Quellenangabe / Credit:
Photo by Maja Dumat - CC BY 2.0


+--------+
|  TAGS  |
+--------+
hund dog hündin female dalmatiner dalmatian 