+--------------------------------------+
|   Flickr Photo Metadata              |
|   Created by Bulkr on Feb 03, 2016   |
|   http://clipyourphotos.com/bulkr    |
+--------------------------------------+

+--------+
|  INFO  |
+--------+
Photographer : storem
Photo URL    : https://www.flickr.com/photos/storem/107146048/
License      : Creative Commons (http://creativecommons.org/licenses)
Taken Date   : Fri Apr 11 19:35:09 GMT+0200 2003
Upload Date  : Fri Mar 3 11:51:19 GMT+0100 2006
Views        : 182
Comments     : 0


+---------+
|  TITLE  |
+---------+
Sindie, our watchdog


+---------------+
|  DESCRIPTION  |
+---------------+
(no description)


+--------+
|  TAGS  |
+--------+
ardennen dog dalmatian Straimont Sindie 