+--------------------------------------+
|   Flickr Photo Metadata              |
|   Created by Bulkr on Feb 09, 2016   |
|   http://clipyourphotos.com/bulkr    |
+--------------------------------------+

+--------+
|  INFO  |
+--------+
Photographer : cvmz22
Photo URL    : https://www.flickr.com/photos/cvm2010/11120564584/
License      : Creative Commons (http://creativecommons.org/licenses)
Taken Date   : Fri Nov 29 13:51:41 GMT+0100 2013
Upload Date  : Fri Nov 29 19:51:41 GMT+0100 2013
Views        : 50
Comments     : 0


+---------+
|  TITLE  |
+---------+
Nina es una hermosura. #pets #instacachorro #dalmata


+---------------+
|  DESCRIPTION  |
+---------------+
(no description)


+--------+
|  TAGS  |
+--------+
"instagram app" square "square format" iphoneography uploaded:by=instagram 