+--------------------------------------+
|   Flickr Photo Metadata              |
|   Created by Bulkr on Feb 03, 2016   |
|   http://clipyourphotos.com/bulkr    |
+--------------------------------------+

+--------+
|  INFO  |
+--------+
Photographer : Latente 囧 www.latente.it
Photo URL    : https://www.flickr.com/photos/e-coli/8526908513/
License      : Creative Commons (http://creativecommons.org/licenses)
Taken Date   : Sun Mar 3 21:56:37 GMT+0100 2013
Upload Date  : Mon Mar 4 12:08:46 GMT+0100 2013
Views        : 1,209
Comments     : 0


+---------+
|  TITLE  |
+---------+
Ikea MiniLimbo Test


+---------------+
|  DESCRIPTION  |
+---------------+
Schleich Dalmatian male


+--------+
|  TAGS  |
+--------+
MiniLimbo ikea test Schleich "Dalmatian male" 