+--------------------------------------+
|   Flickr Photo Metadata              |
|   Created by Bulkr on Feb 03, 2016   |
|   http://clipyourphotos.com/bulkr    |
+--------------------------------------+

+--------+
|  INFO  |
+--------+
Photographer : vegatripy
Photo URL    : https://www.flickr.com/photos/vegatripy/3257975283/
License      : Creative Commons (http://creativecommons.org/licenses)
Taken Date   : Fri Feb 6 20:11:26 GMT+0100 2009
Upload Date  : Fri Feb 6 20:11:26 GMT+0100 2009
Views        : 395
Comments     : 2


+---------+
|  TITLE  |
+---------+
red on dalmatian


+---------------+
|  DESCRIPTION  |
+---------------+
(no description)


+--------+
|  TAGS  |
+--------+
dog dalmatian red chain white 