+--------------------------------------+
|   Flickr Photo Metadata              |
|   Created by Bulkr on Feb 03, 2016   |
|   http://clipyourphotos.com/bulkr    |
+--------------------------------------+

+--------+
|  INFO  |
+--------+
Photographer : jesshg
Photo URL    : https://www.flickr.com/photos/jesshg/5784073954/
License      : Creative Commons (http://creativecommons.org/licenses)
Taken Date   : Sun May 1 00:00:00 GMT+0200 2011
Upload Date  : Wed Jun 1 01:47:38 GMT+0200 2011
Views        : 215
Comments     : 0


+---------+
|  TITLE  |
+---------+
1449148679727


+---------------+
|  DESCRIPTION  |
+---------------+
(no description)


+--------+
|  TAGS  |
+--------+
dalmatian 