+--------------------------------------+
|   Flickr Photo Metadata              |
|   Created by Bulkr on Apr 22, 2016   |
|   http://clipyourphotos.com/bulkr    |
+--------------------------------------+

+--------+
|  INFO  |
+--------+
Photographer : s_mestdagh
Photo URL    : https://www.flickr.com/photos/s_mestdagh/168107354/
License      : Creative Commons (http://creativecommons.org/licenses)
Taken Date   : Thu Jun 15 16:51:30 GMT+0200 2006
Upload Date  : Fri Jun 16 06:41:44 GMT+0200 2006
Views        : 175
Comments     : 0


+---------+
|  TITLE  |
+---------+
mouse in the trash can


+---------------+
|  DESCRIPTION  |
+---------------+
(no description)


+--------+
|  TAGS  |
+--------+
mouse 2006 usa 