+--------------------------------------+
|   Flickr Photo Metadata              |
|   Created by Bulkr on Apr 22, 2016   |
|   http://clipyourphotos.com/bulkr    |
+--------------------------------------+

+--------+
|  INFO  |
+--------+
Photographer : steve p2008
Photo URL    : https://www.flickr.com/photos/stevepj2009/3460057323/
License      : Creative Commons (http://creativecommons.org/licenses)
Taken Date   : Mon Apr 20 10:17:28 GMT+0200 2009
Upload Date  : Mon Apr 20 23:35:43 GMT+0200 2009
Views        : 617
Comments     : 0


+---------+
|  TITLE  |
+---------+
cat & mouse


+---------------+
|  DESCRIPTION  |
+---------------+
(no description)


+--------+
|  TAGS  |
+--------+
cat mouse "cat and mouse" "mouse trap" 