+--------------------------------------+
|   Flickr Photo Metadata              |
|   Created by Bulkr on Apr 22, 2016   |
|   http://clipyourphotos.com/bulkr    |
+--------------------------------------+

+--------+
|  INFO  |
+--------+
Photographer : 5T4R
Photo URL    : https://www.flickr.com/photos/60217400@N05/5498661596/
License      : Creative Commons (http://creativecommons.org/licenses)
Taken Date   : Thu Feb 17 18:43:28 GMT+0100 2011
Upload Date  : Sat Mar 5 04:35:52 GMT+0100 2011
Views        : 210
Comments     : 0


+---------+
|  TITLE  |
+---------+
(no title)


+---------------+
|  DESCRIPTION  |
+---------------+
(no description)


+--------+
|  TAGS  |
+--------+
Mouse cute om nom 