+--------------------------------------+
|   Flickr Photo Metadata              |
|   Created by Bulkr on Apr 22, 2016   |
|   http://clipyourphotos.com/bulkr    |
+--------------------------------------+

+--------+
|  INFO  |
+--------+
Photographer : hapinachu
Photo URL    : https://www.flickr.com/photos/hapinachu/3661012772/
License      : Creative Commons (http://creativecommons.org/licenses)
Taken Date   : Thu Jun 25 11:31:02 GMT+0200 2009
Upload Date  : Thu Jun 25 22:12:19 GMT+0200 2009
Views        : 667
Comments     : 0


+---------+
|  TITLE  |
+---------+
White footed mouse


+---------------+
|  DESCRIPTION  |
+---------------+
(no description)


+--------+
|  TAGS  |
+--------+
mouse 