+--------------------------------------+
|   Flickr Photo Metadata              |
|   Created by Bulkr on Apr 22, 2016   |
|   http://clipyourphotos.com/bulkr    |
+--------------------------------------+

+--------+
|  INFO  |
+--------+
Photographer : jamjar
Photo URL    : https://www.flickr.com/photos/jamjar/6917361724/
License      : Creative Commons (http://creativecommons.org/licenses)
Taken Date   : Sun Apr 8 08:33:01 GMT+0200 2012
Upload Date  : Tue Apr 10 07:20:50 GMT+0200 2012
Views        : 1,596
Comments     : 0


+---------+
|  TITLE  |
+---------+
Mouse Trapping


+---------------+
|  DESCRIPTION  |
+---------------+
(no description)


+--------+
|  TAGS  |
+--------+
mouse trap dog "mouse trap" "dead mouse" 