+--------------------------------------+
|   Flickr Photo Metadata              |
|   Created by Bulkr on Apr 22, 2016   |
|   http://clipyourphotos.com/bulkr    |
+--------------------------------------+

+--------+
|  INFO  |
+--------+
Photographer : YouthfulSins
Photo URL    : https://www.flickr.com/photos/slowlyinhale/8139297843/
License      : Creative Commons (http://creativecommons.org/licenses)
Taken Date   : Mon Oct 29 15:12:16 GMT+0100 2012
Upload Date  : Tue Oct 30 20:23:39 GMT+0100 2012
Views        : 608
Comments     : 4


+---------+
|  TITLE  |
+---------+
tis the season


+---------------+
|  DESCRIPTION  |
+---------------+
(no description)


+--------+
|  TAGS  |
+--------+
mouse mice pumpkin black orange 