+--------------------------------------+
|   Flickr Photo Metadata              |
|   Created by Bulkr on Apr 22, 2016   |
|   http://clipyourphotos.com/bulkr    |
+--------------------------------------+

+--------+
|  INFO  |
+--------+
Photographer : Joanne and Matt
Photo URL    : https://www.flickr.com/photos/joanne_matt/98406563/
License      : Creative Commons (http://creativecommons.org/licenses)
Taken Date   : Thu Jan 27 08:30:08 GMT+0100 2005
Upload Date  : Sat Feb 11 22:55:59 GMT+0100 2006
Views        : 22
Comments     : 0


+---------+
|  TITLE  |
+---------+
IMG_0330


+---------------+
|  DESCRIPTION  |
+---------------+
(no description)


+--------+
|  TAGS  |
+--------+
Edinburgh Scotland mouse 