+--------------------------------------+
|   Flickr Photo Metadata              |
|   Created by Bulkr on Apr 22, 2016   |
|   http://clipyourphotos.com/bulkr    |
+--------------------------------------+

+--------+
|  INFO  |
+--------+
Photographer : pthread1981
Photo URL    : https://www.flickr.com/photos/pthread/7489848664/
License      : Creative Commons (http://creativecommons.org/licenses)
Taken Date   : Sat Jun 23 10:25:19 GMT+0200 2012
Upload Date  : Mon Jul 2 23:15:53 GMT+0200 2012
Views        : 316
Comments     : 0


+---------+
|  TITLE  |
+---------+
Mouse Peeking out of his Hole


+---------------+
|  DESCRIPTION  |
+---------------+
(no description)


+--------+
|  TAGS  |
+--------+
ostsee mouse hole 