+--------------------------------------+
|   Flickr Photo Metadata              |
|   Created by Bulkr on Oct 09, 2016   |
|   http://clipyourphotos.com/bulkr    |
+--------------------------------------+

+--------+
|  INFO  |
+--------+
Photographer : falcon0125
Photo URL    : https://www.flickr.com/photos/falcon19880125/4946679602/
License      : Creative Commons (http://creativecommons.org/licenses)
Taken Date   : Thu Aug 26 12:27:06 GMT+0200 2010
Upload Date  : Wed Sep 1 00:21:47 GMT+0200 2010
Views        : 22
Comments     : 0


+---------+
|  TITLE  |
+---------+
Dolphin


+---------------+
|  DESCRIPTION  |
+---------------+
(no description)


+--------+
|  TAGS  |
+--------+
(no tags)