+--------------------------------------+
|   Flickr Photo Metadata              |
|   Created by Bulkr on Oct 09, 2016   |
|   http://clipyourphotos.com/bulkr    |
+--------------------------------------+

+--------+
|  INFO  |
+--------+
Photographer : nachans
Photo URL    : https://www.flickr.com/photos/pancakeplan/9056215097/
License      : Creative Commons (http://creativecommons.org/licenses)
Taken Date   : Thu Apr 30 16:41:38 GMT+0200 2009
Upload Date  : Sun Jun 16 15:46:01 GMT+0200 2013
Views        : 74
Comments     : 0


+---------+
|  TITLE  |
+---------+
IMGP8268


+---------------+
|  DESCRIPTION  |
+---------------+
(no description)


+--------+
|  TAGS  |
+--------+
aquarium dolphin 