+--------------------------------------+
|   Flickr Photo Metadata              |
|   Created by Bulkr on Oct 09, 2016   |
|   http://clipyourphotos.com/bulkr    |
+--------------------------------------+

+--------+
|  INFO  |
+--------+
Photographer : _LidOK_
Photo URL    : https://www.flickr.com/photos/lidok/8059467794/
License      : Creative Commons (http://creativecommons.org/licenses)
Taken Date   : Tue Sep 18 16:38:19 GMT+0200 2012
Upload Date  : Sat Oct 6 16:19:16 GMT+0200 2012
Views        : 2,279
Comments     : 0


+---------+
|  TITLE  |
+---------+
Dolphins


+---------------+
|  DESCRIPTION  |
+---------------+
(no description)


+--------+
|  TAGS  |
+--------+
animal dolphin odessa dance summer water 