+--------------------------------------+
|   Flickr Photo Metadata              |
|   Created by Bulkr on Oct 09, 2016   |
|   http://clipyourphotos.com/bulkr    |
+--------------------------------------+

+--------+
|  INFO  |
+--------+
Photographer : dmolsen
Photo URL    : https://www.flickr.com/photos/dmolsen/4584856403/
License      : Creative Commons (http://creativecommons.org/licenses)
Taken Date   : Mon May 3 11:53:47 GMT+0200 2010
Upload Date  : Fri May 7 01:40:56 GMT+0200 2010
Views        : 12
Comments     : 0


+---------+
|  TITLE  |
+---------+
Dolphins


+---------------+
|  DESCRIPTION  |
+---------------+
(no description)


+--------+
|  TAGS  |
+--------+
florida vacation 