+--------------------------------------+
|   Flickr Photo Metadata              |
|   Created by Bulkr on Oct 09, 2016   |
|   http://clipyourphotos.com/bulkr    |
+--------------------------------------+

+--------+
|  INFO  |
+--------+
Photographer : Zorn2012
Photo URL    : https://www.flickr.com/photos/50926955@N04/8486399385/
License      : Creative Commons (http://creativecommons.org/licenses)
Taken Date   : Mon Feb 18 14:47:16 GMT+0100 2013
Upload Date  : Mon Feb 18 23:47:19 GMT+0100 2013
Views        : 368
Comments     : 0


+---------+
|  TITLE  |
+---------+
dolphins


+---------------+
|  DESCRIPTION  |
+---------------+
(no description)


+--------+
|  TAGS  |
+--------+
(no tags)