+--------------------------------------+
|   Flickr Photo Metadata              |
|   Created by Bulkr on Oct 09, 2016   |
|   http://clipyourphotos.com/bulkr    |
+--------------------------------------+

+--------+
|  INFO  |
+--------+
Photographer : pijpers662
Photo URL    : https://www.flickr.com/photos/8259447@N06/14770410182/
License      : Creative Commons (http://creativecommons.org/licenses)
Taken Date   : Sun Jul 27 14:46:23 GMT+0200 2014
Upload Date  : Mon Jul 28 22:56:36 GMT+0200 2014
Views        : 107
Comments     : 0


+---------+
|  TITLE  |
+---------+
Duisburg Zoo, Germany


+---------------+
|  DESCRIPTION  |
+---------------+
(no description)


+--------+
|  TAGS  |
+--------+
dolphin dolfijn 