+--------------------------------------+
|   Flickr Photo Metadata              |
|   Created by Bulkr on Oct 09, 2016   |
|   http://clipyourphotos.com/bulkr    |
+--------------------------------------+

+--------+
|  INFO  |
+--------+
Photographer : air freelancer
Photo URL    : https://www.flickr.com/photos/68397541@N00/2541391453/
License      : Creative Commons (http://creativecommons.org/licenses)
Taken Date   : Thu May 22 17:37:24 GMT+0200 2008
Upload Date  : Sun Jun 1 19:21:42 GMT+0200 2008
Views        : 98
Comments     : 0


+---------+
|  TITLE  |
+---------+
016


+---------------+
|  DESCRIPTION  |
+---------------+
(no description)


+--------+
|  TAGS  |
+--------+
bottlenose dolphins 