+--------------------------------------+
|   Flickr Photo Metadata              |
|   Created by Bulkr on Oct 09, 2016   |
|   http://clipyourphotos.com/bulkr    |
+--------------------------------------+

+--------+
|  INFO  |
+--------+
Photographer : cal_harding
Photo URL    : https://www.flickr.com/photos/calharding/2721693804/
License      : Creative Commons (http://creativecommons.org/licenses)
Taken Date   : Tue Mar 29 10:39:13 GMT+0200 2005
Upload Date  : Fri Aug 1 05:32:45 GMT+0200 2008
Views        : 54
Comments     : 0


+---------+
|  TITLE  |
+---------+
ushaka32


+---------------+
|  DESCRIPTION  |
+---------------+
(no description)


+--------+
|  TAGS  |
+--------+
dolphin dolphinarium ushaka southafrica durban 