+--------------------------------------+
|   Flickr Photo Metadata              |
|   Created by Bulkr on Oct 09, 2016   |
|   http://clipyourphotos.com/bulkr    |
+--------------------------------------+

+--------+
|  INFO  |
+--------+
Photographer : sunseeker2008
Photo URL    : https://www.flickr.com/photos/22323856@N05/2154668046/
License      : Creative Commons (http://creativecommons.org/licenses)
Taken Date   : Fri Sep 21 09:15:46 GMT+0200 2007
Upload Date  : Tue Jan 1 15:17:31 GMT+0100 2008
Views        : 18
Comments     : 0


+---------+
|  TITLE  |
+---------+
dolphin


+---------------+
|  DESCRIPTION  |
+---------------+
Dance of Dolphins


+--------+
|  TAGS  |
+--------+
(no tags)