+--------------------------------------+
|   Flickr Photo Metadata              |
|   Created by Bulkr on Oct 09, 2016   |
|   http://clipyourphotos.com/bulkr    |
+--------------------------------------+

+--------+
|  INFO  |
+--------+
Photographer : voyages provence
Photo URL    : https://www.flickr.com/photos/voyages-provence/5297163258/
License      : Creative Commons (http://creativecommons.org/licenses)
Taken Date   : Sun Jun 13 13:32:48 GMT+0200 2010
Upload Date  : Mon Dec 27 17:23:14 GMT+0100 2010
Views        : 135
Comments     : 0


+---------+
|  TITLE  |
+---------+
nage_avec_dauphins_6


+---------------+
|  DESCRIPTION  |
+---------------+
(no description)


+--------+
|  TAGS  |
+--------+
(no tags)