+--------------------------------------+
|   Flickr Photo Metadata              |
|   Created by Bulkr on Oct 09, 2016   |
|   http://clipyourphotos.com/bulkr    |
+--------------------------------------+

+--------+
|  INFO  |
+--------+
Photographer : Sarah Braun
Photo URL    : https://www.flickr.com/photos/ataradrac/2837520427/
License      : Creative Commons (http://creativecommons.org/licenses)
Taken Date   : Wed Jul 9 14:04:29 GMT+0200 2008
Upload Date  : Mon Sep 8 02:49:17 GMT+0200 2008
Views        : 7
Comments     : 0


+---------+
|  TITLE  |
+---------+
Dolphin


+---------------+
|  DESCRIPTION  |
+---------------+
(no description)


+--------+
|  TAGS  |
+--------+
(no tags)