+--------------------------------------+
|   Flickr Photo Metadata              |
|   Created by Bulkr on Oct 09, 2016   |
|   http://clipyourphotos.com/bulkr    |
+--------------------------------------+

+--------+
|  INFO  |
+--------+
Photographer : Sandra Hette
Photo URL    : https://www.flickr.com/photos/sandra_hette/8197781245/
License      : Creative Commons (http://creativecommons.org/licenses)
Taken Date   : Tue Mar 13 13:06:13 GMT+0100 2012
Upload Date  : Mon Nov 19 04:03:51 GMT+0100 2012
Views        : 44
Comments     : 0


+---------+
|  TITLE  |
+---------+
picture19


+---------------+
|  DESCRIPTION  |
+---------------+
(no description)


+--------+
|  TAGS  |
+--------+
(no tags)