+--------------------------------------+
|   Flickr Photo Metadata              |
|   Created by Bulkr on Oct 09, 2016   |
|   http://clipyourphotos.com/bulkr    |
+--------------------------------------+

+--------+
|  INFO  |
+--------+
Photographer : leoman892001
Photo URL    : https://www.flickr.com/photos/leoman892001/2400807761/
License      : Creative Commons (http://creativecommons.org/licenses)
Taken Date   : Sat Apr 5 11:20:02 GMT+0200 2008
Upload Date  : Wed Apr 9 20:32:58 GMT+0200 2008
Views        : 23
Comments     : 0


+---------+
|  TITLE  |
+---------+
IMG_9616


+---------------+
|  DESCRIPTION  |
+---------------+
(no description)


+--------+
|  TAGS  |
+--------+
(no tags)