+--------------------------------------+
|   Flickr Photo Metadata              |
|   Created by Bulkr on Oct 09, 2016   |
|   http://clipyourphotos.com/bulkr    |
+--------------------------------------+

+--------+
|  INFO  |
+--------+
Photographer : tkmrabbits
Photo URL    : https://www.flickr.com/photos/kittiesmademedoit/3126333906/
License      : Creative Commons (http://creativecommons.org/licenses)
Taken Date   : Mon Apr 21 10:56:49 GMT+0200 2008
Upload Date  : Sun Dec 21 22:25:27 GMT+0100 2008
Views        : 288
Comments     : 2


+---------+
|  TITLE  |
+---------+
dolphins at electric beach


+---------------+
|  DESCRIPTION  |
+---------------+
these guys are used to divers,so they show off. edit by tkm,shot by jas


+--------+
|  TAGS  |
+--------+
dolphins 