+--------------------------------------+
|   Flickr Photo Metadata              |
|   Created by Bulkr on Oct 09, 2016   |
|   http://clipyourphotos.com/bulkr    |
+--------------------------------------+

+--------+
|  INFO  |
+--------+
Photographer : hirotomo
Photo URL    : https://www.flickr.com/photos/travelstar/39148444/
License      : Creative Commons (http://creativecommons.org/licenses)
Taken Date   : Fri May 21 14:17:40 GMT+0200 2004
Upload Date  : Thu Sep 1 10:03:34 GMT+0200 2005
Views        : 102
Comments     : 0


+---------+
|  TITLE  |
+---------+
dolphin3


+---------------+
|  DESCRIPTION  |
+---------------+
izu-mitsu sea-paradise
at 2004


+--------+
|  TAGS  |
+--------+
travel izu dolphin aquarium 