+--------------------------------------+
|   Flickr Photo Metadata              |
|   Created by Bulkr on Oct 09, 2016   |
|   http://clipyourphotos.com/bulkr    |
+--------------------------------------+

+--------+
|  INFO  |
+--------+
Photographer : aftab.
Photo URL    : https://www.flickr.com/photos/aftab/6591360339/
License      : Creative Commons (http://creativecommons.org/licenses)
Taken Date   : Thu Dec 22 09:39:22 GMT+0100 2011
Upload Date  : Thu Dec 29 02:48:49 GMT+0100 2011
Views        : 860
Comments     : 26


+---------+
|  TITLE  |
+---------+
Let me fly


+---------------+
|  DESCRIPTION  |
+---------------+
with you.


+--------+
|  TAGS  |
+--------+
Dolphin 