+--------------------------------------+
|   Flickr Photo Metadata              |
|   Created by Bulkr on Oct 09, 2016   |
|   http://clipyourphotos.com/bulkr    |
+--------------------------------------+

+--------+
|  INFO  |
+--------+
Photographer : DRSPIEGEL14
Photo URL    : https://www.flickr.com/photos/drspiegel14/2526219102/
License      : Creative Commons (http://creativecommons.org/licenses)
Taken Date   : Fri Mar 2 02:12:55 GMT+0100 2007
Upload Date  : Tue May 27 01:12:19 GMT+0200 2008
Views        : 35
Comments     : 0


+---------+
|  TITLE  |
+---------+
Dolphins


+---------------+
|  DESCRIPTION  |
+---------------+
(no description)


+--------+
|  TAGS  |
+--------+
(no tags)