+--------------------------------------+
|   Flickr Photo Metadata              |
|   Created by Bulkr on Oct 09, 2016   |
|   http://clipyourphotos.com/bulkr    |
+--------------------------------------+

+--------+
|  INFO  |
+--------+
Photographer : Pippoloide
Photo URL    : https://www.flickr.com/photos/119670994@N05/13715950334/
License      : Creative Commons (http://creativecommons.org/licenses)
Taken Date   : Fri Apr 4 12:29:34 GMT+0200 2014
Upload Date  : Tue Apr 8 14:54:01 GMT+0200 2014
Views        : 379
Comments     : 0


+---------+
|  TITLE  |
+---------+
Delfín


+---------------+
|  DESCRIPTION  |
+---------------+
Dolphin


+--------+
|  TAGS  |
+--------+
(no tags)