+--------------------------------------+
|   Flickr Photo Metadata              |
|   Created by Bulkr on Oct 09, 2016   |
|   http://clipyourphotos.com/bulkr    |
+--------------------------------------+

+--------+
|  INFO  |
+--------+
Photographer : Iain A Wanless
Photo URL    : https://www.flickr.com/photos/reemul/15575473473/
License      : Creative Commons (http://creativecommons.org/licenses)
Taken Date   : Mon Dec 22 17:40:05 GMT+0100 2014
Upload Date  : Sun Jan 4 15:59:01 GMT+0100 2015
Views        : 533
Comments     : 1


+---------+
|  TITLE  |
+---------+
Dolphin


+---------------+
|  DESCRIPTION  |
+---------------+
(no description)


+--------+
|  TAGS  |
+--------+
Florida Disneyworld Epcot "Nex 7" 