+--------------------------------------+
|   Flickr Photo Metadata              |
|   Created by Bulkr on Feb 12, 2016   |
|   http://clipyourphotos.com/bulkr    |
+--------------------------------------+

+--------+
|  INFO  |
+--------+
Photographer : Glovebr2008
Photo URL    : https://www.flickr.com/photos/22427496@N08/15017278180/
License      : Creative Commons (http://creativecommons.org/licenses)
Taken Date   : Thu Sep 4 20:18:38 GMT+0200 2014
Upload Date  : Thu Sep 11 04:23:30 GMT+0200 2014
Views        : 70
Comments     : 0


+---------+
|  TITLE  |
+---------+
2014-09-04_20-18-39_658


+---------------+
|  DESCRIPTION  |
+---------------+
(no description)


+--------+
|  TAGS  |
+--------+
gatos cats siameses siamese 