+--------------------------------------+
|   Flickr Photo Metadata              |
|   Created by Bulkr on Feb 12, 2016   |
|   http://clipyourphotos.com/bulkr    |
+--------------------------------------+

+--------+
|  INFO  |
+--------+
Photographer : Trish Hamme
Photo URL    : https://www.flickr.com/photos/trishhamme/4711573033/
License      : Creative Commons (http://creativecommons.org/licenses)
Taken Date   : Thu Jun 17 22:44:43 GMT+0200 2010
Upload Date  : Fri Jun 18 18:32:43 GMT+0200 2010
Views        : 469
Comments     : 29


+---------+
|  TITLE  |
+---------+
All My Children -Feline Version ! :)


+---------------+
|  DESCRIPTION  |
+---------------+
(no description)


+--------+
|  TAGS  |
+--------+
cat cats kitten calico siamese mainecoonmix MissStevieNicks MissTruffles RumTumTugger stevie truffie tugger 