+--------------------------------------+
|   Flickr Photo Metadata              |
|   Created by Bulkr on Feb 12, 2016   |
|   http://clipyourphotos.com/bulkr    |
+--------------------------------------+

+--------+
|  INFO  |
+--------+
Photographer : Trish Hamme
Photo URL    : https://www.flickr.com/photos/trishhamme/20171475275/
License      : Creative Commons (http://creativecommons.org/licenses)
Taken Date   : Mon Jul 27 07:55:47 GMT+0200 2015
Upload Date  : Fri Jul 31 15:54:00 GMT+0200 2015
Views        : 658
Comments     : 11


+---------+
|  TITLE  |
+---------+
Miss Truffles


+---------------+
|  DESCRIPTION  |
+---------------+
Happy Furry Friday :)


+--------+
|  TAGS  |
+--------+
cat siamese MissTruffles HFF 