+--------------------------------------+
|   Flickr Photo Metadata              |
|   Created by Bulkr on Feb 12, 2016   |
|   http://clipyourphotos.com/bulkr    |
+--------------------------------------+

+--------+
|  INFO  |
+--------+
Photographer : tigikrak
Photo URL    : https://www.flickr.com/photos/82072596@N00/275406683/
License      : Creative Commons (http://creativecommons.org/licenses)
Taken Date   : Wed Aug 31 02:08:35 GMT+0200 2005
Upload Date  : Sat Oct 21 18:50:42 GMT+0200 2006
Views        : 132
Comments     : 0


+---------+
|  TITLE  |
+---------+
siamese cat 6


+---------------+
|  DESCRIPTION  |
+---------------+
(no description)


+--------+
|  TAGS  |
+--------+
kittie pet siamesecat 