+--------------------------------------+
|   Flickr Photo Metadata              |
|   Created by Bulkr on Feb 12, 2016   |
|   http://clipyourphotos.com/bulkr    |
+--------------------------------------+

+--------+
|  INFO  |
+--------+
Photographer : Helga Weber
Photo URL    : https://www.flickr.com/photos/helga/2455253477/
License      : Creative Commons (http://creativecommons.org/licenses)
Taken Date   : Thu May 1 11:07:50 GMT+0200 2008
Upload Date  : Thu May 1 05:07:50 GMT+0200 2008
Views        : 1,414
Comments     : 4


+---------+
|  TITLE  |
+---------+
one and a half peachy pies


+---------------+
|  DESCRIPTION  |
+---------------+
My baby cat is so cute!


+--------+
|  TAGS  |
+--------+
kittycat cats kitten siamese "siamese kitten" "siamese cat" 