+--------------------------------------+
|   Flickr Photo Metadata              |
|   Created by Bulkr on Apr 09, 2016   |
|   http://clipyourphotos.com/bulkr    |
+--------------------------------------+

+--------+
|  INFO  |
+--------+
Photographer : Jose Antonio Tovar
Photo URL    : https://www.flickr.com/photos/toronjazul/3802052474/
License      : Creative Commons (http://creativecommons.org/licenses)
Taken Date   : Sat Aug 8 14:34:34 GMT+0200 2009
Upload Date  : Sat Aug 8 22:29:25 GMT+0200 2009
Views        : 1,661
Comments     : 0


+---------+
|  TITLE  |
+---------+
Benito Chihuahua


+---------------+
|  DESCRIPTION  |
+---------------+
(no description)


+--------+
|  TAGS  |
+--------+
gorro cap dog chihuahua chihuahueño funny cute divertido chistoso sweater perro chico chiquito tiny hand eyes ojos 