+--------------------------------------+
|   Flickr Photo Metadata              |
|   Created by Bulkr on Apr 09, 2016   |
|   http://clipyourphotos.com/bulkr    |
+--------------------------------------+

+--------+
|  INFO  |
+--------+
Photographer : paz.ca
Photo URL    : https://www.flickr.com/photos/pazca/16120106888/
License      : Creative Commons (http://creativecommons.org/licenses)
Taken Date   : Sun Jan 18 03:03:12 GMT+0100 2015
Upload Date  : Sun Jan 18 12:03:12 GMT+0100 2015
Views        : 644
Comments     : 0


+---------+
|  TITLE  |
+---------+
Nano-Selfie #dog #dogs #selfie #chihuahua #animals


+---------------+
|  DESCRIPTION  |
+---------------+
(no description)


+--------+
|  TAGS  |
+--------+
"instagram app" square "square format" iphoneography uploaded:by=instagram Crema 