+--------------------------------------+
|   Flickr Photo Metadata              |
|   Created by Bulkr on Apr 09, 2016   |
|   http://clipyourphotos.com/bulkr    |
+--------------------------------------+

+--------+
|  INFO  |
+--------+
Photographer : raybdbomb
Photo URL    : https://www.flickr.com/photos/raybdbomb/1545345430/
License      : Creative Commons (http://creativecommons.org/licenses)
Taken Date   : Sat Aug 12 02:15:55 GMT+0200 2006
Upload Date  : Thu Oct 11 22:03:43 GMT+0200 2007
Views        : 13
Comments     : 0


+---------+
|  TITLE  |
+---------+
IMG_3157


+---------------+
|  DESCRIPTION  |
+---------------+
(no description)


+--------+
|  TAGS  |
+--------+
daisy gizmo chihuahua 