+--------------------------------------+
|   Flickr Photo Metadata              |
|   Created by Bulkr on Apr 09, 2016   |
|   http://clipyourphotos.com/bulkr    |
+--------------------------------------+

+--------+
|  INFO  |
+--------+
Photographer : Jose Antonio Tovar
Photo URL    : https://www.flickr.com/photos/toronjazul/2245220613/
License      : Creative Commons (http://creativecommons.org/licenses)
Taken Date   : Sat Feb 23 22:27:13 GMT+0100 2008
Upload Date  : Wed Feb 6 05:54:41 GMT+0100 2008
Views        : 2,539
Comments     : 1


+---------+
|  TITLE  |
+---------+
BENITO Y SOFI


+---------------+
|  DESCRIPTION  |
+---------------+
(no description)


+--------+
|  TAGS  |
+--------+
chihuahueños chihuahueño chihuahuas dogs perros pet mascotas 