+--------------------------------------+
|   Flickr Photo Metadata              |
|   Created by Bulkr on Apr 09, 2016   |
|   http://clipyourphotos.com/bulkr    |
+--------------------------------------+

+--------+
|  INFO  |
+--------+
Photographer : FXaver
Photo URL    : https://www.flickr.com/photos/38473755@N07/3540549927/
License      : Creative Commons (http://creativecommons.org/licenses)
Taken Date   : Sat Sep 16 18:20:20 GMT+0200 2006
Upload Date  : Mon May 18 04:45:24 GMT+0200 2009
Views        : 819
Comments     : 0


+---------+
|  TITLE  |
+---------+
Terry


+---------------+
|  DESCRIPTION  |
+---------------+
Terry en el patio de la casa


+--------+
|  TAGS  |
+--------+
Terry Perro Chihuahueño Pasto Dog Grass Chihuahua Small Mini Mexico Nuevo Laredo Perros Chihuahuasmexicanos perrochihuahua 