+--------------------------------------+
|   Flickr Photo Metadata              |
|   Created by Bulkr on Apr 09, 2016   |
|   http://clipyourphotos.com/bulkr    |
+--------------------------------------+

+--------+
|  INFO  |
+--------+
Photographer : Beau B
Photo URL    : https://www.flickr.com/photos/beaub/2883332867/
License      : Creative Commons (http://creativecommons.org/licenses)
Taken Date   : Sat Jun 14 21:19:38 GMT+0200 2008
Upload Date  : Wed Sep 24 04:42:01 GMT+0200 2008
Views        : 57
Comments     : 1


+---------+
|  TITLE  |
+---------+
Angus


+---------------+
|  DESCRIPTION  |
+---------------+
(no description)


+--------+
|  TAGS  |
+--------+
angus dog pet chihuahua 