+--------------------------------------+
|   Flickr Photo Metadata              |
|   Created by Bulkr on Apr 09, 2016   |
|   http://clipyourphotos.com/bulkr    |
+--------------------------------------+

+--------+
|  INFO  |
+--------+
Photographer : MarkDoliner
Photo URL    : https://www.flickr.com/photos/markdoliner/14738823342/
License      : Creative Commons (http://creativecommons.org/licenses)
Taken Date   : Mon Jan 28 21:06:03 GMT+0100 2008
Upload Date  : Tue Jan 29 06:06:03 GMT+0100 2008
Views        : 626
Comments     : 0


+---------+
|  TITLE  |
+---------+
Toro


+---------------+
|  DESCRIPTION  |
+---------------+
(no description)


+--------+
|  TAGS  |
+--------+
Toro chihuahua black small dog 