+--------------------------------------+
|   Flickr Photo Metadata              |
|   Created by Bulkr on Apr 09, 2016   |
|   http://clipyourphotos.com/bulkr    |
+--------------------------------------+

+--------+
|  INFO  |
+--------+
Photographer : Bellafaye Garden
Photo URL    : https://www.flickr.com/photos/bellafaye8/16396313412/
License      : Creative Commons (http://creativecommons.org/licenses)
Taken Date   : Fri Jan 23 18:21:09 GMT+0100 2015
Upload Date  : Thu Jan 29 20:02:17 GMT+0100 2015
Views        : 311
Comments     : 0


+---------+
|  TITLE  |
+---------+
My Chloe Darling......


+---------------+
|  DESCRIPTION  |
+---------------+
My long-hair chihuahua Chloe Darling 😊✨✨


+--------+
|  TAGS  |
+--------+
dog chihuahua 