+--------------------------------------+
|   Flickr Photo Metadata              |
|   Created by Bulkr on Apr 09, 2016   |
|   http://clipyourphotos.com/bulkr    |
+--------------------------------------+

+--------+
|  INFO  |
+--------+
Photographer : Bellafaye Garden
Photo URL    : https://www.flickr.com/photos/bellafaye8/16386380146/
License      : Creative Commons (http://creativecommons.org/licenses)
Taken Date   : Fri Jan 30 18:50:54 GMT+0100 2015
Upload Date  : Sat Jan 31 20:57:40 GMT+0100 2015
Views        : 412
Comments     : 0


+---------+
|  TITLE  |
+---------+
Pretty Chloe Darling 😘💕✨✨


+---------------+
|  DESCRIPTION  |
+---------------+
My 9 year old long-hair chihuahua Chloe Darling......


+--------+
|  TAGS  |
+--------+
dog chihuahua 