+--------------------------------------+
|   Flickr Photo Metadata              |
|   Created by Bulkr on Apr 09, 2016   |
|   http://clipyourphotos.com/bulkr    |
+--------------------------------------+

+--------+
|  INFO  |
+--------+
Photographer : jdj150
Photo URL    : https://www.flickr.com/photos/jdan/3103093294/
License      : Creative Commons (http://creativecommons.org/licenses)
Taken Date   : Fri Dec 12 11:58:25 GMT+0100 2008
Upload Date  : Fri Dec 12 18:57:35 GMT+0100 2008
Geotag Info  : Latitude:35.759816, Longitude:-86.740450
Views        : 164
Comments     : 0


+---------+
|  TITLE  |
+---------+
20081212_0051


+---------------+
|  DESCRIPTION  |
+---------------+
(no description)


+--------+
|  TAGS  |
+--------+
dog chihuahua Kiwi 