+--------------------------------------+
|   Flickr Photo Metadata              |
|   Created by Bulkr on Apr 09, 2016   |
|   http://clipyourphotos.com/bulkr    |
+--------------------------------------+

+--------+
|  INFO  |
+--------+
Photographer : eliduke
Photo URL    : https://www.flickr.com/photos/elisfanclub/6971579415/
License      : Creative Commons (http://creativecommons.org/licenses)
Taken Date   : Mon Feb 27 18:38:16 GMT+0100 2012
Upload Date  : Tue Feb 28 03:38:16 GMT+0100 2012
Views        : 757
Comments     : 0


+---------+
|  TITLE  |
+---------+
Mexico: Hanging out in Mazatlan


+---------------+
|  DESCRIPTION  |
+---------------+
(no description)


+--------+
|  TAGS  |
+--------+
chihuahua dogs mazatlan mexico 