+--------------------------------------+
|   Flickr Photo Metadata              |
|   Created by Bulkr on Apr 09, 2016   |
|   http://clipyourphotos.com/bulkr    |
+--------------------------------------+

+--------+
|  INFO  |
+--------+
Photographer : Jose Antonio Tovar
Photo URL    : https://www.flickr.com/photos/toronjazul/2245222187/
License      : Creative Commons (http://creativecommons.org/licenses)
Taken Date   : Tue Feb 5 22:50:44 GMT+0100 2008
Upload Date  : Wed Feb 6 05:55:50 GMT+0100 2008
Views        : 6,896
Comments     : 12


+---------+
|  TITLE  |
+---------+
BENITO Y SOFI


+---------------+
|  DESCRIPTION  |
+---------------+
(no description)


+--------+
|  TAGS  |
+--------+
chihuahueños chihuahueño chihuahuas dogs perros pet mascotas 