+--------------------------------------+
|   Flickr Photo Metadata              |
|   Created by Bulkr on Apr 09, 2016   |
|   http://clipyourphotos.com/bulkr    |
+--------------------------------------+

+--------+
|  INFO  |
+--------+
Photographer : raybdbomb
Photo URL    : https://www.flickr.com/photos/raybdbomb/1784728139/
License      : Creative Commons (http://creativecommons.org/licenses)
Taken Date   : Wed Oct 24 19:15:01 GMT+0200 2007
Upload Date  : Sun Oct 28 07:00:01 GMT+0100 2007
Views        : 38
Comments     : 0


+---------+
|  TITLE  |
+---------+
IMG_0201


+---------------+
|  DESCRIPTION  |
+---------------+
(no description)


+--------+
|  TAGS  |
+--------+
gizmo chihuahua 