+--------------------------------------+
|   Flickr Photo Metadata              |
|   Created by Bulkr on Apr 09, 2016   |
|   http://clipyourphotos.com/bulkr    |
+--------------------------------------+

+--------+
|  INFO  |
+--------+
Photographer : Bellafaye Garden
Photo URL    : https://www.flickr.com/photos/bellafaye8/14734214943/
License      : Creative Commons (http://creativecommons.org/licenses)
Taken Date   : Tue Jun 24 17:25:41 GMT+0200 2014
Upload Date  : Tue Jul 22 06:18:52 GMT+0200 2014
Views        : 386
Comments     : 0


+---------+
|  TITLE  |
+---------+
Chloe Darling......


+---------------+
|  DESCRIPTION  |
+---------------+
(no description)


+--------+
|  TAGS  |
+--------+
chihuahua dog dogs "small dogs" 