+--------------------------------------+
|   Flickr Photo Metadata              |
|   Created by Bulkr on Apr 09, 2016   |
|   http://clipyourphotos.com/bulkr    |
+--------------------------------------+

+--------+
|  INFO  |
+--------+
Photographer : hile
Photo URL    : https://www.flickr.com/photos/hile/13955630392/
License      : Creative Commons (http://creativecommons.org/licenses)
Taken Date   : Sun Apr 20 18:35:34 GMT+0200 2014
Upload Date  : Mon Apr 21 21:02:16 GMT+0200 2014
Views        : 151
Comments     : 0


+---------+
|  TITLE  |
+---------+
WP_20140420_18_35_35_Pro.jpg


+---------------+
|  DESCRIPTION  |
+---------------+
(no description)


+--------+
|  TAGS  |
+--------+
"chihuahua dog honda" honda koira 