+--------------------------------------+
|   Flickr Photo Metadata              |
|   Created by Bulkr on Apr 09, 2016   |
|   http://clipyourphotos.com/bulkr    |
+--------------------------------------+

+--------+
|  INFO  |
+--------+
Photographer : wisley
Photo URL    : https://www.flickr.com/photos/wisley/5171108006/
License      : Creative Commons (http://creativecommons.org/licenses)
Taken Date   : Sat Sep 4 11:54:01 GMT+0200 2010
Upload Date  : Sat Nov 13 05:07:31 GMT+0100 2010
Views        : 73
Comments     : 0


+---------+
|  TITLE  |
+---------+
Chula in a living room


+---------------+
|  DESCRIPTION  |
+---------------+
(no description)


+--------+
|  TAGS  |
+--------+
Poodle Chihuahua 