+--------------------------------------+
|   Flickr Photo Metadata              |
|   Created by Bulkr on Apr 09, 2016   |
|   http://clipyourphotos.com/bulkr    |
+--------------------------------------+

+--------+
|  INFO  |
+--------+
Photographer : tv42
Photo URL    : https://www.flickr.com/photos/tv42/5651036191/
License      : Creative Commons (http://creativecommons.org/licenses)
Taken Date   : Sun Apr 24 15:06:56 GMT+0200 2011
Upload Date  : Mon Apr 25 01:35:45 GMT+0200 2011
Views        : 480
Comments     : 0


+---------+
|  TITLE  |
+---------+
Striped sun worship


+---------------+
|  DESCRIPTION  |
+---------------+
(no description)


+--------+
|  TAGS  |
+--------+
dog chihuahua sofa sun blinds 