+--------------------------------------+
|   Flickr Photo Metadata              |
|   Created by Bulkr on Apr 09, 2016   |
|   http://clipyourphotos.com/bulkr    |
+--------------------------------------+

+--------+
|  INFO  |
+--------+
Photographer : tv42
Photo URL    : https://www.flickr.com/photos/tv42/4282715893/
License      : Creative Commons (http://creativecommons.org/licenses)
Taken Date   : Fri Jan 1 14:52:31 GMT+0100 2010
Upload Date  : Mon Jan 18 01:03:54 GMT+0100 2010
Views        : 106
Comments     : 0


+---------+
|  TITLE  |
+---------+
Pico loves tummyrubs


+---------------+
|  DESCRIPTION  |
+---------------+
(no description)


+--------+
|  TAGS  |
+--------+
pico dog chihuahua 