+--------------------------------------+
|   Flickr Photo Metadata              |
|   Created by Bulkr on Apr 09, 2016   |
|   http://clipyourphotos.com/bulkr    |
+--------------------------------------+

+--------+
|  INFO  |
+--------+
Photographer : tv42
Photo URL    : https://www.flickr.com/photos/tv42/4780799477/
License      : Creative Commons (http://creativecommons.org/licenses)
Taken Date   : Sun Jul 4 10:20:36 GMT+0200 2010
Upload Date  : Sun Jul 11 01:23:38 GMT+0200 2010
Views        : 523
Comments     : 0


+---------+
|  TITLE  |
+---------+
Ashamed


+---------------+
|  DESCRIPTION  |
+---------------+
She knows she's not supposed to be climbing on the armrest.


+--------+
|  TAGS  |
+--------+
dog chihuahua 