+--------------------------------------+
|   Flickr Photo Metadata              |
|   Created by Bulkr on Apr 09, 2016   |
|   http://clipyourphotos.com/bulkr    |
+--------------------------------------+

+--------+
|  INFO  |
+--------+
Photographer : nakhon100
Photo URL    : https://www.flickr.com/photos/8058098@N07/8915603191/
License      : Creative Commons (http://creativecommons.org/licenses)
Taken Date   : Tue May 28 15:18:48 GMT+0200 2013
Upload Date  : Sat Jun 1 21:56:45 GMT+0200 2013
Views        : 202
Comments     : 0


+---------+
|  TITLE  |
+---------+
Mimmi


+---------------+
|  DESCRIPTION  |
+---------------+
(no description)


+--------+
|  TAGS  |
+--------+
chihuahua dog dogs animal gothenburg 