+--------------------------------------+
|   Flickr Photo Metadata              |
|   Created by Bulkr on Apr 09, 2016   |
|   http://clipyourphotos.com/bulkr    |
+--------------------------------------+

+--------+
|  INFO  |
+--------+
Photographer : Nieve44/Luz
Photo URL    : https://www.flickr.com/photos/nieve44/3091351771/
License      : Creative Commons (http://creativecommons.org/licenses)
Taken Date   : Sun Dec 7 11:12:33 GMT+0100 2008
Upload Date  : Mon Dec 8 07:38:48 GMT+0100 2008
Views        : 348
Comments     : 2


+---------+
|  TITLE  |
+---------+
Do you hear what I hear?!


+---------------+
|  DESCRIPTION  |
+---------------+
Awaken because he heard his treats cannister being opened!  His eyes are a little freaky but I wanted to get a photo of him dressed up in his fleece hoodie.


+--------+
|  TAGS  |
+--------+
chi chihuahua pet dog chulo 