+--------------------------------------+
|   Flickr Photo Metadata              |
|   Created by Bulkr on Apr 09, 2016   |
|   http://clipyourphotos.com/bulkr    |
+--------------------------------------+

+--------+
|  INFO  |
+--------+
Photographer : e.mcclay
Photo URL    : https://www.flickr.com/photos/emcclay/4850814459/
License      : Creative Commons (http://creativecommons.org/licenses)
Taken Date   : Thu Jul 29 19:30:04 GMT+0200 2010
Upload Date  : Mon Aug 2 01:40:12 GMT+0200 2010
Views        : 350
Comments     : 0


+---------+
|  TITLE  |
+---------+
Maggie


+---------------+
|  DESCRIPTION  |
+---------------+
(no description)


+--------+
|  TAGS  |
+--------+
dog chihuahua "tennis ball" 