+--------------------------------------+
|   Flickr Photo Metadata              |
|   Created by Bulkr on Apr 09, 2016   |
|   http://clipyourphotos.com/bulkr    |
+--------------------------------------+

+--------+
|  INFO  |
+--------+
Photographer : pauljoelhancock
Photo URL    : https://www.flickr.com/photos/hanoihancock/4164473504/
License      : Creative Commons (http://creativecommons.org/licenses)
Taken Date   : Sat Dec 5 17:00:09 GMT+0100 2009
Upload Date  : Sun Dec 6 23:30:49 GMT+0100 2009
Views        : 16
Comments     : 0


+---------+
|  TITLE  |
+---------+
IMG_0667 Jerry


+---------------+
|  DESCRIPTION  |
+---------------+
Jerry chihuahua


+--------+
|  TAGS  |
+--------+
Jerry chihuahua 