+--------------------------------------+
|   Flickr Photo Metadata              |
|   Created by Bulkr on Apr 09, 2016   |
|   http://clipyourphotos.com/bulkr    |
+--------------------------------------+

+--------+
|  INFO  |
+--------+
Photographer : Civixen
Photo URL    : https://www.flickr.com/photos/civixen/1446863950/
License      : Creative Commons (http://creativecommons.org/licenses)
Taken Date   : Mon Jan 15 13:58:00 GMT+0100 2007
Upload Date  : Thu Sep 27 09:44:51 GMT+0200 2007
Views        : 217
Comments     : 0


+---------+
|  TITLE  |
+---------+
Seriously?


+---------------+
|  DESCRIPTION  |
+---------------+
(no description)


+--------+
|  TAGS  |
+--------+
Chihuahua puppies 