+--------------------------------------+
|   Flickr Photo Metadata              |
|   Created by Bulkr on Apr 09, 2016   |
|   http://clipyourphotos.com/bulkr    |
+--------------------------------------+

+--------+
|  INFO  |
+--------+
Photographer : gabofr
Photo URL    : https://www.flickr.com/photos/gabofr/3916231071/
License      : Creative Commons (http://creativecommons.org/licenses)
Taken Date   : Sun Sep 13 11:56:45 GMT+0200 2009
Upload Date  : Sun Sep 13 21:57:11 GMT+0200 2009
Views        : 241
Comments     : 3


+---------+
|  TITLE  |
+---------+
Chetos, Mortadella y Amígdala


+---------------+
|  DESCRIPTION  |
+---------------+
(no description)


+--------+
|  TAGS  |
+--------+
dogs pets pug chihuahua 