+--------------------------------------+
|   Flickr Photo Metadata              |
|   Created by Bulkr on Apr 09, 2016   |
|   http://clipyourphotos.com/bulkr    |
+--------------------------------------+

+--------+
|  INFO  |
+--------+
Photographer : raybdbomb
Photo URL    : https://www.flickr.com/photos/raybdbomb/2138014050/
License      : Creative Commons (http://creativecommons.org/licenses)
Taken Date   : Wed Dec 26 00:14:07 GMT+0100 2007
Upload Date  : Wed Dec 26 10:49:20 GMT+0100 2007
Views        : 41
Comments     : 0


+---------+
|  TITLE  |
+---------+
IMG_0580


+---------------+
|  DESCRIPTION  |
+---------------+
(no description)


+--------+
|  TAGS  |
+--------+
christmas 2007 home dogs chihuahua 