+--------------------------------------+
|   Flickr Photo Metadata              |
|   Created by Bulkr on Apr 09, 2016   |
|   http://clipyourphotos.com/bulkr    |
+--------------------------------------+

+--------+
|  INFO  |
+--------+
Photographer : Christina Spicuzza
Photo URL    : https://www.flickr.com/photos/spicuzza/4726000801/
License      : Creative Commons (http://creativecommons.org/licenses)
Taken Date   : Sat Jun 5 15:38:16 GMT+0200 2010
Upload Date  : Wed Jun 23 06:09:20 GMT+0200 2010
Geotag Info  : Latitude:34.147683, Longitude:-119.151835
Views        : 218
Comments     : 0


+---------+
|  TITLE  |
+---------+
IMG_5123


+---------------+
|  DESCRIPTION  |
+---------------+
(no description)


+--------+
|  TAGS  |
+--------+
dog car window chihuahua terrier 