+--------------------------------------+
|   Flickr Photo Metadata              |
|   Created by Bulkr on Apr 09, 2016   |
|   http://clipyourphotos.com/bulkr    |
+--------------------------------------+

+--------+
|  INFO  |
+--------+
Photographer : feverblue
Photo URL    : https://www.flickr.com/photos/feverblue/16369670970/
License      : Creative Commons (http://creativecommons.org/licenses)
Taken Date   : Sun Feb 15 18:08:22 GMT+0100 2015
Upload Date  : Tue Feb 17 07:00:27 GMT+0100 2015
Views        : 634
Comments     : 0


+---------+
|  TITLE  |
+---------+
Cookie Puss


+---------------+
|  DESCRIPTION  |
+---------------+
(no description)


+--------+
|  TAGS  |
+--------+
chihuahua close-up dogs 