+--------------------------------------+
|   Flickr Photo Metadata              |
|   Created by Bulkr on Apr 09, 2016   |
|   http://clipyourphotos.com/bulkr    |
+--------------------------------------+

+--------+
|  INFO  |
+--------+
Photographer : MarkDoliner
Photo URL    : https://www.flickr.com/photos/markdoliner/4089313994/
License      : Creative Commons (http://creativecommons.org/licenses)
Taken Date   : Sat Nov 7 15:00:25 GMT+0100 2009
Upload Date  : Mon Nov 9 10:51:06 GMT+0100 2009
Views        : 93
Comments     : 0


+---------+
|  TITLE  |
+---------+
Toro Posing


+---------------+
|  DESCRIPTION  |
+---------------+
(no description)


+--------+
|  TAGS  |
+--------+
Toro Chihuahua 