+--------------------------------------+
|   Flickr Photo Metadata              |
|   Created by Bulkr on Apr 09, 2016   |
|   http://clipyourphotos.com/bulkr    |
+--------------------------------------+

+--------+
|  INFO  |
+--------+
Photographer : tv42
Photo URL    : https://www.flickr.com/photos/tv42/5797497861/
License      : Creative Commons (http://creativecommons.org/licenses)
Taken Date   : Sat Jun 4 14:58:33 GMT+0200 2011
Upload Date  : Sun Jun 5 00:02:33 GMT+0200 2011
Views        : 473
Comments     : 0


+---------+
|  TITLE  |
+---------+
Objects in mirror are cuter than they appear


+---------------+
|  DESCRIPTION  |
+---------------+
(no description)


+--------+
|  TAGS  |
+--------+
dog chihuahua car mirror 