+--------------------------------------+
|   Flickr Photo Metadata              |
|   Created by Bulkr on Apr 09, 2016   |
|   http://clipyourphotos.com/bulkr    |
+--------------------------------------+

+--------+
|  INFO  |
+--------+
Photographer : Macro-roni
Photo URL    : https://www.flickr.com/photos/fallkniven/9276948475/
License      : Creative Commons (http://creativecommons.org/licenses)
Taken Date   : Fri Jul 12 16:53:58 GMT+0200 2013
Upload Date  : Sat Jul 13 22:52:33 GMT+0200 2013
Views        : 365
Comments     : 0


+---------+
|  TITLE  |
+---------+
Will Smile For Treats


+---------------+
|  DESCRIPTION  |
+---------------+
Tiny lickin' her chops in anticipation...


+--------+
|  TAGS  |
+--------+
chihuahua dogs 