+--------------------------------------+
|   Flickr Photo Metadata              |
|   Created by Bulkr on Apr 09, 2016   |
|   http://clipyourphotos.com/bulkr    |
+--------------------------------------+

+--------+
|  INFO  |
+--------+
Photographer : raybdbomb
Photo URL    : https://www.flickr.com/photos/raybdbomb/1544543885/
License      : Creative Commons (http://creativecommons.org/licenses)
Taken Date   : Mon Jan 15 23:37:01 GMT+0100 2007
Upload Date  : Thu Oct 11 22:12:05 GMT+0200 2007
Views        : 27
Comments     : 0


+---------+
|  TITLE  |
+---------+
IMG_3623


+---------------+
|  DESCRIPTION  |
+---------------+
(no description)


+--------+
|  TAGS  |
+--------+
daisy gizmo chihuahua 