+--------------------------------------+
|   Flickr Photo Metadata              |
|   Created by Bulkr on Apr 09, 2016   |
|   http://clipyourphotos.com/bulkr    |
+--------------------------------------+

+--------+
|  INFO  |
+--------+
Photographer : sassypackratstudios
Photo URL    : https://www.flickr.com/photos/sassypackratstudios/5223788387/
License      : Creative Commons (http://creativecommons.org/licenses)
Taken Date   : Sun Sep 9 12:31:55 GMT+0200 2007
Upload Date  : Wed Dec 1 19:16:45 GMT+0100 2010
Views        : 187
Comments     : 5


+---------+
|  TITLE  |
+---------+
Lita


+---------------+
|  DESCRIPTION  |
+---------------+
sleeping in my carry around project box!


+--------+
|  TAGS  |
+--------+
chihuahua 