+--------------------------------------+
|   Flickr Photo Metadata              |
|   Created by Bulkr on Apr 09, 2016   |
|   http://clipyourphotos.com/bulkr    |
+--------------------------------------+

+--------+
|  INFO  |
+--------+
Photographer : raybdbomb
Photo URL    : https://www.flickr.com/photos/raybdbomb/1544367459/
License      : Creative Commons (http://creativecommons.org/licenses)
Taken Date   : Tue May 22 04:09:47 GMT+0200 2007
Upload Date  : Thu Oct 11 21:48:23 GMT+0200 2007
Views        : 21
Comments     : 0


+---------+
|  TITLE  |
+---------+
IMG_4612


+---------------+
|  DESCRIPTION  |
+---------------+
(no description)


+--------+
|  TAGS  |
+--------+
chihuahua daisy birthday dog 