+--------------------------------------+
|   Flickr Photo Metadata              |
|   Created by Bulkr on Apr 09, 2016   |
|   http://clipyourphotos.com/bulkr    |
+--------------------------------------+

+--------+
|  INFO  |
+--------+
Photographer : Sarah_Jones
Photo URL    : https://www.flickr.com/photos/sarahakabmg/4011214119/
License      : Creative Commons (http://creativecommons.org/licenses)
Taken Date   : Tue Oct 13 21:11:32 GMT+0200 2009
Upload Date  : Wed Oct 14 18:52:17 GMT+0200 2009
Views        : 1,078
Comments     : 0


+---------+
|  TITLE  |
+---------+
Spike portrait 1


+---------------+
|  DESCRIPTION  |
+---------------+
(no description)


+--------+
|  TAGS  |
+--------+
Spike Chihuahua puppy small "fawn coloring" 