+--------------------------------------+
|   Flickr Photo Metadata              |
|   Created by Bulkr on Apr 09, 2016   |
|   http://clipyourphotos.com/bulkr    |
+--------------------------------------+

+--------+
|  INFO  |
+--------+
Photographer : chuckberridge
Photo URL    : https://www.flickr.com/photos/chuckberridge/21617115780/
License      : Creative Commons (http://creativecommons.org/licenses)
Taken Date   : Tue Sep 29 00:54:11 GMT+0200 2015
Upload Date  : Tue Sep 29 09:54:17 GMT+0200 2015
Views        : 3
Comments     : 0


+---------+
|  TITLE  |
+---------+
20150929_005411


+---------------+
|  DESCRIPTION  |
+---------------+
(no description)


+--------+
|  TAGS  |
+--------+
chihuahua 