+--------------------------------------+
|   Flickr Photo Metadata              |
|   Created by Bulkr on Apr 09, 2016   |
|   http://clipyourphotos.com/bulkr    |
+--------------------------------------+

+--------+
|  INFO  |
+--------+
Photographer : pocketwiley
Photo URL    : https://www.flickr.com/photos/pocketwiley/2219361835/
License      : Creative Commons (http://creativecommons.org/licenses)
Taken Date   : Sat Dec 24 13:44:51 GMT+0100 2005
Upload Date  : Sat Jan 26 05:12:17 GMT+0100 2008
Views        : 211
Comments     : 8


+---------+
|  TITLE  |
+---------+
Sanford


+---------------+
|  DESCRIPTION  |
+---------------+
(no description)


+--------+
|  TAGS  |
+--------+
dog animal pet chihuahua 