+--------------------------------------+
|   Flickr Photo Metadata              |
|   Created by Bulkr on Apr 09, 2016   |
|   http://clipyourphotos.com/bulkr    |
+--------------------------------------+

+--------+
|  INFO  |
+--------+
Photographer : Sew Ripped
Photo URL    : https://www.flickr.com/photos/31737193@N05/5629867655/
License      : Creative Commons (http://creativecommons.org/licenses)
Taken Date   : Sat Jul 1 18:24:13 GMT+0200 2006
Upload Date  : Mon Apr 18 07:23:50 GMT+0200 2011
Views        : 1,270
Comments     : 0


+---------+
|  TITLE  |
+---------+
chihuahua puppy S5031076


+---------------+
|  DESCRIPTION  |
+---------------+
Samsung digimax a503


+--------+
|  TAGS  |
+--------+
puppy "chihuahua puppy" 