+--------------------------------------+
|   Flickr Photo Metadata              |
|   Created by Bulkr on Apr 09, 2016   |
|   http://clipyourphotos.com/bulkr    |
+--------------------------------------+

+--------+
|  INFO  |
+--------+
Photographer : themerkin
Photo URL    : https://www.flickr.com/photos/themerkin/47911469/
License      : Creative Commons (http://creativecommons.org/licenses)
Taken Date   : Thu Jul 28 14:24:47 GMT+0200 2005
Upload Date  : Fri Sep 30 06:28:44 GMT+0200 2005
Views        : 63
Comments     : 0


+---------+
|  TITLE  |
+---------+
Nerrrr


+---------------+
|  DESCRIPTION  |
+---------------+
(no description)


+--------+
|  TAGS  |
+--------+
chihuahua 