+--------------------------------------+
|   Flickr Photo Metadata              |
|   Created by Bulkr on Apr 09, 2016   |
|   http://clipyourphotos.com/bulkr    |
+--------------------------------------+

+--------+
|  INFO  |
+--------+
Photographer : dfell81
Photo URL    : https://www.flickr.com/photos/dfell81/3120743605/
License      : Creative Commons (http://creativecommons.org/licenses)
Taken Date   : Fri Dec 19 15:49:03 GMT+0100 2008
Upload Date  : Fri Dec 19 23:49:03 GMT+0100 2008
Views        : 54
Comments     : 0


+---------+
|  TITLE  |
+---------+
Chocco


+---------------+
|  DESCRIPTION  |
+---------------+
R.I.P.


+--------+
|  TAGS  |
+--------+
chocolate chihuahua dog 