+--------------------------------------+
|   Flickr Photo Metadata              |
|   Created by Bulkr on Apr 09, 2016   |
|   http://clipyourphotos.com/bulkr    |
+--------------------------------------+

+--------+
|  INFO  |
+--------+
Photographer : raybdbomb
Photo URL    : https://www.flickr.com/photos/raybdbomb/2196881340/
License      : Creative Commons (http://creativecommons.org/licenses)
Taken Date   : Mon Jan 14 15:28:33 GMT+0100 2008
Upload Date  : Wed Jan 16 05:25:22 GMT+0100 2008
Views        : 24
Comments     : 0


+---------+
|  TITLE  |
+---------+
IMG_0788


+---------------+
|  DESCRIPTION  |
+---------------+
(no description)


+--------+
|  TAGS  |
+--------+
gizmo chihuahua 