+--------------------------------------+
|   Flickr Photo Metadata              |
|   Created by Bulkr on Apr 22, 2016   |
|   http://clipyourphotos.com/bulkr    |
+--------------------------------------+

+--------+
|  INFO  |
+--------+
Photographer : wbrentprice
Photo URL    : https://www.flickr.com/photos/wbrentprice/22408208743/
License      : Creative Commons (http://creativecommons.org/licenses)
Taken Date   : Wed Apr 6 15:08:25 GMT+0200 2011
Upload Date  : Sun Nov 15 08:57:59 GMT+0100 2015
Views        : 20
Comments     : 0


+---------+
|  TITLE  |
+---------+
IMG_3930.jpg


+---------------+
|  DESCRIPTION  |
+---------------+
(no description)


+--------+
|  TAGS  |
+--------+
(no tags)