+--------------------------------------+
|   Flickr Photo Metadata              |
|   Created by Bulkr on Apr 22, 2016   |
|   http://clipyourphotos.com/bulkr    |
+--------------------------------------+

+--------+
|  INFO  |
+--------+
Photographer : bm.iphone
Photo URL    : https://www.flickr.com/photos/bmiphone/6001415592/
License      : Creative Commons (http://creativecommons.org/licenses)
Taken Date   : Thu May 17 10:57:04 GMT+0200 2007
Upload Date  : Tue Aug 2 10:53:16 GMT+0200 2011
Views        : 242
Comments     : 0


+---------+
|  TITLE  |
+---------+
wild animals


+---------------+
|  DESCRIPTION  |
+---------------+
(no description)


+--------+
|  TAGS  |
+--------+
(no tags)