+--------------------------------------+
|   Flickr Photo Metadata              |
|   Created by Bulkr on Apr 22, 2016   |
|   http://clipyourphotos.com/bulkr    |
+--------------------------------------+

+--------+
|  INFO  |
+--------+
Photographer : frau schnatterliese
Photo URL    : https://www.flickr.com/photos/frauschnatterliese/8464780312/
License      : Creative Commons (http://creativecommons.org/licenses)
Taken Date   : Sun Jun 17 16:10:22 GMT+0200 2007
Upload Date  : Mon Feb 11 10:40:33 GMT+0100 2013
Views        : 188
Comments     : 0


+---------+
|  TITLE  |
+---------+
Knut


+---------------+
|  DESCRIPTION  |
+---------------+
Scharmöhr!


+--------+
|  TAGS  |
+--------+
(no tags)