+--------------------------------------+
|   Flickr Photo Metadata              |
|   Created by Bulkr on Apr 22, 2016   |
|   http://clipyourphotos.com/bulkr    |
+--------------------------------------+

+--------+
|  INFO  |
+--------+
Photographer : inmapg
Photo URL    : https://www.flickr.com/photos/89719053@N03/8181444540/
License      : Creative Commons (http://creativecommons.org/licenses)
Taken Date   : Mon Nov 12 23:23:11 GMT+0100 2012
Upload Date  : Tue Nov 13 08:25:03 GMT+0100 2012
Views        : 14
Comments     : 0


+---------+
|  TITLE  |
+---------+
skdc


+---------------+
|  DESCRIPTION  |
+---------------+
(no description)


+--------+
|  TAGS  |
+--------+
(no tags)