+--------------------------------------+
|   Flickr Photo Metadata              |
|   Created by Bulkr on Apr 22, 2016   |
|   http://clipyourphotos.com/bulkr    |
+--------------------------------------+

+--------+
|  INFO  |
+--------+
Photographer : DebMomOf3
Photo URL    : https://www.flickr.com/photos/debmomof3/9652717674/
License      : Creative Commons (http://creativecommons.org/licenses)
Taken Date   : Sat Aug 31 12:48:14 GMT+0200 2013
Upload Date  : Mon Sep 2 07:12:14 GMT+0200 2013
Views        : 259
Comments     : 0


+---------+
|  TITLE  |
+---------+
ToledoZoo-Aug2013 (12)


+---------------+
|  DESCRIPTION  |
+---------------+
(no description)


+--------+
|  TAGS  |
+--------+
outside zoo Ohio 2013 Toledo "Toledo Zoo" "polar bears" 