+--------------------------------------+
|   Flickr Photo Metadata              |
|   Created by Bulkr on Apr 22, 2016   |
|   http://clipyourphotos.com/bulkr    |
+--------------------------------------+

+--------+
|  INFO  |
+--------+
Photographer : mark.watmough
Photo URL    : https://www.flickr.com/photos/markwatmough/5623335886/
License      : Creative Commons (http://creativecommons.org/licenses)
Taken Date   : Fri Apr 15 15:38:10 GMT+0200 2011
Upload Date  : Sat Apr 16 02:41:17 GMT+0200 2011
Views        : 298
Comments     : 0


+---------+
|  TITLE  |
+---------+
Polar bear


+---------------+
|  DESCRIPTION  |
+---------------+
(no description)


+--------+
|  TAGS  |
+--------+
(no tags)