+--------------------------------------+
|   Flickr Photo Metadata              |
|   Created by Bulkr on Apr 22, 2016   |
|   http://clipyourphotos.com/bulkr    |
+--------------------------------------+

+--------+
|  INFO  |
+--------+
Photographer : t-miki
Photo URL    : https://www.flickr.com/photos/8305862@N07/14656764953/
License      : Creative Commons (http://creativecommons.org/licenses)
Taken Date   : Fri Jul 11 14:45:47 GMT+0200 2014
Upload Date  : Sat Jul 12 20:14:35 GMT+0200 2014
Views        : 1,133
Comments     : 1


+---------+
|  TITLE  |
+---------+
untitled


+---------------+
|  DESCRIPTION  |
+---------------+
SONY DSC-RX100

上野動物園
東京都台東区上野公園


+--------+
|  TAGS  |
+--------+
SONY RX100 Zoo Ueno tokyo 上野 東京 