+--------------------------------------+
|   Flickr Photo Metadata              |
|   Created by Bulkr on Apr 22, 2016   |
|   http://clipyourphotos.com/bulkr    |
+--------------------------------------+

+--------+
|  INFO  |
+--------+
Photographer : Jamo2005
Photo URL    : https://www.flickr.com/photos/jamo2005/2316895695/
License      : Creative Commons (http://creativecommons.org/licenses)
Taken Date   : Fri Feb 15 23:38:20 GMT+0100 2008
Upload Date  : Sat Mar 8 00:56:21 GMT+0100 2008
Views        : 726
Comments     : 0


+---------+
|  TITLE  |
+---------+
Polar Bear


+---------------+
|  DESCRIPTION  |
+---------------+
(no description)


+--------+
|  TAGS  |
+--------+
Oregon ZooPolar Bear 