+--------------------------------------+
|   Flickr Photo Metadata              |
|   Created by Bulkr on Apr 22, 2016   |
|   http://clipyourphotos.com/bulkr    |
+--------------------------------------+

+--------+
|  INFO  |
+--------+
Photographer : quaintdev
Photo URL    : https://www.flickr.com/photos/quainttest/3892660381/
License      : Creative Commons (http://creativecommons.org/licenses)
Taken Date   : Thu Apr 22 20:24:47 GMT+0200 2004
Upload Date  : Sun Sep 6 18:20:26 GMT+0200 2009
Views        : 52
Comments     : 0


+---------+
|  TITLE  |
+---------+
Polar%20Challenge%20-%20polar%20bear%20too%20close%20for%20comfort


+---------------+
|  DESCRIPTION  |
+---------------+
(no description)


+--------+
|  TAGS  |
+--------+
(no tags)