+--------------------------------------+
|   Flickr Photo Metadata              |
|   Created by Bulkr on Apr 22, 2016   |
|   http://clipyourphotos.com/bulkr    |
+--------------------------------------+

+--------+
|  INFO  |
+--------+
Photographer : sam_cook_jr
Photo URL    : https://www.flickr.com/photos/sam_cook_jr/2493002924/
License      : Creative Commons (http://creativecommons.org/licenses)
Taken Date   : Fri Apr 25 15:18:47 GMT+0200 2008
Upload Date  : Wed May 14 20:33:32 GMT+0200 2008
Views        : 772
Comments     : 0


+---------+
|  TITLE  |
+---------+
d20080425_g 245


+---------------+
|  DESCRIPTION  |
+---------------+
(no description)


+--------+
|  TAGS  |
+--------+
stuttgart germany deutschland wilhelma wilbär anton eisbär "polar bear" 