+--------------------------------------+
|   Flickr Photo Metadata              |
|   Created by Bulkr on Apr 22, 2016   |
|   http://clipyourphotos.com/bulkr    |
+--------------------------------------+

+--------+
|  INFO  |
+--------+
Photographer : Yvonne in Willowick Ohio
Photo URL    : https://www.flickr.com/photos/yvonne_n_1968/1391800076/
License      : Creative Commons (http://creativecommons.org/licenses)
Taken Date   : Sat Sep 15 10:58:44 GMT+0200 2007
Upload Date  : Sun Sep 16 14:00:45 GMT+0200 2007
Views        : 35
Comments     : 0


+---------+
|  TITLE  |
+---------+
100_5196


+---------------+
|  DESCRIPTION  |
+---------------+
(no description)


+--------+
|  TAGS  |
+--------+
"Cleveland Zoo" "Cleveland Zoo 125th BirthdayFall Season" 