+--------------------------------------+
|   Flickr Photo Metadata              |
|   Created by Bulkr on Apr 22, 2016   |
|   http://clipyourphotos.com/bulkr    |
+--------------------------------------+

+--------+
|  INFO  |
+--------+
Photographer : greggoconnell
Photo URL    : https://www.flickr.com/photos/greggoconnell/146913044/
License      : Creative Commons (http://creativecommons.org/licenses)
Taken Date   : Sun May 14 17:19:54 GMT+0200 2006
Upload Date  : Mon May 15 16:32:42 GMT+0200 2006
Views        : 415
Comments     : 0


+---------+
|  TITLE  |
+---------+
Coke: Polar Bear


+---------------+
|  DESCRIPTION  |
+---------------+
I want to pat him don't you?!


+--------+
|  TAGS  |
+--------+
"san diego" california "san diego zoo" 2006 animals "polar bear" 