+--------------------------------------+
|   Flickr Photo Metadata              |
|   Created by Bulkr on Apr 22, 2016   |
|   http://clipyourphotos.com/bulkr    |
+--------------------------------------+

+--------+
|  INFO  |
+--------+
Photographer : kawataso
Photo URL    : https://www.flickr.com/photos/kawataso/3272018670/
License      : Creative Commons (http://creativecommons.org/licenses)
Taken Date   : Wed Feb 11 15:20:20 GMT+0100 2009
Upload Date  : Wed Feb 11 14:10:21 GMT+0100 2009
Views        : 31
Comments     : 0


+---------+
|  TITLE  |
+---------+
DSC_0901


+---------------+
|  DESCRIPTION  |
+---------------+
(no description)


+--------+
|  TAGS  |
+--------+
kawataso snap zoo 