+--------------------------------------+
|   Flickr Photo Metadata              |
|   Created by Bulkr on Apr 22, 2016   |
|   http://clipyourphotos.com/bulkr    |
+--------------------------------------+

+--------+
|  INFO  |
+--------+
Photographer : ThroughKiksLens
Photo URL    : https://www.flickr.com/photos/throughkikslens/6999003124/
License      : Creative Commons (http://creativecommons.org/licenses)
Taken Date   : Mon Sep 12 12:23:30 GMT+0200 2011
Upload Date  : Sat May 5 16:47:05 GMT+0200 2012
Views        : 53
Comments     : 0


+---------+
|  TITLE  |
+---------+
IMG_0902


+---------------+
|  DESCRIPTION  |
+---------------+
(no description)


+--------+
|  TAGS  |
+--------+
(no tags)