+--------------------------------------+
|   Flickr Photo Metadata              |
|   Created by Bulkr on Apr 22, 2016   |
|   http://clipyourphotos.com/bulkr    |
+--------------------------------------+

+--------+
|  INFO  |
+--------+
Photographer : cumulius
Photo URL    : https://www.flickr.com/photos/cumulius/14618881144/
License      : Creative Commons (http://creativecommons.org/licenses)
Taken Date   : Thu Jul 10 15:40:33 GMT+0200 2014
Upload Date  : Thu Jul 10 18:18:25 GMT+0200 2014
Views        : 111
Comments     : 0


+---------+
|  TITLE  |
+---------+
_MG_9067.jpg


+---------------+
|  DESCRIPTION  |
+---------------+
(no description)


+--------+
|  TAGS  |
+--------+
ZOO CPHZOO eos40D 