+--------------------------------------+
|   Flickr Photo Metadata              |
|   Created by Bulkr on Apr 22, 2016   |
|   http://clipyourphotos.com/bulkr    |
+--------------------------------------+

+--------+
|  INFO  |
+--------+
Photographer : Ozont
Photo URL    : https://www.flickr.com/photos/ozontw/6816627185/
License      : Creative Commons (http://creativecommons.org/licenses)
Taken Date   : Mon May 23 08:24:10 GMT+0200 2011
Upload Date  : Sat Feb 4 14:06:00 GMT+0100 2012
Views        : 37
Comments     : 0


+---------+
|  TITLE  |
+---------+
IMG_3589


+---------------+
|  DESCRIPTION  |
+---------------+
(no description)


+--------+
|  TAGS  |
+--------+
"iPhoto Original" 