+--------------------------------------+
|   Flickr Photo Metadata              |
|   Created by Bulkr on Apr 22, 2016   |
|   http://clipyourphotos.com/bulkr    |
+--------------------------------------+

+--------+
|  INFO  |
+--------+
Photographer : dconlon
Photo URL    : https://www.flickr.com/photos/dconlon/1346307011/
License      : Creative Commons (http://creativecommons.org/licenses)
Taken Date   : Sat Aug 18 08:51:35 GMT+0200 2007
Upload Date  : Sat Sep 8 17:13:33 GMT+0200 2007
Views        : 18
Comments     : 0


+---------+
|  TITLE  |
+---------+
IMG_1404.JPG


+---------------+
|  DESCRIPTION  |
+---------------+
(no description)


+--------+
|  TAGS  |
+--------+
(no tags)