+--------------------------------------+
|   Flickr Photo Metadata              |
|   Created by Bulkr on Mar 07, 2016   |
|   http://clipyourphotos.com/bulkr    |
+--------------------------------------+

+--------+
|  INFO  |
+--------+
Photographer : amy_elizabeth_west
Photo URL    : https://www.flickr.com/photos/amy_elizabeth_west/8017870919/
License      : Creative Commons (http://creativecommons.org/licenses)
Taken Date   : Sun Sep 23 14:09:20 GMT+0200 2012
Upload Date  : Mon Sep 24 03:09:57 GMT+0200 2012
Views        : 123
Comments     : 1


+---------+
|  TITLE  |
+---------+
Spider Monkey We Think


+---------------+
|  DESCRIPTION  |
+---------------+
(no description)


+--------+
|  TAGS  |
+--------+
Arenal 