+--------------------------------------+
|   Flickr Photo Metadata              |
|   Created by Bulkr on Mar 07, 2016   |
|   http://clipyourphotos.com/bulkr    |
+--------------------------------------+

+--------+
|  INFO  |
+--------+
Photographer : colink.
Photo URL    : https://www.flickr.com/photos/colink/1573777845/
License      : Creative Commons (http://creativecommons.org/licenses)
Taken Date   : Sun Oct 7 17:21:16 GMT+0200 2007
Upload Date  : Mon Oct 15 06:56:37 GMT+0200 2007
Views        : 115
Comments     : 0


+---------+
|  TITLE  |
+---------+
zoo07-72


+---------------+
|  DESCRIPTION  |
+---------------+
(no description)


+--------+
|  TAGS  |
+--------+
"Toronto Zoo" "Spider Monkey" 