+--------------------------------------+
|   Flickr Photo Metadata              |
|   Created by Bulkr on Apr 13, 2016   |
|   http://clipyourphotos.com/bulkr    |
+--------------------------------------+

+--------+
|  INFO  |
+--------+
Photographer : offwhitehouse
Photo URL    : https://www.flickr.com/photos/10844205@N00/5719144685/
License      : Creative Commons (http://creativecommons.org/licenses)
Taken Date   : Fri May 13 12:13:51 GMT+0200 2011
Upload Date  : Sat May 14 20:43:11 GMT+0200 2011
Views        : 207
Comments     : 0


+---------+
|  TITLE  |
+---------+
Otter


+---------------+
|  DESCRIPTION  |
+---------------+
(no description)


+--------+
|  TAGS  |
+--------+
(no tags)