+--------------------------------------+
|   Flickr Photo Metadata              |
|   Created by Bulkr on Apr 13, 2016   |
|   http://clipyourphotos.com/bulkr    |
+--------------------------------------+

+--------+
|  INFO  |
+--------+
Photographer : julz91
Photo URL    : https://www.flickr.com/photos/julz91/4001425728/
License      : Creative Commons (http://creativecommons.org/licenses)
Taken Date   : Sat Aug 22 13:50:42 GMT+0200 2009
Upload Date  : Sun Oct 11 17:14:19 GMT+0200 2009
Views        : 5
Comments     : 0


+---------+
|  TITLE  |
+---------+
Otters


+---------------+
|  DESCRIPTION  |
+---------------+
(no description)


+--------+
|  TAGS  |
+--------+
(no tags)