+--------------------------------------+
|   Flickr Photo Metadata              |
|   Created by Bulkr on Apr 13, 2016   |
|   http://clipyourphotos.com/bulkr    |
+--------------------------------------+

+--------+
|  INFO  |
+--------+
Photographer : minicooper93402
Photo URL    : https://www.flickr.com/photos/minicooper93402/4612261556/
License      : Creative Commons (http://creativecommons.org/licenses)
Taken Date   : Sat May 15 10:24:54 GMT+0200 2010
Upload Date  : Sun May 16 18:17:00 GMT+0200 2010
Views        : 111
Comments     : 0


+---------+
|  TITLE  |
+---------+
otters in morro bay resting on kelp2


+---------------+
|  DESCRIPTION  |
+---------------+
(no description)


+--------+
|  TAGS  |
+--------+
Raw 