+--------------------------------------+
|   Flickr Photo Metadata              |
|   Created by Bulkr on Apr 13, 2016   |
|   http://clipyourphotos.com/bulkr    |
+--------------------------------------+

+--------+
|  INFO  |
+--------+
Photographer : garyullah
Photo URL    : https://www.flickr.com/photos/garyullah/8839085072/
License      : Creative Commons (http://creativecommons.org/licenses)
Taken Date   : Fri Sep 25 14:57:52 GMT+0200 2009
Upload Date  : Sun May 26 11:17:24 GMT+0200 2013
Views        : 62
Comments     : 0


+---------+
|  TITLE  |
+---------+
Otters


+---------------+
|  DESCRIPTION  |
+---------------+
(no description)


+--------+
|  TAGS  |
+--------+
Otters wildlife group 