+--------------------------------------+
|   Flickr Photo Metadata              |
|   Created by Bulkr on Apr 13, 2016   |
|   http://clipyourphotos.com/bulkr    |
+--------------------------------------+

+--------+
|  INFO  |
+--------+
Photographer : nyaa_birdies_perch
Photo URL    : https://www.flickr.com/photos/birdies-perch/5110479671/
License      : Creative Commons (http://creativecommons.org/licenses)
Taken Date   : Sun Jul 18 22:00:13 GMT+0200 2010
Upload Date  : Sun Oct 24 18:08:33 GMT+0200 2010
Views        : 29
Comments     : 0


+---------+
|  TITLE  |
+---------+
otter


+---------------+
|  DESCRIPTION  |
+---------------+
@london zoo


+--------+
|  TAGS  |
+--------+
(no tags)