+--------------------------------------+
|   Flickr Photo Metadata              |
|   Created by Bulkr on Apr 13, 2016   |
|   http://clipyourphotos.com/bulkr    |
+--------------------------------------+

+--------+
|  INFO  |
+--------+
Photographer : Scarygami
Photo URL    : https://www.flickr.com/photos/scarygami/5741303665/
License      : Creative Commons (http://creativecommons.org/licenses)
Taken Date   : Sun May 8 15:58:30 GMT+0200 2011
Upload Date  : Sat May 21 04:44:10 GMT+0200 2011
Views        : 169
Comments     : 0


+---------+
|  TITLE  |
+---------+
Oriental Small-clawed Otter


+---------------+
|  DESCRIPTION  |
+---------------+
So cute...


+--------+
|  TAGS  |
+--------+
otter zwergotter 