+--------------------------------------+
|   Flickr Photo Metadata              |
|   Created by Bulkr on Apr 13, 2016   |
|   http://clipyourphotos.com/bulkr    |
+--------------------------------------+

+--------+
|  INFO  |
+--------+
Photographer : xinem
Photo URL    : https://www.flickr.com/photos/christinestephens/13202782403/
License      : Creative Commons (http://creativecommons.org/licenses)
Taken Date   : Sun Mar 16 17:52:14 GMT+0100 2014
Upload Date  : Sun Mar 16 22:52:14 GMT+0100 2014
Views        : 36
Comments     : 0


+---------+
|  TITLE  |
+---------+
otter


+---------------+
|  DESCRIPTION  |
+---------------+
(no description)


+--------+
|  TAGS  |
+--------+
"instagram app" square "square format" iphoneography uploaded:by=instagram Valencia 