+--------------------------------------+
|   Flickr Photo Metadata              |
|   Created by Bulkr on Apr 13, 2016   |
|   http://clipyourphotos.com/bulkr    |
+--------------------------------------+

+--------+
|  INFO  |
+--------+
Photographer : elliterati
Photo URL    : https://www.flickr.com/photos/literati/4506584539/
License      : Creative Commons (http://creativecommons.org/licenses)
Taken Date   : Sun Mar 21 14:01:31 GMT+0100 2010
Upload Date  : Sat Apr 10 07:13:38 GMT+0200 2010
Views        : 14
Comments     : 0


+---------+
|  TITLE  |
+---------+
otters


+---------------+
|  DESCRIPTION  |
+---------------+
(no description)


+--------+
|  TAGS  |
+--------+
(no tags)