+--------------------------------------+
|   Flickr Photo Metadata              |
|   Created by Bulkr on Apr 13, 2016   |
|   http://clipyourphotos.com/bulkr    |
+--------------------------------------+

+--------+
|  INFO  |
+--------+
Photographer : Fimb
Photo URL    : https://www.flickr.com/photos/fimbrethil/48066397/
License      : Creative Commons (http://creativecommons.org/licenses)
Taken Date   : Fri Sep 2 15:46:51 GMT+0200 2005
Upload Date  : Fri Sep 30 21:32:22 GMT+0200 2005
Views        : 9
Comments     : 0


+---------+
|  TITLE  |
+---------+
otters


+---------------+
|  DESCRIPTION  |
+---------------+
(no description)


+--------+
|  TAGS  |
+--------+
(no tags)