+--------------------------------------+
|   Flickr Photo Metadata              |
|   Created by Bulkr on Apr 13, 2016   |
|   http://clipyourphotos.com/bulkr    |
+--------------------------------------+

+--------+
|  INFO  |
+--------+
Photographer : Matthewjs007
Photo URL    : https://www.flickr.com/photos/mattz27/8675008683/
License      : Creative Commons (http://creativecommons.org/licenses)
Taken Date   : Sat Mar 23 13:23:34 GMT+0100 2013
Upload Date  : Tue Apr 23 20:04:04 GMT+0200 2013
Views        : 83
Comments     : 0


+---------+
|  TITLE  |
+---------+
otter


+---------------+
|  DESCRIPTION  |
+---------------+
(no description)


+--------+
|  TAGS  |
+--------+
Cecilia Seattle aquarium caroline "pike place" 