+--------------------------------------+
|   Flickr Photo Metadata              |
|   Created by Bulkr on Apr 13, 2016   |
|   http://clipyourphotos.com/bulkr    |
+--------------------------------------+

+--------+
|  INFO  |
+--------+
Photographer : kaiyen
Photo URL    : https://www.flickr.com/photos/kaiyen/1350617475/
License      : Creative Commons (http://creativecommons.org/licenses)
Taken Date   : Sat Sep 8 14:44:50 GMT+0200 2007
Upload Date  : Sun Sep 9 18:31:27 GMT+0200 2007
Views        : 71
Comments     : 0


+---------+
|  TITLE  |
+---------+
20070908-_DSC0182


+---------------+
|  DESCRIPTION  |
+---------------+
(no description)


+--------+
|  TAGS  |
+--------+
nikon d50 Monterey "Monterey Bay Aquarium" Otters 