+--------------------------------------+
|   Flickr Photo Metadata              |
|   Created by Bulkr on Apr 13, 2016   |
|   http://clipyourphotos.com/bulkr    |
+--------------------------------------+

+--------+
|  INFO  |
+--------+
Photographer : Chris Parker2012
Photo URL    : https://www.flickr.com/photos/chrisparker2012/8560481652/
License      : Creative Commons (http://creativecommons.org/licenses)
Taken Date   : Thu Mar 14 16:17:05 GMT+0100 2013
Upload Date  : Fri Mar 15 20:34:08 GMT+0100 2013
Views        : 182
Comments     : 0


+---------+
|  TITLE  |
+---------+
Good set of teeth


+---------------+
|  DESCRIPTION  |
+---------------+
(no description)


+--------+
|  TAGS  |
+--------+
"British wildlife centre" wildlife Surrey nature "Fuji HS20" Otter 