+--------------------------------------+
|   Flickr Photo Metadata              |
|   Created by Bulkr on Apr 13, 2016   |
|   http://clipyourphotos.com/bulkr    |
+--------------------------------------+

+--------+
|  INFO  |
+--------+
Photographer : (: Rebecca-louise :)
Photo URL    : https://www.flickr.com/photos/50066720@N03/4863734993/
License      : Creative Commons (http://creativecommons.org/licenses)
Taken Date   : Wed Aug 4 12:08:47 GMT+0200 2010
Upload Date  : Thu Aug 5 23:04:06 GMT+0200 2010
Views        : 52
Comments     : 0


+---------+
|  TITLE  |
+---------+
otter


+---------------+
|  DESCRIPTION  |
+---------------+
after dinner


+--------+
|  TAGS  |
+--------+
New forest horses butterfly otter deer wildwildlife 