+--------------------------------------+
|   Flickr Photo Metadata              |
|   Created by Bulkr on Apr 13, 2016   |
|   http://clipyourphotos.com/bulkr    |
+--------------------------------------+

+--------+
|  INFO  |
+--------+
Photographer : flamesworddragon
Photo URL    : https://www.flickr.com/photos/flamesworddragon/5843203290/
License      : Creative Commons (http://creativecommons.org/licenses)
Taken Date   : Sun May 29 14:33:49 GMT+0200 2011
Upload Date  : Fri Jun 17 20:35:06 GMT+0200 2011
Views        : 9
Comments     : 0


+---------+
|  TITLE  |
+---------+
Otter


+---------------+
|  DESCRIPTION  |
+---------------+
(no description)


+--------+
|  TAGS  |
+--------+
(no tags)