+--------------------------------------+
|   Flickr Photo Metadata              |
|   Created by Bulkr on Apr 13, 2016   |
|   http://clipyourphotos.com/bulkr    |
+--------------------------------------+

+--------+
|  INFO  |
+--------+
Photographer : no prawns
Photo URL    : https://www.flickr.com/photos/noprawns/489612241/
License      : Creative Commons (http://creativecommons.org/licenses)
Taken Date   : Sat Apr 21 23:46:17 GMT+0200 2007
Upload Date  : Tue May 8 10:21:15 GMT+0200 2007
Views        : 40
Comments     : 0


+---------+
|  TITLE  |
+---------+
Paradise Wildlife Park


+---------------+
|  DESCRIPTION  |
+---------------+
Otters


+--------+
|  TAGS  |
+--------+
otters zoo 