+--------------------------------------+
|   Flickr Photo Metadata              |
|   Created by Bulkr on Oct 09, 2016   |
|   http://clipyourphotos.com/bulkr    |
+--------------------------------------+

+--------+
|  INFO  |
+--------+
Photographer : rentmam1
Photo URL    : https://www.flickr.com/photos/rentmam1/26091150982/
License      : Creative Commons (http://creativecommons.org/licenses)
Taken Date   : Thu Mar 31 11:59:52 GMT+0200 2016
Upload Date  : Sat Apr 2 10:00:25 GMT+0200 2016
Views        : 444
Comments     : 8


+---------+
|  TITLE  |
+---------+
FRISCHLINGSMAMA BACHE


+---------------+
|  DESCRIPTION  |
+---------------+
Es ist für die Mamas gar nicht so leicht alle, ca. 10 zwei Mamas, im Blick zu behalten. Herrlich


+--------+
|  TAGS  |
+--------+
WILDPARK PFORZHEIM WILDSCHWEINE SCHWEIN PORC 