+--------------------------------------+
|   Flickr Photo Metadata              |
|   Created by Bulkr on Oct 09, 2016   |
|   http://clipyourphotos.com/bulkr    |
+--------------------------------------+

+--------+
|  INFO  |
+--------+
Photographer : fishermansdaughter
Photo URL    : https://www.flickr.com/photos/fishermansdaughter/4946456661/
License      : Creative Commons (http://creativecommons.org/licenses)
Taken Date   : Sat Aug 28 23:42:26 GMT+0200 2010
Upload Date  : Wed Sep 1 03:05:09 GMT+0200 2010
Views        : 2,483
Comments     : 0


+---------+
|  TITLE  |
+---------+
june pig, hanging out by the kitchen


+---------------+
|  DESCRIPTION  |
+---------------+
I think she has cob on her nose


+--------+
|  TAGS  |
+--------+
(no tags)