+--------------------------------------+
|   Flickr Photo Metadata              |
|   Created by Bulkr on Oct 09, 2016   |
|   http://clipyourphotos.com/bulkr    |
+--------------------------------------+

+--------+
|  INFO  |
+--------+
Photographer : Muffet
Photo URL    : https://www.flickr.com/photos/calliope/25239705/
License      : Creative Commons (http://creativecommons.org/licenses)
Taken Date   : Thu Jan 15 00:11:10 GMT+0100 2093
Upload Date  : Mon Jul 11 20:23:18 GMT+0200 2005
Views        : 3,313
Comments     : 1


+---------+
|  TITLE  |
+---------+
boar


+---------------+
|  DESCRIPTION  |
+---------------+
(no description)


+--------+
|  TAGS  |
+--------+
farm pig boar 