+--------------------------------------+
|   Flickr Photo Metadata              |
|   Created by Bulkr on Oct 09, 2016   |
|   http://clipyourphotos.com/bulkr    |
+--------------------------------------+

+--------+
|  INFO  |
+--------+
Photographer : Daniela Martinez 2007 - 2008 - 2009
Photo URL    : https://www.flickr.com/photos/self-portrait/3870674893/
License      : Creative Commons (http://creativecommons.org/licenses)
Taken Date   : Wed Jul 25 10:37:52 GMT+0200 2007
Upload Date  : Sun Aug 30 19:12:01 GMT+0200 2009
Views        : 513
Comments     : 19


+---------+
|  TITLE  |
+---------+
Buin zoo!


+---------------+
|  DESCRIPTION  |
+---------------+
Los chanchitos son amigos no comida :B


+--------+
|  TAGS  |
+--------+
"Buin zoo" Chancho Pig 