+--------------------------------------+
|   Flickr Photo Metadata              |
|   Created by Bulkr on Oct 09, 2016   |
|   http://clipyourphotos.com/bulkr    |
+--------------------------------------+

+--------+
|  INFO  |
+--------+
Photographer : die varga
Photo URL    : https://www.flickr.com/photos/74339172@N04/7039625107/
License      : Creative Commons (http://creativecommons.org/licenses)
Taken Date   : Sun Jan 29 17:53:53 GMT+0100 2012
Upload Date  : Mon Apr 2 21:19:55 GMT+0200 2012
Views        : 381
Comments     : 0


+---------+
|  TITLE  |
+---------+
schweineoehrchen


+---------------+
|  DESCRIPTION  |
+---------------+
(no description)


+--------+
|  TAGS  |
+--------+
animal tier schwein ohr pig 