+--------------------------------------+
|   Flickr Photo Metadata              |
|   Created by Bulkr on Oct 09, 2016   |
|   http://clipyourphotos.com/bulkr    |
+--------------------------------------+

+--------+
|  INFO  |
+--------+
Photographer : robpatrick
Photo URL    : https://www.flickr.com/photos/alkalinezoo/4922733/
License      : Creative Commons (http://creativecommons.org/licenses)
Taken Date   : Mon May 31 06:43:26 GMT+0200 2004
Upload Date  : Wed Feb 16 23:37:47 GMT+0100 2005
Views        : 988
Comments     : 5


+---------+
|  TITLE  |
+---------+
pigs


+---------------+
|  DESCRIPTION  |
+---------------+
(no description)


+--------+
|  TAGS  |
+--------+
pigs 