+--------------------------------------+
|   Flickr Photo Metadata              |
|   Created by Bulkr on Oct 09, 2016   |
|   http://clipyourphotos.com/bulkr    |
+--------------------------------------+

+--------+
|  INFO  |
+--------+
Photographer : robert shell
Photo URL    : https://www.flickr.com/photos/rjshell/14911975768/
License      : Creative Commons (http://creativecommons.org/licenses)
Taken Date   : Sun Aug 31 14:46:08 GMT+0200 2014
Upload Date  : Sun Aug 31 23:34:29 GMT+0200 2014
Views        : 19
Comments     : 0


+---------+
|  TITLE  |
+---------+
RSC_8222


+---------------+
|  DESCRIPTION  |
+---------------+
(no description)


+--------+
|  TAGS  |
+--------+
pigs 