+--------------------------------------+
|   Flickr Photo Metadata              |
|   Created by Bulkr on Oct 09, 2016   |
|   http://clipyourphotos.com/bulkr    |
+--------------------------------------+

+--------+
|  INFO  |
+--------+
Photographer : Dylan
Photo URL    : https://www.flickr.com/photos/dylan-snow/5074422588/
License      : Creative Commons (http://creativecommons.org/licenses)
Taken Date   : Tue Oct 12 00:44:32 GMT+0200 2010
Upload Date  : Tue Oct 12 06:44:32 GMT+0200 2010
Views        : 299
Comments     : 0


+---------+
|  TITLE  |
+---------+
Pig Momma


+---------------+
|  DESCRIPTION  |
+---------------+
I went to Cherry Hill Farms and did a self tour. It was interesting. Very nice people.


+--------+
|  TAGS  |
+--------+
pig farm nj new jersy pork cute 