+--------------------------------------+
|   Flickr Photo Metadata              |
|   Created by Bulkr on Oct 09, 2016   |
|   http://clipyourphotos.com/bulkr    |
+--------------------------------------+

+--------+
|  INFO  |
+--------+
Photographer : luagh45
Photo URL    : https://www.flickr.com/photos/luagh45/6342969213/
License      : Creative Commons (http://creativecommons.org/licenses)
Taken Date   : Mon Nov 14 00:36:57 GMT+0100 2011
Upload Date  : Mon Nov 14 09:36:57 GMT+0100 2011
Views        : 38
Comments     : 0


+---------+
|  TITLE  |
+---------+
slide0075_image007


+---------------+
|  DESCRIPTION  |
+---------------+
(no description)


+--------+
|  TAGS  |
+--------+
luagh45 pig pigs 