+--------------------------------------+
|   Flickr Photo Metadata              |
|   Created by Bulkr on Oct 09, 2016   |
|   http://clipyourphotos.com/bulkr    |
+--------------------------------------+

+--------+
|  INFO  |
+--------+
Photographer : JZjr
Photo URL    : https://www.flickr.com/photos/killercyberman400/2327505698/
License      : Creative Commons (http://creativecommons.org/licenses)
Taken Date   : Tue Mar 4 16:52:06 GMT+0100 2008
Upload Date  : Tue Mar 11 20:37:52 GMT+0100 2008
Geotag Info  : Latitude:51.376220, Longitude:-2.396993
Views        : 732
Comments     : 0


+---------+
|  TITLE  |
+---------+
Pigs


+---------------+
|  DESCRIPTION  |
+---------------+
(no description)


+--------+
|  TAGS  |
+--------+
pigs bath city farm 