+--------------------------------------+
|   Flickr Photo Metadata              |
|   Created by Bulkr on Oct 09, 2016   |
|   http://clipyourphotos.com/bulkr    |
+--------------------------------------+

+--------+
|  INFO  |
+--------+
Photographer : jennaproudfoot
Photo URL    : https://www.flickr.com/photos/jfoot3/5053021136/
License      : Creative Commons (http://creativecommons.org/licenses)
Taken Date   : Fri Oct 1 13:30:36 GMT+0200 2010
Upload Date  : Tue Oct 5 03:10:18 GMT+0200 2010
Views        : 21
Comments     : 0


+---------+
|  TITLE  |
+---------+
IMG_2214


+---------------+
|  DESCRIPTION  |
+---------------+
(no description)


+--------+
|  TAGS  |
+--------+
Pigs 