+--------------------------------------+
|   Flickr Photo Metadata              |
|   Created by Bulkr on Oct 09, 2016   |
|   http://clipyourphotos.com/bulkr    |
+--------------------------------------+

+--------+
|  INFO  |
+--------+
Photographer : microbaffo
Photo URL    : https://www.flickr.com/photos/microbaffo/4489526743/
License      : Creative Commons (http://creativecommons.org/licenses)
Taken Date   : Sun Apr 4 16:06:13 GMT+0200 2010
Upload Date  : Sun Apr 4 18:00:05 GMT+0200 2010
Views        : 1,092
Comments     : 0


+---------+
|  TITLE  |
+---------+
Claudia with the black pig : DSC_0078-cut


+---------------+
|  DESCRIPTION  |
+---------------+
Claudia scratches sow Mirela's back  (half pig, half boar they tell us).


+--------+
|  TAGS  |
+--------+
girl pig scratch livestock black hairy 