+--------------------------------------+
|   Flickr Photo Metadata              |
|   Created by Bulkr on Oct 09, 2016   |
|   http://clipyourphotos.com/bulkr    |
+--------------------------------------+

+--------+
|  INFO  |
+--------+
Photographer : Veebl
Photo URL    : https://www.flickr.com/photos/veebl/3244820988/
License      : Creative Commons (http://creativecommons.org/licenses)
Taken Date   : Sat Apr 12 17:18:33 GMT+0200 2008
Upload Date  : Sun Feb 1 18:17:02 GMT+0100 2009
Views        : 48
Comments     : 0


+---------+
|  TITLE  |
+---------+
CPatchApril08-39


+---------------+
|  DESCRIPTION  |
+---------------+
(no description)


+--------+
|  TAGS  |
+--------+
"Cabage Patch" Gosberton Pigs 