+--------------------------------------+
|   Flickr Photo Metadata              |
|   Created by Bulkr on Oct 09, 2016   |
|   http://clipyourphotos.com/bulkr    |
+--------------------------------------+

+--------+
|  INFO  |
+--------+
Photographer : Ben124.
Photo URL    : https://www.flickr.com/photos/ben124/5618114641/
License      : Creative Commons (http://creativecommons.org/licenses)
Taken Date   : Sun Mar 14 12:57:11 GMT+0100 2010
Upload Date  : Thu Apr 14 09:37:13 GMT+0200 2011
Views        : 9,700
Comments     : 16


+---------+
|  TITLE  |
+---------+
Pig


+---------------+
|  DESCRIPTION  |
+---------------+
(no description)


+--------+
|  TAGS  |
+--------+
pig animal 