+--------------------------------------+
|   Flickr Photo Metadata              |
|   Created by Bulkr on Oct 09, 2016   |
|   http://clipyourphotos.com/bulkr    |
+--------------------------------------+

+--------+
|  INFO  |
+--------+
Photographer : paldavsav
Photo URL    : https://www.flickr.com/photos/paldavsav/6280820675/
License      : Creative Commons (http://creativecommons.org/licenses)
Taken Date   : Fri Oct 7 05:29:33 GMT+0200 2011
Upload Date  : Tue Oct 25 23:07:28 GMT+0200 2011
Views        : 17
Comments     : 0


+---------+
|  TITLE  |
+---------+
pig


+---------------+
|  DESCRIPTION  |
+---------------+
(no description)


+--------+
|  TAGS  |
+--------+
(no tags)