+--------------------------------------+
|   Flickr Photo Metadata              |
|   Created by Bulkr on Oct 09, 2016   |
|   http://clipyourphotos.com/bulkr    |
+--------------------------------------+

+--------+
|  INFO  |
+--------+
Photographer : Judy **
Photo URL    : https://www.flickr.com/photos/judy-van-der-velden/7124757825/
License      : Creative Commons (http://creativecommons.org/licenses)
Taken Date   : Sun Apr 29 15:00:29 GMT+0200 2012
Upload Date  : Sun Apr 29 17:32:04 GMT+0200 2012
Views        : 1,316
Comments     : 2


+---------+
|  TITLE  |
+---------+
piglet


+---------------+
|  DESCRIPTION  |
+---------------+
(no description)


+--------+
|  TAGS  |
+--------+
2012 pig varken piglet big 