+--------------------------------------+
|   Flickr Photo Metadata              |
|   Created by Bulkr on Oct 09, 2016   |
|   http://clipyourphotos.com/bulkr    |
+--------------------------------------+

+--------+
|  INFO  |
+--------+
Photographer : Neighbors Opposed to Backyard Slaughter
Photo URL    : https://www.flickr.com/photos/noslaughter/6374368755/
License      : Creative Commons (http://creativecommons.org/licenses)
Taken Date   : Sun Nov 20 20:31:16 GMT+0100 2011
Upload Date  : Mon Nov 21 05:31:16 GMT+0100 2011
Views        : 749
Comments     : 0


+---------+
|  TITLE  |
+---------+
Pigs opposed to backyard slaughter.


+---------------+
|  DESCRIPTION  |
+---------------+
To add your animal or person photo to this set, with custom Neighbors Opposed to Backyard Slaughter logo and caption <a href="http://noslaughter.org/contact" rel="nofollow">email us your photograph</a>.


+--------+
|  TAGS  |
+--------+
pig pigs "neighbors opposed to backyard slaughter" cute animals animal farm "animal sanctuary" 