+--------------------------------------+
|   Flickr Photo Metadata              |
|   Created by Bulkr on Oct 09, 2016   |
|   http://clipyourphotos.com/bulkr    |
+--------------------------------------+

+--------+
|  INFO  |
+--------+
Photographer : Elsie esq.
Photo URL    : https://www.flickr.com/photos/elsie/3701921/
License      : Creative Commons (http://creativecommons.org/licenses)
Taken Date   : Sat Jun 8 01:23:30 GMT+0200 2002
Upload Date  : Sun Jan 23 18:09:13 GMT+0100 2005
Views        : 15,407
Comments     : 3


+---------+
|  TITLE  |
+---------+
Pigging it.


+---------------+
|  DESCRIPTION  |
+---------------+
Pigs taking it easy.


+--------+
|  TAGS  |
+--------+
porker pig farm animal sun mud 