+--------------------------------------+
|   Flickr Photo Metadata              |
|   Created by Bulkr on Oct 09, 2016   |
|   http://clipyourphotos.com/bulkr    |
+--------------------------------------+

+--------+
|  INFO  |
+--------+
Photographer : Just chaos
Photo URL    : https://www.flickr.com/photos/7326810@N08/1235496756/
License      : Creative Commons (http://creativecommons.org/licenses)
Taken Date   : Fri Aug 24 11:10:39 GMT+0200 2007
Upload Date  : Sun Aug 26 01:37:08 GMT+0200 2007
Views        : 548
Comments     : 0


+---------+
|  TITLE  |
+---------+
Piglett - Calexpo 07


+---------------+
|  DESCRIPTION  |
+---------------+
(no description)


+--------+
|  TAGS  |
+--------+
Calexpo07 Animalia Chordata Mammalia Artiodactyla Suidae Sus pig swine farm 