+--------------------------------------+
|   Flickr Photo Metadata              |
|   Created by Bulkr on Oct 09, 2016   |
|   http://clipyourphotos.com/bulkr    |
+--------------------------------------+

+--------+
|  INFO  |
+--------+
Photographer : Judy **
Photo URL    : https://www.flickr.com/photos/judy-van-der-velden/9281099423/
License      : Creative Commons (http://creativecommons.org/licenses)
Taken Date   : Thu Jul 11 16:09:49 GMT+0200 2013
Upload Date  : Sun Jul 14 12:53:56 GMT+0200 2013
Views        : 938
Comments     : 4


+---------+
|  TITLE  |
+---------+
two


+---------------+
|  DESCRIPTION  |
+---------------+
For 100 Pictures, #18: friendship
For MSH0713, #17: youth


+--------+
|  TAGS  |
+--------+
2013 "'t Geertje" Zoeterwoude pig varken big biggetje piglet "100 Pictures" msh0713 msh0713-17 