+--------------------------------------+
|   Flickr Photo Metadata              |
|   Created by Bulkr on Oct 09, 2016   |
|   http://clipyourphotos.com/bulkr    |
+--------------------------------------+

+--------+
|  INFO  |
+--------+
Photographer : cogdogblog
Photo URL    : https://www.flickr.com/photos/cogdog/15912938999/
License      : Creative Commons (http://creativecommons.org/licenses)
Taken Date   : Wed Dec 24 13:32:31 GMT+0100 2014
Upload Date  : Thu Dec 25 02:52:22 GMT+0100 2014
Views        : 1,037
Comments     : 2


+---------+
|  TITLE  |
+---------+
Pig Pets


+---------------+
|  DESCRIPTION  |
+---------------+
Vancouver and their odd pets.


+--------+
|  TAGS  |
+--------+
pig 