+--------------------------------------+
|   Flickr Photo Metadata              |
|   Created by Bulkr on Oct 09, 2016   |
|   http://clipyourphotos.com/bulkr    |
+--------------------------------------+

+--------+
|  INFO  |
+--------+
Photographer : mnorri
Photo URL    : https://www.flickr.com/photos/mnorri/3747686215/
License      : Creative Commons (http://creativecommons.org/licenses)
Taken Date   : Sun Jul 19 08:53:24 GMT+0200 2009
Upload Date  : Thu Jul 23 05:57:41 GMT+0200 2009
Views        : 17
Comments     : 0


+---------+
|  TITLE  |
+---------+
2009-07-19 089 a Mountian View Obon


+---------------+
|  DESCRIPTION  |
+---------------+
(no description)


+--------+
|  TAGS  |
+--------+
DeerHollowFarm RanchoSanAntonio Openspacepreserve OSP MROSD pig piglet porcine swine livestock 