+--------------------------------------+
|   Flickr Photo Metadata              |
|   Created by Bulkr on Oct 09, 2016   |
|   http://clipyourphotos.com/bulkr    |
+--------------------------------------+

+--------+
|  INFO  |
+--------+
Photographer : cloud_nine
Photo URL    : https://www.flickr.com/photos/cloud_nine/2250311638/
License      : Creative Commons (http://creativecommons.org/licenses)
Taken Date   : Sat Oct 20 16:11:49 GMT+0200 2007
Upload Date  : Mon Feb 8 08:28:53 GMT+0100 2010
Views        : 2,433
Comments     : 36


+---------+
|  TITLE  |
+---------+
give me a kiss, darling


+---------------+
|  DESCRIPTION  |
+---------------+
(no description)


+--------+
|  TAGS  |
+--------+
pig Schwein animals D80 c9 cloud_nine cloud9 500+views 