+--------------------------------------+
|   Flickr Photo Metadata              |
|   Created by Bulkr on Oct 09, 2016   |
|   http://clipyourphotos.com/bulkr    |
+--------------------------------------+

+--------+
|  INFO  |
+--------+
Photographer : BadgerGravling
Photo URL    : https://www.flickr.com/photos/badgergravling/8735292187/
License      : Creative Commons (http://creativecommons.org/licenses)
Taken Date   : Sun May 5 12:27:06 GMT+0200 2013
Upload Date  : Mon May 13 21:06:36 GMT+0200 2013
Views        : 252
Comments     : 0


+---------+
|  TITLE  |
+---------+
Pigs


+---------------+
|  DESCRIPTION  |
+---------------+
Pigs


+--------+
|  TAGS  |
+--------+
Pigs 