+--------------------------------------+
|   Flickr Photo Metadata              |
|   Created by Bulkr on Oct 09, 2016   |
|   http://clipyourphotos.com/bulkr    |
+--------------------------------------+

+--------+
|  INFO  |
+--------+
Photographer : Bazar del Bizzarro
Photo URL    : https://www.flickr.com/photos/bazardelbizzarro/8038877579/
License      : Creative Commons (http://creativecommons.org/licenses)
Taken Date   : Sun Jan 24 15:45:06 GMT+0100 2010
Upload Date  : Sun Sep 30 13:51:10 GMT+0200 2012
Views        : 7,206
Comments     : 0


+---------+
|  TITLE  |
+---------+
pig#maiale#07817


+---------------+
|  DESCRIPTION  |
+---------------+
una scrofa che sembra abbastanza felice, ignara della sua futura reincarnazione in sotto forma di salsicce e salami.
prof. Bizzarro
<a href="http://www.bazardelbizzarro.net" rel="nofollow">www.bazardelbizzarro.net</a>


+--------+
|  TAGS  |
+--------+
pig maiale 