+--------------------------------------+
|   Flickr Photo Metadata              |
|   Created by Bulkr on Oct 09, 2016   |
|   http://clipyourphotos.com/bulkr    |
+--------------------------------------+

+--------+
|  INFO  |
+--------+
Photographer : Digital Magic Photography
Photo URL    : https://www.flickr.com/photos/digitalmagicphotos/4338937814/
License      : Creative Commons (http://creativecommons.org/licenses)
Taken Date   : Thu May 1 12:02:33 GMT+0200 2008
Upload Date  : Sun Feb 7 22:47:18 GMT+0100 2010
Views        : 24
Comments     : 0


+---------+
|  TITLE  |
+---------+
5-1-2008 (169)


+---------------+
|  DESCRIPTION  |
+---------------+
(no description)


+--------+
|  TAGS  |
+--------+
"z  Iowa State" "Anamosa IA." Pigs 