+--------------------------------------+
|   Flickr Photo Metadata              |
|   Created by Bulkr on Oct 09, 2016   |
|   http://clipyourphotos.com/bulkr    |
+--------------------------------------+

+--------+
|  INFO  |
+--------+
Photographer : Cowgirl Jules
Photo URL    : https://www.flickr.com/photos/cowgirljules/6913047600/
License      : Creative Commons (http://creativecommons.org/licenses)
Taken Date   : Sun Apr 8 19:48:57 GMT+0200 2012
Upload Date  : Mon Apr 9 04:40:34 GMT+0200 2012
Views        : 54
Comments     : 0


+---------+
|  TITLE  |
+---------+
Livestock 088


+---------------+
|  DESCRIPTION  |
+---------------+
(no description)


+--------+
|  TAGS  |
+--------+
pigs 