+--------------------------------------+
|   Flickr Photo Metadata              |
|   Created by Bulkr on Oct 09, 2016   |
|   http://clipyourphotos.com/bulkr    |
+--------------------------------------+

+--------+
|  INFO  |
+--------+
Photographer : velacreations
Photo URL    : https://www.flickr.com/photos/velacreations/9656238215/
License      : Creative Commons (http://creativecommons.org/licenses)
Taken Date   : Mon Sep 2 14:46:10 GMT+0200 2013
Upload Date  : Mon Sep 2 23:46:10 GMT+0200 2013
Views        : 8,749
Comments     : 0


+---------+
|  TITLE  |
+---------+
SANY5724


+---------------+
|  DESCRIPTION  |
+---------------+
(no description)


+--------+
|  TAGS  |
+--------+
pigs food "food web" barn 2013 