+--------------------------------------+
|   Flickr Photo Metadata              |
|   Created by Bulkr on Oct 09, 2016   |
|   http://clipyourphotos.com/bulkr    |
+--------------------------------------+

+--------+
|  INFO  |
+--------+
Photographer : purplerabbits
Photo URL    : https://www.flickr.com/photos/purplerabbits/3748106821/
License      : Creative Commons (http://creativecommons.org/licenses)
Taken Date   : Tue Jul 21 11:53:41 GMT+0200 2009
Upload Date  : Thu Jul 23 09:44:45 GMT+0200 2009
Views        : 11
Comments     : 0


+---------+
|  TITLE  |
+---------+
Pigs


+---------------+
|  DESCRIPTION  |
+---------------+
(no description)


+--------+
|  TAGS  |
+--------+
(no tags)