+--------------------------------------+
|   Flickr Photo Metadata              |
|   Created by Bulkr on Oct 09, 2016   |
|   http://clipyourphotos.com/bulkr    |
+--------------------------------------+

+--------+
|  INFO  |
+--------+
Photographer : LeJyBy
Photo URL    : https://www.flickr.com/photos/lejyby/3608504654/
License      : Creative Commons (http://creativecommons.org/licenses)
Taken Date   : Sat Jun 6 17:07:23 GMT+0200 2009
Upload Date  : Mon Jun 8 21:20:24 GMT+0200 2009
Views        : 23
Comments     : 0


+---------+
|  TITLE  |
+---------+
Cochon de Santa Rosa


+---------------+
|  DESCRIPTION  |
+---------------+
(no description)


+--------+
|  TAGS  |
+--------+
pig 