+--------------------------------------+
|   Flickr Photo Metadata              |
|   Created by Bulkr on Oct 09, 2016   |
|   http://clipyourphotos.com/bulkr    |
+--------------------------------------+

+--------+
|  INFO  |
+--------+
Photographer : thundered cat
Photo URL    : https://www.flickr.com/photos/thunderedcat/400650951/
License      : Creative Commons (http://creativecommons.org/licenses)
Taken Date   : Sat Feb 24 20:51:29 GMT+0100 2007
Upload Date  : Sat Feb 24 13:59:05 GMT+0100 2007
Views        : 358
Comments     : 3


+---------+
|  TITLE  |
+---------+
pigs and pat


+---------------+
|  DESCRIPTION  |
+---------------+
my friend, pat, likes to talk about the world's smelliest durian tower.


+--------+
|  TAGS  |
+--------+
reading pigs 