+--------------------------------------+
|   Flickr Photo Metadata              |
|   Created by Bulkr on Apr 13, 2016   |
|   http://clipyourphotos.com/bulkr    |
+--------------------------------------+

+--------+
|  INFO  |
+--------+
Photographer : Sarah_Jones
Photo URL    : https://www.flickr.com/photos/sarahakabmg/4790889117/
License      : Creative Commons (http://creativecommons.org/licenses)
Taken Date   : Tue Jul 13 03:15:02 GMT+0200 2010
Upload Date  : Tue Jul 13 23:17:17 GMT+0200 2010
Views        : 389
Comments     : 0


+---------+
|  TITLE  |
+---------+
Sleepy 2


+---------------+
|  DESCRIPTION  |
+---------------+
(no description)


+--------+
|  TAGS  |
+--------+
Rats 