+--------------------------------------+
|   Flickr Photo Metadata              |
|   Created by Bulkr on Apr 13, 2016   |
|   http://clipyourphotos.com/bulkr    |
+--------------------------------------+

+--------+
|  INFO  |
+--------+
Photographer : KatiePanda
Photo URL    : https://www.flickr.com/photos/katie_panda/12276314484/
License      : Creative Commons (http://creativecommons.org/licenses)
Taken Date   : Sun Feb 2 19:48:20 GMT+0100 2014
Upload Date  : Sun Feb 2 22:19:30 GMT+0100 2014
Views        : 52
Comments     : 0


+---------+
|  TITLE  |
+---------+
Blossom


+---------------+
|  DESCRIPTION  |
+---------------+
(no description)


+--------+
|  TAGS  |
+--------+
rat pet animal cute 