+--------------------------------------+
|   Flickr Photo Metadata              |
|   Created by Bulkr on Apr 13, 2016   |
|   http://clipyourphotos.com/bulkr    |
+--------------------------------------+

+--------+
|  INFO  |
+--------+
Photographer : mattymatt
Photo URL    : https://www.flickr.com/photos/mattymatt/5355180077/
License      : Creative Commons (http://creativecommons.org/licenses)
Taken Date   : Thu Jan 13 16:19:35 GMT+0100 2011
Upload Date  : Sat Jan 15 00:03:49 GMT+0100 2011
Views        : 886
Comments     : 1


+---------+
|  TITLE  |
+---------+
When they're cute, they're very very cute


+---------------+
|  DESCRIPTION  |
+---------------+
(no description)


+--------+
|  TAGS  |
+--------+
rats 