+--------------------------------------+
|   Flickr Photo Metadata              |
|   Created by Bulkr on Apr 13, 2016   |
|   http://clipyourphotos.com/bulkr    |
+--------------------------------------+

+--------+
|  INFO  |
+--------+
Photographer : liftarn
Photo URL    : https://www.flickr.com/photos/liftarn/8882410046/
License      : Creative Commons (http://creativecommons.org/licenses)
Taken Date   : Wed May 29 18:50:00 GMT+0200 2013
Upload Date  : Wed May 29 21:44:24 GMT+0200 2013
Views        : 550
Comments     : 0


+---------+
|  TITLE  |
+---------+
Rats


+---------------+
|  DESCRIPTION  |
+---------------+
(no description)


+--------+
|  TAGS  |
+--------+
rat rats 