+--------------------------------------+
|   Flickr Photo Metadata              |
|   Created by Bulkr on Apr 13, 2016   |
|   http://clipyourphotos.com/bulkr    |
+--------------------------------------+

+--------+
|  INFO  |
+--------+
Photographer : madaise
Photo URL    : https://www.flickr.com/photos/madaise/2256211257/
License      : Creative Commons (http://creativecommons.org/licenses)
Taken Date   : Sun Feb 10 09:20:57 GMT+0100 2008
Upload Date  : Mon Feb 11 04:18:52 GMT+0100 2008
Views        : 136
Comments     : 0


+---------+
|  TITLE  |
+---------+
Momma Rat Otis


+---------------+
|  DESCRIPTION  |
+---------------+
(no description)


+--------+
|  TAGS  |
+--------+
"pet rat" Otis 