+--------------------------------------+
|   Flickr Photo Metadata              |
|   Created by Bulkr on Apr 13, 2016   |
|   http://clipyourphotos.com/bulkr    |
+--------------------------------------+

+--------+
|  INFO  |
+--------+
Photographer : orsorama
Photo URL    : https://www.flickr.com/photos/orsorama/7962939900/
License      : Creative Commons (http://creativecommons.org/licenses)
Taken Date   : Sat Sep 8 09:40:02 GMT+0200 2012
Upload Date  : Sun Sep 9 17:02:27 GMT+0200 2012
Views        : 535
Comments     : 0


+---------+
|  TITLE  |
+---------+
Dead


+---------------+
|  DESCRIPTION  |
+---------------+
È morto. Poverino.


+--------+
|  TAGS  |
+--------+
dead morto topo mouse rat 