+--------------------------------------+
|   Flickr Photo Metadata              |
|   Created by Bulkr on Apr 13, 2016   |
|   http://clipyourphotos.com/bulkr    |
+--------------------------------------+

+--------+
|  INFO  |
+--------+
Photographer : Dawn Huczek
Photo URL    : https://www.flickr.com/photos/31064702@N05/4386334680/
License      : Creative Commons (http://creativecommons.org/licenses)
Taken Date   : Wed Feb 24 11:11:36 GMT+0100 2010
Upload Date  : Mon Jan 25 02:01:45 GMT+0100 2010
Views        : 284
Comments     : 0


+---------+
|  TITLE  |
+---------+
I love the tiny hands


+---------------+
|  DESCRIPTION  |
+---------------+
(no description)


+--------+
|  TAGS  |
+--------+
rat "pet rat" albertina 