+--------------------------------------+
|   Flickr Photo Metadata              |
|   Created by Bulkr on Apr 13, 2016   |
|   http://clipyourphotos.com/bulkr    |
+--------------------------------------+

+--------+
|  INFO  |
+--------+
Photographer : mattymatt
Photo URL    : https://www.flickr.com/photos/mattymatt/3606290390/
License      : Creative Commons (http://creativecommons.org/licenses)
Taken Date   : Tue Jun 2 17:58:50 GMT+0200 2009
Upload Date  : Mon Jun 8 05:35:39 GMT+0200 2009
Views        : 34
Comments     : 0


+---------+
|  TITLE  |
+---------+
Cuddlebugs


+---------------+
|  DESCRIPTION  |
+---------------+
(no description)


+--------+
|  TAGS  |
+--------+
rats 