+--------------------------------------+
|   Flickr Photo Metadata              |
|   Created by Bulkr on Apr 13, 2016   |
|   http://clipyourphotos.com/bulkr    |
+--------------------------------------+

+--------+
|  INFO  |
+--------+
Photographer : madaise
Photo URL    : https://www.flickr.com/photos/madaise/2439510359/
License      : Creative Commons (http://creativecommons.org/licenses)
Taken Date   : Thu Mar 27 10:28:17 GMT+0100 2008
Upload Date  : Fri Apr 25 05:32:12 GMT+0200 2008
Views        : 205
Comments     : 0


+---------+
|  TITLE  |
+---------+
baby ratty


+---------------+
|  DESCRIPTION  |
+---------------+
(no description)


+--------+
|  TAGS  |
+--------+
rats 