+--------------------------------------+
|   Flickr Photo Metadata              |
|   Created by Bulkr on Apr 13, 2016   |
|   http://clipyourphotos.com/bulkr    |
+--------------------------------------+

+--------+
|  INFO  |
+--------+
Photographer : phatman
Photo URL    : https://www.flickr.com/photos/hotreactor/214901788/
License      : Creative Commons (http://creativecommons.org/licenses)
Taken Date   : Mon Aug 14 02:30:48 GMT+0200 2006
Upload Date  : Mon Aug 14 11:30:48 GMT+0200 2006
Views        : 747
Comments     : 2


+---------+
|  TITLE  |
+---------+
Zipper eating a random object


+---------------+
|  DESCRIPTION  |
+---------------+
(no description)


+--------+
|  TAGS  |
+--------+
rat zipper rodents babyrat 