+--------------------------------------+
|   Flickr Photo Metadata              |
|   Created by Bulkr on Apr 13, 2016   |
|   http://clipyourphotos.com/bulkr    |
+--------------------------------------+

+--------+
|  INFO  |
+--------+
Photographer : surprise truck
Photo URL    : https://www.flickr.com/photos/just1page/2668051023/
License      : Creative Commons (http://creativecommons.org/licenses)
Taken Date   : Fri Jul 4 18:16:11 GMT+0200 2008
Upload Date  : Mon Jul 14 21:17:01 GMT+0200 2008
Views        : 451
Comments     : 0


+---------+
|  TITLE  |
+---------+
Rat in a basket


+---------------+
|  DESCRIPTION  |
+---------------+
(no description)


+--------+
|  TAGS  |
+--------+
rats 