+--------------------------------------+
|   Flickr Photo Metadata              |
|   Created by Bulkr on Apr 13, 2016   |
|   http://clipyourphotos.com/bulkr    |
+--------------------------------------+

+--------+
|  INFO  |
+--------+
Photographer : Uzbecka
Photo URL    : https://www.flickr.com/photos/uzbecka/5795324184/
License      : Creative Commons (http://creativecommons.org/licenses)
Taken Date   : Tue May 31 22:25:17 GMT+0200 2011
Upload Date  : Sat Jun 4 03:19:25 GMT+0200 2011
Views        : 150
Comments     : 0


+---------+
|  TITLE  |
+---------+
P1170011


+---------------+
|  DESCRIPTION  |
+---------------+
(no description)


+--------+
|  TAGS  |
+--------+
rat rats pet domesitcated domestic 