+--------------------------------------+
|   Flickr Photo Metadata              |
|   Created by Bulkr on Apr 13, 2016   |
|   http://clipyourphotos.com/bulkr    |
+--------------------------------------+

+--------+
|  INFO  |
+--------+
Photographer : Daisyree Bakker
Photo URL    : https://www.flickr.com/photos/27875041@N02/2761731291/
License      : Creative Commons (http://creativecommons.org/licenses)
Taken Date   : Fri May 20 11:44:12 GMT+0200 2005
Upload Date  : Thu Aug 14 12:06:46 GMT+0200 2008
Views        : 898
Comments     : 0


+---------+
|  TITLE  |
+---------+
Rat


+---------------+
|  DESCRIPTION  |
+---------------+
(no description)


+--------+
|  TAGS  |
+--------+
rat 