+--------------------------------------+
|   Flickr Photo Metadata              |
|   Created by Bulkr on Apr 13, 2016   |
|   http://clipyourphotos.com/bulkr    |
+--------------------------------------+

+--------+
|  INFO  |
+--------+
Photographer : Salim Virji
Photo URL    : https://www.flickr.com/photos/salim/5797585195/
License      : Creative Commons (http://creativecommons.org/licenses)
Taken Date   : Sat Jun 4 09:24:57 GMT+0200 2011
Upload Date  : Sun Jun 5 00:36:34 GMT+0200 2011
Views        : 295
Comments     : 0


+---------+
|  TITLE  |
+---------+
Rat


+---------------+
|  DESCRIPTION  |
+---------------+
Third st near bowery


+--------+
|  TAGS  |
+--------+
rat Bowery 