+--------------------------------------+
|   Flickr Photo Metadata              |
|   Created by Bulkr on Apr 13, 2016   |
|   http://clipyourphotos.com/bulkr    |
+--------------------------------------+

+--------+
|  INFO  |
+--------+
Photographer : madaise
Photo URL    : https://www.flickr.com/photos/madaise/2704113033/
License      : Creative Commons (http://creativecommons.org/licenses)
Taken Date   : Thu Jul 24 16:44:33 GMT+0200 2008
Upload Date  : Sat Jul 26 23:11:09 GMT+0200 2008
Views        : 281
Comments     : 0


+---------+
|  TITLE  |
+---------+
Fancy Rats


+---------------+
|  DESCRIPTION  |
+---------------+
(no description)


+--------+
|  TAGS  |
+--------+
rats fancy 