+--------------------------------------+
|   Flickr Photo Metadata              |
|   Created by Bulkr on Apr 13, 2016   |
|   http://clipyourphotos.com/bulkr    |
+--------------------------------------+

+--------+
|  INFO  |
+--------+
Photographer : Sarah_Jones
Photo URL    : https://www.flickr.com/photos/sarahakabmg/4831967018/
License      : Creative Commons (http://creativecommons.org/licenses)
Taken Date   : Mon Jul 26 00:12:58 GMT+0200 2010
Upload Date  : Mon Jul 26 21:58:51 GMT+0200 2010
Views        : 705
Comments     : 0


+---------+
|  TITLE  |
+---------+
Eunice and Agnes 3


+---------------+
|  DESCRIPTION  |
+---------------+
(no description)


+--------+
|  TAGS  |
+--------+
rats 