+--------------------------------------+
|   Flickr Photo Metadata              |
|   Created by Bulkr on Apr 13, 2016   |
|   http://clipyourphotos.com/bulkr    |
+--------------------------------------+

+--------+
|  INFO  |
+--------+
Photographer : akarts.photo
Photo URL    : https://www.flickr.com/photos/122102912@N02/13592378125/
License      : Creative Commons (http://creativecommons.org/licenses)
Taken Date   : Thu May 20 00:05:49 GMT+0200 2010
Upload Date  : Thu Apr 3 03:02:43 GMT+0200 2014
Views        : 1,319
Comments     : 0


+---------+
|  TITLE  |
+---------+
Rat


+---------------+
|  DESCRIPTION  |
+---------------+
(no description)


+--------+
|  TAGS  |
+--------+
portrait robe dress rat nu nude fire kitchen cuisine verte mode fumée gare désaffectée nonnes bonnes soeurs église church abstrait abstract guitar guitare light snow neige horse cheval noir blanc chaton cat arbre tree ice glace naked hat chapeau katana sabre paysage enneigé manège grande roue couloir bird oiseau danseuse dance danse cheveux seventees seventies 70's 