+--------------------------------------+
|   Flickr Photo Metadata              |
|   Created by Bulkr on Apr 13, 2016   |
|   http://clipyourphotos.com/bulkr    |
+--------------------------------------+

+--------+
|  INFO  |
+--------+
Photographer : madaise
Photo URL    : https://www.flickr.com/photos/madaise/2833948429/
License      : Creative Commons (http://creativecommons.org/licenses)
Taken Date   : Sun Aug 31 17:56:39 GMT+0200 2008
Upload Date  : Sun Sep 7 02:00:21 GMT+0200 2008
Views        : 390
Comments     : 0


+---------+
|  TITLE  |
+---------+
Rats


+---------------+
|  DESCRIPTION  |
+---------------+
(no description)


+--------+
|  TAGS  |
+--------+
rats 