+--------------------------------------+
|   Flickr Photo Metadata              |
|   Created by Bulkr on Apr 13, 2016   |
|   http://clipyourphotos.com/bulkr    |
+--------------------------------------+

+--------+
|  INFO  |
+--------+
Photographer : madaise
Photo URL    : https://www.flickr.com/photos/madaise/2257001890/
License      : Creative Commons (http://creativecommons.org/licenses)
Taken Date   : Sun Feb 10 06:41:28 GMT+0100 2008
Upload Date  : Mon Feb 11 04:16:36 GMT+0100 2008
Views        : 239
Comments     : 0


+---------+
|  TITLE  |
+---------+
Baby Rats aka Pups or Kittens


+---------------+
|  DESCRIPTION  |
+---------------+
(no description)


+--------+
|  TAGS  |
+--------+
"pet rat" pups kittens 