+--------------------------------------+
|   Flickr Photo Metadata              |
|   Created by Bulkr on Apr 13, 2016   |
|   http://clipyourphotos.com/bulkr    |
+--------------------------------------+

+--------+
|  INFO  |
+--------+
Photographer : R0Ng
Photo URL    : https://www.flickr.com/photos/ronguillen/4109691021/
License      : Creative Commons (http://creativecommons.org/licenses)
Taken Date   : Tue Nov 3 11:29:36 GMT+0100 2009
Upload Date  : Mon Nov 16 22:12:57 GMT+0100 2009
Views        : 376
Comments     : 0


+---------+
|  TITLE  |
+---------+
Caitlin and Her Hamster


+---------------+
|  DESCRIPTION  |
+---------------+
The Rat . . .


+--------+
|  TAGS  |
+--------+
rat hamster caitlin kaitlin 