+--------------------------------------+
|   Flickr Photo Metadata              |
|   Created by Bulkr on Apr 13, 2016   |
|   http://clipyourphotos.com/bulkr    |
+--------------------------------------+

+--------+
|  INFO  |
+--------+
Photographer : Uzbecka
Photo URL    : https://www.flickr.com/photos/uzbecka/5761885019/
License      : Creative Commons (http://creativecommons.org/licenses)
Taken Date   : Thu Apr 7 20:20:04 GMT+0200 2011
Upload Date  : Thu May 26 19:09:26 GMT+0200 2011
Views        : 7
Comments     : 0


+---------+
|  TITLE  |
+---------+
P1160551


+---------------+
|  DESCRIPTION  |
+---------------+
(no description)


+--------+
|  TAGS  |
+--------+
rat rats pet domesitcated domestic 