+--------------------------------------+
|   Flickr Photo Metadata              |
|   Created by Bulkr on Apr 13, 2016   |
|   http://clipyourphotos.com/bulkr    |
+--------------------------------------+

+--------+
|  INFO  |
+--------+
Photographer : tomwardill
Photo URL    : https://www.flickr.com/photos/radioimp/369842210/
License      : Creative Commons (http://creativecommons.org/licenses)
Taken Date   : Sat Jan 21 21:08:44 GMT+0100 2006
Upload Date  : Fri Jan 26 14:42:19 GMT+0100 2007
Views        : 244
Comments     : 0


+---------+
|  TITLE  |
+---------+
Depth


+---------------+
|  DESCRIPTION  |
+---------------+
Rat about to jump....


+--------+
|  TAGS  |
+--------+
rat depth jump platform 