+--------------------------------------+
|   Flickr Photo Metadata              |
|   Created by Bulkr on Mar 06, 2016   |
|   http://clipyourphotos.com/bulkr    |
+--------------------------------------+

+--------+
|  INFO  |
+--------+
Photographer : lakpuratravels
Photo URL    : https://www.flickr.com/photos/lakpura/15688193427/
License      : Creative Commons (http://creativecommons.org/licenses)
Taken Date   : Mon Nov 24 22:16:49 GMT+0100 2014
Upload Date  : Tue Nov 25 07:19:27 GMT+0100 2014
Views        : 123
Comments     : 0


+---------+
|  TITLE  |
+---------+
Leopards Watching Sri Lanka


+---------------+
|  DESCRIPTION  |
+---------------+
Leopards Watching Sri Lanka


+--------+
|  TAGS  |
+--------+
(no tags)