+--------------------------------------+
|   Flickr Photo Metadata              |
|   Created by Bulkr on Mar 06, 2016   |
|   http://clipyourphotos.com/bulkr    |
+--------------------------------------+

+--------+
|  INFO  |
+--------+
Photographer : t3rmin4t0r
Photo URL    : https://www.flickr.com/photos/t3rmin4t0r/6357686511/
License      : Creative Commons (http://creativecommons.org/licenses)
Taken Date   : Sun Sep 25 11:35:38 GMT+0200 2011
Upload Date  : Fri Nov 18 12:05:36 GMT+0100 2011
Views        : 1,431
Comments     : 0


+---------+
|  TITLE  |
+---------+
Leopards aren't Social


+---------------+
|  DESCRIPTION  |
+---------------+
We ran into this leopard relaxing on a small hill.


+--------+
|  TAGS  |
+--------+
creative-commons 