+--------------------------------------+
|   Flickr Photo Metadata              |
|   Created by Bulkr on Mar 07, 2016   |
|   http://clipyourphotos.com/bulkr    |
+--------------------------------------+

+--------+
|  INFO  |
+--------+
Photographer : Genista
Photo URL    : https://www.flickr.com/photos/genista/5089660296/
License      : Creative Commons (http://creativecommons.org/licenses)
Taken Date   : Sun Oct 10 07:56:37 GMT+0200 2010
Upload Date  : Sun Oct 17 16:20:46 GMT+0200 2010
Geotag Info  : Latitude:51.945641, Longitude:7.591552
Views        : 348
Comments     : 1


+---------+
|  TITLE  |
+---------+
spotted something


+---------------+
|  DESCRIPTION  |
+---------------+
He likes kids and dogs.


+--------+
|  TAGS  |
+--------+
allwetterzoo cat deutschland germany grosskatze leopard münster nahaufname predator raubtier westfalen zoom 