+--------------------------------------+
|   Flickr Photo Metadata              |
|   Created by Bulkr on Mar 06, 2016   |
|   http://clipyourphotos.com/bulkr    |
+--------------------------------------+

+--------+
|  INFO  |
+--------+
Photographer : bsayanthan
Photo URL    : https://www.flickr.com/photos/sayanthan/6093271653/
License      : Creative Commons (http://creativecommons.org/licenses)
Taken Date   : Sat Aug 27 23:56:20 GMT+0200 2011
Upload Date  : Mon Aug 29 19:48:09 GMT+0200 2011
Views        : 215
Comments     : 0


+---------+
|  TITLE  |
+---------+
leopard at aberdare


+---------------+
|  DESCRIPTION  |
+---------------+
(no description)


+--------+
|  TAGS  |
+--------+
(no tags)