+--------------------------------------+
|   Flickr Photo Metadata              |
|   Created by Bulkr on Mar 06, 2016   |
|   http://clipyourphotos.com/bulkr    |
+--------------------------------------+

+--------+
|  INFO  |
+--------+
Photographer : silivrentoliel
Photo URL    : https://www.flickr.com/photos/silivrentoliel/6792701549/
License      : Creative Commons (http://creativecommons.org/licenses)
Taken Date   : Sun Jan 29 15:28:52 GMT+0100 2012
Upload Date  : Tue Jan 31 01:47:43 GMT+0100 2012
Views        : 17
Comments     : 0


+---------+
|  TITLE  |
+---------+
Leopard 2619


+---------------+
|  DESCRIPTION  |
+---------------+
(no description)


+--------+
|  TAGS  |
+--------+
(no tags)