+--------------------------------------+
|   Flickr Photo Metadata              |
|   Created by Bulkr on Mar 06, 2016   |
|   http://clipyourphotos.com/bulkr    |
+--------------------------------------+

+--------+
|  INFO  |
+--------+
Photographer : Just chaos
Photo URL    : https://www.flickr.com/photos/7326810@N08/3709060084/
License      : Creative Commons (http://creativecommons.org/licenses)
Taken Date   : Fri Jun 12 14:44:27 GMT+0200 2009
Upload Date  : Sat Jul 11 05:32:16 GMT+0200 2009
Views        : 130
Comments     : 1


+---------+
|  TITLE  |
+---------+
Snow Leopard


+---------------+
|  DESCRIPTION  |
+---------------+
(no description)


+--------+
|  TAGS  |
+--------+
Sacramentozoo 