+--------------------------------------+
|   Flickr Photo Metadata              |
|   Created by Bulkr on Mar 06, 2016   |
|   http://clipyourphotos.com/bulkr    |
+--------------------------------------+

+--------+
|  INFO  |
+--------+
Photographer : Grim Optimist
Photo URL    : https://www.flickr.com/photos/keefcooper/8594989865/
License      : Creative Commons (http://creativecommons.org/licenses)
Taken Date   : Mon Mar 18 13:19:26 GMT+0100 2013
Upload Date  : Wed Mar 27 19:38:26 GMT+0100 2013
Views        : 77
Comments     : 0


+---------+
|  TITLE  |
+---------+
Leopard


+---------------+
|  DESCRIPTION  |
+---------------+
(no description)


+--------+
|  TAGS  |
+--------+
(no tags)