+--------------------------------------+
|   Flickr Photo Metadata              |
|   Created by Bulkr on Mar 06, 2016   |
|   http://clipyourphotos.com/bulkr    |
+--------------------------------------+

+--------+
|  INFO  |
+--------+
Photographer : mliu92
Photo URL    : https://www.flickr.com/photos/mliu92/3320152591/
License      : Creative Commons (http://creativecommons.org/licenses)
Taken Date   : Sun Mar 1 11:02:15 GMT+0100 2009
Upload Date  : Mon Mar 2 00:39:28 GMT+0100 2009
Geotag Info  : Latitude:32.736885, Longitude:-117.148933
Views        : 163
Comments     : 0


+---------+
|  TITLE  |
+---------+
Leopard Cage 0859


+---------------+
|  DESCRIPTION  |
+---------------+
You're next on &quot;PRICE IS RIGHT!&quot;


+--------+
|  TAGS  |
+--------+
"san diego" zoo leopard 