+--------------------------------------+
|   Flickr Photo Metadata              |
|   Created by Bulkr on Apr 20, 2016   |
|   http://clipyourphotos.com/bulkr    |
+--------------------------------------+

+--------+
|  INFO  |
+--------+
Photographer : tkspencer
Photo URL    : https://www.flickr.com/photos/traceyspencer/1599962154/
License      : Creative Commons (http://creativecommons.org/licenses)
Taken Date   : Thu Mar 4 09:25:58 GMT+0100 2004
Upload Date  : Wed Oct 17 15:00:31 GMT+0200 2007
Views        : 41
Comments     : 0


+---------+
|  TITLE  |
+---------+
lion


+---------------+
|  DESCRIPTION  |
+---------------+
(no description)


+--------+
|  TAGS  |
+--------+
(no tags)