+--------------------------------------+
|   Flickr Photo Metadata              |
|   Created by Bulkr on Apr 20, 2016   |
|   http://clipyourphotos.com/bulkr    |
+--------------------------------------+

+--------+
|  INFO  |
+--------+
Photographer : blah blah photos...blah blah blah
Photo URL    : https://www.flickr.com/photos/msabbath/2428968421/
License      : Creative Commons (http://creativecommons.org/licenses)
Taken Date   : Sun Apr 20 20:02:28 GMT+0200 2008
Upload Date  : Mon Apr 21 02:02:28 GMT+0200 2008
Views        : 3,685
Comments     : 2


+---------+
|  TITLE  |
+---------+
Pittsburgh Zoo


+---------------+
|  DESCRIPTION  |
+---------------+
Lion


+--------+
|  TAGS  |
+--------+
Nikon "Nikon D40x" D40x Pittsburgh lion zoo city green "king of the jungle" king jungle big cat gato bush rock log heated outside nature wild animal ferocious paw claw look general closeup aqua aperturepriority aperture ape 