+--------------------------------------+
|   Flickr Photo Metadata              |
|   Created by Bulkr on Apr 20, 2016   |
|   http://clipyourphotos.com/bulkr    |
+--------------------------------------+

+--------+
|  INFO  |
+--------+
Photographer : NEPMET
Photo URL    : https://www.flickr.com/photos/blahman/417458299/
License      : Creative Commons (http://creativecommons.org/licenses)
Taken Date   : Sat Feb 10 16:18:01 GMT+0100 2007
Upload Date  : Sun Mar 11 14:15:22 GMT+0100 2007
Geotag Info  : Latitude:52.508731, Longitude:13.341309
Views        : 125
Comments     : 0


+---------+
|  TITLE  |
+---------+
lion


+---------------+
|  DESCRIPTION  |
+---------------+
(no description)


+--------+
|  TAGS  |
+--------+
animals wild lion zoo 