+--------------------------------------+
|   Flickr Photo Metadata              |
|   Created by Bulkr on Apr 20, 2016   |
|   http://clipyourphotos.com/bulkr    |
+--------------------------------------+

+--------+
|  INFO  |
+--------+
Photographer : basykes
Photo URL    : https://www.flickr.com/photos/basykes/6800959/
License      : Creative Commons (http://creativecommons.org/licenses)
Taken Date   : Fri Mar 18 13:34:59 GMT+0100 2005
Upload Date  : Fri Mar 18 22:54:09 GMT+0100 2005
Views        : 160
Comments     : 0


+---------+
|  TITLE  |
+---------+
Lion


+---------------+
|  DESCRIPTION  |
+---------------+
(check the tongue action)


+--------+
|  TAGS  |
+--------+
zoo sanfrancisco sf animals lion 