+--------------------------------------+
|   Flickr Photo Metadata              |
|   Created by Bulkr on Apr 20, 2016   |
|   http://clipyourphotos.com/bulkr    |
+--------------------------------------+

+--------+
|  INFO  |
+--------+
Photographer : misooden
Photo URL    : https://www.flickr.com/photos/nickyu/12397469895/
License      : Creative Commons (http://creativecommons.org/licenses)
Taken Date   : Sun Feb 9 11:04:12 GMT+0100 2014
Upload Date  : Sun Feb 9 03:04:12 GMT+0100 2014
Geotag Info  : Latitude:35.158284, Longitude:136.976315
Views        : 104
Comments     : 0


+---------+
|  TITLE  |
+---------+
Lion


+---------------+
|  DESCRIPTION  |
+---------------+
(no description)


+--------+
|  TAGS  |
+--------+
"instagram app" square "square format" iphoneography uploaded:by=instagram foursquare:venue=4b5575aaf964a520dee427e3 