+--------------------------------------+
|   Flickr Photo Metadata              |
|   Created by Bulkr on Apr 20, 2016   |
|   http://clipyourphotos.com/bulkr    |
+--------------------------------------+

+--------+
|  INFO  |
+--------+
Photographer : danxoneil
Photo URL    : https://www.flickr.com/photos/juggernautco/3996603916/
License      : Creative Commons (http://creativecommons.org/licenses)
Taken Date   : Fri Feb 8 00:29:16 GMT+0100 2008
Upload Date  : Fri Oct 9 23:14:35 GMT+0200 2009
Views        : 416
Comments     : 0


+---------+
|  TITLE  |
+---------+
Bike Day Fun > At The Lincoln Park Zoo


+---------------+
|  DESCRIPTION  |
+---------------+
Oh so tired of your incessant photos.


+--------+
|  TAGS  |
+--------+
chicago lakefront biking zoo lions 