+--------------------------------------+
|   Flickr Photo Metadata              |
|   Created by Bulkr on Apr 20, 2016   |
|   http://clipyourphotos.com/bulkr    |
+--------------------------------------+

+--------+
|  INFO  |
+--------+
Photographer : dgoomany
Photo URL    : https://www.flickr.com/photos/dgoomany/8304133053/
License      : Creative Commons (http://creativecommons.org/licenses)
Taken Date   : Mon Dec 24 20:32:26 GMT+0100 2012
Upload Date  : Mon Dec 24 21:36:15 GMT+0100 2012
Views        : 1,201
Comments     : 0


+---------+
|  TITLE  |
+---------+
Lion


+---------------+
|  DESCRIPTION  |
+---------------+
(no description)


+--------+
|  TAGS  |
+--------+
woburn safari park' animals wildlife creatures nature lion 