+--------------------------------------+
|   Flickr Photo Metadata              |
|   Created by Bulkr on Apr 20, 2016   |
|   http://clipyourphotos.com/bulkr    |
+--------------------------------------+

+--------+
|  INFO  |
+--------+
Photographer : s9-4pr
Photo URL    : https://www.flickr.com/photos/119983612@N04/13143695455/
License      : Creative Commons (http://creativecommons.org/licenses)
Taken Date   : Thu Feb 13 10:42:51 GMT+0100 2003
Upload Date  : Fri Mar 14 10:45:34 GMT+0100 2014
Views        : 199
Comments     : 0


+---------+
|  TITLE  |
+---------+
Lion, Sabi Sand


+---------------+
|  DESCRIPTION  |
+---------------+
(no description)


+--------+
|  TAGS  |
+--------+
(no tags)