+--------------------------------------+
|   Flickr Photo Metadata              |
|   Created by Bulkr on Apr 20, 2016   |
|   http://clipyourphotos.com/bulkr    |
+--------------------------------------+

+--------+
|  INFO  |
+--------+
Photographer : jelloneck
Photo URL    : https://www.flickr.com/photos/jelonekphotography/4672778730/
License      : Creative Commons (http://creativecommons.org/licenses)
Taken Date   : Tue Jun 1 11:07:39 GMT+0200 2010
Upload Date  : Sat Jun 5 22:15:24 GMT+0200 2010
Views        : 1,586
Comments     : 0


+---------+
|  TITLE  |
+---------+
lion_9918


+---------------+
|  DESCRIPTION  |
+---------------+
(no description)


+--------+
|  TAGS  |
+--------+
"brookfield Zoo" animals lion tongue fur paw "canon xsi" "canon 70-200 2.8L IS" zoo animal 