+--------------------------------------+
|   Flickr Photo Metadata              |
|   Created by Bulkr on Apr 20, 2016   |
|   http://clipyourphotos.com/bulkr    |
+--------------------------------------+

+--------+
|  INFO  |
+--------+
Photographer : s9-4pr
Photo URL    : https://www.flickr.com/photos/119983612@N04/13101519055/
License      : Creative Commons (http://creativecommons.org/licenses)
Taken Date   : Sun Dec 1 06:27:30 GMT+0100 2013
Upload Date  : Wed Mar 12 11:05:21 GMT+0100 2014
Views        : 138
Comments     : 0


+---------+
|  TITLE  |
+---------+
Lions, Savute, Botswana


+---------------+
|  DESCRIPTION  |
+---------------+
(no description)


+--------+
|  TAGS  |
+--------+
(no tags)