+--------------------------------------+
|   Flickr Photo Metadata              |
|   Created by Bulkr on Apr 20, 2016   |
|   http://clipyourphotos.com/bulkr    |
+--------------------------------------+

+--------+
|  INFO  |
+--------+
Photographer : JoKoT3
Photo URL    : https://www.flickr.com/photos/128304988@N06/15472646472/
License      : Creative Commons (http://creativecommons.org/licenses)
Taken Date   : Mon Oct 6 23:59:22 GMT+0200 2014
Upload Date  : Wed Oct 8 00:43:40 GMT+0200 2014
Views        : 159
Comments     : 0


+---------+
|  TITLE  |
+---------+
lion


+---------------+
|  DESCRIPTION  |
+---------------+
(no description)


+--------+
|  TAGS  |
+--------+
(no tags)