+--------------------------------------+
|   Flickr Photo Metadata              |
|   Created by Bulkr on Apr 20, 2016   |
|   http://clipyourphotos.com/bulkr    |
+--------------------------------------+

+--------+
|  INFO  |
+--------+
Photographer : One Day Closer
Photo URL    : https://www.flickr.com/photos/onedaycloser/8341177356/
License      : Creative Commons (http://creativecommons.org/licenses)
Taken Date   : Wed Nov 21 13:47:29 GMT+0100 2012
Upload Date  : Thu Jan 3 06:13:23 GMT+0100 2013
Views        : 166
Comments     : 0


+---------+
|  TITLE  |
+---------+
Lions


+---------------+
|  DESCRIPTION  |
+---------------+
(no description)


+--------+
|  TAGS  |
+--------+
(no tags)