+--------------------------------------+
|   Flickr Photo Metadata              |
|   Created by Bulkr on Apr 20, 2016   |
|   http://clipyourphotos.com/bulkr    |
+--------------------------------------+

+--------+
|  INFO  |
+--------+
Photographer : whippets.chrichri
Photo URL    : https://www.flickr.com/photos/istelle/7652035690/
License      : Creative Commons (http://creativecommons.org/licenses)
Taken Date   : Sat Jul 14 15:35:16 GMT+0200 2012
Upload Date  : Thu Jul 26 21:47:34 GMT+0200 2012
Views        : 49,366
Comments     : 3


+---------+
|  TITLE  |
+---------+
Lion_Leeuw_P7144603_©vh


+---------------+
|  DESCRIPTION  |
+---------------+
Lion


+--------+
|  TAGS  |
+--------+
Lion 