+--------------------------------------+
|   Flickr Photo Metadata              |
|   Created by Bulkr on Apr 20, 2016   |
|   http://clipyourphotos.com/bulkr    |
+--------------------------------------+

+--------+
|  INFO  |
+--------+
Photographer : Stephen.P.Temple
Photo URL    : https://www.flickr.com/photos/122772068@N08/14435854372/
License      : Creative Commons (http://creativecommons.org/licenses)
Taken Date   : Mon Jul 18 09:13:28 GMT+0200 2011
Upload Date  : Mon Jun 16 18:16:03 GMT+0200 2014
Views        : 142
Comments     : 0


+---------+
|  TITLE  |
+---------+
2011-07-18_09-13-28_30D.jpg


+---------------+
|  DESCRIPTION  |
+---------------+
(no description)


+--------+
|  TAGS  |
+--------+
wildlife lion kenya 