+--------------------------------------+
|   Flickr Photo Metadata              |
|   Created by Bulkr on Apr 20, 2016   |
|   http://clipyourphotos.com/bulkr    |
+--------------------------------------+

+--------+
|  INFO  |
+--------+
Photographer : RobBixbyPhotography
Photo URL    : https://www.flickr.com/photos/scubabix/16299293800/
License      : Creative Commons (http://creativecommons.org/licenses)
Taken Date   : Mon Feb 9 10:30:44 GMT+0100 2015
Upload Date  : Tue Feb 10 00:08:16 GMT+0100 2015
Geotag Info  : Latitude:30.399946, Longitude:-81.643763
Views        : 1,360
Comments     : 0


+---------+
|  TITLE  |
+---------+
JaxZoo_2-9-15-5588


+---------------+
|  DESCRIPTION  |
+---------------+
(no description)


+--------+
|  TAGS  |
+--------+
babies baby cub Lion lions 