+--------------------------------------+
|   Flickr Photo Metadata              |
|   Created by Bulkr on Apr 20, 2016   |
|   http://clipyourphotos.com/bulkr    |
+--------------------------------------+

+--------+
|  INFO  |
+--------+
Photographer : Greenwich Photography
Photo URL    : https://www.flickr.com/photos/greenwichphotography/3743500750/
License      : Creative Commons (http://creativecommons.org/licenses)
Taken Date   : Sat Jun 20 13:34:35 GMT+0200 2009
Upload Date  : Tue Jul 21 19:20:36 GMT+0200 2009
Views        : 464
Comments     : 0


+---------+
|  TITLE  |
+---------+
South Africa


+---------------+
|  DESCRIPTION  |
+---------------+
A lion in a err lion sanctuary, Johanesburg


+--------+
|  TAGS  |
+--------+
"South Africa" Johanesburg Lion 