+--------------------------------------+
|   Flickr Photo Metadata              |
|   Created by Bulkr on Apr 20, 2016   |
|   http://clipyourphotos.com/bulkr    |
+--------------------------------------+

+--------+
|  INFO  |
+--------+
Photographer : spykee
Photo URL    : https://www.flickr.com/photos/spykee/2911244854/
License      : Creative Commons (http://creativecommons.org/licenses)
Taken Date   : Sun Jul 27 16:24:23 GMT+0200 2008
Upload Date  : Sat Oct 4 04:06:39 GMT+0200 2008
Views        : 73
Comments     : 1


+---------+
|  TITLE  |
+---------+
Big Cats :)


+---------------+
|  DESCRIPTION  |
+---------------+
(no description)


+--------+
|  TAGS  |
+--------+
Lion zoo FlickrBigCats 