+--------------------------------------+
|   Flickr Photo Metadata              |
|   Created by Bulkr on Mar 03, 2016   |
|   http://clipyourphotos.com/bulkr    |
+--------------------------------------+

+--------+
|  INFO  |
+--------+
Photographer : Out at Bob's
Photo URL    : https://www.flickr.com/photos/outatbobs/3760178497/
License      : Creative Commons (http://creativecommons.org/licenses)
Taken Date   : Sun Jul 26 19:15:06 GMT+0200 2009
Upload Date  : Mon Jul 27 06:21:36 GMT+0200 2009
Views        : 870
Comments     : 0


+---------+
|  TITLE  |
+---------+
Little Buddy


+---------------+
|  DESCRIPTION  |
+---------------+
Cuts and scares my Little Buddy has been around for a few years. As a baby he would lay on my foot and go to sleep.


+--------+
|  TAGS  |
+--------+
skunk skunks nature wildlife fuzzy "fuzzy creatures" hair tail "black and white" 