+--------------------------------------+
|   commons.wikimedia Photo Metadata   |
+--------------------------------------+



+--------+
|  INFO  |
+--------+
Photographer : Mathieu MD
Photo URL    : https://commons.wikimedia.org/wiki/File:Zoo_des_3_vall%C3%A9es_-_Mouffette_ray%C3%A9e_-_2015-01-02_-_i3441.jpg
License      : Creative Commons (https://en.wikipedia.org/wiki/en:Creative_Commons) Attribution-Share Alike 3.0 Unported (//creativecommons.org/licenses/by-sa/3.0/deed.en)
Date         : 2015-01-02 16:45:40
