+--------------------------------------+
|   Flickr Photo Metadata              |
|   Created by Bulkr on Mar 03, 2016   |
|   http://clipyourphotos.com/bulkr    |
+--------------------------------------+

+--------+
|  INFO  |
+--------+
Photographer : qmnonic
Photo URL    : https://www.flickr.com/photos/qmnonic/130153394/
License      : Creative Commons (http://creativecommons.org/licenses)
Taken Date   : Sat Apr 15 17:12:34 GMT+0200 2006
Upload Date  : Mon Apr 17 17:15:41 GMT+0200 2006
Views        : 969
Comments     : 0


+---------+
|  TITLE  |
+---------+
freddy


+---------------+
|  DESCRIPTION  |
+---------------+
who knew skunks like marshmellows


+--------+
|  TAGS  |
+--------+
skunk marshmellow farm kitchen eating toronto roseneath 