+--------------------------------------+
|   Flickr Photo Metadata              |
|   Created by Bulkr on Mar 04, 2016   |
|   http://clipyourphotos.com/bulkr    |
+--------------------------------------+

+--------+
|  INFO  |
+--------+
Photographer : liberalmind1012
Photo URL    : https://www.flickr.com/photos/pixelpackr/5306210294/
License      : Creative Commons (http://creativecommons.org/licenses)
Taken Date   : Thu Dec 30 03:44:05 GMT+0100 2010
Upload Date  : Thu Dec 30 10:44:05 GMT+0100 2010
Views        : 139
Comments     : 0


+---------+
|  TITLE  |
+---------+
Africa


+---------------+
|  DESCRIPTION  |
+---------------+
hippopotamus


+--------+
|  TAGS  |
+--------+
africa 1975 dad safari kenya hippo hippopotamus 