+--------------------------------------+
|   Flickr Photo Metadata              |
|   Created by Bulkr on Mar 04, 2016   |
|   http://clipyourphotos.com/bulkr    |
+--------------------------------------+

+--------+
|  INFO  |
+--------+
Photographer : amslerPIX
Photo URL    : https://www.flickr.com/photos/amslerpix/24205254739/
License      : Creative Commons (http://creativecommons.org/licenses)
Taken Date   : Wed Dec 30 12:25:33 GMT+0100 2015
Upload Date  : Sun Jan 24 05:00:21 GMT+0100 2016
Views        : 29
Comments     : 0


+---------+
|  TITLE  |
+---------+
Hippo Sub


+---------------+
|  DESCRIPTION  |
+---------------+
(no description)


+--------+
|  TAGS  |
+--------+
head Hippopotamus swim water 