+--------------------------------------+
|   Flickr Photo Metadata              |
|   Created by Bulkr on Mar 04, 2016   |
|   http://clipyourphotos.com/bulkr    |
+--------------------------------------+

+--------+
|  INFO  |
+--------+
Photographer : philip_sheldrake
Photo URL    : https://www.flickr.com/photos/philip_sheldrake/335749903/
License      : Creative Commons (http://creativecommons.org/licenses)
Taken Date   : Wed Aug 30 13:18:04 GMT+0200 2006
Upload Date  : Thu Dec 28 02:37:24 GMT+0100 2006
Views        : 47
Comments     : 0


+---------+
|  TITLE  |
+---------+
P8302439


+---------------+
|  DESCRIPTION  |
+---------------+
(no description)


+--------+
|  TAGS  |
+--------+
africa kenya amboseli hippopotamus 