+--------------------------------------+
|   Flickr Photo Metadata              |
|   Created by Bulkr on Mar 04, 2016   |
|   http://clipyourphotos.com/bulkr    |
+--------------------------------------+

+--------+
|  INFO  |
+--------+
Photographer : smagdali
Photo URL    : https://www.flickr.com/photos/smagdali/5361298753/
License      : Creative Commons (http://creativecommons.org/licenses)
Taken Date   : Wed Dec 29 17:58:16 GMT+0100 2010
Upload Date  : Sun Jan 16 23:49:33 GMT+0100 2011
Views        : 121
Comments     : 0


+---------+
|  TITLE  |
+---------+
IMG_3345


+---------------+
|  DESCRIPTION  |
+---------------+
(no description)


+--------+
|  TAGS  |
+--------+
Caprivi Namibia hippo hippopotamus lr roadtrip 