+--------------------------------------+
|   Flickr Photo Metadata              |
|   Created by Bulkr on Mar 04, 2016   |
|   http://clipyourphotos.com/bulkr    |
+--------------------------------------+

+--------+
|  INFO  |
+--------+
Photographer : amslerPIX
Photo URL    : https://www.flickr.com/photos/amslerpix/23946649913/
License      : Creative Commons (http://creativecommons.org/licenses)
Taken Date   : Wed Dec 30 13:39:18 GMT+0100 2015
Upload Date  : Sun Jan 24 05:30:44 GMT+0100 2016
Views        : 28
Comments     : 0


+---------+
|  TITLE  |
+---------+
Hippo Drink


+---------------+
|  DESCRIPTION  |
+---------------+
(no description)


+--------+
|  TAGS  |
+--------+
big drink guatemala Hippopotamus water zoo 