+--------------------------------------+
|   Flickr Photo Metadata              |
|   Created by Bulkr on Mar 04, 2016   |
|   http://clipyourphotos.com/bulkr    |
+--------------------------------------+

+--------+
|  INFO  |
+--------+
Photographer : amslerPIX
Photo URL    : https://www.flickr.com/photos/amslerpix/24590885855/
License      : Creative Commons (http://creativecommons.org/licenses)
Taken Date   : Wed Dec 30 15:15:39 GMT+0100 2015
Upload Date  : Sun Jan 24 23:17:54 GMT+0100 2016
Views        : 36
Comments     : 0


+---------+
|  TITLE  |
+---------+
Lazy Hippo


+---------------+
|  DESCRIPTION  |
+---------------+
(no description)


+--------+
|  TAGS  |
+--------+
guatemala Hippopotamus sleep zoo 