+--------------------------------------+
|   Flickr Photo Metadata              |
|   Created by Bulkr on Mar 04, 2016   |
|   http://clipyourphotos.com/bulkr    |
+--------------------------------------+

+--------+
|  INFO  |
+--------+
Photographer : Sheep purple
Photo URL    : https://www.flickr.com/photos/sheeppurple/3821226270/
License      : Creative Commons (http://creativecommons.org/licenses)
Taken Date   : Wed Aug 12 12:31:22 GMT+0200 2009
Upload Date  : Fri Aug 14 19:52:19 GMT+0200 2009
Views        : 161
Comments     : 0


+---------+
|  TITLE  |
+---------+
Hippo again


+---------------+
|  DESCRIPTION  |
+---------------+
(no description)


+--------+
|  TAGS  |
+--------+
grass eating lunch hippopotamus berlin zoo 