+--------------------------------------+
|   Flickr Photo Metadata              |
|   Created by Bulkr on Mar 04, 2016   |
|   http://clipyourphotos.com/bulkr    |
+--------------------------------------+

+--------+
|  INFO  |
+--------+
Photographer : fakepunju
Photo URL    : https://www.flickr.com/photos/nikkhil/2906008663/
License      : Creative Commons (http://creativecommons.org/licenses)
Taken Date   : Thu Sep 25 13:58:23 GMT+0200 2008
Upload Date  : Thu Oct 2 08:02:29 GMT+0200 2008
Views        : 109
Comments     : 0


+---------+
|  TITLE  |
+---------+
the giant and awesome hippo


+---------------+
|  DESCRIPTION  |
+---------------+
(no description)


+--------+
|  TAGS  |
+--------+
singapore zoo hippo hippopotamus 