+--------------------------------------+
|   Flickr Photo Metadata              |
|   Created by Bulkr on Mar 06, 2016   |
|   http://clipyourphotos.com/bulkr    |
+--------------------------------------+

+--------+
|  INFO  |
+--------+
Photographer : bridgettelove
Photo URL    : https://www.flickr.com/photos/b_loved81/6986719230/
License      : Creative Commons (http://creativecommons.org/licenses)
Taken Date   : Thu Dec 24 16:18:17 GMT+0100 2009
Upload Date  : Tue May 1 20:42:38 GMT+0200 2012
Views        : 33
Comments     : 0


+---------+
|  TITLE  |
+---------+
IMG_0392


+---------------+
|  DESCRIPTION  |
+---------------+
(no description)


+--------+
|  TAGS  |
+--------+
hippo 