+--------------------------------------+
|   Flickr Photo Metadata              |
|   Created by Bulkr on Mar 06, 2016   |
|   http://clipyourphotos.com/bulkr    |
+--------------------------------------+

+--------+
|  INFO  |
+--------+
Photographer : GeirHageli
Photo URL    : https://www.flickr.com/photos/geirsfoto/7964390000/
License      : Creative Commons (http://creativecommons.org/licenses)
Taken Date   : Mon Jul 30 16:55:48 GMT+0200 2012
Upload Date  : Sun Sep 9 20:27:45 GMT+0200 2012
Geotag Info  : Latitude:-17.820608, Longitude:25.276794
Views        : 57
Comments     : 0


+---------+
|  TITLE  |
+---------+
hippo


+---------------+
|  DESCRIPTION  |
+---------------+
Noticed the angle after i posted it. Sorry, new version, with flat water is coming up.


+--------+
|  TAGS  |
+--------+
(no tags)