+--------------------------------------+
|   Flickr Photo Metadata              |
|   Created by Bulkr on Mar 04, 2016   |
|   http://clipyourphotos.com/bulkr    |
+--------------------------------------+

+--------+
|  INFO  |
+--------+
Photographer : marfis75
Photo URL    : https://www.flickr.com/photos/marfis75/8240868296/
License      : Creative Commons (http://creativecommons.org/licenses)
Taken Date   : Thu Nov 22 16:15:48 GMT+0100 2012
Upload Date  : Mon Dec 3 07:39:14 GMT+0100 2012
Geotag Info  : Latitude:50.115459, Longitude:8.702459
Views        : 8,829
Comments     : 55


+---------+
|  TITLE  |
+---------+
off-time (cc)


+---------------+
|  DESCRIPTION  |
+---------------+
creative commons by marfis75


+--------+
|  TAGS  |
+--------+
tired müde arbeit pooped weary wearily asleep nod roost sleep schlafen ausruhen ruhe off time rest ruhezeit ruhig idle hippo hippopotamus hippopotamuses river riverhorse horse flusspferd nilpferd zoo zootier animal tiere gemütlich 