+--------------------------------------+
|   Flickr Photo Metadata              |
|   Created by Bulkr on Mar 04, 2016   |
|   http://clipyourphotos.com/bulkr    |
+--------------------------------------+

+--------+
|  INFO  |
+--------+
Photographer : Paul!!!
Photo URL    : https://www.flickr.com/photos/paulhaeder/2292273602/
License      : Creative Commons (http://creativecommons.org/licenses)
Taken Date   : Sun Feb 10 15:24:45 GMT+0100 2008
Upload Date  : Mon Feb 25 21:19:13 GMT+0100 2008
Views        : 201
Comments     : 0


+---------+
|  TITLE  |
+---------+
Hippo


+---------------+
|  DESCRIPTION  |
+---------------+
(no description)


+--------+
|  TAGS  |
+--------+
zoo hippo nilpferd 