+--------------------------------------+
|   Flickr Photo Metadata              |
|   Created by Bulkr on Mar 04, 2016   |
|   http://clipyourphotos.com/bulkr    |
+--------------------------------------+

+--------+
|  INFO  |
+--------+
Photographer : richardrichard
Photo URL    : https://www.flickr.com/photos/richardtoller/20947383634/
License      : Creative Commons (http://creativecommons.org/licenses)
Taken Date   : Thu Sep 17 07:51:37 GMT+0200 2015
Upload Date  : Sun Sep 20 17:46:10 GMT+0200 2015
Views        : 56
Comments     : 0


+---------+
|  TITLE  |
+---------+
20150917-IMG_9866


+---------------+
|  DESCRIPTION  |
+---------------+
Hippos


+--------+
|  TAGS  |
+--------+
hippo hippopotamus luangwa river zambia 