+--------------------------------------+
|   Flickr Photo Metadata              |
|   Created by Bulkr on Mar 04, 2016   |
|   http://clipyourphotos.com/bulkr    |
+--------------------------------------+

+--------+
|  INFO  |
+--------+
Photographer : Mostly Dans
Photo URL    : https://www.flickr.com/photos/dannyboymalinga/15004068040/
License      : Creative Commons (http://creativecommons.org/licenses)
Taken Date   : Sun Sep 7 13:40:13 GMT+0200 2014
Upload Date  : Tue Sep 9 18:56:16 GMT+0200 2014
Views        : 537
Comments     : 0


+---------+
|  TITLE  |
+---------+
hippos


+---------------+
|  DESCRIPTION  |
+---------------+
(no description)


+--------+
|  TAGS  |
+--------+
"whipsnade zoo" hippopotamus hippo 