+--------------------------------------+
|   Flickr Photo Metadata              |
|   Created by Bulkr on Mar 06, 2016   |
|   http://clipyourphotos.com/bulkr    |
+--------------------------------------+

+--------+
|  INFO  |
+--------+
Photographer : belgianchocolate
Photo URL    : https://www.flickr.com/photos/frank-wouters/2254519671/
License      : Creative Commons (http://creativecommons.org/licenses)
Taken Date   : Sun Feb 3 13:51:48 GMT+0100 2008
Upload Date  : Sun Feb 10 17:11:02 GMT+0100 2008
Views        : 391
Comments     : 2


+---------+
|  TITLE  |
+---------+
Hippo


+---------------+
|  DESCRIPTION  |
+---------------+
(no description)


+--------+
|  TAGS  |
+--------+
hippo wenen wien nijlpaard 