+--------------------------------------+
|   Flickr Photo Metadata              |
|   Created by Bulkr on Mar 06, 2016   |
|   http://clipyourphotos.com/bulkr    |
+--------------------------------------+

+--------+
|  INFO  |
+--------+
Photographer : Mat Wall
Photo URL    : https://www.flickr.com/photos/matwall/18876939703/
License      : Creative Commons (http://creativecommons.org/licenses)
Taken Date   : Tue Jun 30 13:38:36 GMT+0200 2015
Upload Date  : Tue Jul 7 17:34:42 GMT+0200 2015
Views        : 15
Comments     : 0


+---------+
|  TITLE  |
+---------+
Hippo


+---------------+
|  DESCRIPTION  |
+---------------+
(no description)


+--------+
|  TAGS  |
+--------+
(no tags)