+--------------------------------------+
|   Flickr Photo Metadata              |
|   Created by Bulkr on Mar 04, 2016   |
|   http://clipyourphotos.com/bulkr    |
+--------------------------------------+

+--------+
|  INFO  |
+--------+
Photographer : Kabacchi
Photo URL    : https://www.flickr.com/photos/kabacchi/5513308911/
License      : Creative Commons (http://creativecommons.org/licenses)
Taken Date   : Thu Mar 10 11:27:09 GMT+0100 2011
Upload Date  : Thu Mar 10 03:27:09 GMT+0100 2011
Views        : 381
Comments     : 0


+---------+
|  TITLE  |
+---------+
Hippopotamus - 06


+---------------+
|  DESCRIPTION  |
+---------------+
(no description)


+--------+
|  TAGS  |
+--------+
Hippopotamus カバ 河馬 上野動物園 Animal 動物 Mammalia 哺乳類 ~Hippopotamus~ 