+--------------------------------------+
|   Flickr Photo Metadata              |
|   Created by Bulkr on Mar 03, 2016   |
|   http://clipyourphotos.com/bulkr    |
+--------------------------------------+

+--------+
|  INFO  |
+--------+
Photographer : dukila
Photo URL    : https://www.flickr.com/photos/dukila/8377099656/
License      : Creative Commons (http://creativecommons.org/licenses)
Taken Date   : Sun Apr 17 09:50:24 GMT+0200 2011
Upload Date  : Sun Jan 13 17:09:40 GMT+0100 2013
Views        : 350
Comments     : 0


+---------+
|  TITLE  |
+---------+
Tiger


+---------------+
|  DESCRIPTION  |
+---------------+
(no description)


+--------+
|  TAGS  |
+--------+
Tiger Tierpark Zoo 