+--------------------------------------+
|   Flickr Photo Metadata              |
|   Created by Bulkr on Mar 03, 2016   |
|   http://clipyourphotos.com/bulkr    |
+--------------------------------------+

+--------+
|  INFO  |
+--------+
Photographer : jjandames
Photo URL    : https://www.flickr.com/photos/jjandames/4274987693/
License      : Creative Commons (http://creativecommons.org/licenses)
Taken Date   : Thu Jan 14 14:32:29 GMT+0100 2010
Upload Date  : Fri Jan 15 03:31:57 GMT+0100 2010
Views        : 20
Comments     : 0


+---------+
|  TITLE  |
+---------+
Tiger


+---------------+
|  DESCRIPTION  |
+---------------+
(no description)


+--------+
|  TAGS  |
+--------+
Phoenix Arizona Zoo 