+--------------------------------------+
|   Flickr Photo Metadata              |
|   Created by Bulkr on Mar 03, 2016   |
|   http://clipyourphotos.com/bulkr    |
+--------------------------------------+

+--------+
|  INFO  |
+--------+
Photographer : melycgcg
Photo URL    : https://www.flickr.com/photos/110269355@N06/15337231757/
License      : Creative Commons (http://creativecommons.org/licenses)
Taken Date   : Sun Sep 28 03:09:23 GMT+0200 2014
Upload Date  : Mon Oct 13 08:47:59 GMT+0200 2014
Views        : 1,022
Comments     : 0


+---------+
|  TITLE  |
+---------+
White tiger


+---------------+
|  DESCRIPTION  |
+---------------+
(no description)


+--------+
|  TAGS  |
+--------+
tiger white zoo mexico nuevoleon 