+--------------------------------------+
|   Flickr Photo Metadata              |
|   Created by Bulkr on Mar 03, 2016   |
|   http://clipyourphotos.com/bulkr    |
+--------------------------------------+

+--------+
|  INFO  |
+--------+
Photographer : al_bee
Photo URL    : https://www.flickr.com/photos/31762350@N03/2973330757/
License      : Creative Commons (http://creativecommons.org/licenses)
Taken Date   : Tue Dec 4 16:14:20 GMT+0100 2007
Upload Date  : Sun Oct 26 10:17:09 GMT+0100 2008
Views        : 78
Comments     : 1


+---------+
|  TITLE  |
+---------+
White tiger


+---------------+
|  DESCRIPTION  |
+---------------+
(no description)


+--------+
|  TAGS  |
+--------+
tiger "Animal Planet" 