+--------------------------------------+
|   Flickr Photo Metadata              |
|   Created by Bulkr on Mar 03, 2016   |
|   http://clipyourphotos.com/bulkr    |
+--------------------------------------+

+--------+
|  INFO  |
+--------+
Photographer : e³°°°
Photo URL    : https://www.flickr.com/photos/e3000/3107314420/
License      : Creative Commons (http://creativecommons.org/licenses)
Taken Date   : Thu Aug 10 13:21:01 GMT+0200 2006
Upload Date  : Sun Dec 14 13:02:30 GMT+0100 2008
Views        : 13,036
Comments     : 17


+---------+
|  TITLE  |
+---------+
Sleeping beauty, dreaming of lots of meat.


+---------------+
|  DESCRIPTION  |
+---------------+
Grote luie kat, Olmen. Besluipen en dan plots boe! roepen.


+--------+
|  TAGS  |
+--------+
Panthera "Panthera tigris" tiger tijger tigre cat "big cat" Felidae poes pussy pussycat carnivora carnivoor predator claws poot paw sleep "sleeping beauty" dangerous Olmen naturepix ILOVENATURE FlickrBigCats 