+--------------------------------------+
|   Flickr Photo Metadata              |
|   Created by Bulkr on Mar 03, 2016   |
|   http://clipyourphotos.com/bulkr    |
+--------------------------------------+

+--------+
|  INFO  |
+--------+
Photographer : mathowie
Photo URL    : https://www.flickr.com/photos/mathowie/5545556473/
License      : Creative Commons (http://creativecommons.org/licenses)
Taken Date   : Sun Mar 20 14:20:51 GMT+0100 2011
Upload Date  : Mon Mar 21 07:50:26 GMT+0100 2011
Views        : 145
Comments     : 0


+---------+
|  TITLE  |
+---------+
Tiger


+---------------+
|  DESCRIPTION  |
+---------------+
(no description)


+--------+
|  TAGS  |
+--------+
oregonzoo 