+--------------------------------------+
|   Flickr Photo Metadata              |
|   Created by Bulkr on Mar 03, 2016   |
|   http://clipyourphotos.com/bulkr    |
+--------------------------------------+

+--------+
|  INFO  |
+--------+
Photographer : miss miki <3
Photo URL    : https://www.flickr.com/photos/mhashimoto/109161976/
License      : Creative Commons (http://creativecommons.org/licenses)
Taken Date   : Tue Mar 7 20:30:10 GMT+0100 2006
Upload Date  : Tue Mar 7 12:30:10 GMT+0100 2006
Views        : 27
Comments     : 0


+---------+
|  TITLE  |
+---------+
tiger


+---------------+
|  DESCRIPTION  |
+---------------+
(no description)


+--------+
|  TAGS  |
+--------+
Animal Zoo Ueno Tokyo Japan tiger 