+--------------------------------------+
|   Flickr Photo Metadata              |
|   Created by Bulkr on Mar 03, 2016   |
|   http://clipyourphotos.com/bulkr    |
+--------------------------------------+

+--------+
|  INFO  |
+--------+
Photographer : harrymoon
Photo URL    : https://www.flickr.com/photos/harrymoon/2131447783/
License      : Creative Commons (http://creativecommons.org/licenses)
Taken Date   : Sun Dec 23 14:05:30 GMT+0100 2007
Upload Date  : Mon Dec 24 01:25:30 GMT+0100 2007
Views        : 72
Comments     : 6


+---------+
|  TITLE  |
+---------+
tiger


+---------------+
|  DESCRIPTION  |
+---------------+
like roxette said, you got the look


+--------+
|  TAGS  |
+--------+
Tiger Chester "Chester Zoo" 