+--------------------------------------+
|   Flickr Photo Metadata              |
|   Created by Bulkr on Mar 03, 2016   |
|   http://clipyourphotos.com/bulkr    |
+--------------------------------------+

+--------+
|  INFO  |
+--------+
Photographer : cindyt7070
Photo URL    : https://www.flickr.com/photos/cindy-t/2027873661/
License      : Creative Commons (http://creativecommons.org/licenses)
Taken Date   : Wed Nov 14 22:37:11 GMT+0100 2007
Upload Date  : Thu Nov 15 05:50:05 GMT+0100 2007
Views        : 194
Comments     : 0


+---------+
|  TITLE  |
+---------+
Tiger Resting


+---------------+
|  DESCRIPTION  |
+---------------+
(no description)


+--------+
|  TAGS  |
+--------+
Tiger 