+--------------------------------------+
|   Flickr Photo Metadata              |
|   Created by Bulkr on Mar 03, 2016   |
|   http://clipyourphotos.com/bulkr    |
+--------------------------------------+

+--------+
|  INFO  |
+--------+
Photographer : mattyturner
Photo URL    : https://www.flickr.com/photos/mattyturner/2019739733/
License      : Creative Commons (http://creativecommons.org/licenses)
Taken Date   : Tue Nov 13 03:13:12 GMT+0100 2007
Upload Date  : Wed Nov 14 18:28:43 GMT+0100 2007
Views        : 697
Comments     : 0


+---------+
|  TITLE  |
+---------+
Tigers


+---------------+
|  DESCRIPTION  |
+---------------+
(no description)


+--------+
|  TAGS  |
+--------+
zoo sanfrancisco tiger christmas 