+--------------------------------------+
|   Flickr Photo Metadata              |
|   Created by Bulkr on Mar 03, 2016   |
|   http://clipyourphotos.com/bulkr    |
+--------------------------------------+

+--------+
|  INFO  |
+--------+
Photographer : newelly54
Photo URL    : https://www.flickr.com/photos/newelly/4358506274/
License      : Creative Commons (http://creativecommons.org/licenses)
Taken Date   : Sun Feb 14 14:01:56 GMT+0100 2010
Upload Date  : Mon Feb 15 05:10:51 GMT+0100 2010
Views        : 53
Comments     : 0


+---------+
|  TITLE  |
+---------+
tiger


+---------------+
|  DESCRIPTION  |
+---------------+
(no description)


+--------+
|  TAGS  |
+--------+
Tiger alberta animals calgaryzoo canada calgary zoo 