+--------------------------------------+
|   Flickr Photo Metadata              |
|   Created by Bulkr on Mar 03, 2016   |
|   http://clipyourphotos.com/bulkr    |
+--------------------------------------+

+--------+
|  INFO  |
+--------+
Photographer : nist6ss
Photo URL    : https://www.flickr.com/photos/53771866@N05/6324627413/
License      : Creative Commons (http://creativecommons.org/licenses)
Taken Date   : Sun Apr 16 01:50:37 GMT+0200 2000
Upload Date  : Tue Nov 8 08:46:25 GMT+0100 2011
Views        : 576
Comments     : 0


+---------+
|  TITLE  |
+---------+
With the Tiger


+---------------+
|  DESCRIPTION  |
+---------------+
(no description)


+--------+
|  TAGS  |
+--------+
Tiger 