+--------------------------------------+
|   Flickr Photo Metadata              |
|   Created by Bulkr on Mar 03, 2016   |
|   http://clipyourphotos.com/bulkr    |
+--------------------------------------+

+--------+
|  INFO  |
+--------+
Photographer : lupisfer
Photo URL    : https://www.flickr.com/photos/lupisfer/23921483630/
License      : Creative Commons (http://creativecommons.org/licenses)
Taken Date   : Wed Dec 30 13:58:03 GMT+0100 2015
Upload Date  : Wed Jan 6 22:09:02 GMT+0100 2016
Views        : 107
Comments     : 0


+---------+
|  TITLE  |
+---------+
Tiger


+---------------+
|  DESCRIPTION  |
+---------------+
(no description)


+--------+
|  TAGS  |
+--------+
london zoo tiger 