+--------------------------------------+
|   Flickr Photo Metadata              |
|   Created by Bulkr on Mar 03, 2016   |
|   http://clipyourphotos.com/bulkr    |
+--------------------------------------+

+--------+
|  INFO  |
+--------+
Photographer : Brintam
Photo URL    : https://www.flickr.com/photos/martin_borjesson/5917013262/
License      : Creative Commons (http://creativecommons.org/licenses)
Taken Date   : Fri Jun 24 12:34:24 GMT+0200 2011
Upload Date  : Sat Jul 9 00:54:56 GMT+0200 2011
Views        : 347
Comments     : 0


+---------+
|  TITLE  |
+---------+
Tiger at Odense Zoo


+---------------+
|  DESCRIPTION  |
+---------------+
(no description)


+--------+
|  TAGS  |
+--------+
odense zoo tiger yawn tooth 