+--------------------------------------+
|   Flickr Photo Metadata              |
|   Created by Bulkr on Mar 03, 2016   |
|   http://clipyourphotos.com/bulkr    |
+--------------------------------------+

+--------+
|  INFO  |
+--------+
Photographer : Anthonut
Photo URL    : https://www.flickr.com/photos/anthonut/2627467568/
License      : Creative Commons (http://creativecommons.org/licenses)
Taken Date   : Mon Jun 30 13:42:52 GMT+0200 2008
Upload Date  : Tue Jul 1 07:54:48 GMT+0200 2008
Views        : 81
Comments     : 0


+---------+
|  TITLE  |
+---------+
amur tiger 1


+---------------+
|  DESCRIPTION  |
+---------------+
(no description)


+--------+
|  TAGS  |
+--------+
philadelphiazoo tiger philadelphia zoo 