+--------------------------------------+
|   Flickr Photo Metadata              |
|   Created by Bulkr on Mar 03, 2016   |
|   http://clipyourphotos.com/bulkr    |
+--------------------------------------+

+--------+
|  INFO  |
+--------+
Photographer : justatenderaffair
Photo URL    : https://www.flickr.com/photos/justatenderaffair/9484182983/
License      : Creative Commons (http://creativecommons.org/licenses)
Taken Date   : Fri Aug 9 11:36:55 GMT+0200 2013
Upload Date  : Sun Aug 11 15:36:57 GMT+0200 2013
Views        : 80
Comments     : 0


+---------+
|  TITLE  |
+---------+
Amur tiger


+---------------+
|  DESCRIPTION  |
+---------------+
(no description)


+--------+
|  TAGS  |
+--------+
"dublin zoo" tiger 