+--------------------------------------+
|   Flickr Photo Metadata              |
|   Created by Bulkr on Mar 03, 2016   |
|   http://clipyourphotos.com/bulkr    |
+--------------------------------------+

+--------+
|  INFO  |
+--------+
Photographer : Christopher Kray Visuals
Photo URL    : https://www.flickr.com/photos/85208536@N02/11291331473/
License      : Creative Commons (http://creativecommons.org/licenses)
Taken Date   : Sun Nov 24 08:55:03 GMT+0100 2013
Upload Date  : Mon Dec 9 16:30:42 GMT+0100 2013
Views        : 1,245
Comments     : 1


+---------+
|  TITLE  |
+---------+
Walking Here!!


+---------------+
|  DESCRIPTION  |
+---------------+
(no description)


+--------+
|  TAGS  |
+--------+
tiger 