+--------------------------------------+
|   Flickr Photo Metadata              |
|   Created by Bulkr on Mar 03, 2016   |
|   http://clipyourphotos.com/bulkr    |
+--------------------------------------+

+--------+
|  INFO  |
+--------+
Photographer : jasonfarmer
Photo URL    : https://www.flickr.com/photos/23975475@N04/7931757370/
License      : Creative Commons (http://creativecommons.org/licenses)
Taken Date   : Sat Sep 1 11:17:37 GMT+0200 2012
Upload Date  : Tue Sep 4 21:11:09 GMT+0200 2012
Views        : 243
Comments     : 0


+---------+
|  TITLE  |
+---------+
tiger at dudley zoo


+---------------+
|  DESCRIPTION  |
+---------------+
(no description)


+--------+
|  TAGS  |
+--------+
tiger dudley zoo eos 550d 