+--------------------------------------+
|   Flickr Photo Metadata              |
|   Created by Bulkr on Mar 03, 2016   |
|   http://clipyourphotos.com/bulkr    |
+--------------------------------------+

+--------+
|  INFO  |
+--------+
Photographer : djdpascoe
Photo URL    : https://www.flickr.com/photos/djdpascoe/400761405/
License      : Creative Commons (http://creativecommons.org/licenses)
Taken Date   : Sat Feb 24 14:40:11 GMT+0100 2007
Upload Date  : Sat Feb 24 16:11:02 GMT+0100 2007
Views        : 20
Comments     : 0


+---------+
|  TITLE  |
+---------+
tiger


+---------------+
|  DESCRIPTION  |
+---------------+
(no description)


+--------+
|  TAGS  |
+--------+
moo pictures 