+--------------------------------------+
|   Flickr Photo Metadata              |
|   Created by Bulkr on Mar 03, 2016   |
|   http://clipyourphotos.com/bulkr    |
+--------------------------------------+

+--------+
|  INFO  |
+--------+
Photographer : greyhound dad
Photo URL    : https://www.flickr.com/photos/greymaster/8515560551/
License      : Creative Commons (http://creativecommons.org/licenses)
Taken Date   : Wed Feb 27 13:12:56 GMT+0100 2013
Upload Date  : Thu Feb 28 19:04:10 GMT+0100 2013
Views        : 34
Comments     : 0


+---------+
|  TITLE  |
+---------+
Tiger


+---------------+
|  DESCRIPTION  |
+---------------+
(no description)


+--------+
|  TAGS  |
+--------+
Nikon Animals P510 "James Albright" Tampa "Busch Gardens" Tigers 