+--------------------------------------+
|   Flickr Photo Metadata              |
|   Created by Bulkr on Mar 03, 2016   |
|   http://clipyourphotos.com/bulkr    |
+--------------------------------------+

+--------+
|  INFO  |
+--------+
Photographer : nectarous
Photo URL    : https://www.flickr.com/photos/nectarous/2882973495/
License      : Creative Commons (http://creativecommons.org/licenses)
Taken Date   : Sat Sep 6 21:17:08 GMT+0200 2008
Upload Date  : Wed Sep 24 02:00:49 GMT+0200 2008
Views        : 21
Comments     : 0


+---------+
|  TITLE  |
+---------+
Tiger


+---------------+
|  DESCRIPTION  |
+---------------+
(no description)


+--------+
|  TAGS  |
+--------+
(no tags)