+--------------------------------------+
|   Flickr Photo Metadata              |
|   Created by Bulkr on Mar 03, 2016   |
|   http://clipyourphotos.com/bulkr    |
+--------------------------------------+

+--------+
|  INFO  |
+--------+
Photographer : Care_SMC
Photo URL    : https://www.flickr.com/photos/75491103@N00/5477953090/
License      : Creative Commons (http://creativecommons.org/licenses)
Taken Date   : Tue Feb 22 16:44:34 GMT+0100 2011
Upload Date  : Sat Feb 26 02:48:35 GMT+0100 2011
Views        : 221
Comments     : 0


+---------+
|  TITLE  |
+---------+
Tiger


+---------------+
|  DESCRIPTION  |
+---------------+
(no description)


+--------+
|  TAGS  |
+--------+
Tiger "Ft Worth Zoo" TX 