+--------------------------------------+
|   Flickr Photo Metadata              |
|   Created by Bulkr on Mar 03, 2016   |
|   http://clipyourphotos.com/bulkr    |
+--------------------------------------+

+--------+
|  INFO  |
+--------+
Photographer : CrazyCh3m
Photo URL    : https://www.flickr.com/photos/crazychem/4446543927/
License      : Creative Commons (http://creativecommons.org/licenses)
Taken Date   : Wed Mar 17 14:32:52 GMT+0100 2010
Upload Date  : Sat Mar 20 06:24:44 GMT+0100 2010
Views        : 96
Comments     : 0


+---------+
|  TITLE  |
+---------+
tiger


+---------------+
|  DESCRIPTION  |
+---------------+
(no description)


+--------+
|  TAGS  |
+--------+
animal zoo melbourne australia tigre tiger 