+--------------------------------------+
|   Flickr Photo Metadata              |
|   Created by Bulkr on Mar 03, 2016   |
|   http://clipyourphotos.com/bulkr    |
+--------------------------------------+

+--------+
|  INFO  |
+--------+
Photographer : ChristieFierro
Photo URL    : https://www.flickr.com/photos/christiefierro/12023720084/
License      : Creative Commons (http://creativecommons.org/licenses)
Taken Date   : Sat Oct 20 03:43:24 GMT+0200 2012
Upload Date  : Sun Jan 19 05:15:41 GMT+0100 2014
Views        : 44
Comments     : 0


+---------+
|  TITLE  |
+---------+
chillin


+---------------+
|  DESCRIPTION  |
+---------------+
(no description)


+--------+
|  TAGS  |
+--------+
tiger 