+--------------------------------------+
|   Flickr Photo Metadata              |
|   Created by Bulkr on Mar 11, 2016   |
|   http://clipyourphotos.com/bulkr    |
+--------------------------------------+

+--------+
|  INFO  |
+--------+
Photographer : Mafue
Photo URL    : https://www.flickr.com/photos/mafue/5038883889/
License      : Creative Commons (http://creativecommons.org/licenses)
Taken Date   : Sun Jul 4 10:29:56 GMT+0200 2010
Upload Date  : Thu Sep 30 18:23:50 GMT+0200 2010
Views        : 11
Comments     : 0


+---------+
|  TITLE  |
+---------+
Squirrel


+---------------+
|  DESCRIPTION  |
+---------------+
(no description)


+--------+
|  TAGS  |
+--------+
mafue 2010 