+--------------------------------------+
|   Flickr Photo Metadata              |
|   Created by Bulkr on Mar 11, 2016   |
|   http://clipyourphotos.com/bulkr    |
+--------------------------------------+

+--------+
|  INFO  |
+--------+
Photographer : MICOLO J Thanx 4, 2.2 million+ views
Photo URL    : https://www.flickr.com/photos/robin1966/15990813254/
License      : Creative Commons (http://creativecommons.org/licenses)
Taken Date   : Fri Feb 20 21:29:08 GMT+0100 2015
Upload Date  : Sun Feb 22 16:39:33 GMT+0100 2015
Views        : 461
Comments     : 6


+---------+
|  TITLE  |
+---------+
Squirrel portrait


+---------------+
|  DESCRIPTION  |
+---------------+
(no description)


+--------+
|  TAGS  |
+--------+
bbcwinterwatch 