+--------------------------------------+
|   Flickr Photo Metadata              |
|   Created by Bulkr on Mar 11, 2016   |
|   http://clipyourphotos.com/bulkr    |
+--------------------------------------+

+--------+
|  INFO  |
+--------+
Photographer : Oneras
Photo URL    : https://www.flickr.com/photos/oneras/6322522922/
License      : Creative Commons (http://creativecommons.org/licenses)
Taken Date   : Sun Dec 5 21:31:11 GMT+0100 2010
Upload Date  : Mon Nov 7 15:22:22 GMT+0100 2011
Views        : 1,254
Comments     : 0


+---------+
|  TITLE  |
+---------+
Squirrel


+---------------+
|  DESCRIPTION  |
+---------------+
<a href="https://www.safecreative.org/work/1110270388186" rel="nofollow">www.safecreative.org/work/1110270388186</a>


+--------+
|  TAGS  |
+--------+
"1 Star" 