+--------------------------------------+
|   Flickr Photo Metadata              |
|   Created by Bulkr on Mar 11, 2016   |
|   http://clipyourphotos.com/bulkr    |
+--------------------------------------+

+--------+
|  INFO  |
+--------+
Photographer : rkimpeljr
Photo URL    : https://www.flickr.com/photos/rkimpeljr/295354499/
License      : Creative Commons (http://creativecommons.org/licenses)
Taken Date   : Thu Nov 9 18:02:58 GMT+0100 2006
Upload Date  : Sun Nov 12 15:44:18 GMT+0100 2006
Geotag Info  : Latitude:32.034255, Longitude:-102.090577
Views        : 423
Comments     : 0


+---------+
|  TITLE  |
+---------+
aurgh


+---------------+
|  DESCRIPTION  |
+---------------+
forgot to switch it from video mode.  this was going to be a good pic.  :-(
the trees in the background are reflected off a building.  It was a cool effect that really doesn't come across.


+--------+
|  TAGS  |
+--------+
squirrel checkthedamnsettingsnexttimestupid baby elephant 