+--------------------------------------+
|   Flickr Photo Metadata              |
|   Created by Bulkr on Mar 11, 2016   |
|   http://clipyourphotos.com/bulkr    |
+--------------------------------------+

+--------+
|  INFO  |
+--------+
Photographer : Emilio_13
Photo URL    : https://www.flickr.com/photos/emil_kabanov/16352076979/
License      : Creative Commons (http://creativecommons.org/licenses)
Taken Date   : Fri Apr 25 14:46:20 GMT+0200 2014
Upload Date  : Sun Feb 15 16:20:05 GMT+0100 2015
Views        : 97
Comments     : 0


+---------+
|  TITLE  |
+---------+
squirrel


+---------------+
|  DESCRIPTION  |
+---------------+
(no description)


+--------+
|  TAGS  |
+--------+
mammals squirrels 