+--------------------------------------+
|   Flickr Photo Metadata              |
|   Created by Bulkr on Mar 11, 2016   |
|   http://clipyourphotos.com/bulkr    |
+--------------------------------------+

+--------+
|  INFO  |
+--------+
Photographer : Aphexlee
Photo URL    : https://www.flickr.com/photos/aphexlee/5231249537/
License      : Creative Commons (http://creativecommons.org/licenses)
Taken Date   : Sat Dec 4 15:36:27 GMT+0100 2010
Upload Date  : Sat Dec 4 16:54:42 GMT+0100 2010
Views        : 123
Comments     : 0


+---------+
|  TITLE  |
+---------+
Nut Snack


+---------------+
|  DESCRIPTION  |
+---------------+
(no description)


+--------+
|  TAGS  |
+--------+
"peckham rye" london squirrel 