+--------------------------------------+
|   Flickr Photo Metadata              |
|   Created by Bulkr on Mar 11, 2016   |
|   http://clipyourphotos.com/bulkr    |
+--------------------------------------+

+--------+
|  INFO  |
+--------+
Photographer : Lala Photography at JoLi Studios Colchester
Photo URL    : https://www.flickr.com/photos/leasepics/2126743891/
License      : Creative Commons (http://creativecommons.org/licenses)
Taken Date   : Fri Dec 21 15:00:06 GMT+0100 2007
Upload Date  : Fri Dec 21 20:08:32 GMT+0100 2007
Views        : 287
Comments     : 0


+---------+
|  TITLE  |
+---------+
squirrel


+---------------+
|  DESCRIPTION  |
+---------------+
(no description)


+--------+
|  TAGS  |
+--------+
Squirrel Nature Nuts Leasepics frog dog geese birds horse rats turtle cat pigeon buster elles obi eve ava wild life pond mouse 