+--------------------------------------+
|   Flickr Photo Metadata              |
|   Created by Bulkr on Mar 11, 2016   |
|   http://clipyourphotos.com/bulkr    |
+--------------------------------------+

+--------+
|  INFO  |
+--------+
Photographer : postman.pete
Photo URL    : https://www.flickr.com/photos/postmanpetecoluk/21254471940/
License      : Creative Commons (http://creativecommons.org/licenses)
Taken Date   : Tue Sep 15 13:56:21 GMT+0200 2015
Upload Date  : Tue Sep 15 18:46:02 GMT+0200 2015
Views        : 127
Comments     : 0


+---------+
|  TITLE  |
+---------+
Squirrel


+---------------+
|  DESCRIPTION  |
+---------------+
(no description)


+--------+
|  TAGS  |
+--------+
canon colchester j jay squirrel grey post fly flight wings colours nuts park moorhen dad mum family preening pond high woods country 