+--------------------------------------+
|   Flickr Photo Metadata              |
|   Created by Bulkr on Mar 11, 2016   |
|   http://clipyourphotos.com/bulkr    |
+--------------------------------------+

+--------+
|  INFO  |
+--------+
Photographer : lancefisher
Photo URL    : https://www.flickr.com/photos/lancefisher/290866795/
License      : Creative Commons (http://creativecommons.org/licenses)
Taken Date   : Sun Nov 5 13:44:22 GMT+0100 2006
Upload Date  : Mon Nov 6 22:03:13 GMT+0100 2006
Views        : 135
Comments     : 2


+---------+
|  TITLE  |
+---------+
IMG_3223


+---------------+
|  DESCRIPTION  |
+---------------+
(no description)


+--------+
|  TAGS  |
+--------+
squirrel tree beer busch missoula 