+--------------------------------------+
|   Flickr Photo Metadata              |
|   Created by Bulkr on Mar 11, 2016   |
|   http://clipyourphotos.com/bulkr    |
+--------------------------------------+

+--------+
|  INFO  |
+--------+
Photographer : angela n.
Photo URL    : https://www.flickr.com/photos/aon/8924345905/
License      : Creative Commons (http://creativecommons.org/licenses)
Taken Date   : Sat May 25 12:26:19 GMT+0200 2013
Upload Date  : Mon Jun 3 02:53:00 GMT+0200 2013
Views        : 24
Comments     : 0


+---------+
|  TITLE  |
+---------+
Squirrel


+---------------+
|  DESCRIPTION  |
+---------------+
(no description)


+--------+
|  TAGS  |
+--------+
(no tags)