+--------------------------------------+
|   Flickr Photo Metadata              |
|   Created by Bulkr on Mar 11, 2016   |
|   http://clipyourphotos.com/bulkr    |
+--------------------------------------+

+--------+
|  INFO  |
+--------+
Photographer : Lapatia
Photo URL    : https://www.flickr.com/photos/lapatia/7178575620/
License      : Creative Commons (http://creativecommons.org/licenses)
Taken Date   : Sat May 5 11:19:31 GMT+0200 2012
Upload Date  : Fri May 11 23:24:25 GMT+0200 2012
Views        : 118
Comments     : 0


+---------+
|  TITLE  |
+---------+
Squirrell


+---------------+
|  DESCRIPTION  |
+---------------+
(no description)


+--------+
|  TAGS  |
+--------+
scoiattolo squirrel 