+--------------------------------------+
|   Flickr Photo Metadata              |
|   Created by Bulkr on Mar 11, 2016   |
|   http://clipyourphotos.com/bulkr    |
+--------------------------------------+

+--------+
|  INFO  |
+--------+
Photographer : AlicePopkorn2
Photo URL    : https://www.flickr.com/photos/47283811@N06/15312913123/
License      : Creative Commons (http://creativecommons.org/licenses)
Taken Date   : Wed Nov 5 14:05:25 GMT+0100 2014
Upload Date  : Tue Dec 2 20:31:08 GMT+0100 2014
Views        : 224
Comments     : 0


+---------+
|  TITLE  |
+---------+
squirrel


+---------------+
|  DESCRIPTION  |
+---------------+
(no description)


+--------+
|  TAGS  |
+--------+
Eichhörnchen squirrel 