+--------------------------------------+
|   Flickr Photo Metadata              |
|   Created by Bulkr on Mar 11, 2016   |
|   http://clipyourphotos.com/bulkr    |
+--------------------------------------+

+--------+
|  INFO  |
+--------+
Photographer : yakubovich
Photo URL    : https://www.flickr.com/photos/yakubovich/8377960646/
License      : Creative Commons (http://creativecommons.org/licenses)
Taken Date   : Sun Nov 20 17:19:17 GMT+0100 2011
Upload Date  : Sun Jan 13 21:08:48 GMT+0100 2013
Views        : 64
Comments     : 0


+---------+
|  TITLE  |
+---------+
Come at me, bro


+---------------+
|  DESCRIPTION  |
+---------------+
(no description)


+--------+
|  TAGS  |
+--------+
squirrel 