+--------------------------------------+
|   Flickr Photo Metadata              |
|   Created by Bulkr on Mar 11, 2016   |
|   http://clipyourphotos.com/bulkr    |
+--------------------------------------+

+--------+
|  INFO  |
+--------+
Photographer : meth2odus
Photo URL    : https://www.flickr.com/photos/savop/8522478640/
License      : Creative Commons (http://creativecommons.org/licenses)
Taken Date   : Sun Apr 10 14:32:58 GMT+0200 2011
Upload Date  : Sat Mar 2 21:10:52 GMT+0100 2013
Views        : 23
Comments     : 0


+---------+
|  TITLE  |
+---------+
_MG_6459


+---------------+
|  DESCRIPTION  |
+---------------+
(no description)


+--------+
|  TAGS  |
+--------+
Squirrel 