+--------------------------------------+
|   Flickr Photo Metadata              |
|   Created by Bulkr on Mar 11, 2016   |
|   http://clipyourphotos.com/bulkr    |
+--------------------------------------+

+--------+
|  INFO  |
+--------+
Photographer : AngieSix
Photo URL    : https://www.flickr.com/photos/angiesix/8678694242/
License      : Creative Commons (http://creativecommons.org/licenses)
Taken Date   : Tue Apr 16 11:44:51 GMT+0200 2013
Upload Date  : Wed Apr 24 18:25:05 GMT+0200 2013
Views        : 61
Comments     : 0


+---------+
|  TITLE  |
+---------+
IMG_2886


+---------------+
|  DESCRIPTION  |
+---------------+
(no description)


+--------+
|  TAGS  |
+--------+
Nature squirrel 