+--------------------------------------+
|   Flickr Photo Metadata              |
|   Created by Bulkr on Mar 11, 2016   |
|   http://clipyourphotos.com/bulkr    |
+--------------------------------------+

+--------+
|  INFO  |
+--------+
Photographer : Saundra Castaneda
Photo URL    : https://www.flickr.com/photos/91413832@N05/16518681674/
License      : Creative Commons (http://creativecommons.org/licenses)
Taken Date   : Wed Sep 17 17:27:53 GMT+0200 2014
Upload Date  : Tue Apr 14 06:55:02 GMT+0200 2015
Views        : 58
Comments     : 0


+---------+
|  TITLE  |
+---------+
squirrel


+---------------+
|  DESCRIPTION  |
+---------------+
(no description)


+--------+
|  TAGS  |
+--------+
squirrel animal nature critter cute 