+--------------------------------------+
|   Flickr Photo Metadata              |
|   Created by Bulkr on Mar 11, 2016   |
|   http://clipyourphotos.com/bulkr    |
+--------------------------------------+

+--------+
|  INFO  |
+--------+
Photographer : suneko
Photo URL    : https://www.flickr.com/photos/suneko/54294481/
License      : Creative Commons (http://creativecommons.org/licenses)
Taken Date   : Sat Oct 15 16:22:37 GMT+0200 2005
Upload Date  : Thu Oct 20 15:47:02 GMT+0200 2005
Views        : 691
Comments     : 3


+---------+
|  TITLE  |
+---------+
IMG_5645-01


+---------------+
|  DESCRIPTION  |
+---------------+
(no description)


+--------+
|  TAGS  |
+--------+
animal Squirrel cute lunch 