+--------------------------------------+
|   Flickr Photo Metadata              |
|   Created by Bulkr on Mar 11, 2016   |
|   http://clipyourphotos.com/bulkr    |
+--------------------------------------+

+--------+
|  INFO  |
+--------+
Photographer : KimonBerlin
Photo URL    : https://www.flickr.com/photos/kimon/5746765919/
License      : Creative Commons (http://creativecommons.org/licenses)
Taken Date   : Sun Feb 27 19:06:43 GMT+0100 2011
Upload Date  : Sun May 22 18:54:53 GMT+0200 2011
Views        : 196
Comments     : 0


+---------+
|  TITLE  |
+---------+
IMG_4876


+---------------+
|  DESCRIPTION  |
+---------------+
(no description)


+--------+
|  TAGS  |
+--------+
squirrel snow 