+--------------------------------------+
|   Flickr Photo Metadata              |
|   Created by Bulkr on Mar 11, 2016   |
|   http://clipyourphotos.com/bulkr    |
+--------------------------------------+

+--------+
|  INFO  |
+--------+
Photographer : dr_tr
Photo URL    : https://www.flickr.com/photos/dr_tr/4652999873/
License      : Creative Commons (http://creativecommons.org/licenses)
Taken Date   : Sun May 30 15:02:46 GMT+0200 2010
Upload Date  : Sun May 30 20:16:49 GMT+0200 2010
Views        : 167
Comments     : 0


+---------+
|  TITLE  |
+---------+
Squirrel


+---------------+
|  DESCRIPTION  |
+---------------+
(no description)


+--------+
|  TAGS  |
+--------+
Squirrel Bun "Nikon D90" "Sigma DC 18-50 EX MACRO HSM" 