+--------------------------------------+
|   Flickr Photo Metadata              |
|   Created by Bulkr on Mar 11, 2016   |
|   http://clipyourphotos.com/bulkr    |
+--------------------------------------+

+--------+
|  INFO  |
+--------+
Photographer : diuis
Photo URL    : https://www.flickr.com/photos/diuis/15877619101/
License      : Creative Commons (http://creativecommons.org/licenses)
Taken Date   : Fri Nov 14 13:42:39 GMT+0100 2014
Upload Date  : Wed Nov 26 00:24:26 GMT+0100 2014
Views        : 189
Comments     : 0


+---------+
|  TITLE  |
+---------+
london_squirrel


+---------------+
|  DESCRIPTION  |
+---------------+
(no description)


+--------+
|  TAGS  |
+--------+
squirrel 