+--------------------------------------+
|   Flickr Photo Metadata              |
|   Created by Bulkr on Mar 11, 2016   |
|   http://clipyourphotos.com/bulkr    |
+--------------------------------------+

+--------+
|  INFO  |
+--------+
Photographer : Chibuz
Photo URL    : https://www.flickr.com/photos/chibuz/2378492691/
License      : Creative Commons (http://creativecommons.org/licenses)
Taken Date   : Sun Mar 23 22:03:15 GMT+0100 2008
Upload Date  : Tue Apr 1 05:08:22 GMT+0200 2008
Views        : 19
Comments     : 0


+---------+
|  TITLE  |
+---------+
Squirrel


+---------------+
|  DESCRIPTION  |
+---------------+
(no description)


+--------+
|  TAGS  |
+--------+
Easter Park 