+--------------------------------------+
|   Flickr Photo Metadata              |
|   Created by Bulkr on Mar 11, 2016   |
|   http://clipyourphotos.com/bulkr    |
+--------------------------------------+

+--------+
|  INFO  |
+--------+
Photographer : Martyn M
Photo URL    : https://www.flickr.com/photos/martyx/6238996340/
License      : Creative Commons (http://creativecommons.org/licenses)
Taken Date   : Fri Jan 1 00:00:00 GMT+0100 2010
Upload Date  : Wed Oct 12 23:41:04 GMT+0200 2011
Views        : 16
Comments     : 0


+---------+
|  TITLE  |
+---------+
Squirrel


+---------------+
|  DESCRIPTION  |
+---------------+
(no description)


+--------+
|  TAGS  |
+--------+
(no tags)