+--------------------------------------+
|   Flickr Photo Metadata              |
|   Created by Bulkr on Mar 11, 2016   |
|   http://clipyourphotos.com/bulkr    |
+--------------------------------------+

+--------+
|  INFO  |
+--------+
Photographer : tara marie
Photo URL    : https://www.flickr.com/photos/taramarie/16065452141/
License      : Creative Commons (http://creativecommons.org/licenses)
Taken Date   : Fri Dec 19 22:00:05 GMT+0100 2014
Upload Date  : Sun Dec 21 02:27:27 GMT+0100 2014
Views        : 5
Comments     : 0


+---------+
|  TITLE  |
+---------+
Squirrel


+---------------+
|  DESCRIPTION  |
+---------------+
(no description)


+--------+
|  TAGS  |
+--------+
(no tags)