+--------------------------------------+
|   Flickr Photo Metadata              |
|   Created by Bulkr on Mar 11, 2016   |
|   http://clipyourphotos.com/bulkr    |
+--------------------------------------+

+--------+
|  INFO  |
+--------+
Photographer : Ally Neznamy
Photo URL    : https://www.flickr.com/photos/allynez/5417049537/
License      : Creative Commons (http://creativecommons.org/licenses)
Taken Date   : Sun Oct 3 05:52:57 GMT+0200 2010
Upload Date  : Sat Feb 5 04:26:38 GMT+0100 2011
Views        : 16
Comments     : 0


+---------+
|  TITLE  |
+---------+
IMG_2410


+---------------+
|  DESCRIPTION  |
+---------------+
(no description)


+--------+
|  TAGS  |
+--------+
squirrel animals 