+--------------------------------------+
|   Flickr Photo Metadata              |
|   Created by Bulkr on Mar 11, 2016   |
|   http://clipyourphotos.com/bulkr    |
+--------------------------------------+

+--------+
|  INFO  |
+--------+
Photographer : vadimv
Photo URL    : https://www.flickr.com/photos/42381458@N03/3909619252/
License      : Creative Commons (http://creativecommons.org/licenses)
Taken Date   : Wed Sep 9 14:39:14 GMT+0200 2009
Upload Date  : Fri Sep 11 14:28:59 GMT+0200 2009
Views        : 23
Comments     : 0


+---------+
|  TITLE  |
+---------+
IMG_3956


+---------------+
|  DESCRIPTION  |
+---------------+
Посмотрели...


+--------+
|  TAGS  |
+--------+
Squirrel Белка 