+--------------------------------------+
|   Flickr Photo Metadata              |
|   Created by Bulkr on Mar 11, 2016   |
|   http://clipyourphotos.com/bulkr    |
+--------------------------------------+

+--------+
|  INFO  |
+--------+
Photographer : Anamorphic Mike
Photo URL    : https://www.flickr.com/photos/mike_nelson/5198580184/
License      : Creative Commons (http://creativecommons.org/licenses)
Taken Date   : Sun Nov 21 13:22:32 GMT+0100 2010
Upload Date  : Mon Nov 22 15:43:03 GMT+0100 2010
Views        : 199
Comments     : 1


+---------+
|  TITLE  |
+---------+
I See You!


+---------------+
|  DESCRIPTION  |
+---------------+
(no description)


+--------+
|  TAGS  |
+--------+
squirrel squirrels nikon d70s 