+--------------------------------------+
|   Flickr Photo Metadata              |
|   Created by Bulkr on Mar 11, 2016   |
|   http://clipyourphotos.com/bulkr    |
+--------------------------------------+

+--------+
|  INFO  |
+--------+
Photographer : magnus.johansson10
Photo URL    : https://www.flickr.com/photos/120374925@N06/15378536475/
License      : Creative Commons (http://creativecommons.org/licenses)
Taken Date   : Sat Sep 27 15:31:57 GMT+0200 2014
Upload Date  : Sun Sep 28 13:17:02 GMT+0200 2014
Views        : 1,127
Comments     : 1


+---------+
|  TITLE  |
+---------+
squirrel


+---------------+
|  DESCRIPTION  |
+---------------+
(no description)


+--------+
|  TAGS  |
+--------+
Animals Zoo Sweden Stockholm skansen 