+--------------------------------------+
|   Flickr Photo Metadata              |
|   Created by Bulkr on Mar 11, 2016   |
|   http://clipyourphotos.com/bulkr    |
+--------------------------------------+

+--------+
|  INFO  |
+--------+
Photographer : ptc24
Photo URL    : https://www.flickr.com/photos/ptc24/2393518276/
License      : Creative Commons (http://creativecommons.org/licenses)
Taken Date   : Wed Mar 26 11:47:34 GMT+0100 2008
Upload Date  : Sun Apr 6 20:45:39 GMT+0200 2008
Views        : 20
Comments     : 0


+---------+
|  TITLE  |
+---------+
POTD 26/3/2008


+---------------+
|  DESCRIPTION  |
+---------------+
(no description)


+--------+
|  TAGS  |
+--------+
potd squirrel 