+--------------------------------------+
|   Flickr Photo Metadata              |
|   Created by Bulkr on Mar 11, 2016   |
|   http://clipyourphotos.com/bulkr    |
+--------------------------------------+

+--------+
|  INFO  |
+--------+
Photographer : geopungo
Photo URL    : https://www.flickr.com/photos/36319440@N05/4650038533/
License      : Creative Commons (http://creativecommons.org/licenses)
Taken Date   : Sat May 22 00:14:44 GMT+0200 2010
Upload Date  : Sat May 29 20:07:42 GMT+0200 2010
Views        : 34
Comments     : 0


+---------+
|  TITLE  |
+---------+
I see you


+---------------+
|  DESCRIPTION  |
+---------------+
Squirrel watching us caching


+--------+
|  TAGS  |
+--------+
virginia squirrel nature wildlife 