+--------------------------------------+
|   Flickr Photo Metadata              |
|   Created by Bulkr on Mar 11, 2016   |
|   http://clipyourphotos.com/bulkr    |
+--------------------------------------+

+--------+
|  INFO  |
+--------+
Photographer : mcn2zst
Photo URL    : https://www.flickr.com/photos/cameravox/334127593/
License      : Creative Commons (http://creativecommons.org/licenses)
Taken Date   : Mon Dec 25 16:41:28 GMT+0100 2006
Upload Date  : Tue Dec 26 18:53:35 GMT+0100 2006
Views        : 280
Comments     : 0


+---------+
|  TITLE  |
+---------+
curious squirrel 005 upload


+---------------+
|  DESCRIPTION  |
+---------------+
(no description)


+--------+
|  TAGS  |
+--------+
squirrel 