+--------------------------------------+
|   Flickr Photo Metadata              |
|   Created by Bulkr on Mar 11, 2016   |
|   http://clipyourphotos.com/bulkr    |
+--------------------------------------+

+--------+
|  INFO  |
+--------+
Photographer : karl.beasley@yahoo.com
Photo URL    : https://www.flickr.com/photos/121667673@N07/13786468734/
License      : Creative Commons (http://creativecommons.org/licenses)
Taken Date   : Fri Apr 11 14:36:49 GMT+0200 2014
Upload Date  : Sat Apr 12 01:32:36 GMT+0200 2014
Views        : 22
Comments     : 0


+---------+
|  TITLE  |
+---------+
squirrel


+---------------+
|  DESCRIPTION  |
+---------------+
Rufford 2014


+--------+
|  TAGS  |
+--------+
(no tags)