+--------------------------------------+
|   Flickr Photo Metadata              |
|   Created by Bulkr on Mar 03, 2016   |
|   http://clipyourphotos.com/bulkr    |
+--------------------------------------+

+--------+
|  INFO  |
+--------+
Photographer : dreamsjung
Photo URL    : https://www.flickr.com/photos/dreamsjung/3572787670/
License      : Creative Commons (http://creativecommons.org/licenses)
Taken Date   : Sun May 24 14:17:50 GMT+0200 2009
Upload Date  : Thu May 28 08:52:11 GMT+0200 2009
Views        : 11
Comments     : 0


+---------+
|  TITLE  |
+---------+
mole I


+---------------+
|  DESCRIPTION  |
+---------------+
(no description)


+--------+
|  TAGS  |
+--------+
olympia washington olywa oly 