+--------------------------------------+
|   commons.wikimedia Photo Metadata   |
+--------------------------------------+



+--------+
|  INFO  |
+--------+
Photographer : Double-agent13
Photo URL    : https://commons.wikimedia.org/wiki/File:Albino_mole_photo.JPG
License      : Creative Commons (https://en.wikipedia.org/wiki/en:Creative_Commons) Attribution-Share Alike 4.0 International (//creativecommons.org/licenses/by-sa/4.0/deed.en)
Date         : 2015-07-18
