+--------------------------------------+
|   Flickr Photo Metadata              |
|   Created by Bulkr on Feb 03, 2016   |
|   http://clipyourphotos.com/bulkr    |
+--------------------------------------+

+--------+
|  INFO  |
+--------+
Photographer : Arthur40A
Photo URL    : https://www.flickr.com/photos/arthur-caranta/3985991001/
License      : Creative Commons (http://creativecommons.org/licenses)
Taken Date   : Sat Oct 3 14:25:19 GMT+0200 2009
Upload Date  : Tue Oct 6 09:48:13 GMT+0200 2009
Views        : 1,196
Comments     : 0


+---------+
|  TITLE  |
+---------+
Orca's Duo


+---------------+
|  DESCRIPTION  |
+---------------+
(no description)


+--------+
|  TAGS  |
+--------+
jump saut duo orca orque Marineland Antibes seaworld mer mammifères marin sea eau aquatique 