+--------------------------------------+
|   Flickr Photo Metadata              |
|   Created by Bulkr on Feb 03, 2016   |
|   http://clipyourphotos.com/bulkr    |
+--------------------------------------+

+--------+
|  INFO  |
+--------+
Photographer : aresauburn™
Photo URL    : https://www.flickr.com/photos/aresauburnphotos/2624203224/
License      : Creative Commons (http://creativecommons.org/licenses)
Taken Date   : Fri Jun 27 16:46:06 GMT+0200 2008
Upload Date  : Mon Jun 30 09:10:49 GMT+0200 2008
Views        : 171
Comments     : 0


+---------+
|  TITLE  |
+---------+
Shouka


+---------------+
|  DESCRIPTION  |
+---------------+
(no description)


+--------+
|  TAGS  |
+--------+
"six flags" "marine world" "six flags discovery kingdom" marine park ca california lumix fz7 panasonic aresauburn killer whale show water 