+--------------------------------------+
|   Flickr Photo Metadata              |
|   Created by Bulkr on Feb 03, 2016   |
|   http://clipyourphotos.com/bulkr    |
+--------------------------------------+

+--------+
|  INFO  |
+--------+
Photographer : Xurble
Photo URL    : https://www.flickr.com/photos/xurble/227447498/
License      : Creative Commons (http://creativecommons.org/licenses)
Taken Date   : Sun Aug 27 21:10:03 GMT+0200 2006
Upload Date  : Mon Aug 28 21:23:24 GMT+0200 2006
Views        : 831
Comments     : 3


+---------+
|  TITLE  |
+---------+
Splash!


+---------------+
|  DESCRIPTION  |
+---------------+
(no description)


+--------+
|  TAGS  |
+--------+
whale splash orca "killer whale" "movie title" "sea world" "san diego" shamu dolphin 