+--------------------------------------+
|   Flickr Photo Metadata              |
|   Created by Bulkr on Feb 03, 2016   |
|   http://clipyourphotos.com/bulkr    |
+--------------------------------------+

+--------+
|  INFO  |
+--------+
Photographer : jkbrooks85
Photo URL    : https://www.flickr.com/photos/jkbrooks85/14322969232/
License      : Creative Commons (http://creativecommons.org/licenses)
Taken Date   : Sat May 31 03:19:11 GMT+0200 2014
Upload Date  : Mon Jun 2 01:57:10 GMT+0200 2014
Views        : 90
Comments     : 0


+---------+
|  TITLE  |
+---------+
Killer whales


+---------------+
|  DESCRIPTION  |
+---------------+
(no description)


+--------+
|  TAGS  |
+--------+
(no tags)