+--------------------------------------+
|   Flickr Photo Metadata              |
|   Created by Bulkr on Feb 03, 2016   |
|   http://clipyourphotos.com/bulkr    |
+--------------------------------------+

+--------+
|  INFO  |
+--------+
Photographer : muffinman71xx
Photo URL    : https://www.flickr.com/photos/muffinman71xx/2321754910/
License      : Creative Commons (http://creativecommons.org/licenses)
Taken Date   : Thu Oct 13 17:47:45 GMT+0200 2005
Upload Date  : Sun Mar 9 18:48:14 GMT+0100 2008
Views        : 895
Comments     : 4


+---------+
|  TITLE  |
+---------+
IMG_4515


+---------------+
|  DESCRIPTION  |
+---------------+
Shamu performs a back flip. backstage training pool, Sea Wolrd, Florida


+--------+
|  TAGS  |
+--------+
nature ocean animal sea "killer whale" shamu "sea world" 