+--------------------------------------+
|   Flickr Photo Metadata              |
|   Created by Bulkr on Feb 03, 2016   |
|   http://clipyourphotos.com/bulkr    |
+--------------------------------------+

+--------+
|  INFO  |
+--------+
Photographer : M I K E M O R R I S
Photo URL    : https://www.flickr.com/photos/23471940@N02/20708448096/
License      : Creative Commons (http://creativecommons.org/licenses)
Taken Date   : Wed Aug 19 10:53:23 GMT+0200 2015
Upload Date  : Thu Aug 20 16:50:26 GMT+0200 2015
Views        : 61
Comments     : 0


+---------+
|  TITLE  |
+---------+
IMG_6753


+---------------+
|  DESCRIPTION  |
+---------------+
(no description)


+--------+
|  TAGS  |
+--------+
Orca whales 