+--------------------------------------+
|   Flickr Photo Metadata              |
|   Created by Bulkr on Feb 03, 2016   |
|   http://clipyourphotos.com/bulkr    |
+--------------------------------------+

+--------+
|  INFO  |
+--------+
Photographer : doriana del sarto
Photo URL    : https://www.flickr.com/photos/doridelsarto/6985869873/
License      : Creative Commons (http://creativecommons.org/licenses)
Taken Date   : Sat Nov 25 11:30:00 GMT+0100 2006
Upload Date  : Fri Mar 16 00:07:51 GMT+0100 2012
Views        : 505
Comments     : 0


+---------+
|  TITLE  |
+---------+
orca9 nov06


+---------------+
|  DESCRIPTION  |
+---------------+
(no description)


+--------+
|  TAGS  |
+--------+
"peninsula valdes" "killer whale" orca 