+--------------------------------------+
|   Flickr Photo Metadata              |
|   Created by Bulkr on Feb 03, 2016   |
|   http://clipyourphotos.com/bulkr    |
+--------------------------------------+

+--------+
|  INFO  |
+--------+
Photographer : muffinman71xx
Photo URL    : https://www.flickr.com/photos/muffinman71xx/2973893861/
License      : Creative Commons (http://creativecommons.org/licenses)
Taken Date   : Mon Oct 20 15:06:33 GMT+0200 2008
Upload Date  : Sun Oct 26 15:21:42 GMT+0100 2008
Views        : 282
Comments     : 0


+---------+
|  TITLE  |
+---------+
IMG_3061


+---------------+
|  DESCRIPTION  |
+---------------+
(no description)


+--------+
|  TAGS  |
+--------+
nature ocean animal sea "killer whale" whale shamu water "Sea World" 