+--------------------------------------+
|   Flickr Photo Metadata              |
|   Created by Bulkr on Feb 03, 2016   |
|   http://clipyourphotos.com/bulkr    |
+--------------------------------------+

+--------+
|  INFO  |
+--------+
Photographer : xrayspx
Photo URL    : https://www.flickr.com/photos/xrayspx/517207482/
License      : Creative Commons (http://creativecommons.org/licenses)
Taken Date   : Sun May 27 14:18:52 GMT+0200 2007
Upload Date  : Mon May 28 05:45:21 GMT+0200 2007
Views        : 1,973
Comments     : 0


+---------+
|  TITLE  |
+---------+
Sea World Orlando


+---------------+
|  DESCRIPTION  |
+---------------+
Sea World Orlando


+--------+
|  TAGS  |
+--------+
"Sea World" Orlando Orca "Killer Whale" 