+--------------------------------------+
|   Flickr Photo Metadata              |
|   Created by Bulkr on Feb 03, 2016   |
|   http://clipyourphotos.com/bulkr    |
+--------------------------------------+

+--------+
|  INFO  |
+--------+
Photographer : Dave Allan
Photo URL    : https://www.flickr.com/photos/daveallan/3419521709/
License      : Creative Commons (http://creativecommons.org/licenses)
Taken Date   : Sun Apr 5 21:39:07 GMT+0200 2009
Upload Date  : Tue Apr 7 05:13:17 GMT+0200 2009
Views        : 227
Comments     : 0


+---------+
|  TITLE  |
+---------+
Shamu @ Seaworld


+---------------+
|  DESCRIPTION  |
+---------------+
(no description)


+--------+
|  TAGS  |
+--------+
"Florida 2009" "Sea World" SonyAlphaDslr-A200 "killer wale" orca whale 