+--------------------------------------+
|   Flickr Photo Metadata              |
|   Created by Bulkr on Feb 03, 2016   |
|   http://clipyourphotos.com/bulkr    |
+--------------------------------------+

+--------+
|  INFO  |
+--------+
Photographer : eekim
Photo URL    : https://www.flickr.com/photos/eekim/2582765523/
License      : Creative Commons (http://creativecommons.org/licenses)
Taken Date   : Thu Jun 12 15:02:31 GMT+0200 2008
Upload Date  : Mon Jun 16 09:49:18 GMT+0200 2008
Views        : 113
Comments     : 0


+---------+
|  TITLE  |
+---------+
Riding Shamu


+---------------+
|  DESCRIPTION  |
+---------------+
(no description)


+--------+
|  TAGS  |
+--------+
shamu "Killer Whale" "Sea World" "San Diego" 