+--------------------------------------+
|   Flickr Photo Metadata              |
|   Created by Bulkr on Feb 03, 2016   |
|   http://clipyourphotos.com/bulkr    |
+--------------------------------------+

+--------+
|  INFO  |
+--------+
Photographer : ArkansasFamilyFun.com
Photo URL    : https://www.flickr.com/photos/26496653@N07/2485113731/
License      : Creative Commons (http://creativecommons.org/licenses)
Taken Date   : Sun May 11 23:52:19 GMT+0200 2008
Upload Date  : Mon May 12 08:52:19 GMT+0200 2008
Views        : 701
Comments     : 0


+---------+
|  TITLE  |
+---------+
Arkansas_Family_Fun_2


+---------------+
|  DESCRIPTION  |
+---------------+
(no description)


+--------+
|  TAGS  |
+--------+
SeaWorld shamu "Killer Whale" Whale vacation summer family fun arkansasfamilyfun.com texas travel ocean mammal "san antonio" orlando florida 