+--------------------------------------+
|   commons.wikimedia Photo Metadata   |
+--------------------------------------+



+--------+
|  INFO  |
+--------+
Photographer : dw_ross
Photo URL    : https://commons.wikimedia.org/wiki/File:20100929_1013.jpg
License      : Creative Commons (https://en.wikipedia.org/wiki/en:Creative_Commons) Attribution 2.0 Generic (//creativecommons.org/licenses/by/2.0/deed.en)
Date         : 2010-09-29 17:17:14
