+--------------------------------------+
|     opencage.info Photo Metadata     |
+--------------------------------------+



+--------+
|  INFO  |
+--------+
Photographer : -
Photo URL    : http://opencage.info/pics.e/large_19223.asp
License      : Creative Commons's Attribution-ShareAlike 2.5 (https://creativecommons.org/licenses/by-sa/2.5/)
Date         : 2015-02-14
