+--------------------------------------+
|   Flickr Photo Metadata              |
|   Created by Bulkr on May 09, 2016   |
|   http://clipyourphotos.com/bulkr    |
+--------------------------------------+

+--------+
|  INFO  |
+--------+
Photographer : Corrado Dearca
Photo URL    : https://www.flickr.com/photos/corradox/3950174877/
License      : Creative Commons (http://creativecommons.org/licenses)
Taken Date   : Thu Sep 24 17:39:57 GMT+0200 2009
Upload Date  : Thu Sep 24 17:39:57 GMT+0200 2009
Views        : 6,562
Comments     : 7


+---------+
|  TITLE  |
+---------+
OLIVER BORDER COLLIE SULLE LANGHE


+---------------+
|  DESCRIPTION  |
+---------------+
Oliver border collie sulle langhe


+--------+
|  TAGS  |
+--------+
1000d 18 18270 1d 200 20d 250 270 30d 40d 450d 500d 50d 5d agility art bianco black bn border cagnolino cane cani collie collies corrado cuccioli cucciolo d1000 d300 d5000 d70 d90 dearca dog eos ferrari flower foto fuji holiday ii kodak lessie macro mm nero nikon nuda nude nudo obiettivo oliver olympus photo professional prova puppies puppy reflex sheep sheepdog sigma sport stabilized stabilizzato tamron tele test tokina vc white zoom 7d 