+--------------------------------------+
|   commons.wikimedia Photo Metadata   |
+--------------------------------------+



+--------+
|  INFO  |
+--------+
Photographer : -
Photo URL    : https://commons.wikimedia.org/wiki/File:Ubac.JPG
License      : Creative Commons (https://en.wikipedia.org/wiki/en:Creative_Commons) Attribution-Share Alike 3.0 Unported (//creativecommons.org/licenses/by-sa/3.0/deed.en)
Date         : -
