+--------------------------------------+
|   Flickr Photo Metadata              |
|   Created by Bulkr on May 09, 2016   |
|   http://clipyourphotos.com/bulkr    |
+--------------------------------------+

+--------+
|  INFO  |
+--------+
Photographer : Just Jefa
Photo URL    : https://www.flickr.com/photos/jefaspics/282824320/
License      : Creative Commons (http://creativecommons.org/licenses)
Taken Date   : Sun Feb 20 10:45:31 GMT+0100 2005
Upload Date  : Sun Oct 29 23:55:43 GMT+0100 2006
Views        : 252
Comments     : 0


+---------+
|  TITLE  |
+---------+
Baby Bill lounging on the couch


+---------------+
|  DESCRIPTION  |
+---------------+
(no description)


+--------+
|  TAGS  |
+--------+
"border collie" " bill" " puppy" 