+--------------------------------------+
|   Flickr Photo Metadata              |
|   Created by Bulkr on May 09, 2016   |
|   http://clipyourphotos.com/bulkr    |
+--------------------------------------+

+--------+
|  INFO  |
+--------+
Photographer : Daisyree Bakker
Photo URL    : https://www.flickr.com/photos/27875041@N02/3322769443/
License      : Creative Commons (http://creativecommons.org/licenses)
Taken Date   : Sun Mar 1 15:49:46 GMT+0100 2009
Upload Date  : Mon Mar 2 20:03:19 GMT+0100 2009
Views        : 486
Comments     : 1


+---------+
|  TITLE  |
+---------+
Rough Collie's


+---------------+
|  DESCRIPTION  |
+---------------+
(no description)


+--------+
|  TAGS  |
+--------+
dog dogshow 