+--------------------------------------+
|   Flickr Photo Metadata              |
|   Created by Bulkr on May 09, 2016   |
|   http://clipyourphotos.com/bulkr    |
+--------------------------------------+

+--------+
|  INFO  |
+--------+
Photographer : ariedana
Photo URL    : https://www.flickr.com/photos/ariedana/3556026920/
License      : Creative Commons (http://creativecommons.org/licenses)
Taken Date   : Mon May 19 18:02:42 GMT+0200 2008
Upload Date  : Sat May 23 06:32:58 GMT+0200 2009
Views        : 354
Comments     : 0


+---------+
|  TITLE  |
+---------+
Oreo


+---------------+
|  DESCRIPTION  |
+---------------+
He's like you to think he's quiet, but not.


+--------+
|  TAGS  |
+--------+
oreo dogs "border collie" 