+--------------------------------------+
|   Flickr Photo Metadata              |
|   Created by Bulkr on May 09, 2016   |
|   http://clipyourphotos.com/bulkr    |
+--------------------------------------+

+--------+
|  INFO  |
+--------+
Photographer : bambe1964
Photo URL    : https://www.flickr.com/photos/bambe1964/11513360723/
License      : Creative Commons (http://creativecommons.org/licenses)
Taken Date   : Sun Dec 15 14:59:04 GMT+0100 2013
Upload Date  : Mon Dec 23 13:33:48 GMT+0100 2013
Views        : 534
Comments     : 2


+---------+
|  TITLE  |
+---------+
on alert


+---------------+
|  DESCRIPTION  |
+---------------+
(no description)


+--------+
|  TAGS  |
+--------+
dog snow "border collie" 