+--------------------------------------+
|   Flickr Photo Metadata              |
|   Created by Bulkr on May 09, 2016   |
|   http://clipyourphotos.com/bulkr    |
+--------------------------------------+

+--------+
|  INFO  |
+--------+
Photographer : uroczysko.net.pl
Photo URL    : https://www.flickr.com/photos/28309037@N06/6365506799/
License      : Creative Commons (http://creativecommons.org/licenses)
Taken Date   : Wed Nov 16 11:57:51 GMT+0100 2011
Upload Date  : Sat Nov 19 23:22:16 GMT+0100 2011
Views        : 327
Comments     : 0


+---------+
|  TITLE  |
+---------+
2011.11.16-11.57-15


+---------------+
|  DESCRIPTION  |
+---------------+
(no description)


+--------+
|  TAGS  |
+--------+
"Uroczysko Kępa" "Border Collie" szczeniaki 