+--------------------------------------+
|   Flickr Photo Metadata              |
|   Created by Bulkr on May 09, 2016   |
|   http://clipyourphotos.com/bulkr    |
+--------------------------------------+

+--------+
|  INFO  |
+--------+
Photographer : Jenniferschwalm
Photo URL    : https://www.flickr.com/photos/jenniferschwalm/2481600582/
License      : Creative Commons (http://creativecommons.org/licenses)
Taken Date   : Fri May 9 17:28:08 GMT+0200 2008
Upload Date  : Sat May 10 23:22:30 GMT+0200 2008
Views        : 63
Comments     : 1


+---------+
|  TITLE  |
+---------+
087


+---------------+
|  DESCRIPTION  |
+---------------+
Maisey


+--------+
|  TAGS  |
+--------+
border collie 