+--------------------------------------+
|   Flickr Photo Metadata              |
|   Created by Bulkr on May 09, 2016   |
|   http://clipyourphotos.com/bulkr    |
+--------------------------------------+

+--------+
|  INFO  |
+--------+
Photographer : Daisyree Bakker
Photo URL    : https://www.flickr.com/photos/27875041@N02/4659251156/
License      : Creative Commons (http://creativecommons.org/licenses)
Taken Date   : Sat May 29 11:52:34 GMT+0200 2010
Upload Date  : Tue Jun 1 08:23:04 GMT+0200 2010
Views        : 1,649
Comments     : 0


+---------+
|  TITLE  |
+---------+
Agility


+---------------+
|  DESCRIPTION  |
+---------------+
(no description)


+--------+
|  TAGS  |
+--------+
Agility dog "border collie" 