+--------------------------------------+
|   Flickr Photo Metadata              |
|   Created by Bulkr on May 09, 2016   |
|   http://clipyourphotos.com/bulkr    |
+--------------------------------------+

+--------+
|  INFO  |
+--------+
Photographer : Cristóbal Alvarado Minic
Photo URL    : https://www.flickr.com/photos/ctam/3475035630/
License      : Creative Commons (http://creativecommons.org/licenses)
Taken Date   : Sat Apr 18 21:58:09 GMT+0200 2009
Upload Date  : Sun Apr 26 03:12:40 GMT+0200 2009
Views        : 632
Comments     : 3


+---------+
|  TITLE  |
+---------+
Collie


+---------------+
|  DESCRIPTION  |
+---------------+
(no description)


+--------+
|  TAGS  |
+--------+
Collie 