+--------------------------------------+
|   Flickr Photo Metadata              |
|   Created by Bulkr on May 09, 2016   |
|   http://clipyourphotos.com/bulkr    |
+--------------------------------------+

+--------+
|  INFO  |
+--------+
Photographer : aurorasoul
Photo URL    : https://www.flickr.com/photos/frfx1086/113924651/
License      : Creative Commons (http://creativecommons.org/licenses)
Taken Date   : Tue Feb 21 17:03:32 GMT+0100 2006
Upload Date  : Sat Mar 18 02:02:09 GMT+0100 2006
Views        : 552
Comments     : 5


+---------+
|  TITLE  |
+---------+
Ooops...


+---------------+
|  DESCRIPTION  |
+---------------+
Alright! ...I'm OUTTA here!


+--------+
|  TAGS  |
+--------+
dog collie "border collie" 