+--------------------------------------+
|   Flickr Photo Metadata              |
|   Created by Bulkr on May 09, 2016   |
|   http://clipyourphotos.com/bulkr    |
+--------------------------------------+

+--------+
|  INFO  |
+--------+
Photographer : sjbroom
Photo URL    : https://www.flickr.com/photos/broomy/26348839566/
License      : Creative Commons (http://creativecommons.org/licenses)
Taken Date   : Fri May 25 15:09:30 GMT+0200 2012
Upload Date  : Mon Apr 11 21:07:18 GMT+0200 2016
Views        : 14
Comments     : 0


+---------+
|  TITLE  |
+---------+
IMG_0026


+---------------+
|  DESCRIPTION  |
+---------------+
(no description)


+--------+
|  TAGS  |
+--------+
"border collie" dog 