+--------------------------------------+
|   Flickr Photo Metadata              |
|   Created by Bulkr on May 09, 2016   |
|   http://clipyourphotos.com/bulkr    |
+--------------------------------------+

+--------+
|  INFO  |
+--------+
Photographer : Neticola
Photo URL    : https://www.flickr.com/photos/torrelodones/15730106427/
License      : Creative Commons (http://creativecommons.org/licenses)
Taken Date   : Sun Nov 30 19:49:05 GMT+0100 2014
Upload Date  : Sun Nov 30 19:49:29 GMT+0100 2014
Views        : 1,440
Comments     : 2


+---------+
|  TITLE  |
+---------+
Crazy Collie


+---------------+
|  DESCRIPTION  |
+---------------+
(no description)


+--------+
|  TAGS  |
+--------+
"dog collie lassie lasie neticola play autumn sony nex-6 nex 6 sigma 30mm" 