+--------------------------------------+
|   Flickr Photo Metadata              |
|   Created by Bulkr on Aug 23, 2016   |
|   http://clipyourphotos.com/bulkr    |
+--------------------------------------+

+--------+
|  INFO  |
+--------+
Photographer : dlebech
Photo URL    : https://www.flickr.com/photos/dlebech/28078847820/
License      : Creative Commons (http://creativecommons.org/licenses)
Taken Date   : Sat Mar 26 17:02:22 GMT+0100 2016
Upload Date  : Sun Jul 17 11:38:28 GMT+0200 2016
Views        : 7
Comments     : 0


+---------+
|  TITLE  |
+---------+
(no title)


+---------------+
|  DESCRIPTION  |
+---------------+
(no description)


+--------+
|  TAGS  |
+--------+
Mila "Border Collie" dog "Border Aussie" 