+--------------------------------------+
|   Flickr Photo Metadata              |
|   Created by Bulkr on May 09, 2016   |
|   http://clipyourphotos.com/bulkr    |
+--------------------------------------+

+--------+
|  INFO  |
+--------+
Photographer : Daisyree Bakker
Photo URL    : https://www.flickr.com/photos/27875041@N02/3462586596/
License      : Creative Commons (http://creativecommons.org/licenses)
Taken Date   : Mon Apr 13 14:49:01 GMT+0200 2009
Upload Date  : Tue Apr 21 13:25:40 GMT+0200 2009
Views        : 180
Comments     : 0


+---------+
|  TITLE  |
+---------+
Border Collie


+---------------+
|  DESCRIPTION  |
+---------------+
(no description)


+--------+
|  TAGS  |
+--------+
dogshow dog 