+--------------------------------------+
|   Flickr Photo Metadata              |
|   Created by Bulkr on May 09, 2016   |
|   http://clipyourphotos.com/bulkr    |
+--------------------------------------+

+--------+
|  INFO  |
+--------+
Photographer : tati martiniano
Photo URL    : https://www.flickr.com/photos/tfm_photoimage/5076182359/
License      : Creative Commons (http://creativecommons.org/licenses)
Taken Date   : Sun Oct 10 20:26:32 GMT+0200 2010
Upload Date  : Wed Oct 13 00:47:46 GMT+0200 2010
Views        : 290
Comments     : 0


+---------+
|  TITLE  |
+---------+
Oi, Eu sou o Bug !


+---------------+
|  DESCRIPTION  |
+---------------+
Pra família aumentar, chegou o Bug.Um Border Collie, td fofinho de 2 meses.O nome eu que escolhi!Era o machinho que faltava.Esse é do Binho.Mais já o adotei como meu tbm!!


+--------+
|  TAGS  |
+--------+
BORDER COLLIE. CACHORRO.FILHOTE 