+--------------------------------------+
|   Flickr Photo Metadata              |
|   Created by Bulkr on May 09, 2016   |
|   http://clipyourphotos.com/bulkr    |
+--------------------------------------+

+--------+
|  INFO  |
+--------+
Photographer : i-r-paulus
Photo URL    : https://www.flickr.com/photos/givemeajobsoicanmovetocanada/4411116486/
License      : Creative Commons (http://creativecommons.org/licenses)
Taken Date   : Sun Feb 21 15:40:27 GMT+0100 2010
Upload Date  : Sat Mar 6 15:22:06 GMT+0100 2010
Views        : 281
Comments     : 0


+---------+
|  TITLE  |
+---------+
Jake - 'I'm ready for my close-up'


+---------------+
|  DESCRIPTION  |
+---------------+
My dog - using macro on my mobile phone :)


+--------+
|  TAGS  |
+--------+
Jake Dog Collie 