+--------------------------------------+
|   Flickr Photo Metadata              |
|   Created by Bulkr on Aug 23, 2016   |
|   http://clipyourphotos.com/bulkr    |
+--------------------------------------+

+--------+
|  INFO  |
+--------+
Photographer : Soren Wolf
Photo URL    : https://www.flickr.com/photos/sorenwolf/29106608376/
License      : Creative Commons (http://creativecommons.org/licenses)
Taken Date   : Sat Aug 13 17:07:45 GMT+0200 2016
Upload Date  : Sun Aug 21 22:58:56 GMT+0200 2016
Views        : 17
Comments     : 0


+---------+
|  TITLE  |
+---------+
Szanti


+---------------+
|  DESCRIPTION  |
+---------------+
(no description)


+--------+
|  TAGS  |
+--------+
dog dogs scotch collie nikon d7100 85mm 