+--------------------------------------+
|   Flickr Photo Metadata              |
|   Created by Bulkr on May 09, 2016   |
|   http://clipyourphotos.com/bulkr    |
+--------------------------------------+

+--------+
|  INFO  |
+--------+
Photographer : Lil Shepherd
Photo URL    : https://www.flickr.com/photos/lilshepherd/7101880505/
License      : Creative Commons (http://creativecommons.org/licenses)
Taken Date   : Sun Apr 22 10:13:08 GMT+0200 2012
Upload Date  : Sun Apr 22 14:20:37 GMT+0200 2012
Views        : 363
Comments     : 0


+---------+
|  TITLE  |
+---------+
Come on, catch me


+---------------+
|  DESCRIPTION  |
+---------------+
(no description)


+--------+
|  TAGS  |
+--------+
dogs bren "smooth collie" draco 