+--------------------------------------+
|   Flickr Photo Metadata              |
|   Created by Bulkr on May 09, 2016   |
|   http://clipyourphotos.com/bulkr    |
+--------------------------------------+

+--------+
|  INFO  |
+--------+
Photographer : andreaarden
Photo URL    : https://www.flickr.com/photos/andrea_arden/8340977004/
License      : Creative Commons (http://creativecommons.org/licenses)
Taken Date   : Wed Jan 2 22:51:25 GMT+0100 2013
Upload Date  : Thu Jan 3 05:02:53 GMT+0100 2013
Views        : 1,873
Comments     : 0


+---------+
|  TITLE  |
+---------+
Aspen Dogs


+---------------+
|  DESCRIPTION  |
+---------------+
Border Collie


+--------+
|  TAGS  |
+--------+
"wheaten terrier" vizla "siberian husky" "rhodesian ridgeback" "golden retriever" goldendoodle "german sheperd" 