+--------------------------------------+
|   Flickr Photo Metadata              |
|   Created by Bulkr on May 09, 2016   |
|   http://clipyourphotos.com/bulkr    |
+--------------------------------------+

+--------+
|  INFO  |
+--------+
Photographer : Lil Shepherd
Photo URL    : https://www.flickr.com/photos/lilshepherd/16391905906/
License      : Creative Commons (http://creativecommons.org/licenses)
Taken Date   : Tue Jan 13 15:26:33 GMT+0100 2015
Upload Date  : Sun Feb 1 13:34:28 GMT+0100 2015
Views        : 316
Comments     : 0


+---------+
|  TITLE  |
+---------+
Sofa Dog


+---------------+
|  DESCRIPTION  |
+---------------+
(no description)


+--------+
|  TAGS  |
+--------+
Bren 'Smooth Collie' 