+--------------------------------------+
|   Flickr Photo Metadata              |
|   Created by Bulkr on May 09, 2016   |
|   http://clipyourphotos.com/bulkr    |
+--------------------------------------+

+--------+
|  INFO  |
+--------+
Photographer : bambe1964
Photo URL    : https://www.flickr.com/photos/bambe1964/5784035580/
License      : Creative Commons (http://creativecommons.org/licenses)
Taken Date   : Mon May 30 15:52:42 GMT+0200 2011
Upload Date  : Wed Jun 1 01:35:23 GMT+0200 2011
Views        : 1,297
Comments     : 4


+---------+
|  TITLE  |
+---------+
ha!kidding!


+---------------+
|  DESCRIPTION  |
+---------------+
(no description)


+--------+
|  TAGS  |
+--------+
dog wallow "border collie" "mud puddle" wet 