+--------------------------------------+
|   Flickr Photo Metadata              |
|   Created by Bulkr on May 09, 2016   |
|   http://clipyourphotos.com/bulkr    |
+--------------------------------------+

+--------+
|  INFO  |
+--------+
Photographer : mandydale
Photo URL    : https://www.flickr.com/photos/mandydale/71531390/
License      : Creative Commons (http://creativecommons.org/licenses)
Taken Date   : Mon Oct 3 08:36:03 GMT+0200 2005
Upload Date  : Thu Dec 8 19:41:31 GMT+0100 2005
Views        : 580
Comments     : 0


+---------+
|  TITLE  |
+---------+
pilot


+---------------+
|  DESCRIPTION  |
+---------------+
(no description)


+--------+
|  TAGS  |
+--------+
dog border collie pilot 