+--------------------------------------+
|   Flickr Photo Metadata              |
|   Created by Bulkr on May 09, 2016   |
|   http://clipyourphotos.com/bulkr    |
+--------------------------------------+

+--------+
|  INFO  |
+--------+
Photographer : Mr Moss
Photo URL    : https://www.flickr.com/photos/barneymoss/23112103540/
License      : Creative Commons (http://creativecommons.org/licenses)
Taken Date   : Sat Nov 28 20:37:24 GMT+0100 2015
Upload Date  : Mon Nov 30 00:49:06 GMT+0100 2015
Geotag Info  : Latitude:53.494460, Longitude:-1.645824
Views        : 345
Comments     : 0


+---------+
|  TITLE  |
+---------+
Hari I


+---------------+
|  DESCRIPTION  |
+---------------+
(no description)


+--------+
|  TAGS  |
+--------+
365 "bearded collie" puppy dog collie 