+--------------------------------------+
|   Flickr Photo Metadata              |
|   Created by Bulkr on May 09, 2016   |
|   http://clipyourphotos.com/bulkr    |
+--------------------------------------+

+--------+
|  INFO  |
+--------+
Photographer : scottfeldstein
Photo URL    : https://www.flickr.com/photos/scottfeldstein/84035796/
License      : Creative Commons (http://creativecommons.org/licenses)
Taken Date   : Sat Jan 8 02:01:49 GMT+0100 2005
Upload Date  : Sun Jan 8 23:08:10 GMT+0100 2006
Views        : 571
Comments     : 1


+---------+
|  TITLE  |
+---------+
Logan


+---------------+
|  DESCRIPTION  |
+---------------+
(no description)


+--------+
|  TAGS  |
+--------+
dog newfoundland collie wisconsin logan 