+--------------------------------------+
|   Flickr Photo Metadata              |
|   Created by Bulkr on May 09, 2016   |
|   http://clipyourphotos.com/bulkr    |
+--------------------------------------+

+--------+
|  INFO  |
+--------+
Photographer : carterse
Photo URL    : https://www.flickr.com/photos/australianshepherds/5889253751/
License      : Creative Commons (http://creativecommons.org/licenses)
Taken Date   : Wed Jun 29 21:47:31 GMT+0200 2011
Upload Date  : Fri Jul 1 04:39:19 GMT+0200 2011
Views        : 1,263
Comments     : 0


+---------+
|  TITLE  |
+---------+
Luka


+---------------+
|  DESCRIPTION  |
+---------------+
(no description)


+--------+
|  TAGS  |
+--------+
"Border Collie" dog retrieve water stick fetch 