+--------------------------------------+
|   Flickr Photo Metadata              |
|   Created by Bulkr on May 09, 2016   |
|   http://clipyourphotos.com/bulkr    |
+--------------------------------------+

+--------+
|  INFO  |
+--------+
Photographer : dalehugo
Photo URL    : https://www.flickr.com/photos/dalehugo/2661433434/
License      : Creative Commons (http://creativecommons.org/licenses)
Taken Date   : Thu May 29 08:35:04 GMT+0200 2008
Upload Date  : Sat Jul 12 17:33:37 GMT+0200 2008
Views        : 35
Comments     : 0


+---------+
|  TITLE  |
+---------+
IMG_1235.jpg


+---------------+
|  DESCRIPTION  |
+---------------+
(no description)


+--------+
|  TAGS  |
+--------+
rosehill texas 2008 Collie 