+--------------------------------------+
|       Pixabay Photo Metadata         |
+--------------------------------------+



+--------+
|  INFO  |
+--------+
Photographer : Karen Arnold
Photo URL    : http://www.publicdomainpictures.net/view-image.php?image=33187&picture=dog-spielen-fussball
License      : Public Domain (https://creativecommons.org/publicdomain/zero/1.0/)