+--------------------------------------+
|   Flickr Photo Metadata              |
|   Created by Bulkr on May 09, 2016   |
|   http://clipyourphotos.com/bulkr    |
+--------------------------------------+

+--------+
|  INFO  |
+--------+
Photographer : Carollainy
Photo URL    : https://www.flickr.com/photos/carollainy/4697379046/
License      : Creative Commons (http://creativecommons.org/licenses)
Taken Date   : Wed Jun 9 21:17:10 GMT+0200 2010
Upload Date  : Sun Jun 13 21:48:18 GMT+0200 2010
Views        : 429
Comments     : 0


+---------+
|  TITLE  |
+---------+
Joey


+---------------+
|  DESCRIPTION  |
+---------------+
(no description)


+--------+
|  TAGS  |
+--------+
dog cachorro pero "border collie" cute funny smart canon "canon 500d" 