+--------------------------------------+
|   Flickr Photo Metadata              |
|   Created by Bulkr on May 09, 2016   |
|   http://clipyourphotos.com/bulkr    |
+--------------------------------------+

+--------+
|  INFO  |
+--------+
Photographer : Lil Shepherd
Photo URL    : https://www.flickr.com/photos/lilshepherd/6918513106/
License      : Creative Commons (http://creativecommons.org/licenses)
Taken Date   : Tue Apr 10 13:59:46 GMT+0200 2012
Upload Date  : Tue Apr 10 16:55:24 GMT+0200 2012
Views        : 409
Comments     : 0


+---------+
|  TITLE  |
+---------+
Bren


+---------------+
|  DESCRIPTION  |
+---------------+
(no description)


+--------+
|  TAGS  |
+--------+
bren "smooth collie" 