+--------------------------------------+
|   Flickr Photo Metadata              |
|   Created by Bulkr on May 09, 2016   |
|   http://clipyourphotos.com/bulkr    |
+--------------------------------------+

+--------+
|  INFO  |
+--------+
Photographer : MONSIEUR JAVINNCH
Photo URL    : https://www.flickr.com/photos/ciudadisegno/4768543941/
License      : Creative Commons (http://creativecommons.org/licenses)
Taken Date   : Tue Jun 8 16:17:42 GMT+0200 2010
Upload Date  : Tue Jul 6 22:31:08 GMT+0200 2010
Views        : 1,824
Comments     : 0


+---------+
|  TITLE  |
+---------+
Tango y Kira


+---------------+
|  DESCRIPTION  |
+---------------+
Tango y su hermosa mamá Kira


+--------+
|  TAGS  |
+--------+
"border collie" tango nikon 