+--------------------------------------+
|   Flickr Photo Metadata              |
|   Created by Bulkr on May 09, 2016   |
|   http://clipyourphotos.com/bulkr    |
+--------------------------------------+

+--------+
|  INFO  |
+--------+
Photographer : scohoust
Photo URL    : https://www.flickr.com/photos/scohoust/8155694790/
License      : Creative Commons (http://creativecommons.org/licenses)
Taken Date   : Sun Nov 4 19:01:14 GMT+0100 2012
Upload Date  : Sun Nov 4 23:57:40 GMT+0100 2012
Views        : 92
Comments     : 0


+---------+
|  TITLE  |
+---------+
Tykka


+---------------+
|  DESCRIPTION  |
+---------------+
(no description)


+--------+
|  TAGS  |
+--------+
border dog collie tykka 