+--------------------------------------+
|   commons.wikimedia Photo Metadata   |
+--------------------------------------+



+--------+
|  INFO  |
+--------+
Photographer : Robb
Photo URL    : https://commons.wikimedia.org/wiki/File:Border_Collie-003.jpg
License      : Creative Commons (https://en.wikipedia.org/wiki/en:Creative_Commons) Attribution-Share Alike 3.0 Unported (//creativecommons.org/licenses/by-sa/3.0/deed.en)
Date         : 2011-06-02
