+--------------------------------------+
|   Flickr Photo Metadata              |
|   Created by Bulkr on May 09, 2016   |
|   http://clipyourphotos.com/bulkr    |
+--------------------------------------+

+--------+
|  INFO  |
+--------+
Photographer : aurorasoul
Photo URL    : https://www.flickr.com/photos/frfx1086/217015508/
License      : Creative Commons (http://creativecommons.org/licenses)
Taken Date   : Wed Aug 16 09:13:17 GMT+0200 2006
Upload Date  : Wed Aug 16 19:58:28 GMT+0200 2006
Views        : 2,070
Comments     : 5


+---------+
|  TITLE  |
+---------+
Border Collie road inspection.


+---------------+
|  DESCRIPTION  |
+---------------+
Seems stout enough!


+--------+
|  TAGS  |
+--------+
border collie bordercollie 