+--------------------------------------+
|   Flickr Photo Metadata              |
|   Created by Bulkr on Aug 23, 2016   |
|   http://clipyourphotos.com/bulkr    |
+--------------------------------------+

+--------+
|  INFO  |
+--------+
Photographer : dlebech
Photo URL    : https://www.flickr.com/photos/dlebech/28372302975/
License      : Creative Commons (http://creativecommons.org/licenses)
Taken Date   : Mon Jul 11 18:19:35 GMT+0200 2016
Upload Date  : Sun Jul 17 23:20:02 GMT+0200 2016
Views        : 23
Comments     : 0


+---------+
|  TITLE  |
+---------+
(no title)


+---------------+
|  DESCRIPTION  |
+---------------+
(no description)


+--------+
|  TAGS  |
+--------+
Norway Mila "Border Collie" dog "Border Aussie" 