+--------------------------------------+
|   Flickr Photo Metadata              |
|   Created by Bulkr on May 09, 2016   |
|   http://clipyourphotos.com/bulkr    |
+--------------------------------------+

+--------+
|  INFO  |
+--------+
Photographer : sweethappychick1985
Photo URL    : https://www.flickr.com/photos/sweetjewels/2474850385/
License      : Creative Commons (http://creativecommons.org/licenses)
Taken Date   : Fri Jan 26 13:26:42 GMT+0100 2007
Upload Date  : Thu May 8 09:06:01 GMT+0200 2008
Views        : 143
Comments     : 0


+---------+
|  TITLE  |
+---------+
Angus


+---------------+
|  DESCRIPTION  |
+---------------+
New family member 3 years old


+--------+
|  TAGS  |
+--------+
dog "border collie" 