+--------------------------------------+
|   Flickr Photo Metadata              |
|   Created by Bulkr on May 09, 2016   |
|   http://clipyourphotos.com/bulkr    |
+--------------------------------------+

+--------+
|  INFO  |
+--------+
Photographer : mrsdkrebs
Photo URL    : https://www.flickr.com/photos/mrsdkrebs/6980668855/
License      : Creative Commons (http://creativecommons.org/licenses)
Taken Date   : Tue Mar 13 18:07:26 GMT+0100 2012
Upload Date  : Wed Mar 14 01:23:40 GMT+0100 2012
Views        : 424
Comments     : 0


+---------+
|  TITLE  |
+---------+
Bandit


+---------------+
|  DESCRIPTION  |
+---------------+
(no description)


+--------+
|  TAGS  |
+--------+
"border collie" 