+--------------------------------------+
|   Flickr Photo Metadata              |
|   Created by Bulkr on May 09, 2016   |
|   http://clipyourphotos.com/bulkr    |
+--------------------------------------+

+--------+
|  INFO  |
+--------+
Photographer : Chris_Parfitt
Photo URL    : https://www.flickr.com/photos/chr1sp/2686761614/
License      : Creative Commons (http://creativecommons.org/licenses)
Taken Date   : Sun Jul 20 12:36:08 GMT+0200 2008
Upload Date  : Sun Jul 20 22:37:54 GMT+0200 2008
Views        : 98
Comments     : 0


+---------+
|  TITLE  |
+---------+
BGHR Dog Show


+---------------+
|  DESCRIPTION  |
+---------------+
(no description)


+--------+
|  TAGS  |
+--------+
dogs collie cross 