+--------------------------------------+
|   Flickr Photo Metadata              |
|   Created by Bulkr on May 09, 2016   |
|   http://clipyourphotos.com/bulkr    |
+--------------------------------------+

+--------+
|  INFO  |
+--------+
Photographer : estherjane13
Photo URL    : https://www.flickr.com/photos/estherjane13/2920779440/
License      : Creative Commons (http://creativecommons.org/licenses)
Taken Date   : Mon Oct 6 11:00:27 GMT+0200 2008
Upload Date  : Tue Oct 7 04:37:58 GMT+0200 2008
Views        : 379
Comments     : 1


+---------+
|  TITLE  |
+---------+
Lacy


+---------------+
|  DESCRIPTION  |
+---------------+
(no description)


+--------+
|  TAGS  |
+--------+
puppy dog "border collie" "pound puppy" "adopted dog" "rescue dog" "black dog" "cute dog" 