+--------------------------------------+
|   Flickr Photo Metadata              |
|   Created by Bulkr on May 09, 2016   |
|   http://clipyourphotos.com/bulkr    |
+--------------------------------------+

+--------+
|  INFO  |
+--------+
Photographer : Leon Maia
Photo URL    : https://www.flickr.com/photos/leonmaia/15852525545/
License      : Creative Commons (http://creativecommons.org/licenses)
Taken Date   : Sat Nov 22 10:01:23 GMT+0100 2014
Upload Date  : Sat Nov 22 18:16:56 GMT+0100 2014
Views        : 143
Comments     : 0


+---------+
|  TITLE  |
+---------+
Logan


+---------------+
|  DESCRIPTION  |
+---------------+
(no description)


+--------+
|  TAGS  |
+--------+
border collie canon scottish dog animal 