+--------------------------------------+
|   Flickr Photo Metadata              |
|   Created by Bulkr on May 09, 2016   |
|   http://clipyourphotos.com/bulkr    |
+--------------------------------------+

+--------+
|  INFO  |
+--------+
Photographer : Lil Shepherd
Photo URL    : https://www.flickr.com/photos/lilshepherd/15173026948/
License      : Creative Commons (http://creativecommons.org/licenses)
Taken Date   : Fri Mar 7 16:53:21 GMT+0100 2014
Upload Date  : Fri Sep 26 15:29:08 GMT+0200 2014
Views        : 246
Comments     : 0


+---------+
|  TITLE  |
+---------+
Is There No More?


+---------------+
|  DESCRIPTION  |
+---------------+
(no description)


+--------+
|  TAGS  |
+--------+
bren dogs "smooth collie" 