+--------------------------------------+
|       Pixabay Photo Metadata         |
+--------------------------------------+



+--------+
|  INFO  |
+--------+
Photographer : X posid
Photo URL    : http://www.publicdomainpictures.net/view-image.php?image=51320&picture=sisqi-ein-schoner-hund-3
License      : Public Domain (https://creativecommons.org/publicdomain/zero/1.0/)