+--------------------------------------+
|   Flickr Photo Metadata              |
|   Created by Bulkr on Mar 08, 2016   |
|   http://clipyourphotos.com/bulkr    |
+--------------------------------------+

+--------+
|  INFO  |
+--------+
Photographer : AJC ajcann.wordpress.com
Photo URL    : https://www.flickr.com/photos/ajc1/14650974387/
License      : Creative Commons (http://creativecommons.org/licenses)
Taken Date   : Sun Aug 3 14:50:02 GMT+0200 2014
Upload Date  : Tue Aug 5 19:25:06 GMT+0200 2014
Views        : 311
Comments     : 0


+---------+
|  TITLE  |
+---------+
Longhorn Cow


+---------------+
|  DESCRIPTION  |
+---------------+
(no description)


+--------+
|  TAGS  |
+--------+
animals 