+--------------------------------------+
|   Flickr Photo Metadata              |
|   Created by Bulkr on Mar 08, 2016   |
|   http://clipyourphotos.com/bulkr    |
+--------------------------------------+

+--------+
|  INFO  |
+--------+
Photographer : variationblogr
Photo URL    : https://www.flickr.com/photos/variationblogr/14482572489/
License      : Creative Commons (http://creativecommons.org/licenses)
Taken Date   : Wed Mar 26 16:02:13 GMT+0100 2014
Upload Date  : Wed Jul 16 15:44:42 GMT+0200 2014
Views        : 323
Comments     : 0


+---------+
|  TITLE  |
+---------+
Idgah_Bus_Cows_5


+---------------+
|  DESCRIPTION  |
+---------------+
(no description)


+--------+
|  TAGS  |
+--------+
india agra "uttar pradesh" architecture mughal "fatehpur sikri" unesco indian palace gate "south asia" "red brick" 