+--------------------------------------+
|   Flickr Photo Metadata              |
|   Created by Bulkr on Mar 08, 2016   |
|   http://clipyourphotos.com/bulkr    |
+--------------------------------------+

+--------+
|  INFO  |
+--------+
Photographer : thomas pix
Photo URL    : https://www.flickr.com/photos/thomaspix/4283707519/
License      : Creative Commons (http://creativecommons.org/licenses)
Taken Date   : Fri Jan 15 23:45:15 GMT+0100 2010
Upload Date  : Mon Jan 18 08:14:49 GMT+0100 2010
Views        : 248
Comments     : 0


+---------+
|  TITLE  |
+---------+
ox cart at Mae Taeng


+---------------+
|  DESCRIPTION  |
+---------------+
(no description)


+--------+
|  TAGS  |
+--------+
Eye-Fi thailand chiangmai 