+--------------------------------------+
|   Flickr Photo Metadata              |
|   Created by Bulkr on Mar 09, 2016   |
|   http://clipyourphotos.com/bulkr    |
+--------------------------------------+

+--------+
|  INFO  |
+--------+
Photographer : Meg Stewart
Photo URL    : https://www.flickr.com/photos/megstewart/7001635373/
License      : Creative Commons (http://creativecommons.org/licenses)
Taken Date   : Sun Mar 18 14:15:48 GMT+0100 2012
Upload Date  : Wed Mar 21 02:23:05 GMT+0100 2012
Views        : 51
Comments     : 0


+---------+
|  TITLE  |
+---------+
DSC05265


+---------------+
|  DESCRIPTION  |
+---------------+
(no description)


+--------+
|  TAGS  |
+--------+
"Catskill Animal Sanctuary" CAS steer 