+--------------------------------------+
|   Flickr Photo Metadata              |
|   Created by Bulkr on Mar 09, 2016   |
|   http://clipyourphotos.com/bulkr    |
+--------------------------------------+

+--------+
|  INFO  |
+--------+
Photographer : Pollybear70
Photo URL    : https://www.flickr.com/photos/pollybear/13962707585/
License      : Creative Commons (http://creativecommons.org/licenses)
Taken Date   : Tue Apr 8 11:55:18 GMT+0200 2014
Upload Date  : Tue Apr 22 03:36:20 GMT+0200 2014
Views        : 44
Comments     : 0


+---------+
|  TITLE  |
+---------+
Glencoe Trip March 2014 177


+---------------+
|  DESCRIPTION  |
+---------------+
(no description)


+--------+
|  TAGS  |
+--------+
"Glencoe Trip March 2014" 