+--------------------------------------+
|   Flickr Photo Metadata              |
|   Created by Bulkr on Mar 08, 2016   |
|   http://clipyourphotos.com/bulkr    |
+--------------------------------------+

+--------+
|  INFO  |
+--------+
Photographer : roy_wilson65
Photo URL    : https://www.flickr.com/photos/130770040@N08/16626194532/
License      : Creative Commons (http://creativecommons.org/licenses)
Taken Date   : Wed Aug 20 11:31:02 GMT+0200 2014
Upload Date  : Mon Feb 23 20:51:35 GMT+0100 2015
Views        : 71
Comments     : 0


+---------+
|  TITLE  |
+---------+
100E2665


+---------------+
|  DESCRIPTION  |
+---------------+
That's it I have got it.


+--------+
|  TAGS  |
+--------+
(no tags)