+--------------------------------------+
|   Flickr Photo Metadata              |
|   Created by Bulkr on Mar 08, 2016   |
|   http://clipyourphotos.com/bulkr    |
+--------------------------------------+

+--------+
|  INFO  |
+--------+
Photographer : Marlene Sanchez
Photo URL    : https://www.flickr.com/photos/marlenesanchez/5889430854/
License      : Creative Commons (http://creativecommons.org/licenses)
Taken Date   : Sat Jun 11 15:58:12 GMT+0200 2011
Upload Date  : Fri Jul 1 01:32:07 GMT+0200 2011
Views        : 11
Comments     : 0


+---------+
|  TITLE  |
+---------+
You charging at me?!


+---------------+
|  DESCRIPTION  |
+---------------+
(no description)


+--------+
|  TAGS  |
+--------+
(no tags)