+--------------------------------------+
|   Flickr Photo Metadata              |
|   Created by Bulkr on Mar 09, 2016   |
|   http://clipyourphotos.com/bulkr    |
+--------------------------------------+

+--------+
|  INFO  |
+--------+
Photographer : jpbatiste
Photo URL    : https://www.flickr.com/photos/jpbatiste/21782851020/
License      : Creative Commons (http://creativecommons.org/licenses)
Taken Date   : Thu Sep 3 16:09:55 GMT+0200 2015
Upload Date  : Mon Oct 5 18:17:21 GMT+0200 2015
Views        : 304
Comments     : 2


+---------+
|  TITLE  |
+---------+
koe


+---------------+
|  DESCRIPTION  |
+---------------+
(no description)


+--------+
|  TAGS  |
+--------+
(no tags)