+--------------------------------------+
|   Flickr Photo Metadata              |
|   Created by Bulkr on Mar 08, 2016   |
|   http://clipyourphotos.com/bulkr    |
+--------------------------------------+

+--------+
|  INFO  |
+--------+
Photographer : HorneEfterskole
Photo URL    : https://www.flickr.com/photos/horneefterskole/8642454280/
License      : Creative Commons (http://creativecommons.org/licenses)
Taken Date   : Mon Mar 18 09:30:19 GMT+0100 2013
Upload Date  : Fri Apr 12 08:51:28 GMT+0200 2013
Views        : 91
Comments     : 0


+---------+
|  TITLE  |
+---------+
XP 2012-13 Tanzania CM  (535)


+---------------+
|  DESCRIPTION  |
+---------------+
(no description)


+--------+
|  TAGS  |
+--------+
(no tags)