+--------------------------------------+
|   Flickr Photo Metadata              |
|   Created by Bulkr on Mar 08, 2016   |
|   http://clipyourphotos.com/bulkr    |
+--------------------------------------+

+--------+
|  INFO  |
+--------+
Photographer : aiaraldea.com
Photo URL    : https://www.flickr.com/photos/aiaraldea/14770628977/
License      : Creative Commons (http://creativecommons.org/licenses)
Taken Date   : Sat Aug 16 12:30:35 GMT+0200 2014
Upload Date  : Mon Aug 18 12:57:38 GMT+0200 2014
Views        : 68
Comments     : 0


+---------+
|  TITLE  |
+---------+
2014_Amurrio_Jaiak_San Roke eguna_038


+---------------+
|  DESCRIPTION  |
+---------------+
(no description)


+--------+
|  TAGS  |
+--------+
"san roke" "arin arin" aurresku abereak 