+--------------------------------------+
|   Flickr Photo Metadata              |
|   Created by Bulkr on Mar 08, 2016   |
|   http://clipyourphotos.com/bulkr    |
+--------------------------------------+

+--------+
|  INFO  |
+--------+
Photographer : tboothhk
Photo URL    : https://www.flickr.com/photos/tombooth/3744067837/
License      : Creative Commons (http://creativecommons.org/licenses)
Taken Date   : Tue Jun 30 17:09:24 GMT+0200 2009
Upload Date  : Wed Jul 22 03:37:37 GMT+0200 2009
Views        : 44
Comments     : 0


+---------+
|  TITLE  |
+---------+
IMG_7685


+---------------+
|  DESCRIPTION  |
+---------------+
(no description)


+--------+
|  TAGS  |
+--------+
(no tags)