+--------------------------------------+
|   Flickr Photo Metadata              |
|   Created by Bulkr on Mar 09, 2016   |
|   http://clipyourphotos.com/bulkr    |
+--------------------------------------+

+--------+
|  INFO  |
+--------+
Photographer : cheeseslave
Photo URL    : https://www.flickr.com/photos/ammichaels/9042114255/
License      : Creative Commons (http://creativecommons.org/licenses)
Taken Date   : Sat May 25 05:09:28 GMT+0200 2013
Upload Date  : Fri Jun 14 19:57:03 GMT+0200 2013
Views        : 81
Comments     : 0


+---------+
|  TITLE  |
+---------+
(no title)


+---------------+
|  DESCRIPTION  |
+---------------+
(no description)


+--------+
|  TAGS  |
+--------+
(no tags)