+--------------------------------------+
|   Flickr Photo Metadata              |
|   Created by Bulkr on Mar 08, 2016   |
|   http://clipyourphotos.com/bulkr    |
+--------------------------------------+

+--------+
|  INFO  |
+--------+
Photographer : robinmyerscough
Photo URL    : https://www.flickr.com/photos/rssupport/6855566313/
License      : Creative Commons (http://creativecommons.org/licenses)
Taken Date   : Fri Feb 10 10:03:30 GMT+0100 2012
Upload Date  : Sat Feb 11 10:11:59 GMT+0100 2012
Views        : 6
Comments     : 0


+---------+
|  TITLE  |
+---------+
IMG_1644


+---------------+
|  DESCRIPTION  |
+---------------+
(no description)


+--------+
|  TAGS  |
+--------+
(no tags)