+--------------------------------------+
|   Flickr Photo Metadata              |
|   Created by Bulkr on Mar 09, 2016   |
|   http://clipyourphotos.com/bulkr    |
+--------------------------------------+

+--------+
|  INFO  |
+--------+
Photographer : elliotbalynn
Photo URL    : https://www.flickr.com/photos/balynn/25196102662/
License      : Creative Commons (http://creativecommons.org/licenses)
Taken Date   : Sat Feb 27 14:49:21 GMT+0100 2016
Upload Date  : Sat Feb 27 22:42:29 GMT+0100 2016
Views        : 11
Comments     : 0


+---------+
|  TITLE  |
+---------+
_DSC7104-Edit


+---------------+
|  DESCRIPTION  |
+---------------+
(no description)


+--------+
|  TAGS  |
+--------+
(no tags)