+--------------------------------------+
|   Flickr Photo Metadata              |
|   Created by Bulkr on Mar 08, 2016   |
|   http://clipyourphotos.com/bulkr    |
+--------------------------------------+

+--------+
|  INFO  |
+--------+
Photographer : simonwilliamsim
Photo URL    : https://www.flickr.com/photos/lemonpr/9469854724/
License      : Creative Commons (http://creativecommons.org/licenses)
Taken Date   : Fri Aug 3 14:03:46 GMT+0200 2012
Upload Date  : Fri Aug 9 03:15:35 GMT+0200 2013
Views        : 152
Comments     : 0


+---------+
|  TITLE  |
+---------+
DSC_0629


+---------------+
|  DESCRIPTION  |
+---------------+
(no description)


+--------+
|  TAGS  |
+--------+
India cow spider sea simonwilliamsim "simon hunter-williams" travel art journalism SIMON HUNTER HUNTERWILLIAMS WILLIAMS-IM 임서우 