+--------------------------------------+
|   Flickr Photo Metadata              |
|   Created by Bulkr on Mar 08, 2016   |
|   http://clipyourphotos.com/bulkr    |
+--------------------------------------+

+--------+
|  INFO  |
+--------+
Photographer : Liz11685
Photo URL    : https://www.flickr.com/photos/lizfraser/5197074919/
License      : Creative Commons (http://creativecommons.org/licenses)
Taken Date   : Sun Nov 14 00:13:22 GMT+0100 2010
Upload Date  : Mon Nov 22 06:53:34 GMT+0100 2010
Views        : 95
Comments     : 0


+---------+
|  TITLE  |
+---------+
KENYA 492


+---------------+
|  DESCRIPTION  |
+---------------+
(no description)


+--------+
|  TAGS  |
+--------+
KENYA 