+--------------------------------------+
|   Flickr Photo Metadata              |
|   Created by Bulkr on Mar 08, 2016   |
|   http://clipyourphotos.com/bulkr    |
+--------------------------------------+

+--------+
|  INFO  |
+--------+
Photographer : Pollybear70
Photo URL    : https://www.flickr.com/photos/pollybear/16064188521/
License      : Creative Commons (http://creativecommons.org/licenses)
Taken Date   : Sat Dec 20 14:57:29 GMT+0100 2014
Upload Date  : Sat Dec 20 22:58:29 GMT+0100 2014
Views        : 11
Comments     : 0


+---------+
|  TITLE  |
+---------+
107


+---------------+
|  DESCRIPTION  |
+---------------+
(no description)


+--------+
|  TAGS  |
+--------+
(no tags)