+--------------------------------------+
|   Flickr Photo Metadata              |
|   Created by Bulkr on Mar 09, 2016   |
|   http://clipyourphotos.com/bulkr    |
+--------------------------------------+

+--------+
|  INFO  |
+--------+
Photographer : AndreasRei
Photo URL    : https://www.flickr.com/photos/75531032@N08/8562600868/
License      : Creative Commons (http://creativecommons.org/licenses)
Taken Date   : Fri Jan 1 00:04:56 GMT+0100 2010
Upload Date  : Sat Mar 16 16:15:35 GMT+0100 2013
Views        : 154
Comments     : 0


+---------+
|  TITLE  |
+---------+
Ochse


+---------------+
|  DESCRIPTION  |
+---------------+
(no description)


+--------+
|  TAGS  |
+--------+
Ochse Mundenhof lässig Blick Wiese Tier Zoo Freiland Zaun Kuh 