+--------------------------------------+
|   Flickr Photo Metadata              |
|   Created by Bulkr on Mar 09, 2016   |
|   http://clipyourphotos.com/bulkr    |
+--------------------------------------+

+--------+
|  INFO  |
+--------+
Photographer : Polynesian Xplorer
Photo URL    : https://www.flickr.com/photos/polyx1/6024911090/
License      : Creative Commons (http://creativecommons.org/licenses)
Taken Date   : Thu Jul 28 21:26:48 GMT+0200 2011
Upload Date  : Tue Aug 9 07:28:49 GMT+0200 2011
Views        : 92
Comments     : 0


+---------+
|  TITLE  |
+---------+
(no title)


+---------------+
|  DESCRIPTION  |
+---------------+
(no description)


+--------+
|  TAGS  |
+--------+
(no tags)