+--------------------------------------+
|   Flickr Photo Metadata              |
|   Created by Bulkr on Mar 08, 2016   |
|   http://clipyourphotos.com/bulkr    |
+--------------------------------------+

+--------+
|  INFO  |
+--------+
Photographer : Jonas B
Photo URL    : https://www.flickr.com/photos/jonasb/6987037092/
License      : Creative Commons (http://creativecommons.org/licenses)
Taken Date   : Tue Jan 24 10:52:48 GMT+0100 2012
Upload Date  : Tue May 1 22:15:48 GMT+0200 2012
Views        : 212
Comments     : 0


+---------+
|  TITLE  |
+---------+
Water buffalos


+---------------+
|  DESCRIPTION  |
+---------------+
(no description)


+--------+
|  TAGS  |
+--------+
waterbuffalo ngorongoro 