+--------------------------------------+
|   Flickr Photo Metadata              |
|   Created by Bulkr on Mar 08, 2016   |
|   http://clipyourphotos.com/bulkr    |
+--------------------------------------+

+--------+
|  INFO  |
+--------+
Photographer : Rhian vK
Photo URL    : https://www.flickr.com/photos/rhian/2984050414/
License      : Creative Commons (http://creativecommons.org/licenses)
Taken Date   : Wed Oct 29 10:38:37 GMT+0100 2008
Upload Date  : Wed Oct 29 11:59:18 GMT+0100 2008
Views        : 16
Comments     : 0


+---------+
|  TITLE  |
+---------+
Saout


+---------------+
|  DESCRIPTION  |
+---------------+
(no description)


+--------+
|  TAGS  |
+--------+
"Breizh Bretagne Llydaw Brittany" France Breizh Bretagne Llydaw Brittany Morbihan 2008 