+--------------------------------------+
|   Flickr Photo Metadata              |
|   Created by Bulkr on Mar 08, 2016   |
|   http://clipyourphotos.com/bulkr    |
+--------------------------------------+

+--------+
|  INFO  |
+--------+
Photographer : Artist in doing nothing.
Photo URL    : https://www.flickr.com/photos/miran/1161087474/
License      : Creative Commons (http://creativecommons.org/licenses)
Taken Date   : Thu Jul 12 12:25:38 GMT+0200 2007
Upload Date  : Sat Aug 18 17:59:42 GMT+0200 2007
Geotag Info  : Latitude:30.106820, Longitude:78.298358
Views        : 991
Comments     : 0


+---------+
|  TITLE  |
+---------+
India : Uttarakhand : Rishikesh : street fight


+---------------+
|  DESCRIPTION  |
+---------------+
<b>Bull trend time, just a little before stock market crash. Oh, Laxshmi, let win the stronger and persist on Stock Exchanges !</b>


+--------+
|  TAGS  |
+--------+
out-of-ordinary 2007 2008 india भारत 