+--------------------------------------+
|   Flickr Photo Metadata              |
|   Created by Bulkr on Mar 08, 2016   |
|   http://clipyourphotos.com/bulkr    |
+--------------------------------------+

+--------+
|  INFO  |
+--------+
Photographer : ken ratcliff
Photo URL    : https://www.flickr.com/photos/kenspix/3839949947/
License      : Creative Commons (http://creativecommons.org/licenses)
Taken Date   : Sun Aug 9 14:04:01 GMT+0200 2009
Upload Date  : Thu Aug 20 21:11:50 GMT+0200 2009
Views        : 67
Comments     : 0


+---------+
|  TITLE  |
+---------+
colorado trip 09 245


+---------------+
|  DESCRIPTION  |
+---------------+
(no description)


+--------+
|  TAGS  |
+--------+
leadville colorado "boom days" burro 