+--------------------------------------+
|   Flickr Photo Metadata              |
|   Created by Bulkr on Mar 08, 2016   |
|   http://clipyourphotos.com/bulkr    |
+--------------------------------------+

+--------+
|  INFO  |
+--------+
Photographer : maviscwling
Photo URL    : https://www.flickr.com/photos/maviscwling/2960956863/
License      : Creative Commons (http://creativecommons.org/licenses)
Taken Date   : Mon Oct 1 09:42:25 GMT+0200 2007
Upload Date  : Tue Oct 21 16:44:03 GMT+0200 2008
Views        : 3
Comments     : 0


+---------+
|  TITLE  |
+---------+
IMG_7622


+---------------+
|  DESCRIPTION  |
+---------------+
(no description)


+--------+
|  TAGS  |
+--------+
(no tags)