+--------------------------------------+
|   Flickr Photo Metadata              |
|   Created by Bulkr on Mar 09, 2016   |
|   http://clipyourphotos.com/bulkr    |
+--------------------------------------+

+--------+
|  INFO  |
+--------+
Photographer : myeralan
Photo URL    : https://www.flickr.com/photos/myeral/7711175928/
License      : Creative Commons (http://creativecommons.org/licenses)
Taken Date   : Thu Aug 2 12:42:38 GMT+0200 2012
Upload Date  : Sat Aug 4 18:52:51 GMT+0200 2012
Geotag Info  : Latitude:52.361672, Longitude:-2.317085
Views        : 168
Comments     : 0


+---------+
|  TITLE  |
+---------+
Horny


+---------------+
|  DESCRIPTION  |
+---------------+
(no description)


+--------+
|  TAGS  |
+--------+
animals cattle "safari parks" 