+--------------------------------------+
|   Flickr Photo Metadata              |
|   Created by Bulkr on Mar 09, 2016   |
|   http://clipyourphotos.com/bulkr    |
+--------------------------------------+

+--------+
|  INFO  |
+--------+
Photographer : itxaspe
Photo URL    : https://www.flickr.com/photos/48196942@N00/3439504864/
License      : Creative Commons (http://creativecommons.org/licenses)
Taken Date   : Mon Apr 13 15:09:07 GMT+0200 2009
Upload Date  : Mon Apr 13 22:26:11 GMT+0200 2009
Views        : 29
Comments     : 0


+---------+
|  TITLE  |
+---------+
1P1020825


+---------------+
|  DESCRIPTION  |
+---------------+
<a href="http://www.itxaspe.com/BlogsDeportes/MaterialDeportivo/semana-santa-2009-euskal-herriko-itzulia-y-bardenas-en-mountain-bike/" rel="nofollow">www.itxaspe.com/BlogsDeportes/MaterialDeportivo/semana-sa...</a>

Semana Santa en Mountain bike. y carretera


+--------+
|  TAGS  |
+--------+
diario ciclismo-btt ciclismo ciclismo-carretera 