+--------------------------------------+
|   Flickr Photo Metadata              |
|   Created by Bulkr on Mar 08, 2016   |
|   http://clipyourphotos.com/bulkr    |
+--------------------------------------+

+--------+
|  INFO  |
+--------+
Photographer : annieharada
Photo URL    : https://www.flickr.com/photos/annieharada/15891881321/
License      : Creative Commons (http://creativecommons.org/licenses)
Taken Date   : Fri Nov 21 15:58:11 GMT+0100 2014
Upload Date  : Thu Nov 27 22:48:05 GMT+0100 2014
Views        : 87
Comments     : 0


+---------+
|  TITLE  |
+---------+
ardennes-foulzy-chimay-51


+---------------+
|  DESCRIPTION  |
+---------------+
(no description)


+--------+
|  TAGS  |
+--------+
foulzy chimay europe animaux moutons chevaux 