+--------------------------------------+
|   Flickr Photo Metadata              |
|   Created by Bulkr on Mar 09, 2016   |
|   http://clipyourphotos.com/bulkr    |
+--------------------------------------+

+--------+
|  INFO  |
+--------+
Photographer : hsest
Photo URL    : https://www.flickr.com/photos/hsest1117/12199704006/
License      : Creative Commons (http://creativecommons.org/licenses)
Taken Date   : Wed Aug 4 17:06:39 GMT+0200 2004
Upload Date  : Wed Jan 29 04:01:22 GMT+0100 2014
Views        : 5
Comments     : 0


+---------+
|  TITLE  |
+---------+
IND (1)


+---------------+
|  DESCRIPTION  |
+---------------+
(no description)


+--------+
|  TAGS  |
+--------+
(no tags)