+--------------------------------------+
|   Flickr Photo Metadata              |
|   Created by Bulkr on Mar 08, 2016   |
|   http://clipyourphotos.com/bulkr    |
+--------------------------------------+

+--------+
|  INFO  |
+--------+
Photographer : adrian valenzuela
Photo URL    : https://www.flickr.com/photos/adrianv/8302163396/
License      : Creative Commons (http://creativecommons.org/licenses)
Taken Date   : Fri Jun 10 11:00:33 GMT+0200 2011
Upload Date  : Mon Dec 24 00:27:00 GMT+0100 2012
Views        : 282
Comments     : 0


+---------+
|  TITLE  |
+---------+
(no title)


+---------------+
|  DESCRIPTION  |
+---------------+
(no description)


+--------+
|  TAGS  |
+--------+
Africa Buffalos Tanzania Wildlife 