+--------------------------------------+
|   Flickr Photo Metadata              |
|   Created by Bulkr on Apr 14, 2016   |
|   http://clipyourphotos.com/bulkr    |
+--------------------------------------+

+--------+
|  INFO  |
+--------+
Photographer : twd3lr
Photo URL    : https://www.flickr.com/photos/twd3lr/14257740442/
License      : Creative Commons (http://creativecommons.org/licenses)
Taken Date   : Sat May 24 11:24:14 GMT+0200 2014
Upload Date  : Sat May 24 20:28:44 GMT+0200 2014
Views        : 184
Comments     : 0


+---------+
|  TITLE  |
+---------+
Bison


+---------------+
|  DESCRIPTION  |
+---------------+
(no description)


+--------+
|  TAGS  |
+--------+
Wildlife Safari 