+--------------------------------------+
|   Flickr Photo Metadata              |
|   Created by Bulkr on Apr 14, 2016   |
|   http://clipyourphotos.com/bulkr    |
+--------------------------------------+

+--------+
|  INFO  |
+--------+
Photographer : ahisgett
Photo URL    : https://www.flickr.com/photos/hisgett/8056364269/
License      : Creative Commons (http://creativecommons.org/licenses)
Taken Date   : Fri Sep 14 18:16:35 GMT+0200 2012
Upload Date  : Thu Sep 20 23:06:46 GMT+0200 2012
Views        : 113
Comments     : 0


+---------+
|  TITLE  |
+---------+
Leading the Traffic


+---------------+
|  DESCRIPTION  |
+---------------+
(no description)


+--------+
|  TAGS  |
+--------+
Yellowstone Bison 