+--------------------------------------+
|   Flickr Photo Metadata              |
|   Created by Bulkr on Apr 14, 2016   |
|   http://clipyourphotos.com/bulkr    |
+--------------------------------------+

+--------+
|  INFO  |
+--------+
Photographer : kun0me
Photo URL    : https://www.flickr.com/photos/redlinx/3220735304/
License      : Creative Commons (http://creativecommons.org/licenses)
Taken Date   : Wed Jun 4 22:28:07 GMT+0200 2008
Upload Date  : Fri Jan 23 18:10:45 GMT+0100 2009
Views        : 249
Comments     : 0


+---------+
|  TITLE  |
+---------+
Indian bison


+---------------+
|  DESCRIPTION  |
+---------------+
(no description)


+--------+
|  TAGS  |
+--------+
bison gaur india kgudi southindia 