+--------------------------------------+
|   Flickr Photo Metadata              |
|   Created by Bulkr on Apr 14, 2016   |
|   http://clipyourphotos.com/bulkr    |
+--------------------------------------+

+--------+
|  INFO  |
+--------+
Photographer : Arctic Wolf Pictures
Photo URL    : https://www.flickr.com/photos/arcticwoof/7121851825/
License      : Creative Commons (http://creativecommons.org/licenses)
Taken Date   : Sat Nov 22 11:17:46 GMT+0100 2008
Upload Date  : Sat Apr 28 19:42:00 GMT+0200 2012
Views        : 331
Comments     : 0


+---------+
|  TITLE  |
+---------+
How now brown cow


+---------------+
|  DESCRIPTION  |
+---------------+
(no description)


+--------+
|  TAGS  |
+--------+
animals bison brown bovine winter snow 