+--------------------------------------+
|   Flickr Photo Metadata              |
|   Created by Bulkr on Apr 14, 2016   |
|   http://clipyourphotos.com/bulkr    |
+--------------------------------------+

+--------+
|  INFO  |
+--------+
Photographer : marlenedd
Photo URL    : https://www.flickr.com/photos/marlened/6065798631/
License      : Creative Commons (http://creativecommons.org/licenses)
Taken Date   : Sat Aug 6 17:11:02 GMT+0200 2011
Upload Date  : Sun Aug 21 19:49:17 GMT+0200 2011
Views        : 86
Comments     : 0


+---------+
|  TITLE  |
+---------+
Le bison


+---------------+
|  DESCRIPTION  |
+---------------+
(no description)


+--------+
|  TAGS  |
+--------+
bison buffalo 