+--------------------------------------+
|   Flickr Photo Metadata              |
|   Created by Bulkr on Apr 14, 2016   |
|   http://clipyourphotos.com/bulkr    |
+--------------------------------------+

+--------+
|  INFO  |
+--------+
Photographer : gthoppae
Photo URL    : https://www.flickr.com/photos/gthoppae/2624225797/
License      : Creative Commons (http://creativecommons.org/licenses)
Taken Date   : Fri Jun 29 14:05:03 GMT+0200 2007
Upload Date  : Mon Jun 30 16:52:28 GMT+0200 2008
Views        : 107
Comments     : 0


+---------+
|  TITLE  |
+---------+
bisons


+---------------+
|  DESCRIPTION  |
+---------------+
(no description)


+--------+
|  TAGS  |
+--------+
bisons juraparc mahin gnana vidhya elephant bear wolf vallorbe jura 