+--------------------------------------+
|   Flickr Photo Metadata              |
|   Created by Bulkr on Apr 14, 2016   |
|   http://clipyourphotos.com/bulkr    |
+--------------------------------------+

+--------+
|  INFO  |
+--------+
Photographer : jjandames
Photo URL    : https://www.flickr.com/photos/jjandames/6615103583/
License      : Creative Commons (http://creativecommons.org/licenses)
Taken Date   : Sat Dec 31 09:56:30 GMT+0100 2011
Upload Date  : Sun Jan 1 22:45:32 GMT+0100 2012
Views        : 67
Comments     : 0


+---------+
|  TITLE  |
+---------+
Bison


+---------------+
|  DESCRIPTION  |
+---------------+
(no description)


+--------+
|  TAGS  |
+--------+
"North Carolina" Asheboro zoo 