+--------------------------------------+
|   Flickr Photo Metadata              |
|   Created by Bulkr on Apr 14, 2016   |
|   http://clipyourphotos.com/bulkr    |
+--------------------------------------+

+--------+
|  INFO  |
+--------+
Photographer : richard winchell
Photo URL    : https://www.flickr.com/photos/richardwinchell/116521385/
License      : Creative Commons (http://creativecommons.org/licenses)
Taken Date   : Sun Mar 19 14:02:15 GMT+0100 2006
Upload Date  : Wed Mar 22 23:46:49 GMT+0100 2006
Views        : 59
Comments     : 0


+---------+
|  TITLE  |
+---------+
bison


+---------------+
|  DESCRIPTION  |
+---------------+
(no description)


+--------+
|  TAGS  |
+--------+
winnipeg bison park 