+--------------------------------------+
|   Flickr Photo Metadata              |
|   Created by Bulkr on Apr 14, 2016   |
|   http://clipyourphotos.com/bulkr    |
+--------------------------------------+

+--------+
|  INFO  |
+--------+
Photographer : KimonBerlin
Photo URL    : https://www.flickr.com/photos/kimon/241290390/
License      : Creative Commons (http://creativecommons.org/licenses)
Taken Date   : Sun Sep 3 15:26:40 GMT+0200 2006
Upload Date  : Tue Sep 12 08:03:49 GMT+0200 2006
Views        : 136
Comments     : 1


+---------+
|  TITLE  |
+---------+
IMG_3760


+---------------+
|  DESCRIPTION  |
+---------------+
(no description)


+--------+
|  TAGS  |
+--------+
badlands bison "Canon EOS 20d" DSLR 