+--------------------------------------+
|   Flickr Photo Metadata              |
|   Created by Bulkr on Apr 14, 2016   |
|   http://clipyourphotos.com/bulkr    |
+--------------------------------------+

+--------+
|  INFO  |
+--------+
Photographer : kthypryn
Photo URL    : https://www.flickr.com/photos/44603071@N00/514220932/
License      : Creative Commons (http://creativecommons.org/licenses)
Taken Date   : Wed Sep 29 11:05:12 GMT+0200 2004
Upload Date  : Sat May 26 06:09:55 GMT+0200 2007
Views        : 726
Comments     : 0


+---------+
|  TITLE  |
+---------+
bison


+---------------+
|  DESCRIPTION  |
+---------------+
(no description)


+--------+
|  TAGS  |
+--------+
Florida Tampa Lowry_Park_Zoo animals wildanimals vacation zoo bison outing playing 