+--------------------------------------+
|   Flickr Photo Metadata              |
|   Created by Bulkr on Apr 14, 2016   |
|   http://clipyourphotos.com/bulkr    |
+--------------------------------------+

+--------+
|  INFO  |
+--------+
Photographer : RichieBpics
Photo URL    : https://www.flickr.com/photos/97071652@N04/16224425301/
License      : Creative Commons (http://creativecommons.org/licenses)
Taken Date   : Thu Oct 23 10:45:32 GMT+0200 2014
Upload Date  : Thu Jan 8 02:15:08 GMT+0100 2015
Views        : 68
Comments     : 0


+---------+
|  TITLE  |
+---------+
Bison at Caprock Canyon


+---------------+
|  DESCRIPTION  |
+---------------+
(no description)


+--------+
|  TAGS  |
+--------+
(no tags)