+--------------------------------------+
|   Flickr Photo Metadata              |
|   Created by Bulkr on Apr 14, 2016   |
|   http://clipyourphotos.com/bulkr    |
+--------------------------------------+

+--------+
|  INFO  |
+--------+
Photographer : DrGBB
Photo URL    : https://www.flickr.com/photos/drgbb/7971826430/
License      : Creative Commons (http://creativecommons.org/licenses)
Taken Date   : Tue Aug 14 08:05:34 GMT+0200 2012
Upload Date  : Mon Sep 10 18:10:10 GMT+0200 2012
Views        : 115
Comments     : 0


+---------+
|  TITLE  |
+---------+
Bison 1


+---------------+
|  DESCRIPTION  |
+---------------+
(no description)


+--------+
|  TAGS  |
+--------+
(no tags)