+--------------------------------------+
|   Flickr Photo Metadata              |
|   Created by Bulkr on Apr 14, 2016   |
|   http://clipyourphotos.com/bulkr    |
+--------------------------------------+

+--------+
|  INFO  |
+--------+
Photographer : plassen
Photo URL    : https://www.flickr.com/photos/plassen/150447165/
License      : Creative Commons (http://creativecommons.org/licenses)
Taken Date   : Fri Dec 2 11:34:06 GMT+0100 2005
Upload Date  : Sun May 21 18:18:14 GMT+0200 2006
Views        : 302
Comments     : 0


+---------+
|  TITLE  |
+---------+
Bison


+---------------+
|  DESCRIPTION  |
+---------------+
there are bisons in scandinavia!


+--------+
|  TAGS  |
+--------+
bison stockholm 