+--------------------------------------+
|   Flickr Photo Metadata              |
|   Created by Bulkr on Mar 08, 2016   |
|   http://clipyourphotos.com/bulkr    |
+--------------------------------------+

+--------+
|  INFO  |
+--------+
Photographer : pike JO
Photo URL    : https://www.flickr.com/photos/53847710@N04/4979256184/
License      : Creative Commons (http://creativecommons.org/licenses)
Taken Date   : Sat Sep 11 02:57:26 GMT+0200 2010
Upload Date  : Sat Sep 11 11:57:26 GMT+0200 2010
Views        : 43
Comments     : 0


+---------+
|  TITLE  |
+---------+
Elephant


+---------------+
|  DESCRIPTION  |
+---------------+
(no description)


+--------+
|  TAGS  |
+--------+
(no tags)