+--------------------------------------+
|   Flickr Photo Metadata              |
|   Created by Bulkr on Mar 08, 2016   |
|   http://clipyourphotos.com/bulkr    |
+--------------------------------------+

+--------+
|  INFO  |
+--------+
Photographer : Pricey
Photo URL    : https://www.flickr.com/photos/pricey/2174942248/
License      : Creative Commons (http://creativecommons.org/licenses)
Taken Date   : Wed Dec 26 10:22:45 GMT+0100 2007
Upload Date  : Mon Jan 7 10:06:12 GMT+0100 2008
Views        : 54
Comments     : 0


+---------+
|  TITLE  |
+---------+
WI meeting


+---------------+
|  DESCRIPTION  |
+---------------+
(no description)


+--------+
|  TAGS  |
+--------+
elephant sri lanka 