+--------------------------------------+
|   Flickr Photo Metadata              |
|   Created by Bulkr on Mar 08, 2016   |
|   http://clipyourphotos.com/bulkr    |
+--------------------------------------+

+--------+
|  INFO  |
+--------+
Photographer : dennis
Photo URL    : https://www.flickr.com/photos/dennis/1406669388/
License      : Creative Commons (http://creativecommons.org/licenses)
Taken Date   : Sat Sep 15 05:31:44 GMT+0200 2007
Upload Date  : Wed Sep 19 10:42:01 GMT+0200 2007
Views        : 355
Comments     : 0


+---------+
|  TITLE  |
+---------+
elephant


+---------------+
|  DESCRIPTION  |
+---------------+
(no description)


+--------+
|  TAGS  |
+--------+
thailand elephant 