+--------------------------------------+
|   Flickr Photo Metadata              |
|   Created by Bulkr on Mar 08, 2016   |
|   http://clipyourphotos.com/bulkr    |
+--------------------------------------+

+--------+
|  INFO  |
+--------+
Photographer : indi.ca
Photo URL    : https://www.flickr.com/photos/indi/144739716/
License      : Creative Commons (http://creativecommons.org/licenses)
Taken Date   : Thu May 11 10:37:22 GMT+0200 2006
Upload Date  : Thu May 11 23:22:18 GMT+0200 2006
Views        : 1,258
Comments     : 1


+---------+
|  TITLE  |
+---------+
Elephants on Way To Bath


+---------------+
|  DESCRIPTION  |
+---------------+
(no description)


+--------+
|  TAGS  |
+--------+
globalknowledgepartnership gkp srilanka elephant elephantorphanage 