+--------------------------------------+
|   Flickr Photo Metadata              |
|   Created by Bulkr on Mar 08, 2016   |
|   http://clipyourphotos.com/bulkr    |
+--------------------------------------+

+--------+
|  INFO  |
+--------+
Photographer : Dolfingrl
Photo URL    : https://www.flickr.com/photos/crazynconfused1981/220621503/
License      : Creative Commons (http://creativecommons.org/licenses)
Taken Date   : Sun Jul 23 18:41:51 GMT+0200 2006
Upload Date  : Mon Aug 21 04:51:17 GMT+0200 2006
Views        : 13
Comments     : 0


+---------+
|  TITLE  |
+---------+
Elephant


+---------------+
|  DESCRIPTION  |
+---------------+
(no description)


+--------+
|  TAGS  |
+--------+
(no tags)