+--------------------------------------+
|   Flickr Photo Metadata              |
|   Created by Bulkr on Mar 08, 2016   |
|   http://clipyourphotos.com/bulkr    |
+--------------------------------------+

+--------+
|  INFO  |
+--------+
Photographer : shutterxrelease
Photo URL    : https://www.flickr.com/photos/gabrielleyoung/2184763018/
License      : Creative Commons (http://creativecommons.org/licenses)
Taken Date   : Thu Jan 10 13:49:39 GMT+0100 2008
Upload Date  : Fri Jan 11 04:53:37 GMT+0100 2008
Views        : 29
Comments     : 0


+---------+
|  TITLE  |
+---------+
Elephants


+---------------+
|  DESCRIPTION  |
+---------------+
Apparently it was too cold for zebras and giraffes but not elephants!


+--------+
|  TAGS  |
+--------+
(no tags)