+--------------------------------------+
|   Flickr Photo Metadata              |
|   Created by Bulkr on Mar 08, 2016   |
|   http://clipyourphotos.com/bulkr    |
+--------------------------------------+

+--------+
|  INFO  |
+--------+
Photographer : bitmask
Photo URL    : https://www.flickr.com/photos/hvc/7399618500/
License      : Creative Commons (http://creativecommons.org/licenses)
Taken Date   : Sun Jun 17 12:54:26 GMT+0200 2012
Upload Date  : Tue Jun 19 08:08:21 GMT+0200 2012
Views        : 46
Comments     : 0


+---------+
|  TITLE  |
+---------+
elephants


+---------------+
|  DESCRIPTION  |
+---------------+
(no description)


+--------+
|  TAGS  |
+--------+
(no tags)