+--------------------------------------+
|   Flickr Photo Metadata              |
|   Created by Bulkr on Mar 08, 2016   |
|   http://clipyourphotos.com/bulkr    |
+--------------------------------------+

+--------+
|  INFO  |
+--------+
Photographer : www.color-blindness.com
Photo URL    : https://www.flickr.com/photos/colblindor/1918166744/
License      : Creative Commons (http://creativecommons.org/licenses)
Taken Date   : Mon Jun 4 14:01:51 GMT+0200 2007
Upload Date  : Thu Nov 8 13:45:27 GMT+0100 2007
Views        : 2,398
Comments     : 1


+---------+
|  TITLE  |
+---------+
The Little Elephant


+---------------+
|  DESCRIPTION  |
+---------------+
(no description)


+--------+
|  TAGS  |
+--------+
zoo elephant animal baby 