+--------------------------------------+
|   Flickr Photo Metadata              |
|   Created by Bulkr on Mar 08, 2016   |
|   http://clipyourphotos.com/bulkr    |
+--------------------------------------+

+--------+
|  INFO  |
+--------+
Photographer : Dr. Warner
Photo URL    : https://www.flickr.com/photos/rwwmd/2240166273/
License      : Creative Commons (http://creativecommons.org/licenses)
Taken Date   : Tue Jan 1 00:01:07 GMT+0100 1980
Upload Date  : Mon Feb 4 02:59:16 GMT+0100 2008
Views        : 45
Comments     : 0


+---------+
|  TITLE  |
+---------+
IMG_3129


+---------------+
|  DESCRIPTION  |
+---------------+
(no description)


+--------+
|  TAGS  |
+--------+
elephant 