+--------------------------------------+
|   Flickr Photo Metadata              |
|   Created by Bulkr on Mar 08, 2016   |
|   http://clipyourphotos.com/bulkr    |
+--------------------------------------+

+--------+
|  INFO  |
+--------+
Photographer : wiseguy71
Photo URL    : https://www.flickr.com/photos/wiseguy71/1472674699/
License      : Creative Commons (http://creativecommons.org/licenses)
Taken Date   : Sun Sep 30 17:35:44 GMT+0200 2007
Upload Date  : Tue Oct 2 23:29:39 GMT+0200 2007
Views        : 42
Comments     : 0


+---------+
|  TITLE  |
+---------+
Elephant


+---------------+
|  DESCRIPTION  |
+---------------+
(no description)


+--------+
|  TAGS  |
+--------+
Tierpark Berlin 