+--------------------------------------+
|   Flickr Photo Metadata              |
|   Created by Bulkr on Mar 08, 2016   |
|   http://clipyourphotos.com/bulkr    |
+--------------------------------------+

+--------+
|  INFO  |
+--------+
Photographer : evelynbelgium
Photo URL    : https://www.flickr.com/photos/evelyn_vancauwenberghe/1843110850/
License      : Creative Commons (http://creativecommons.org/licenses)
Taken Date   : Sat Nov 3 10:03:30 GMT+0100 2007
Upload Date  : Sat Nov 3 15:21:04 GMT+0100 2007
Views        : 48
Comments     : 0


+---------+
|  TITLE  |
+---------+
elephants


+---------------+
|  DESCRIPTION  |
+---------------+
(no description)


+--------+
|  TAGS  |
+--------+
Singapore Zoo 