+--------------------------------------+
|   Flickr Photo Metadata              |
|   Created by Bulkr on Mar 08, 2016   |
|   http://clipyourphotos.com/bulkr    |
+--------------------------------------+

+--------+
|  INFO  |
+--------+
Photographer : GreggMP
Photo URL    : https://www.flickr.com/photos/greggmichaelphotography/3896538964/
License      : Creative Commons (http://creativecommons.org/licenses)
Taken Date   : Sun Sep 6 11:03:44 GMT+0200 2009
Upload Date  : Mon Sep 7 15:18:02 GMT+0200 2009
Views        : 84
Comments     : 0


+---------+
|  TITLE  |
+---------+
099


+---------------+
|  DESCRIPTION  |
+---------------+
elephant


+--------+
|  TAGS  |
+--------+
elephant 