+--------------------------------------+
|   Flickr Photo Metadata              |
|   Created by Bulkr on Mar 08, 2016   |
|   http://clipyourphotos.com/bulkr    |
+--------------------------------------+

+--------+
|  INFO  |
+--------+
Photographer : Sheep purple
Photo URL    : https://www.flickr.com/photos/sheeppurple/3820779705/
License      : Creative Commons (http://creativecommons.org/licenses)
Taken Date   : Wed Aug 12 15:41:09 GMT+0200 2009
Upload Date  : Fri Aug 14 22:30:49 GMT+0200 2009
Views        : 1,476
Comments     : 0


+---------+
|  TITLE  |
+---------+
Elephant


+---------------+
|  DESCRIPTION  |
+---------------+
(no description)


+--------+
|  TAGS  |
+--------+
elephant berlin zoo 