+--------------------------------------+
|   Flickr Photo Metadata              |
|   Created by Bulkr on Mar 08, 2016   |
|   http://clipyourphotos.com/bulkr    |
+--------------------------------------+

+--------+
|  INFO  |
+--------+
Photographer : brixendk
Photo URL    : https://www.flickr.com/photos/brixendk/8399051110/
License      : Creative Commons (http://creativecommons.org/licenses)
Taken Date   : Sat Dec 29 14:42:45 GMT+0100 2012
Upload Date  : Sun Jan 20 17:28:46 GMT+0100 2013
Views        : 250
Comments     : 3


+---------+
|  TITLE  |
+---------+
Elephant


+---------------+
|  DESCRIPTION  |
+---------------+
(no description)


+--------+
|  TAGS  |
+--------+
Tanzania Katavi Animal 