+--------------------------------------+
|   Flickr Photo Metadata              |
|   Created by Bulkr on Mar 08, 2016   |
|   http://clipyourphotos.com/bulkr    |
+--------------------------------------+

+--------+
|  INFO  |
+--------+
Photographer : jchification
Photo URL    : https://www.flickr.com/photos/jchification/15725560151/
License      : Creative Commons (http://creativecommons.org/licenses)
Taken Date   : Fri Oct 24 14:21:57 GMT+0200 2014
Upload Date  : Thu Nov 6 23:09:21 GMT+0100 2014
Geotag Info  : Latitude:-2.346612, Longitude:34.838647
Views        : 131
Comments     : 0


+---------+
|  TITLE  |
+---------+
DSC_4494


+---------------+
|  DESCRIPTION  |
+---------------+
(no description)


+--------+
|  TAGS  |
+--------+
elephant 