+--------------------------------------+
|   Flickr Photo Metadata              |
|   Created by Bulkr on Mar 08, 2016   |
|   http://clipyourphotos.com/bulkr    |
+--------------------------------------+

+--------+
|  INFO  |
+--------+
Photographer : hyperial
Photo URL    : https://www.flickr.com/photos/hyperial/5617487178/
License      : Creative Commons (http://creativecommons.org/licenses)
Taken Date   : Thu Oct 7 00:36:36 GMT+0200 2010
Upload Date  : Wed Apr 13 22:54:59 GMT+0200 2011
Views        : 3
Comments     : 0


+---------+
|  TITLE  |
+---------+
Elephant


+---------------+
|  DESCRIPTION  |
+---------------+
(no description)


+--------+
|  TAGS  |
+--------+
(no tags)