+--------------------------------------+
|   Flickr Photo Metadata              |
|   Created by Bulkr on Mar 08, 2016   |
|   http://clipyourphotos.com/bulkr    |
+--------------------------------------+

+--------+
|  INFO  |
+--------+
Photographer : macronix
Photo URL    : https://www.flickr.com/photos/macronix/2786006825/
License      : Creative Commons (http://creativecommons.org/licenses)
Taken Date   : Fri Aug 22 10:47:18 GMT+0200 2008
Upload Date  : Fri Aug 22 13:27:40 GMT+0200 2008
Views        : 104
Comments     : 0


+---------+
|  TITLE  |
+---------+
IMG_0122.JPG


+---------------+
|  DESCRIPTION  |
+---------------+
Img_0122.Jpg


+--------+
|  TAGS  |
+--------+
elephant elefant bern 