+--------------------------------------+
|   Flickr Photo Metadata              |
|   Created by Bulkr on Mar 08, 2016   |
|   http://clipyourphotos.com/bulkr    |
+--------------------------------------+

+--------+
|  INFO  |
+--------+
Photographer : angela n.
Photo URL    : https://www.flickr.com/photos/aon/3779441041/
License      : Creative Commons (http://creativecommons.org/licenses)
Taken Date   : Sun Jul 26 12:23:47 GMT+0200 2009
Upload Date  : Sun Aug 2 06:58:52 GMT+0200 2009
Views        : 16
Comments     : 0


+---------+
|  TITLE  |
+---------+
Elephants


+---------------+
|  DESCRIPTION  |
+---------------+
(no description)


+--------+
|  TAGS  |
+--------+
(no tags)