+--------------------------------------+
|   Flickr Photo Metadata              |
|   Created by Bulkr on Mar 08, 2016   |
|   http://clipyourphotos.com/bulkr    |
+--------------------------------------+

+--------+
|  INFO  |
+--------+
Photographer : tom.lubbock
Photo URL    : https://www.flickr.com/photos/tomlubbock/10652044926/
License      : Creative Commons (http://creativecommons.org/licenses)
Taken Date   : Tue Sep 17 17:23:21 GMT+0200 2013
Upload Date  : Sun Nov 3 19:28:47 GMT+0100 2013
Views        : 61
Comments     : 0


+---------+
|  TITLE  |
+---------+
IMG_4076


+---------------+
|  DESCRIPTION  |
+---------------+
(no description)


+--------+
|  TAGS  |
+--------+
elephant 