+--------------------------------------+
|   Flickr Photo Metadata              |
|   Created by Bulkr on Mar 08, 2016   |
|   http://clipyourphotos.com/bulkr    |
+--------------------------------------+

+--------+
|  INFO  |
+--------+
Photographer : apium
Photo URL    : https://www.flickr.com/photos/apium/5066554928/
License      : Creative Commons (http://creativecommons.org/licenses)
Taken Date   : Sun Oct 3 16:01:11 GMT+0200 2010
Upload Date  : Sun Oct 10 03:26:29 GMT+0200 2010
Views        : 191
Comments     : 0


+---------+
|  TITLE  |
+---------+
fall10 121 elephant


+---------------+
|  DESCRIPTION  |
+---------------+
(no description)


+--------+
|  TAGS  |
+--------+
october 2010 nationalzoo animals dc elephant 