+--------------------------------------+
|   Flickr Photo Metadata              |
|   Created by Bulkr on Mar 08, 2016   |
|   http://clipyourphotos.com/bulkr    |
+--------------------------------------+

+--------+
|  INFO  |
+--------+
Photographer : TravelingShapy
Photo URL    : https://www.flickr.com/photos/129978259@N03/15586182033/
License      : Creative Commons (http://creativecommons.org/licenses)
Taken Date   : Tue Jun 4 14:18:12 GMT+0200 2013
Upload Date  : Tue Jan 6 15:04:12 GMT+0100 2015
Views        : 914
Comments     : 0


+---------+
|  TITLE  |
+---------+
elephants


+---------------+
|  DESCRIPTION  |
+---------------+
Feel free to use this picture but give credit to: <a href="http://www.traveling-shapy.de/" rel="nofollow">www.traveling-shapy.de/</a>

 

 

 

Das Bild steht zur freien Verfügung jedoch gebt: <a href="http://www.traveling-shapy.de/" rel="nofollow">www.traveling-shapy.de/</a> als Urheber an.


+--------+
|  TAGS  |
+--------+
elephants elephant elefant elefanten sri lanka animal tier water wasser Picture Bild 