+--------------------------------------+
|   Flickr Photo Metadata              |
|   Created by Bulkr on Mar 08, 2016   |
|   http://clipyourphotos.com/bulkr    |
+--------------------------------------+

+--------+
|  INFO  |
+--------+
Photographer : justin
Photo URL    : https://www.flickr.com/photos/justin/360206569/
License      : Creative Commons (http://creativecommons.org/licenses)
Taken Date   : Sat Jan 6 08:41:48 GMT+0100 2007
Upload Date  : Wed Jan 17 05:36:56 GMT+0100 2007
Views        : 27,372
Comments     : 2


+---------+
|  TITLE  |
+---------+
Muddy Elephant


+---------------+
|  DESCRIPTION  |
+---------------+
Muddy elephant with flaccid penis unfurled.


+--------+
|  TAGS  |
+--------+
elephant botswana "okavango delta" mombo 