+--------------------------------------+
|   Flickr Photo Metadata              |
|   Created by Bulkr on Mar 08, 2016   |
|   http://clipyourphotos.com/bulkr    |
+--------------------------------------+

+--------+
|  INFO  |
+--------+
Photographer : nutbird
Photo URL    : https://www.flickr.com/photos/nutbird/167274248/
License      : Creative Commons (http://creativecommons.org/licenses)
Taken Date   : Sat Aug 27 16:06:30 GMT+0200 2005
Upload Date  : Wed Jun 14 23:31:05 GMT+0200 2006
Views        : 74
Comments     : 1


+---------+
|  TITLE  |
+---------+
elephants


+---------------+
|  DESCRIPTION  |
+---------------+
(no description)


+--------+
|  TAGS  |
+--------+
Thailand 2006 