+--------------------------------------+
|   Flickr Photo Metadata              |
|   Created by Bulkr on Mar 08, 2016   |
|   http://clipyourphotos.com/bulkr    |
+--------------------------------------+

+--------+
|  INFO  |
+--------+
Photographer : mistermunay
Photo URL    : https://www.flickr.com/photos/73925663@N03/8957860152/
License      : Creative Commons (http://creativecommons.org/licenses)
Taken Date   : Thu Mar 1 15:44:57 GMT+0100 2012
Upload Date  : Wed Jun 5 13:00:19 GMT+0200 2013
Geotag Info  : Latitude:7.311920, Longitude:80.398721
Views        : 180
Comments     : 0


+---------+
|  TITLE  |
+---------+
IMG_0482


+---------------+
|  DESCRIPTION  |
+---------------+
(no description)


+--------+
|  TAGS  |
+--------+
pinnawala elephant 