+--------------------------------------+
|   Flickr Photo Metadata              |
|   Created by Bulkr on Mar 08, 2016   |
|   http://clipyourphotos.com/bulkr    |
+--------------------------------------+

+--------+
|  INFO  |
+--------+
Photographer : tom.lubbock
Photo URL    : https://www.flickr.com/photos/tomlubbock/10652028676/
License      : Creative Commons (http://creativecommons.org/licenses)
Taken Date   : Sun Sep 15 15:18:27 GMT+0200 2013
Upload Date  : Sun Nov 3 19:28:01 GMT+0100 2013
Views        : 67
Comments     : 0


+---------+
|  TITLE  |
+---------+
IMG_2198


+---------------+
|  DESCRIPTION  |
+---------------+
(no description)


+--------+
|  TAGS  |
+--------+
elephants 