+--------------------------------------+
|   Flickr Photo Metadata              |
|   Created by Bulkr on Mar 08, 2016   |
|   http://clipyourphotos.com/bulkr    |
+--------------------------------------+

+--------+
|  INFO  |
+--------+
Photographer : diditstart
Photo URL    : https://www.flickr.com/photos/rbcoert/5891527272/
License      : Creative Commons (http://creativecommons.org/licenses)
Taken Date   : Fri Aug 27 07:06:19 GMT+0200 2010
Upload Date  : Fri Jul 1 19:08:25 GMT+0200 2011
Views        : 58
Comments     : 0


+---------+
|  TITLE  |
+---------+
African Elephants


+---------------+
|  DESCRIPTION  |
+---------------+
(no description)


+--------+
|  TAGS  |
+--------+
(no tags)