+--------------------------------------+
|   Flickr Photo Metadata              |
|   Created by Bulkr on Mar 08, 2016   |
|   http://clipyourphotos.com/bulkr    |
+--------------------------------------+

+--------+
|  INFO  |
+--------+
Photographer : flowcomm
Photo URL    : https://www.flickr.com/photos/flowcomm/2768224309/
License      : Creative Commons (http://creativecommons.org/licenses)
Taken Date   : Thu Aug 14 06:57:59 GMT+0200 2008
Upload Date  : Sat Aug 16 22:31:19 GMT+0200 2008
Views        : 280
Comments     : 0


+---------+
|  TITLE  |
+---------+
elephant cow 1


+---------------+
|  DESCRIPTION  |
+---------------+
(no description)


+--------+
|  TAGS  |
+--------+
elephant africa mammal earthtouchcom 