+--------------------------------------+
|   Flickr Photo Metadata              |
|   Created by Bulkr on Mar 08, 2016   |
|   http://clipyourphotos.com/bulkr    |
+--------------------------------------+

+--------+
|  INFO  |
+--------+
Photographer : Navaneeth K N
Photo URL    : https://www.flickr.com/photos/navaneethkn/10325679996/
License      : Creative Commons (http://creativecommons.org/licenses)
Taken Date   : Wed Oct 9 17:20:05 GMT+0200 2013
Upload Date  : Thu Oct 17 12:06:05 GMT+0200 2013
Views        : 12,057
Comments     : 13


+---------+
|  TITLE  |
+---------+
Bandipur


+---------------+
|  DESCRIPTION  |
+---------------+
(no description)


+--------+
|  TAGS  |
+--------+
"indian elephant" bandipur karnataka 