+--------------------------------------+
|   Flickr Photo Metadata              |
|   Created by Bulkr on Mar 08, 2016   |
|   http://clipyourphotos.com/bulkr    |
+--------------------------------------+

+--------+
|  INFO  |
+--------+
Photographer : harrington_alison
Photo URL    : https://www.flickr.com/photos/125349922@N05/15544841059/
License      : Creative Commons (http://creativecommons.org/licenses)
Taken Date   : Sat Nov 1 21:55:05 GMT+0100 2014
Upload Date  : Fri Nov 7 11:11:06 GMT+0100 2014
Views        : 135
Comments     : 0


+---------+
|  TITLE  |
+---------+
elephant


+---------------+
|  DESCRIPTION  |
+---------------+
pilanesburg


+--------+
|  TAGS  |
+--------+
(no tags)