+--------------------------------------+
|   Flickr Photo Metadata              |
|   Created by Bulkr on Mar 08, 2016   |
|   http://clipyourphotos.com/bulkr    |
+--------------------------------------+

+--------+
|  INFO  |
+--------+
Photographer : Nick.Fisher
Photo URL    : https://www.flickr.com/photos/cobrasick/481991994/
License      : Creative Commons (http://creativecommons.org/licenses)
Taken Date   : Tue May 1 04:38:30 GMT+0200 2007
Upload Date  : Thu May 3 02:02:29 GMT+0200 2007
Views        : 71
Comments     : 0


+---------+
|  TITLE  |
+---------+
elephants


+---------------+
|  DESCRIPTION  |
+---------------+
(no description)


+--------+
|  TAGS  |
+--------+
elephants Portland Oregon fauna animal 