+--------------------------------------+
|   Flickr Photo Metadata              |
|   Created by Bulkr on Mar 08, 2016   |
|   http://clipyourphotos.com/bulkr    |
+--------------------------------------+

+--------+
|  INFO  |
+--------+
Photographer : Annie Mole
Photo URL    : https://www.flickr.com/photos/anniemole/5052670403/
License      : Creative Commons (http://creativecommons.org/licenses)
Taken Date   : Mon Oct 4 03:32:58 GMT+0200 2010
Upload Date  : Tue Oct 5 05:01:07 GMT+0200 2010
Views        : 1,708
Comments     : 0


+---------+
|  TITLE  |
+---------+
Happy Elephant 2


+---------------+
|  DESCRIPTION  |
+---------------+
(no description)


+--------+
|  TAGS  |
+--------+
bali elephant "elephant safari park" 