+--------------------------------------+
|   Flickr Photo Metadata              |
|   Created by Bulkr on Mar 08, 2016   |
|   http://clipyourphotos.com/bulkr    |
+--------------------------------------+

+--------+
|  INFO  |
+--------+
Photographer : darkroomillusions
Photo URL    : https://www.flickr.com/photos/21604043@N05/2448339670/
License      : Creative Commons (http://creativecommons.org/licenses)
Taken Date   : Tue Apr 8 20:31:23 GMT+0200 2003
Upload Date  : Mon Apr 28 06:43:07 GMT+0200 2008
Views        : 800
Comments     : 0


+---------+
|  TITLE  |
+---------+
Elephant


+---------------+
|  DESCRIPTION  |
+---------------+
(no description)


+--------+
|  TAGS  |
+--------+
Elephant Africa 