+--------------------------------------+
|   Flickr Photo Metadata              |
|   Created by Bulkr on Mar 08, 2016   |
|   http://clipyourphotos.com/bulkr    |
+--------------------------------------+

+--------+
|  INFO  |
+--------+
Photographer : rulznkat
Photo URL    : https://www.flickr.com/photos/130617276@N04/15997765453/
License      : Creative Commons (http://creativecommons.org/licenses)
Taken Date   : Fri Feb 14 03:09:11 GMT+0100 2014
Upload Date  : Mon Feb 23 00:13:55 GMT+0100 2015
Views        : 160
Comments     : 0


+---------+
|  TITLE  |
+---------+
trunks!


+---------------+
|  DESCRIPTION  |
+---------------+
(no description)


+--------+
|  TAGS  |
+--------+
tanzania safari tarangire elephants 