+--------------------------------------+
|   Flickr Photo Metadata              |
|   Created by Bulkr on Mar 08, 2016   |
|   http://clipyourphotos.com/bulkr    |
+--------------------------------------+

+--------+
|  INFO  |
+--------+
Photographer : Sladey
Photo URL    : https://www.flickr.com/photos/scslade/2430646292/
License      : Creative Commons (http://creativecommons.org/licenses)
Taken Date   : Sun Apr 20 12:57:57 GMT+0200 2008
Upload Date  : Mon Apr 21 07:48:04 GMT+0200 2008
Views        : 13
Comments     : 0


+---------+
|  TITLE  |
+---------+
Elephants!


+---------------+
|  DESCRIPTION  |
+---------------+
(no description)


+--------+
|  TAGS  |
+--------+
(no tags)