+--------------------------------------+
|   Flickr Photo Metadata              |
|   Created by Bulkr on Mar 08, 2016   |
|   http://clipyourphotos.com/bulkr    |
+--------------------------------------+

+--------+
|  INFO  |
+--------+
Photographer : robynejay
Photo URL    : https://www.flickr.com/photos/learnscope/10154514493/
License      : Creative Commons (http://creativecommons.org/licenses)
Taken Date   : Tue Oct 8 11:56:00 GMT+0200 2013
Upload Date  : Tue Oct 8 22:00:10 GMT+0200 2013
Views        : 478
Comments     : 0


+---------+
|  TITLE  |
+---------+
Elephants


+---------------+
|  DESCRIPTION  |
+---------------+
(no description)


+--------+
|  TAGS  |
+--------+
elephant zoo tarongazoo sydney 