+--------------------------------------+
|   Flickr Photo Metadata              |
|   Created by Bulkr on Mar 08, 2016   |
|   http://clipyourphotos.com/bulkr    |
+--------------------------------------+

+--------+
|  INFO  |
+--------+
Photographer : pasa47
Photo URL    : https://www.flickr.com/photos/pasa/9482553719/
License      : Creative Commons (http://creativecommons.org/licenses)
Taken Date   : Sat Aug 10 16:57:20 GMT+0200 2013
Upload Date  : Sun Aug 11 10:11:22 GMT+0200 2013
Views        : 97
Comments     : 0


+---------+
|  TITLE  |
+---------+
Elephants


+---------------+
|  DESCRIPTION  |
+---------------+
(no description)


+--------+
|  TAGS  |
+--------+
"St. Louis" STL Summer "St. Louis City" "City of St. Louis" 2013 August MO MIssouri "Forest Park" 