+--------------------------------------+
|   Flickr Photo Metadata              |
|   Created by Bulkr on Feb 03, 2016   |
|   http://clipyourphotos.com/bulkr    |
+--------------------------------------+

+--------+
|  INFO  |
+--------+
Photographer : Madeleine_H
Photo URL    : https://www.flickr.com/photos/madeleine_h/15233529721/
License      : Creative Commons (http://creativecommons.org/licenses)
Taken Date   : Mon Sep 1 20:27:32 GMT+0200 2014
Upload Date  : Sun Sep 14 17:40:20 GMT+0200 2014
Geotag Info  : Latitude:60.838888, Longitude:-148.989715
Views        : 520
Comments     : 0


+---------+
|  TITLE  |
+---------+
This guy was laid out completely on a log and snoozing the day away


+---------------+
|  DESCRIPTION  |
+---------------+
(no description)


+--------+
|  TAGS  |
+--------+
USA Alaska "Road Trip" "North America" bear grizzly "grizzly bear; Kenai Peninsula, Alaskan Wildlife Conservation Center" 