+--------------------------------------+
|   Flickr Photo Metadata              |
|   Created by Bulkr on Feb 03, 2016   |
|   http://clipyourphotos.com/bulkr    |
+--------------------------------------+

+--------+
|  INFO  |
+--------+
Photographer : rakh1
Photo URL    : https://www.flickr.com/photos/rakh1/13198426033/
License      : Creative Commons (http://creativecommons.org/licenses)
Taken Date   : Sun Mar 16 15:28:18 GMT+0100 2014
Upload Date  : Sun Mar 16 19:56:20 GMT+0100 2014
Views        : 120
Comments     : 0


+---------+
|  TITLE  |
+---------+
Brown Bears


+---------------+
|  DESCRIPTION  |
+---------------+
(no description)


+--------+
|  TAGS  |
+--------+
(no tags)