+--------------------------------------+
|   Flickr Photo Metadata              |
|   Created by Bulkr on Feb 03, 2016   |
|   http://clipyourphotos.com/bulkr    |
+--------------------------------------+

+--------+
|  INFO  |
+--------+
Photographer : indywriter
Photo URL    : https://www.flickr.com/photos/indywriter/3831780129/
License      : Creative Commons (http://creativecommons.org/licenses)
Taken Date   : Mon Aug 17 23:04:23 GMT+0200 2009
Upload Date  : Tue Aug 18 05:04:23 GMT+0200 2009
Views        : 1,543
Comments     : 0


+---------+
|  TITLE  |
+---------+
Bears


+---------------+
|  DESCRIPTION  |
+---------------+
(no description)


+--------+
|  TAGS  |
+--------+
Brown Bear Oregon 