+--------------------------------------+
|   Flickr Photo Metadata              |
|   Created by Bulkr on Feb 03, 2016   |
|   http://clipyourphotos.com/bulkr    |
+--------------------------------------+

+--------+
|  INFO  |
+--------+
Photographer : Just chaos
Photo URL    : https://www.flickr.com/photos/7326810@N08/3091614454/
License      : Creative Commons (http://creativecommons.org/licenses)
Taken Date   : Tue Nov 4 12:53:08 GMT+0100 2008
Upload Date  : Mon Dec 8 03:39:54 GMT+0100 2008
Views        : 112
Comments     : 0


+---------+
|  TITLE  |
+---------+
grizzly bear


+---------------+
|  DESCRIPTION  |
+---------------+
(no description)


+--------+
|  TAGS  |
+--------+
sandiegozoo 