+--------------------------------------+
|   Flickr Photo Metadata              |
|   Created by Bulkr on Feb 03, 2016   |
|   http://clipyourphotos.com/bulkr    |
+--------------------------------------+

+--------+
|  INFO  |
+--------+
Photographer : cam_rich345
Photo URL    : https://www.flickr.com/photos/camrich345/7177889690/
License      : Creative Commons (http://creativecommons.org/licenses)
Taken Date   : Mon May 7 13:36:23 GMT+0200 2012
Upload Date  : Fri May 11 21:22:54 GMT+0200 2012
Views        : 1,382
Comments     : 0


+---------+
|  TITLE  |
+---------+
Black Bear Adolescents 1


+---------------+
|  DESCRIPTION  |
+---------------+
(no description)


+--------+
|  TAGS  |
+--------+
Bearizona "Brown Bear" 