+--------------------------------------+
|   Flickr Photo Metadata              |
|   Created by Bulkr on Feb 03, 2016   |
|   http://clipyourphotos.com/bulkr    |
+--------------------------------------+

+--------+
|  INFO  |
+--------+
Photographer : Just chaos
Photo URL    : https://www.flickr.com/photos/7326810@N08/2827672299/
License      : Creative Commons (http://creativecommons.org/licenses)
Taken Date   : Mon Aug 4 11:52:03 GMT+0200 2008
Upload Date  : Thu Sep 4 19:14:37 GMT+0200 2008
Views        : 119
Comments     : 0


+---------+
|  TITLE  |
+---------+
Grizzly Bears Playing


+---------------+
|  DESCRIPTION  |
+---------------+
(no description)


+--------+
|  TAGS  |
+--------+
sanfranciscozoo zoo carnivore 