+--------------------------------------+
|   commons.wikimedia Photo Metadata   |
+--------------------------------------+



+--------+
|  INFO  |
+--------+
Photographer : Jean-noël Lafargue
Photo URL    : https://commons.wikimedia.org/wiki/File:Ours_brun_parcanimalierpyrenees_3.jpg
License      : Feel free to use
Date         : 2005
