+--------------------------------------+
|   Flickr Photo Metadata              |
|   Created by Bulkr on Feb 03, 2016   |
|   http://clipyourphotos.com/bulkr    |
+--------------------------------------+

+--------+
|  INFO  |
+--------+
Photographer : cam_rich345
Photo URL    : https://www.flickr.com/photos/camrich345/4509862994/
License      : Creative Commons (http://creativecommons.org/licenses)
Taken Date   : Sun Mar 21 12:42:36 GMT+0100 2010
Upload Date  : Sun Apr 11 05:24:51 GMT+0200 2010
Views        : 484
Comments     : 0


+---------+
|  TITLE  |
+---------+
DSC_0125


+---------------+
|  DESCRIPTION  |
+---------------+
(no description)


+--------+
|  TAGS  |
+--------+
"Grizzly Bear" Pittsburgh "PIttsburgh Zoo and PPG Aquarium" Zoo "Pittsburgh Zoo" animals 