+--------------------------------------+
|   Flickr Photo Metadata              |
|   Created by Bulkr on Apr 06, 2016   |
|   http://clipyourphotos.com/bulkr    |
+--------------------------------------+

+--------+
|  INFO  |
+--------+
Photographer : Gnaphron
Photo URL    : https://www.flickr.com/photos/gnaphron/6945691141/
License      : Creative Commons (http://creativecommons.org/licenses)
Taken Date   : Sat Feb 25 21:45:20 GMT+0100 2012
Upload Date  : Fri Mar 2 07:01:42 GMT+0100 2012
Views        : 23
Comments     : 0


+---------+
|  TITLE  |
+---------+
Rhinoceroses


+---------------+
|  DESCRIPTION  |
+---------------+
(no description)


+--------+
|  TAGS  |
+--------+
Raw iPhotoRating0 