+--------------------------------------+
|   Flickr Photo Metadata              |
|   Created by Bulkr on Apr 06, 2016   |
|   http://clipyourphotos.com/bulkr    |
+--------------------------------------+

+--------+
|  INFO  |
+--------+
Photographer : julz91
Photo URL    : https://www.flickr.com/photos/julz91/4001334420/
License      : Creative Commons (http://creativecommons.org/licenses)
Taken Date   : Sat Aug 22 11:27:37 GMT+0200 2009
Upload Date  : Sun Oct 11 16:42:30 GMT+0200 2009
Views        : 24
Comments     : 0


+---------+
|  TITLE  |
+---------+
Rhinoceros


+---------------+
|  DESCRIPTION  |
+---------------+
(no description)


+--------+
|  TAGS  |
+--------+
(no tags)