+--------------------------------------+
|   Flickr Photo Metadata              |
|   Created by Bulkr on Apr 06, 2016   |
|   http://clipyourphotos.com/bulkr    |
+--------------------------------------+

+--------+
|  INFO  |
+--------+
Photographer : Just chaos
Photo URL    : https://www.flickr.com/photos/7326810@N08/4339823354/
License      : Creative Commons (http://creativecommons.org/licenses)
Taken Date   : Sun Feb 7 19:36:15 GMT+0100 2010
Upload Date  : Mon Feb 8 04:36:15 GMT+0100 2010
Views        : 23
Comments     : 0


+---------+
|  TITLE  |
+---------+
White Rhinoceros


+---------------+
|  DESCRIPTION  |
+---------------+
(no description)


+--------+
|  TAGS  |
+--------+
(no tags)