+--------------------------------------+
|   Flickr Photo Metadata              |
|   Created by Bulkr on Apr 06, 2016   |
|   http://clipyourphotos.com/bulkr    |
+--------------------------------------+

+--------+
|  INFO  |
+--------+
Photographer : sampad - artiste photographiste
Photo URL    : https://www.flickr.com/photos/sampad-portfolio/14843669396/
License      : Creative Commons (http://creativecommons.org/licenses)
Taken Date   : Sun Feb 2 16:33:11 GMT+0100 2014
Upload Date  : Sat Aug 9 13:50:37 GMT+0200 2014
Views        : 68
Comments     : 0


+---------+
|  TITLE  |
+---------+
Rhinocéros #2


+---------------+
|  DESCRIPTION  |
+---------------+
Vous pouvez retrouver cette photo en vente en série limitée à 30 exemplaires dans la Sampaderie

<a href="http://www.sampad.fr/galerie-sampad/" rel="nofollow">www.sampad.fr/photos-art-grandeur-nature</a>


+--------+
|  TAGS  |
+--------+
Bébé Rhino dans la réserve de Timbavati 