+--------------------------------------+
|   Flickr Photo Metadata              |
|   Created by Bulkr on Apr 06, 2016   |
|   http://clipyourphotos.com/bulkr    |
+--------------------------------------+

+--------+
|  INFO  |
+--------+
Photographer : fairlybuoyant
Photo URL    : https://www.flickr.com/photos/fairlybuoyant/4110358050/
License      : Creative Commons (http://creativecommons.org/licenses)
Taken Date   : Sat Oct 17 10:10:11 GMT+0200 2009
Upload Date  : Mon Nov 16 21:36:32 GMT+0100 2009
Views        : 343
Comments     : 0


+---------+
|  TITLE  |
+---------+
Rhinoceros - Chitwan Royal National Park


+---------------+
|  DESCRIPTION  |
+---------------+
(no description)


+--------+
|  TAGS  |
+--------+
rhinoceros chitwan nepal "tiger tops" safari 