+--------------------------------------+
|   Flickr Photo Metadata              |
|   Created by Bulkr on Apr 06, 2016   |
|   http://clipyourphotos.com/bulkr    |
+--------------------------------------+

+--------+
|  INFO  |
+--------+
Photographer : probabilistic
Photo URL    : https://www.flickr.com/photos/probabilistic/4530593633/
License      : Creative Commons (http://creativecommons.org/licenses)
Taken Date   : Sun Apr 18 03:12:01 GMT+0200 2010
Upload Date  : Sun Apr 18 15:39:08 GMT+0200 2010
Geotag Info  : Latitude:48.097056, Longitude:11.553325
Views        : 76
Comments     : 0


+---------+
|  TITLE  |
+---------+
IMG_1853


+---------------+
|  DESCRIPTION  |
+---------------+
Oh, bother


+--------+
|  TAGS  |
+--------+
munich "Tierpark Hellabrunn" rhinoceros 