+--------------------------------------+
|   Flickr Photo Metadata              |
|   Created by Bulkr on Apr 06, 2016   |
|   http://clipyourphotos.com/bulkr    |
+--------------------------------------+

+--------+
|  INFO  |
+--------+
Photographer : Just chaos
Photo URL    : https://www.flickr.com/photos/7326810@N08/3728758770/
License      : Creative Commons (http://creativecommons.org/licenses)
Taken Date   : Mon Nov 3 14:50:34 GMT+0100 2008
Upload Date  : Fri Jul 17 06:20:01 GMT+0200 2009
Views        : 33
Comments     : 0


+---------+
|  TITLE  |
+---------+
Indian Rhinoceros


+---------------+
|  DESCRIPTION  |
+---------------+
(no description)


+--------+
|  TAGS  |
+--------+
(no tags)