+--------------------------------------+
|   Flickr Photo Metadata              |
|   Created by Bulkr on Apr 06, 2016   |
|   http://clipyourphotos.com/bulkr    |
+--------------------------------------+

+--------+
|  INFO  |
+--------+
Photographer : irishwildcat
Photo URL    : https://www.flickr.com/photos/irishwildcat/2219143669/
License      : Creative Commons (http://creativecommons.org/licenses)
Taken Date   : Sat Jan 12 14:29:38 GMT+0100 2008
Upload Date  : Sat Jan 26 02:38:25 GMT+0100 2008
Views        : 153
Comments     : 0


+---------+
|  TITLE  |
+---------+
Hoover


+---------------+
|  DESCRIPTION  |
+---------------+
(no description)


+--------+
|  TAGS  |
+--------+
"NC Zoo" animal mammal rhinoceros 