+--------------------------------------+
|   Flickr Photo Metadata              |
|   Created by Bulkr on Apr 06, 2016   |
|   http://clipyourphotos.com/bulkr    |
+--------------------------------------+

+--------+
|  INFO  |
+--------+
Photographer : Eric Kilby
Photo URL    : https://www.flickr.com/photos/ekilby/18257778503/
License      : Creative Commons (http://creativecommons.org/licenses)
Taken Date   : Sat Jan 12 16:39:32 GMT+0100 2013
Upload Date  : Wed Jan 30 05:14:11 GMT+0100 2013
Geotag Info  : Latitude:25.609216, Longitude:-80.403034
Views        : 159
Comments     : 0


+---------+
|  TITLE  |
+---------+
Rhino Side View


+---------------+
|  DESCRIPTION  |
+---------------+
(no description)


+--------+
|  TAGS  |
+--------+
zoomiami zoo miami florida rhino rhinoceros profile side 