+--------------------------------------+
|   Flickr Photo Metadata              |
|   Created by Bulkr on Apr 06, 2016   |
|   http://clipyourphotos.com/bulkr    |
+--------------------------------------+

+--------+
|  INFO  |
+--------+
Photographer : Peter Becker
Photo URL    : https://www.flickr.com/photos/peterbecker/253120181/
License      : Creative Commons (http://creativecommons.org/licenses)
Taken Date   : Tue Sep 26 09:39:00 GMT+0200 2006
Upload Date  : Tue Sep 26 09:39:00 GMT+0200 2006
Geotag Info  : Latitude:48.097536, Longitude:11.554591
Views        : 373
Comments     : 0


+---------+
|  TITLE  |
+---------+
Rhino


+---------------+
|  DESCRIPTION  |
+---------------+
Is this the local JavaScript expert?


+--------+
|  TAGS  |
+--------+
Zoo Tierpark Hellabrunn München Munich rhino rhinoceros 