+--------------------------------------+
|   Flickr Photo Metadata              |
|   Created by Bulkr on May 18, 2016   |
|   http://clipyourphotos.com/bulkr    |
+--------------------------------------+

+--------+
|  INFO  |
+--------+
Photographer : <_Ø_>
Photo URL    : https://www.flickr.com/photos/101641475@N07/20513823265/
License      : Creative Commons (http://creativecommons.org/licenses)
Taken Date   : Wed Aug 12 03:47:30 GMT+0200 2015
Upload Date  : Wed Aug 12 14:35:15 GMT+0200 2015
Views        : 563
Comments     : 1


+---------+
|  TITLE  |
+---------+
AtomHeartMother


+---------------+
|  DESCRIPTION  |
+---------------+
(no description)


+--------+
|  TAGS  |
+--------+
cow vache nature 