+--------------------------------------+
|   Flickr Photo Metadata              |
|   Created by Bulkr on May 18, 2016   |
|   http://clipyourphotos.com/bulkr    |
+--------------------------------------+

+--------+
|  INFO  |
+--------+
Photographer : ThomasKohler
Photo URL    : https://www.flickr.com/photos/mecklenburg/6035259893/
License      : Creative Commons (http://creativecommons.org/licenses)
Taken Date   : Tue Jul 12 11:53:49 GMT+0200 2011
Upload Date  : Fri Aug 12 18:10:49 GMT+0200 2011
Views        : 544
Comments     : 0


+---------+
|  TITLE  |
+---------+
Rinder


+---------------+
|  DESCRIPTION  |
+---------------+
Kühe


+--------+
|  TAGS  |
+--------+
kuh rind cow tier animal schwarz weiss black white wiese weide meadow grassland hayfield grasen weiden 