+--------------------------------------+
|   Flickr Photo Metadata              |
|   Created by Bulkr on May 18, 2016   |
|   http://clipyourphotos.com/bulkr    |
+--------------------------------------+

+--------+
|  INFO  |
+--------+
Photographer : daubru
Photo URL    : https://www.flickr.com/photos/55528194@N06/15159936842/
License      : Creative Commons (http://creativecommons.org/licenses)
Taken Date   : Sun May 18 14:14:27 GMT+0200 2014
Upload Date  : Sat Sep 6 23:38:22 GMT+0200 2014
Views        : 278
Comments     : 0


+---------+
|  TITLE  |
+---------+
Cow


+---------------+
|  DESCRIPTION  |
+---------------+
(no description)


+--------+
|  TAGS  |
+--------+
(no tags)