+--------------------------------------+
|   Flickr Photo Metadata              |
|   Created by Bulkr on May 18, 2016   |
|   http://clipyourphotos.com/bulkr    |
+--------------------------------------+

+--------+
|  INFO  |
+--------+
Photographer : Michael David Pedersen
Photo URL    : https://www.flickr.com/photos/46289172@N04/4343265788/
License      : Creative Commons (http://creativecommons.org/licenses)
Taken Date   : Mon Mar 29 15:03:53 GMT+0200 2004
Upload Date  : Tue Feb 9 10:29:47 GMT+0100 2010
Views        : 14
Comments     : 0


+---------+
|  TITLE  |
+---------+
Cow


+---------------+
|  DESCRIPTION  |
+---------------+
(no description)


+--------+
|  TAGS  |
+--------+
(no tags)