+--------------------------------------+
|   Flickr Photo Metadata              |
|   Created by Bulkr on May 18, 2016   |
|   http://clipyourphotos.com/bulkr    |
+--------------------------------------+

+--------+
|  INFO  |
+--------+
Photographer : DaveBleasdale
Photo URL    : https://www.flickr.com/photos/sidelong/1001336895/
License      : Creative Commons (http://creativecommons.org/licenses)
Taken Date   : Sun Jun 24 16:48:54 GMT+0200 2007
Upload Date  : Sat Aug 4 02:14:08 GMT+0200 2007
Views        : 1,024
Comments     : 1


+---------+
|  TITLE  |
+---------+
cows


+---------------+
|  DESCRIPTION  |
+---------------+
(no description)


+--------+
|  TAGS  |
+--------+
colour cow lune lancaster lancs england green white black 