+--------------------------------------+
|   Flickr Photo Metadata              |
|   Created by Bulkr on May 18, 2016   |
|   http://clipyourphotos.com/bulkr    |
+--------------------------------------+

+--------+
|  INFO  |
+--------+
Photographer : tkramer
Photo URL    : https://www.flickr.com/photos/tkramer/232826949/
License      : Creative Commons (http://creativecommons.org/licenses)
Taken Date   : Sat Sep 2 12:44:45 GMT+0200 2006
Upload Date  : Sun Sep 3 18:10:03 GMT+0200 2006
Views        : 333
Comments     : 0


+---------+
|  TITLE  |
+---------+
Kuh-nst


+---------------+
|  DESCRIPTION  |
+---------------+
(no description)


+--------+
|  TAGS  |
+--------+
bärenfalle allgäu kuh 