+--------------------------------------+
|   Flickr Photo Metadata              |
|   Created by Bulkr on May 18, 2016   |
|   http://clipyourphotos.com/bulkr    |
+--------------------------------------+

+--------+
|  INFO  |
+--------+
Photographer : Fotosafarines
Photo URL    : https://www.flickr.com/photos/fotosafarines/5089581597/
License      : Creative Commons (http://creativecommons.org/licenses)
Taken Date   : Sun Oct 17 10:03:26 GMT+0200 2010
Upload Date  : Sun Oct 17 19:03:26 GMT+0200 2010
Views        : 1,732
Comments     : 2


+---------+
|  TITLE  |
+---------+
Feel_free_to_pee


+---------------+
|  DESCRIPTION  |
+---------------+
(no description)


+--------+
|  TAGS  |
+--------+
Awards cow nature kuh Betrachten art cool beautiful nice life 