+--------------------------------------+
|   Flickr Photo Metadata              |
|   Created by Bulkr on May 18, 2016   |
|   http://clipyourphotos.com/bulkr    |
+--------------------------------------+

+--------+
|  INFO  |
+--------+
Photographer : bertknot
Photo URL    : https://www.flickr.com/photos/bertknot/16534998588/
License      : Creative Commons (http://creativecommons.org/licenses)
Taken Date   : Sat Jun 28 21:56:47 GMT+0200 2014
Upload Date  : Thu Mar 5 11:17:55 GMT+0100 2015
Views        : 1,316
Comments     : 0


+---------+
|  TITLE  |
+---------+
dutch cows (2)


+---------------+
|  DESCRIPTION  |
+---------------+
(no description)


+--------+
|  TAGS  |
+--------+
"dutch cows" koeien 