+--------------------------------------+
|   Flickr Photo Metadata              |
|   Created by Bulkr on May 18, 2016   |
|   http://clipyourphotos.com/bulkr    |
+--------------------------------------+

+--------+
|  INFO  |
+--------+
Photographer : Dr. EOS
Photo URL    : https://www.flickr.com/photos/dr_eos/6135818078/
License      : Creative Commons (http://creativecommons.org/licenses)
Taken Date   : Sat Sep 10 16:11:10 GMT+0200 2011
Upload Date  : Sun Sep 11 11:03:01 GMT+0200 2011
Views        : 45
Comments     : 0


+---------+
|  TITLE  |
+---------+
Kuh


+---------------+
|  DESCRIPTION  |
+---------------+
(no description)


+--------+
|  TAGS  |
+--------+
(no tags)