+--------------------------------------+
|   Flickr Photo Metadata              |
|   Created by Bulkr on May 18, 2016   |
|   http://clipyourphotos.com/bulkr    |
+--------------------------------------+

+--------+
|  INFO  |
+--------+
Photographer : twicepix
Photo URL    : https://www.flickr.com/photos/twicepix/5115368258/
License      : Creative Commons (http://creativecommons.org/licenses)
Taken Date   : Wed Aug 25 11:59:57 GMT+0200 2010
Upload Date  : Mon Oct 25 21:02:28 GMT+0200 2010
Views        : 382
Comments     : 0


+---------+
|  TITLE  |
+---------+
cow


+---------------+
|  DESCRIPTION  |
+---------------+
kuh


+--------+
|  TAGS  |
+--------+
cow kuh tier animal bergwelt berge bachalpsee first grindelwald "berner oberland" schweiz swissness switzerland 