+--------------------------------------+
|   Flickr Photo Metadata              |
|   Created by Bulkr on May 18, 2016   |
|   http://clipyourphotos.com/bulkr    |
+--------------------------------------+

+--------+
|  INFO  |
+--------+
Photographer : stephanemartin
Photo URL    : https://www.flickr.com/photos/stephanemartin/3890311098/
License      : Creative Commons (http://creativecommons.org/licenses)
Taken Date   : Sun Jul 12 20:45:55 GMT+0200 2009
Upload Date  : Sat Sep 5 18:44:10 GMT+0200 2009
Geotag Info  : Latitude:49.710963, Longitude:0.205794
Views        : 1,348
Comments     : 0


+---------+
|  TITLE  |
+---------+
What's up ?


+---------------+
|  DESCRIPTION  |
+---------------+
(no description)


+--------+
|  TAGS  |
+--------+
normandie cow étretat 