+--------------------------------------+
|   Flickr Photo Metadata              |
|   Created by Bulkr on May 18, 2016   |
|   http://clipyourphotos.com/bulkr    |
+--------------------------------------+

+--------+
|  INFO  |
+--------+
Photographer : fdecomite
Photo URL    : https://www.flickr.com/photos/fdecomite/348146471/
License      : Creative Commons (http://creativecommons.org/licenses)
Taken Date   : Wed Jan 3 13:48:13 GMT+0100 2007
Upload Date  : Sat Jan 6 22:29:48 GMT+0100 2007
Views        : 2,348
Comments     : 2


+---------+
|  TITLE  |
+---------+
Brehat's Cow


+---------------+
|  DESCRIPTION  |
+---------------+
(no description)


+--------+
|  TAGS  |
+--------+
cow animal britanny brown brehat 633 