+--------------------------------------+
|   Flickr Photo Metadata              |
|   Created by Bulkr on May 18, 2016   |
|   http://clipyourphotos.com/bulkr    |
+--------------------------------------+

+--------+
|  INFO  |
+--------+
Photographer : Rusty Clark - On the Air M-F 8am-noon
Photo URL    : https://www.flickr.com/photos/rusty_clark/8339433011/
License      : Creative Commons (http://creativecommons.org/licenses)
Taken Date   : Wed Jan 2 14:13:54 GMT+0100 2013
Upload Date  : Thu Jan 3 02:07:47 GMT+0100 2013
Views        : 169
Comments     : 0


+---------+
|  TITLE  |
+---------+
Curious Cows


+---------------+
|  DESCRIPTION  |
+---------------+
(no description)


+--------+
|  TAGS  |
+--------+
horns short spot cow 