+--------------------------------------+
|   Flickr Photo Metadata              |
|   Created by Bulkr on May 18, 2016   |
|   http://clipyourphotos.com/bulkr    |
+--------------------------------------+

+--------+
|  INFO  |
+--------+
Photographer : paPisc
Photo URL    : https://www.flickr.com/photos/papisc/6949498374/
License      : Creative Commons (http://creativecommons.org/licenses)
Taken Date   : Tue Apr 17 17:06:57 GMT+0200 2012
Upload Date  : Fri Apr 20 09:30:35 GMT+0200 2012
Views        : 322
Comments     : 1


+---------+
|  TITLE  |
+---------+
Mucca simpatica


+---------------+
|  DESCRIPTION  |
+---------------+
(no description)


+--------+
|  TAGS  |
+--------+
Vache Vaca Ko Kuh Bovino "olympus pen e-p1" Mucca Koe 