+--------------------------------------+
|   Flickr Photo Metadata              |
|   Created by Bulkr on May 18, 2016   |
|   http://clipyourphotos.com/bulkr    |
+--------------------------------------+

+--------+
|  INFO  |
+--------+
Photographer : Harald52
Photo URL    : https://www.flickr.com/photos/fkhuckel/4598061618/
License      : Creative Commons (http://creativecommons.org/licenses)
Taken Date   : Sun May 9 10:42:07 GMT+0200 2010
Upload Date  : Tue May 11 08:45:57 GMT+0200 2010
Views        : 208
Comments     : 7


+---------+
|  TITLE  |
+---------+
Erster Ausflug


+---------------+
|  DESCRIPTION  |
+---------------+
(no description)


+--------+
|  TAGS  |
+--------+
Kuh Kalb Tiere Natur Wiese Acker Landschaft 