+--------------------------------------+
|   Flickr Photo Metadata              |
|   Created by Bulkr on May 18, 2016   |
|   http://clipyourphotos.com/bulkr    |
+--------------------------------------+

+--------+
|  INFO  |
+--------+
Photographer : MICOLO J Thanx 4, 2.4m views
Photo URL    : https://www.flickr.com/photos/robin1966/14939298828/
License      : Creative Commons (http://creativecommons.org/licenses)
Taken Date   : Tue Sep 2 18:24:07 GMT+0200 2014
Upload Date  : Wed Sep 3 09:50:00 GMT+0200 2014
Views        : 1,826
Comments     : 55


+---------+
|  TITLE  |
+---------+
Sunset behind Cow


+---------------+
|  DESCRIPTION  |
+---------------+
As I walked the dog down the lane for her last walk of the day I had this strange feeling of being watched!!!!


+--------+
|  TAGS  |
+--------+
cow sunset cattle nikon yahoo;yourpictures supersix 