+--------------------------------------+
|   Flickr Photo Metadata              |
|   Created by Bulkr on May 18, 2016   |
|   http://clipyourphotos.com/bulkr    |
+--------------------------------------+

+--------+
|  INFO  |
+--------+
Photographer : martinroell
Photo URL    : https://www.flickr.com/photos/martinroell/512398383/
License      : Creative Commons (http://creativecommons.org/licenses)
Taken Date   : Thu May 24 17:27:56 GMT+0200 2007
Upload Date  : Thu May 24 19:38:50 GMT+0200 2007
Views        : 149
Comments     : 0


+---------+
|  TITLE  |
+---------+
(no title)


+---------------+
|  DESCRIPTION  |
+---------------+
(no description)


+--------+
|  TAGS  |
+--------+
kühe kuhherde cows kuh schönberg mai 2007 