+--------------------------------------+
|   Flickr Photo Metadata              |
|   Created by Bulkr on May 18, 2016   |
|   http://clipyourphotos.com/bulkr    |
+--------------------------------------+

+--------+
|  INFO  |
+--------+
Photographer : ashleighb77
Photo URL    : https://www.flickr.com/photos/ashleighb77/3442935529/
License      : Creative Commons (http://creativecommons.org/licenses)
Taken Date   : Tue Apr 14 19:36:49 GMT+0200 2009
Upload Date  : Wed Apr 15 04:53:38 GMT+0200 2009
Views        : 2,440
Comments     : 1


+---------+
|  TITLE  |
+---------+
Cow


+---------------+
|  DESCRIPTION  |
+---------------+
(no description)


+--------+
|  TAGS  |
+--------+
cow farm 