+--------------------------------------+
|   Flickr Photo Metadata              |
|   Created by Bulkr on May 18, 2016   |
|   http://clipyourphotos.com/bulkr    |
+--------------------------------------+

+--------+
|  INFO  |
+--------+
Photographer : pikous
Photo URL    : https://www.flickr.com/photos/pikous/4296614337/
License      : Creative Commons (http://creativecommons.org/licenses)
Taken Date   : Fri Aug 21 16:22:58 GMT+0200 2009
Upload Date  : Sat Jan 23 09:22:21 GMT+0100 2010
Views        : 1,469
Comments     : 0


+---------+
|  TITLE  |
+---------+
21.08.09 - Südsteiermark 45


+---------------+
|  DESCRIPTION  |
+---------------+
(no description)


+--------+
|  TAGS  |
+--------+
Gaberl Kuh 