+--------------------------------------+
|   Flickr Photo Metadata              |
|   Created by Bulkr on May 18, 2016   |
|   http://clipyourphotos.com/bulkr    |
+--------------------------------------+

+--------+
|  INFO  |
+--------+
Photographer : akial
Photo URL    : https://www.flickr.com/photos/akial/5015041509/
License      : Creative Commons (http://creativecommons.org/licenses)
Taken Date   : Sun Sep 12 12:11:17 GMT+0200 2010
Upload Date  : Wed Sep 22 21:12:50 GMT+0200 2010
Views        : 944
Comments     : 1


+---------+
|  TITLE  |
+---------+
chorégraphie bergère


+---------------+
|  DESCRIPTION  |
+---------------+
(no description)


+--------+
|  TAGS  |
+--------+
vache limousine "border collie" chien berger bovin cow Kuh vaca mucca taureau toro bull stier 