+--------------------------------------+
|   Flickr Photo Metadata              |
|   Created by Bulkr on May 18, 2016   |
|   http://clipyourphotos.com/bulkr    |
+--------------------------------------+

+--------+
|  INFO  |
+--------+
Photographer : delphinus18
Photo URL    : https://www.flickr.com/photos/dorothyhess-pictures/76473594/
License      : Creative Commons (http://creativecommons.org/licenses)
Taken Date   : Wed Dec 21 18:00:33 GMT+0100 2005
Upload Date  : Fri Dec 23 06:13:31 GMT+0100 2005
Views        : 78
Comments     : 0


+---------+
|  TITLE  |
+---------+
Cow on rope


+---------------+
|  DESCRIPTION  |
+---------------+
(no description)


+--------+
|  TAGS  |
+--------+
cows 