+--------------------------------------+
|   Flickr Photo Metadata              |
|   Created by Bulkr on May 18, 2016   |
|   http://clipyourphotos.com/bulkr    |
+--------------------------------------+

+--------+
|  INFO  |
+--------+
Photographer : ozmafan
Photo URL    : https://www.flickr.com/photos/ozmafan/4553332521/
License      : Creative Commons (http://creativecommons.org/licenses)
Taken Date   : Tue Jan 28 22:45:04 GMT+0100 2003
Upload Date  : Mon Apr 26 08:29:51 GMT+0200 2010
Views        : 1,536
Comments     : 0


+---------+
|  TITLE  |
+---------+
cow friends


+---------------+
|  DESCRIPTION  |
+---------------+
just north of stanwood, wa


+--------+
|  TAGS  |
+--------+
"skagit valley" washington cows farm 