+--------------------------------------+
|   Flickr Photo Metadata              |
|   Created by Bulkr on May 18, 2016   |
|   http://clipyourphotos.com/bulkr    |
+--------------------------------------+

+--------+
|  INFO  |
+--------+
Photographer : hans s
Photo URL    : https://www.flickr.com/photos/archeon/2607382975/
License      : Creative Commons (http://creativecommons.org/licenses)
Taken Date   : Tue Jun 24 08:19:19 GMT+0200 2008
Upload Date  : Tue Jun 24 19:06:41 GMT+0200 2008
Views        : 472
Comments     : 13


+---------+
|  TITLE  |
+---------+
reflecting cows


+---------------+
|  DESCRIPTION  |
+---------------+
this morning


+--------+
|  TAGS  |
+--------+
cows reflecting TheUnforgettablePictures 