+--------------------------------------+
|   Flickr Photo Metadata              |
|   Created by Bulkr on May 18, 2016   |
|   http://clipyourphotos.com/bulkr    |
+--------------------------------------+

+--------+
|  INFO  |
+--------+
Photographer : Soren Wolf
Photo URL    : https://www.flickr.com/photos/sorenwolf/16526352325/
License      : Creative Commons (http://creativecommons.org/licenses)
Taken Date   : Sat Jun 14 15:41:16 GMT+0200 2014
Upload Date  : Sat Feb 14 12:41:58 GMT+0100 2015
Views        : 146
Comments     : 0


+---------+
|  TITLE  |
+---------+
Cow's Rage


+---------------+
|  DESCRIPTION  |
+---------------+
Cow fighting with chain


+--------+
|  TAGS  |
+--------+
cow animal outdoor mammal 