+--------------------------------------+
|   Flickr Photo Metadata              |
|   Created by Bulkr on May 18, 2016   |
|   http://clipyourphotos.com/bulkr    |
+--------------------------------------+

+--------+
|  INFO  |
+--------+
Photographer : calumr
Photo URL    : https://www.flickr.com/photos/calumr/160204871/
License      : Creative Commons (http://creativecommons.org/licenses)
Taken Date   : Sun May 28 14:27:33 GMT+0200 2006
Upload Date  : Sun Jun 4 21:37:58 GMT+0200 2006
Views        : 70
Comments     : 0


+---------+
|  TITLE  |
+---------+
Cows


+---------------+
|  DESCRIPTION  |
+---------------+
(no description)


+--------+
|  TAGS  |
+--------+
cow 