+--------------------------------------+
|   Flickr Photo Metadata              |
|   Created by Bulkr on May 18, 2016   |
|   http://clipyourphotos.com/bulkr    |
+--------------------------------------+

+--------+
|  INFO  |
+--------+
Photographer : mr. toaster
Photo URL    : https://www.flickr.com/photos/o-mer/83316989/
License      : Creative Commons (http://creativecommons.org/licenses)
Taken Date   : Thu Jul 31 15:26:27 GMT+0200 2003
Upload Date  : Sat Jan 7 11:51:59 GMT+0100 2006
Views        : 41
Comments     : 0


+---------+
|  TITLE  |
+---------+
Cows!


+---------------+
|  DESCRIPTION  |
+---------------+
(no description)


+--------+
|  TAGS  |
+--------+
roundtheworld thailand changmai trek cow 