+--------------------------------------+
|   Flickr Photo Metadata              |
|   Created by Bulkr on May 18, 2016   |
|   http://clipyourphotos.com/bulkr    |
+--------------------------------------+

+--------+
|  INFO  |
+--------+
Photographer : l-i-n-k
Photo URL    : https://www.flickr.com/photos/l-i-n-k/6326165749/
License      : Creative Commons (http://creativecommons.org/licenses)
Taken Date   : Sun May 29 12:44:40 GMT+0200 2011
Upload Date  : Tue Nov 8 21:10:58 GMT+0100 2011
Views        : 369
Comments     : 0


+---------+
|  TITLE  |
+---------+
Die Original Internet-Statistik Kuh


+---------------+
|  DESCRIPTION  |
+---------------+
(no description)


+--------+
|  TAGS  |
+--------+
Appenzell Cow Kuh Switzerland 