+--------------------------------------+
|   Flickr Photo Metadata              |
|   Created by Bulkr on May 18, 2016   |
|   http://clipyourphotos.com/bulkr    |
+--------------------------------------+

+--------+
|  INFO  |
+--------+
Photographer : bauernverband
Photo URL    : https://www.flickr.com/photos/bauernverband/16444683160/
License      : Creative Commons (http://creativecommons.org/licenses)
Taken Date   : Wed Aug 20 12:02:32 GMT+0200 2014
Upload Date  : Tue Feb 24 08:35:35 GMT+0100 2015
Views        : 364
Comments     : 0


+---------+
|  TITLE  |
+---------+
IMG_8861


+---------------+
|  DESCRIPTION  |
+---------------+
(no description)


+--------+
|  TAGS  |
+--------+
Shooting Sonja Sonjas Hoftiere Bauernhoftiere Einsiedeln Fototermin Kuh Hund Ziege 