+--------------------------------------+
|   Flickr Photo Metadata              |
|   Created by Bulkr on May 18, 2016   |
|   http://clipyourphotos.com/bulkr    |
+--------------------------------------+

+--------+
|  INFO  |
+--------+
Photographer : flikr
Photo URL    : https://www.flickr.com/photos/flikr/3964584556/
License      : Creative Commons (http://creativecommons.org/licenses)
Taken Date   : Sun Sep 27 12:19:38 GMT+0200 2009
Upload Date  : Tue Sep 29 02:40:52 GMT+0200 2009
Views        : 280
Comments     : 0


+---------+
|  TITLE  |
+---------+
cow near ventry


+---------------+
|  DESCRIPTION  |
+---------------+
(no description)


+--------+
|  TAGS  |
+--------+
ireland kelbv flikr 