+--------------------------------------+
|   Flickr Photo Metadata              |
|   Created by Bulkr on May 18, 2016   |
|   http://clipyourphotos.com/bulkr    |
+--------------------------------------+

+--------+
|  INFO  |
+--------+
Photographer : glasseyes view
Photo URL    : https://www.flickr.com/photos/axelhartmann/6203938446/
License      : Creative Commons (http://creativecommons.org/licenses)
Taken Date   : Wed Sep 21 16:30:53 GMT+0200 2011
Upload Date  : Sun Oct 2 16:30:10 GMT+0200 2011
Views        : 13,026
Comments     : 19


+---------+
|  TITLE  |
+---------+
interested in me


+---------------+
|  DESCRIPTION  |
+---------------+
<a href="http://bighugelabs.com/onblack.php?id=6203938446&amp;size=large&amp;bg=white" rel="nofollow">View On White</a>


+--------+
|  TAGS  |
+--------+
cows meadow interest "glasseyes view" 