+--------------------------------------+
|   Flickr Photo Metadata              |
|   Created by Bulkr on May 18, 2016   |
|   http://clipyourphotos.com/bulkr    |
+--------------------------------------+

+--------+
|  INFO  |
+--------+
Photographer : hkanins
Photo URL    : https://www.flickr.com/photos/101485279@N06/14519827333/
License      : Creative Commons (http://creativecommons.org/licenses)
Taken Date   : Sat Jun 21 13:29:02 GMT+0200 2014
Upload Date  : Tue Jun 24 22:00:01 GMT+0200 2014
Views        : 538
Comments     : 1


+---------+
|  TITLE  |
+---------+
cow


+---------------+
|  DESCRIPTION  |
+---------------+
(no description)


+--------+
|  TAGS  |
+--------+
kuh kühe blue white weiß blau 