+--------------------------------------+
|   Flickr Photo Metadata              |
|   Created by Bulkr on May 18, 2016   |
|   http://clipyourphotos.com/bulkr    |
+--------------------------------------+

+--------+
|  INFO  |
+--------+
Photographer : ZapTheDingbat
Photo URL    : https://www.flickr.com/photos/zapthedingbat/1814818032/
License      : Creative Commons (http://creativecommons.org/licenses)
Taken Date   : Thu Nov 1 23:53:28 GMT+0100 2007
Upload Date  : Thu Nov 1 17:38:00 GMT+0100 2007
Views        : 3,177
Comments     : 0


+---------+
|  TITLE  |
+---------+
horny cow


+---------------+
|  DESCRIPTION  |
+---------------+
When did humans decide they didn't want horns. I want horns, its not fair!


+--------+
|  TAGS  |
+--------+
cow cattle horns 