+--------------------------------------+
|   Flickr Photo Metadata              |
|   Created by Bulkr on May 18, 2016   |
|   http://clipyourphotos.com/bulkr    |
+--------------------------------------+

+--------+
|  INFO  |
+--------+
Photographer : Danny Key
Photo URL    : https://www.flickr.com/photos/dannykey/8987747112/
License      : Creative Commons (http://creativecommons.org/licenses)
Taken Date   : Sat Jun 8 16:09:51 GMT+0200 2013
Upload Date  : Sat Jun 8 17:09:51 GMT+0200 2013
Views        : 267
Comments     : 0


+---------+
|  TITLE  |
+---------+
Cow


+---------------+
|  DESCRIPTION  |
+---------------+
on Instagram <a href="http://bit.ly/15JTDT8" rel="nofollow">bit.ly/15JTDT8</a>


+--------+
|  TAGS  |
+--------+
instagram 