+--------------------------------------+
|   Flickr Photo Metadata              |
|   Created by Bulkr on May 18, 2016   |
|   http://clipyourphotos.com/bulkr    |
+--------------------------------------+

+--------+
|  INFO  |
+--------+
Photographer : gedankenstuecke
Photo URL    : https://www.flickr.com/photos/gedankenstuecke/531772550/
License      : Creative Commons (http://creativecommons.org/licenses)
Taken Date   : Sun Jun 3 16:36:42 GMT+0200 2007
Upload Date  : Tue Jun 5 18:32:57 GMT+0200 2007
Views        : 454
Comments     : 0


+---------+
|  TITLE  |
+---------+
Muh


+---------------+
|  DESCRIPTION  |
+---------------+
(no description)


+--------+
|  TAGS  |
+--------+
Kühe Kuh Cow cows field feld 