+--------------------------------------+
|   Flickr Photo Metadata              |
|   Created by Bulkr on May 18, 2016   |
|   http://clipyourphotos.com/bulkr    |
+--------------------------------------+

+--------+
|  INFO  |
+--------+
Photographer : vinmar
Photo URL    : https://www.flickr.com/photos/vwingate/459774067/
License      : Creative Commons (http://creativecommons.org/licenses)
Taken Date   : Sun Apr 15 10:45:00 GMT+0200 2007
Upload Date  : Sun Apr 15 13:47:31 GMT+0200 2007
Views        : 58
Comments     : 0


+---------+
|  TITLE  |
+---------+
Cows by river


+---------------+
|  DESCRIPTION  |
+---------------+
(no description)


+--------+
|  TAGS  |
+--------+
cows river 