+--------------------------------------+
|   Flickr Photo Metadata              |
|   Created by Bulkr on May 18, 2016   |
|   http://clipyourphotos.com/bulkr    |
+--------------------------------------+

+--------+
|  INFO  |
+--------+
Photographer : Arcadiuš
Photo URL    : https://www.flickr.com/photos/arcadius/3799981679/
License      : Creative Commons (http://creativecommons.org/licenses)
Taken Date   : Tue Aug 4 15:51:13 GMT+0200 2009
Upload Date  : Sat Aug 8 13:22:59 GMT+0200 2009
Views        : 127
Comments     : 0


+---------+
|  TITLE  |
+---------+
Cow


+---------------+
|  DESCRIPTION  |
+---------------+
(no description)


+--------+
|  TAGS  |
+--------+
cow farm animal aerjotl arek_janicki 