+--------------------------------------+
|   Flickr Photo Metadata              |
|   Created by Bulkr on May 18, 2016   |
|   http://clipyourphotos.com/bulkr    |
+--------------------------------------+

+--------+
|  INFO  |
+--------+
Photographer : nonanet
Photo URL    : https://www.flickr.com/photos/nonanet/102500785/
License      : Creative Commons (http://creativecommons.org/licenses)
Taken Date   : Sat Feb 18 14:11:35 GMT+0100 2006
Upload Date  : Tue Feb 21 07:41:42 GMT+0100 2006
Views        : 551
Comments     : 2


+---------+
|  TITLE  |
+---------+
cows...


+---------------+
|  DESCRIPTION  |
+---------------+
(no description)


+--------+
|  TAGS  |
+--------+
cow kuh stall stable austria österreich farm 