+--------------------------------------+
|   Flickr Photo Metadata              |
|   Created by Bulkr on May 18, 2016   |
|   http://clipyourphotos.com/bulkr    |
+--------------------------------------+

+--------+
|  INFO  |
+--------+
Photographer : 24oranges.nl
Photo URL    : https://www.flickr.com/photos/24oranges/7335930064/
License      : Creative Commons (http://creativecommons.org/licenses)
Taken Date   : Sun Aug 8 15:58:46 GMT+0200 2010
Upload Date  : Mon Jun 4 16:35:14 GMT+0200 2012
Views        : 7,252
Comments     : 0


+---------+
|  TITLE  |
+---------+
Cows


+---------------+
|  DESCRIPTION  |
+---------------+
Cows. used for an article entitled Fat pregnant cows get prenatal work out.


+--------+
|  TAGS  |
+--------+
cows cow koe koeien 