+--------------------------------------+
|   Flickr Photo Metadata              |
|   Created by Bulkr on May 18, 2016   |
|   http://clipyourphotos.com/bulkr    |
+--------------------------------------+

+--------+
|  INFO  |
+--------+
Photographer : flightlog
Photo URL    : https://www.flickr.com/photos/flightlog/5808903623/
License      : Creative Commons (http://creativecommons.org/licenses)
Taken Date   : Fri Jun 3 17:06:27 GMT+0200 2011
Upload Date  : Tue Jun 7 21:27:15 GMT+0200 2011
Geotag Info  : Latitude:47.949044, Longitude:15.279927
Views        : 210
Comments     : 0


+---------+
|  TITLE  |
+---------+
Cow


+---------------+
|  DESCRIPTION  |
+---------------+
(no description)


+--------+
|  TAGS  |
+--------+
kuh 