+--------------------------------------+
|   Flickr Photo Metadata              |
|   Created by Bulkr on May 18, 2016   |
|   http://clipyourphotos.com/bulkr    |
+--------------------------------------+

+--------+
|  INFO  |
+--------+
Photographer : travelix
Photo URL    : https://www.flickr.com/photos/travelix/2614567505/
License      : Creative Commons (http://creativecommons.org/licenses)
Taken Date   : Tue Jun 17 08:33:09 GMT+0200 2008
Upload Date  : Fri Jun 27 07:34:37 GMT+0200 2008
Views        : 34
Comments     : 0


+---------+
|  TITLE  |
+---------+
Deplatzierte Kuh


+---------------+
|  DESCRIPTION  |
+---------------+
(no description)


+--------+
|  TAGS  |
+--------+
(no tags)