+--------------------------------------+
|   Flickr Photo Metadata              |
|   Created by Bulkr on May 18, 2016   |
|   http://clipyourphotos.com/bulkr    |
+--------------------------------------+

+--------+
|  INFO  |
+--------+
Photographer : Clownhouse III
Photo URL    : https://www.flickr.com/photos/clownhousethethird/2950008082/
License      : Creative Commons (http://creativecommons.org/licenses)
Taken Date   : Fri Oct 17 15:08:12 GMT+0200 2008
Upload Date  : Fri Oct 17 20:01:06 GMT+0200 2008
Geotag Info  : Latitude:52.129378, Longitude:5.735721
Views        : 3,073
Comments     : 0


+---------+
|  TITLE  |
+---------+
Crappy Neighbour Cow


+---------------+
|  DESCRIPTION  |
+---------------+
&quot;Did I tell you about Richard..&quot; blaah blaah blaah


+--------+
|  TAGS  |
+--------+
cows cow moo 