+--------------------------------------+
|   Flickr Photo Metadata              |
|   Created by Bulkr on May 18, 2016   |
|   http://clipyourphotos.com/bulkr    |
+--------------------------------------+

+--------+
|  INFO  |
+--------+
Photographer : Stephi 2006
Photo URL    : https://www.flickr.com/photos/stephi2006/3404531775/
License      : Creative Commons (http://creativecommons.org/licenses)
Taken Date   : Wed Apr 1 12:55:50 GMT+0200 2009
Upload Date  : Wed Apr 1 21:55:50 GMT+0200 2009
Views        : 605
Comments     : 4


+---------+
|  TITLE  |
+---------+
oh dear...what's the matter?


+---------------+
|  DESCRIPTION  |
+---------------+
(no description)


+--------+
|  TAGS  |
+--------+
photomatix HDR cow panasonic 