+--------------------------------------+
|   Flickr Photo Metadata              |
|   Created by Bulkr on May 18, 2016   |
|   http://clipyourphotos.com/bulkr    |
+--------------------------------------+

+--------+
|  INFO  |
+--------+
Photographer : tattiehowker
Photo URL    : https://www.flickr.com/photos/tattiehowker/12549180385/
License      : Creative Commons (http://creativecommons.org/licenses)
Taken Date   : Wed Feb 5 12:26:50 GMT+0100 2014
Upload Date  : Sat Feb 15 23:42:46 GMT+0100 2014
Views        : 493
Comments     : 0


+---------+
|  TITLE  |
+---------+
Highland Cows


+---------------+
|  DESCRIPTION  |
+---------------+
(no description)


+--------+
|  TAGS  |
+--------+
(no tags)