+--------------------------------------+
|   Flickr Photo Metadata              |
|   Created by Bulkr on May 18, 2016   |
|   http://clipyourphotos.com/bulkr    |
+--------------------------------------+

+--------+
|  INFO  |
+--------+
Photographer : johnmoonistaken
Photo URL    : https://www.flickr.com/photos/johnmoonistaken/5969371526/
License      : Creative Commons (http://creativecommons.org/licenses)
Taken Date   : Mon Jul 4 16:40:17 GMT+0200 2011
Upload Date  : Sun Jul 24 08:14:08 GMT+0200 2011
Views        : 40
Comments     : 0


+---------+
|  TITLE  |
+---------+
IMG_2243


+---------------+
|  DESCRIPTION  |
+---------------+
cows!


+--------+
|  TAGS  |
+--------+
(no tags)