+--------------------------------------+
|   Flickr Photo Metadata              |
|   Created by Bulkr on May 18, 2016   |
|   http://clipyourphotos.com/bulkr    |
+--------------------------------------+

+--------+
|  INFO  |
+--------+
Photographer : Harald52
Photo URL    : https://www.flickr.com/photos/fkhuckel/4641386468/
License      : Creative Commons (http://creativecommons.org/licenses)
Taken Date   : Mon May 17 10:20:56 GMT+0200 2010
Upload Date  : Wed May 26 08:38:50 GMT+0200 2010
Views        : 109
Comments     : 1


+---------+
|  TITLE  |
+---------+
Ich finde ja auch, dass 67031 nicht zu mir passt - kannst Elsa zu mir sagen!


+---------------+
|  DESCRIPTION  |
+---------------+
(no description)


+--------+
|  TAGS  |
+--------+
Kuh Tiere Natur Wiese 