+--------------------------------------+
|   Flickr Photo Metadata              |
|   Created by Bulkr on May 18, 2016   |
|   http://clipyourphotos.com/bulkr    |
+--------------------------------------+

+--------+
|  INFO  |
+--------+
Photographer : Roberto Carbonara
Photo URL    : https://www.flickr.com/photos/roberto-carbonara/5627010332/
License      : Creative Commons (http://creativecommons.org/licenses)
Taken Date   : Sat Apr 16 12:29:53 GMT+0200 2011
Upload Date  : Sun Apr 17 10:24:13 GMT+0200 2011
Views        : 1,838
Comments     : 0


+---------+
|  TITLE  |
+---------+
la vache!


+---------------+
|  DESCRIPTION  |
+---------------+
ça demande réellement une description??
C'est une vache, ni plus ni moins..^^


+--------+
|  TAGS  |
+--------+
Vache cow animal amimals nature etiquette 