+--------------------------------------+
|   Flickr Photo Metadata              |
|   Created by Bulkr on May 18, 2016   |
|   http://clipyourphotos.com/bulkr    |
+--------------------------------------+

+--------+
|  INFO  |
+--------+
Photographer : c_pichler
Photo URL    : https://www.flickr.com/photos/30839999@N06/3945207173/
License      : Creative Commons (http://creativecommons.org/licenses)
Taken Date   : Tue Sep 8 16:30:38 GMT+0200 2009
Upload Date  : Tue Sep 22 23:39:29 GMT+0200 2009
Views        : 2,270
Comments     : 4


+---------+
|  TITLE  |
+---------+
just relax


+---------------+
|  DESCRIPTION  |
+---------------+
schaut sehr entspannt aus, der geht´s anscheinend gut;-)

<a href="http://fiveprime.org/blackmagic.cgi?id=3945207173&amp;size=l&amp;bg=black&amp;url=http://www.flickr.com/photos/30839999@N06/3945207173/in/photostream/&amp;bmfiddled=1" rel="nofollow">B l a c k M a g i c</a>


+--------+
|  TAGS  |
+--------+
tirol tyrol austria österreich tux tuxertal hiking wandern natur nature nikon d80 cow kuh sleepy schlaf müde tired relax alm alp summer foto bild picture image 