+--------------------------------------+
|   Flickr Photo Metadata              |
|   Created by Bulkr on May 18, 2016   |
|   http://clipyourphotos.com/bulkr    |
+--------------------------------------+

+--------+
|  INFO  |
+--------+
Photographer : Sharon Hahn Darlin
Photo URL    : https://www.flickr.com/photos/sharonhahndarlin/13257429475/
License      : Creative Commons (http://creativecommons.org/licenses)
Taken Date   : Tue Mar 18 13:47:58 GMT+0100 2014
Upload Date  : Wed Mar 19 04:17:49 GMT+0100 2014
Views        : 289
Comments     : 0


+---------+
|  TITLE  |
+---------+
Happy California cows


+---------------+
|  DESCRIPTION  |
+---------------+
(no description)


+--------+
|  TAGS  |
+--------+
cows 