+--------------------------------------+
|   Flickr Photo Metadata              |
|   Created by Bulkr on May 18, 2016   |
|   http://clipyourphotos.com/bulkr    |
+--------------------------------------+

+--------+
|  INFO  |
+--------+
Photographer : Bonio
Photo URL    : https://www.flickr.com/photos/djbryson/5089995443/
License      : Creative Commons (http://creativecommons.org/licenses)
Taken Date   : Sat Oct 2 11:05:00 GMT+0200 2010
Upload Date  : Sun Oct 17 21:02:25 GMT+0200 2010
Views        : 740
Comments     : 0


+---------+
|  TITLE  |
+---------+
Say "Cheese"


+---------------+
|  DESCRIPTION  |
+---------------+
(no description)


+--------+
|  TAGS  |
+--------+
Cow 