+--------------------------------------+
|   Flickr Photo Metadata              |
|   Created by Bulkr on May 18, 2016   |
|   http://clipyourphotos.com/bulkr    |
+--------------------------------------+

+--------+
|  INFO  |
+--------+
Photographer : caitriana
Photo URL    : https://www.flickr.com/photos/caitriana/7347702454/
License      : Creative Commons (http://creativecommons.org/licenses)
Taken Date   : Mon May 28 07:41:22 GMT+0200 2012
Upload Date  : Thu Jun 7 10:58:29 GMT+0200 2012
Views        : 184
Comments     : 0


+---------+
|  TITLE  |
+---------+
The cows


+---------------+
|  DESCRIPTION  |
+---------------+
Kim's house


+--------+
|  TAGS  |
+--------+
usa michigan 