+--------------------------------------+
|   Flickr Photo Metadata              |
|   Created by Bulkr on May 18, 2016   |
|   http://clipyourphotos.com/bulkr    |
+--------------------------------------+

+--------+
|  INFO  |
+--------+
Photographer : Stephi 2006
Photo URL    : https://www.flickr.com/photos/stephi2006/5315827103/
License      : Creative Commons (http://creativecommons.org/licenses)
Taken Date   : Sun Jan 2 15:42:18 GMT+0100 2011
Upload Date  : Sun Jan 2 17:00:05 GMT+0100 2011
Views        : 407
Comments     : 2


+---------+
|  TITLE  |
+---------+
willst Du mit uns spielen?


+---------------+
|  DESCRIPTION  |
+---------------+
(no description)


+--------+
|  TAGS  |
+--------+
Cow bored winter 