+--------------------------------------+
|   Flickr Photo Metadata              |
|   Created by Bulkr on May 18, 2016   |
|   http://clipyourphotos.com/bulkr    |
+--------------------------------------+

+--------+
|  INFO  |
+--------+
Photographer : fam_dax
Photo URL    : https://www.flickr.com/photos/famdax/248467936/
License      : Creative Commons (http://creativecommons.org/licenses)
Taken Date   : Tue Jun 13 19:45:19 GMT+0200 2006
Upload Date  : Wed Sep 20 22:02:57 GMT+0200 2006
Views        : 220
Comments     : 0


+---------+
|  TITLE  |
+---------+
Muh!


+---------------+
|  DESCRIPTION  |
+---------------+
Ein Foto zum Testen der Druckapplikation von moo.com


+--------+
|  TAGS  |
+--------+
kuh cow wiese moo 