+--------------------------------------+
|   Flickr Photo Metadata              |
|   Created by Bulkr on May 18, 2016   |
|   http://clipyourphotos.com/bulkr    |
+--------------------------------------+

+--------+
|  INFO  |
+--------+
Photographer : k_millo
Photo URL    : https://www.flickr.com/photos/27330306@N08/4791174434/
License      : Creative Commons (http://creativecommons.org/licenses)
Taken Date   : Mon Jul 12 10:20:14 GMT+0200 2010
Upload Date  : Tue Jul 13 21:17:18 GMT+0200 2010
Views        : 618
Comments     : 0


+---------+
|  TITLE  |
+---------+
meditation


+---------------+
|  DESCRIPTION  |
+---------------+
(no description)


+--------+
|  TAGS  |
+--------+
kuh rind ostsee norddeutschland 