+--------------------------------------+
|   Flickr Photo Metadata              |
|   Created by Bulkr on May 18, 2016   |
|   http://clipyourphotos.com/bulkr    |
+--------------------------------------+

+--------+
|  INFO  |
+--------+
Photographer : toooooool
Photo URL    : https://www.flickr.com/photos/bonkura32design/4289068303/
License      : Creative Commons (http://creativecommons.org/licenses)
Taken Date   : Sun Jan 10 14:50:46 GMT+0100 2010
Upload Date  : Wed Jan 20 04:45:40 GMT+0100 2010
Views        : 182
Comments     : 0


+---------+
|  TITLE  |
+---------+
running cow


+---------------+
|  DESCRIPTION  |
+---------------+
(no description)


+--------+
|  TAGS  |
+--------+
cow animal motherfarm chiba 牛 