+--------------------------------------+
|   Flickr Photo Metadata              |
|   Created by Bulkr on May 18, 2016   |
|   http://clipyourphotos.com/bulkr    |
+--------------------------------------+

+--------+
|  INFO  |
+--------+
Photographer : ri Sa
Photo URL    : https://www.flickr.com/photos/rowanhill/17457230598/
License      : Creative Commons (http://creativecommons.org/licenses)
Taken Date   : Fri May 23 16:35:14 GMT+0200 2014
Upload Date  : Thu May 14 19:26:20 GMT+0200 2015
Views        : 766
Comments     : 3


+---------+
|  TITLE  |
+---------+
Have you seen my horn?


+---------------+
|  DESCRIPTION  |
+---------------+
(no description)


+--------+
|  TAGS  |
+--------+
cow horn viikki helsinki finland 