+--------------------------------------+
|   Flickr Photo Metadata              |
|   Created by Bulkr on May 18, 2016   |
|   http://clipyourphotos.com/bulkr    |
+--------------------------------------+

+--------+
|  INFO  |
+--------+
Photographer : Annelieke B
Photo URL    : https://www.flickr.com/photos/anneliekeb/7806831494/
License      : Creative Commons (http://creativecommons.org/licenses)
Taken Date   : Sat Aug 18 01:44:51 GMT+0200 2012
Upload Date  : Sat Aug 18 10:51:17 GMT+0200 2012
Views        : 371
Comments     : 0


+---------+
|  TITLE  |
+---------+
posing cows


+---------------+
|  DESCRIPTION  |
+---------------+
(no description)


+--------+
|  TAGS  |
+--------+
(no tags)