+--------------------------------------+
|   Flickr Photo Metadata              |
|   Created by Bulkr on May 18, 2016   |
|   http://clipyourphotos.com/bulkr    |
+--------------------------------------+

+--------+
|  INFO  |
+--------+
Photographer : marlenedd
Photo URL    : https://www.flickr.com/photos/marlened/6066168744/
License      : Creative Commons (http://creativecommons.org/licenses)
Taken Date   : Thu Aug 11 17:15:12 GMT+0200 2011
Upload Date  : Sun Aug 21 19:00:00 GMT+0200 2011
Views        : 482
Comments     : 0


+---------+
|  TITLE  |
+---------+
DSC01490


+---------------+
|  DESCRIPTION  |
+---------------+
(no description)


+--------+
|  TAGS  |
+--------+
cow vache 