+--------------------------------------+
|   Flickr Photo Metadata              |
|   Created by Bulkr on May 18, 2016   |
|   http://clipyourphotos.com/bulkr    |
+--------------------------------------+

+--------+
|  INFO  |
+--------+
Photographer : BenGrantham
Photo URL    : https://www.flickr.com/photos/ijammin/5772396016/
License      : Creative Commons (http://creativecommons.org/licenses)
Taken Date   : Fri May 27 10:15:42 GMT+0200 2011
Upload Date  : Sun May 29 18:17:37 GMT+0200 2011
Geotag Info  : Latitude:50.836983, Longitude:-1.293919
Views        : 1,238
Comments     : 0


+---------+
|  TITLE  |
+---------+
Mooooo


+---------------+
|  DESCRIPTION  |
+---------------+
(no description)


+--------+
|  TAGS  |
+--------+
cows southampton 