+--------------------------------------+
|   Flickr Photo Metadata              |
|   Created by Bulkr on May 18, 2016   |
|   http://clipyourphotos.com/bulkr    |
+--------------------------------------+

+--------+
|  INFO  |
+--------+
Photographer : PhotoPhoto33
Photo URL    : https://www.flickr.com/photos/139223434@N08/26444921455/
License      : Creative Commons (http://creativecommons.org/licenses)
Taken Date   : Fri Apr 15 08:46:49 GMT+0200 2016
Upload Date  : Fri Apr 15 17:46:22 GMT+0200 2016
Views        : 20
Comments     : 0


+---------+
|  TITLE  |
+---------+
Black & White Cow


+---------------+
|  DESCRIPTION  |
+---------------+
(no description)


+--------+
|  TAGS  |
+--------+
(no tags)