+--------------------------------------+
|   Flickr Photo Metadata              |
|   Created by Bulkr on May 18, 2016   |
|   http://clipyourphotos.com/bulkr    |
+--------------------------------------+

+--------+
|  INFO  |
+--------+
Photographer : Friar's Balsam
Photo URL    : https://www.flickr.com/photos/friarsbalsam/3105622666/
License      : Creative Commons (http://creativecommons.org/licenses)
Taken Date   : Tue Sep 30 14:26:42 GMT+0200 2008
Upload Date  : Sat Dec 13 21:08:57 GMT+0100 2008
Views        : 491
Comments     : 0


+---------+
|  TITLE  |
+---------+
Te Mata Peak 19


+---------------+
|  DESCRIPTION  |
+---------------+
(no description)


+--------+
|  TAGS  |
+--------+
hastings cows 