+--------------------------------------+
|   Flickr Photo Metadata              |
|   Created by Bulkr on Apr 15, 2016   |
|   http://clipyourphotos.com/bulkr    |
+--------------------------------------+

+--------+
|  INFO  |
+--------+
Photographer : yuensolee
Photo URL    : https://www.flickr.com/photos/9388277@N07/2891770883/
License      : Creative Commons (http://creativecommons.org/licenses)
Taken Date   : Wed Sep 24 14:28:07 GMT+0200 2008
Upload Date  : Sat Sep 27 17:29:12 GMT+0200 2008
Views        : 21
Comments     : 0


+---------+
|  TITLE  |
+---------+
deer


+---------------+
|  DESCRIPTION  |
+---------------+
(no description)


+--------+
|  TAGS  |
+--------+
(no tags)