+--------------------------------------+
|   Flickr Photo Metadata              |
|   Created by Bulkr on Apr 15, 2016   |
|   http://clipyourphotos.com/bulkr    |
+--------------------------------------+

+--------+
|  INFO  |
+--------+
Photographer : nick step
Photo URL    : https://www.flickr.com/photos/nickstep/5799798635/
License      : Creative Commons (http://creativecommons.org/licenses)
Taken Date   : Sun Jun 5 19:21:19 GMT+0200 2011
Upload Date  : Sun Jun 5 16:42:37 GMT+0200 2011
Views        : 567
Comments     : 0


+---------+
|  TITLE  |
+---------+
Pssst!!


+---------------+
|  DESCRIPTION  |
+---------------+
Sometimes Eye Contact Makes All The Difference (Photo © Nick Stepowyj)


+--------+
|  TAGS  |
+--------+
deer fawn 