+--------------------------------------+
|   Flickr Photo Metadata              |
|   Created by Bulkr on Apr 15, 2016   |
|   http://clipyourphotos.com/bulkr    |
+--------------------------------------+

+--------+
|  INFO  |
+--------+
Photographer : tedmurphy
Photo URL    : https://www.flickr.com/photos/tedmurphy/6132623276/
License      : Creative Commons (http://creativecommons.org/licenses)
Taken Date   : Thu Sep 8 03:16:14 GMT+0200 2011
Upload Date  : Sat Sep 10 11:35:16 GMT+0200 2011
Views        : 149
Comments     : 0


+---------+
|  TITLE  |
+---------+
Deer


+---------------+
|  DESCRIPTION  |
+---------------+
(no description)


+--------+
|  TAGS  |
+--------+
(no tags)