+--------------------------------------+
|   Flickr Photo Metadata              |
|   Created by Bulkr on Apr 15, 2016   |
|   http://clipyourphotos.com/bulkr    |
+--------------------------------------+

+--------+
|  INFO  |
+--------+
Photographer : Jacomusw
Photo URL    : https://www.flickr.com/photos/jacomusw/2717409347/
License      : Creative Commons (http://creativecommons.org/licenses)
Taken Date   : Thu Jul 31 06:32:59 GMT+0200 2008
Upload Date  : Thu Jul 31 00:32:59 GMT+0200 2008
Views        : 15
Comments     : 0


+---------+
|  TITLE  |
+---------+
Deers 1


+---------------+
|  DESCRIPTION  |
+---------------+
(no description)


+--------+
|  TAGS  |
+--------+
"crater lake" "eos 5d" 