+--------------------------------------+
|   Flickr Photo Metadata              |
|   Created by Bulkr on Apr 15, 2016   |
|   http://clipyourphotos.com/bulkr    |
+--------------------------------------+

+--------+
|  INFO  |
+--------+
Photographer : jans canon
Photo URL    : https://www.flickr.com/photos/43158397@N02/5078157737/
License      : Creative Commons (http://creativecommons.org/licenses)
Taken Date   : Sat Oct 9 15:52:45 GMT+0200 2010
Upload Date  : Wed Oct 13 18:07:48 GMT+0200 2010
Views        : 906
Comments     : 1


+---------+
|  TITLE  |
+---------+
Deer


+---------------+
|  DESCRIPTION  |
+---------------+
(no description)


+--------+
|  TAGS  |
+--------+
Deer Bushy Park 