+--------------------------------------+
|   Flickr Photo Metadata              |
|   Created by Bulkr on Apr 15, 2016   |
|   http://clipyourphotos.com/bulkr    |
+--------------------------------------+

+--------+
|  INFO  |
+--------+
Photographer : brokinhrt2
Photo URL    : https://www.flickr.com/photos/dq090702/2887366959/
License      : Creative Commons (http://creativecommons.org/licenses)
Taken Date   : Mon Aug 25 19:52:18 GMT+0200 2008
Upload Date  : Thu Sep 25 19:58:09 GMT+0200 2008
Views        : 175
Comments     : 0


+---------+
|  TITLE  |
+---------+
Deer


+---------------+
|  DESCRIPTION  |
+---------------+
(no description)


+--------+
|  TAGS  |
+--------+
deer doe fawn wildlife 