+--------------------------------------+
|   Flickr Photo Metadata              |
|   Created by Bulkr on Apr 15, 2016   |
|   http://clipyourphotos.com/bulkr    |
+--------------------------------------+

+--------+
|  INFO  |
+--------+
Photographer : flamesworddragon
Photo URL    : https://www.flickr.com/photos/flamesworddragon/5032630082/
License      : Creative Commons (http://creativecommons.org/licenses)
Taken Date   : Tue Aug 24 13:59:47 GMT+0200 2010
Upload Date  : Tue Sep 28 08:47:30 GMT+0200 2010
Views        : 21
Comments     : 0


+---------+
|  TITLE  |
+---------+
Deer


+---------------+
|  DESCRIPTION  |
+---------------+
(no description)


+--------+
|  TAGS  |
+--------+
(no tags)