+--------------------------------------+
|   Flickr Photo Metadata              |
|   Created by Bulkr on Apr 15, 2016   |
|   http://clipyourphotos.com/bulkr    |
+--------------------------------------+

+--------+
|  INFO  |
+--------+
Photographer : _A_K_M_
Photo URL    : https://www.flickr.com/photos/pig_babe/7764931454/
License      : Creative Commons (http://creativecommons.org/licenses)
Taken Date   : Sat Aug 11 16:49:37 GMT+0200 2012
Upload Date  : Sun Aug 12 13:10:55 GMT+0200 2012
Views        : 280
Comments     : 2


+---------+
|  TITLE  |
+---------+
I laugh


+---------------+
|  DESCRIPTION  |
+---------------+
(no description)


+--------+
|  TAGS  |
+--------+
"Richmond Park Deer" 