+--------------------------------------+
|   Flickr Photo Metadata              |
|   Created by Bulkr on Apr 15, 2016   |
|   http://clipyourphotos.com/bulkr    |
+--------------------------------------+

+--------+
|  INFO  |
+--------+
Photographer : mendolus shank
Photo URL    : https://www.flickr.com/photos/mendolusshank/9958098916/
License      : Creative Commons (http://creativecommons.org/licenses)
Taken Date   : Sun Sep 1 07:34:58 GMT+0200 2013
Upload Date  : Fri Sep 27 01:54:30 GMT+0200 2013
Views        : 624
Comments     : 0


+---------+
|  TITLE  |
+---------+
the natural element, deer, sonoma 2013


+---------------+
|  DESCRIPTION  |
+---------------+
(no description)


+--------+
|  TAGS  |
+--------+
sonoma deer mendolus letsdance tonightaway 