+--------------------------------------+
|   Flickr Photo Metadata              |
|   Created by Bulkr on Apr 15, 2016   |
|   http://clipyourphotos.com/bulkr    |
+--------------------------------------+

+--------+
|  INFO  |
+--------+
Photographer : j2dread
Photo URL    : https://www.flickr.com/photos/j2dread/5190298756/
License      : Creative Commons (http://creativecommons.org/licenses)
Taken Date   : Thu Nov 18 05:44:10 GMT+0100 2010
Upload Date  : Fri Nov 19 19:33:58 GMT+0100 2010
Views        : 97
Comments     : 0


+---------+
|  TITLE  |
+---------+
Warwick deer 3


+---------------+
|  DESCRIPTION  |
+---------------+
(no description)


+--------+
|  TAGS  |
+--------+
deer warwick ny outdoors wildlife 