+--------------------------------------+
|   Flickr Photo Metadata              |
|   Created by Bulkr on Apr 15, 2016   |
|   http://clipyourphotos.com/bulkr    |
+--------------------------------------+

+--------+
|  INFO  |
+--------+
Photographer : Monkey Mash Button
Photo URL    : https://www.flickr.com/photos/monkeymashbutton/6434234551/
License      : Creative Commons (http://creativecommons.org/licenses)
Taken Date   : Mon Sep 5 07:12:05 GMT+0200 2011
Upload Date  : Thu Dec 1 04:01:30 GMT+0100 2011
Views        : 840
Comments     : 0


+---------+
|  TITLE  |
+---------+
Deer Down the Hill


+---------------+
|  DESCRIPTION  |
+---------------+
(no description)


+--------+
|  TAGS  |
+--------+
deer 