+--------------------------------------+
|   Flickr Photo Metadata              |
|   Created by Bulkr on Apr 15, 2016   |
|   http://clipyourphotos.com/bulkr    |
+--------------------------------------+

+--------+
|  INFO  |
+--------+
Photographer : milesmilob
Photo URL    : https://www.flickr.com/photos/milesmilo/5522703485/
License      : Creative Commons (http://creativecommons.org/licenses)
Taken Date   : Sat Mar 12 13:03:10 GMT+0100 2011
Upload Date  : Sun Mar 13 18:09:37 GMT+0100 2011
Views        : 29
Comments     : 0


+---------+
|  TITLE  |
+---------+
DEER


+---------------+
|  DESCRIPTION  |
+---------------+
These deer were on duwich heath there must have been about 20 of them,its the most we have seen.


+--------+
|  TAGS  |
+--------+
(no tags)