+--------------------------------------+
|   Flickr Photo Metadata              |
|   Created by Bulkr on Apr 15, 2016   |
|   http://clipyourphotos.com/bulkr    |
+--------------------------------------+

+--------+
|  INFO  |
+--------+
Photographer : bobosh_t
Photo URL    : https://www.flickr.com/photos/frted/5617661207/
License      : Creative Commons (http://creativecommons.org/licenses)
Taken Date   : Wed Apr 13 22:44:48 GMT+0200 2011
Upload Date  : Thu Apr 14 04:56:44 GMT+0200 2011
Views        : 49
Comments     : 0


+---------+
|  TITLE  |
+---------+
Two Deer


+---------------+
|  DESCRIPTION  |
+---------------+
(no description)


+--------+
|  TAGS  |
+--------+
"St. Paul Church" Dayton "Orthodox Church" Orthodox 