+--------------------------------------+
|   Flickr Photo Metadata              |
|   Created by Bulkr on Apr 15, 2016   |
|   http://clipyourphotos.com/bulkr    |
+--------------------------------------+

+--------+
|  INFO  |
+--------+
Photographer : Aliona Boico
Photo URL    : https://www.flickr.com/photos/elschurova/5540713064/
License      : Creative Commons (http://creativecommons.org/licenses)
Taken Date   : Tue Mar 8 16:26:30 GMT+0100 2011
Upload Date  : Sat Mar 19 19:59:36 GMT+0100 2011
Views        : 214
Comments     : 2


+---------+
|  TITLE  |
+---------+
IMG_2070


+---------------+
|  DESCRIPTION  |
+---------------+
(no description)


+--------+
|  TAGS  |
+--------+
farm deer reindeer олень 