+--------------------------------------+
|   Flickr Photo Metadata              |
|   Created by Bulkr on Apr 15, 2016   |
|   http://clipyourphotos.com/bulkr    |
+--------------------------------------+

+--------+
|  INFO  |
+--------+
Photographer : atkinson000
Photo URL    : https://www.flickr.com/photos/atkinson000/7861658116/
License      : Creative Commons (http://creativecommons.org/licenses)
Taken Date   : Mon Aug 13 02:12:04 GMT+0200 2012
Upload Date  : Sun Aug 26 06:32:05 GMT+0200 2012
Geotag Info  : Latitude:38.558362, Longitude:-78.381958
Views        : 189
Comments     : 0


+---------+
|  TITLE  |
+---------+
Interupted


+---------------+
|  DESCRIPTION  |
+---------------+
(no description)


+--------+
|  TAGS  |
+--------+
Shanendoah deer mountains 