+--------------------------------------+
|   Flickr Photo Metadata              |
|   Created by Bulkr on Apr 15, 2016   |
|   http://clipyourphotos.com/bulkr    |
+--------------------------------------+

+--------+
|  INFO  |
+--------+
Photographer : Lelik
Photo URL    : https://www.flickr.com/photos/lelik/65442580/
License      : Creative Commons (http://creativecommons.org/licenses)
Taken Date   : Mon Nov 21 01:04:42 GMT+0100 2005
Upload Date  : Mon Nov 21 10:04:42 GMT+0100 2005
Views        : 2,175
Comments     : 1


+---------+
|  TITLE  |
+---------+
Deer love


+---------------+
|  DESCRIPTION  |
+---------------+
How sweet


+--------+
|  TAGS  |
+--------+
leon lelik gordin canada vancouver deer mating 