+--------------------------------------+
|   Flickr Photo Metadata              |
|   Created by Bulkr on Apr 15, 2016   |
|   http://clipyourphotos.com/bulkr    |
+--------------------------------------+

+--------+
|  INFO  |
+--------+
Photographer : _A_K_M_
Photo URL    : https://www.flickr.com/photos/pig_babe/7764816206/
License      : Creative Commons (http://creativecommons.org/licenses)
Taken Date   : Sat Aug 11 16:07:28 GMT+0200 2012
Upload Date  : Sun Aug 12 12:44:23 GMT+0200 2012
Views        : 125
Comments     : 0


+---------+
|  TITLE  |
+---------+
Scratch


+---------------+
|  DESCRIPTION  |
+---------------+
(no description)


+--------+
|  TAGS  |
+--------+
"Richmond Park Deer" 