+--------------------------------------+
|   Flickr Photo Metadata              |
|   Created by Bulkr on Apr 15, 2016   |
|   http://clipyourphotos.com/bulkr    |
+--------------------------------------+

+--------+
|  INFO  |
+--------+
Photographer : romanboed
Photo URL    : https://www.flickr.com/photos/romanboed/10562322963/
License      : Creative Commons (http://creativecommons.org/licenses)
Taken Date   : Wed Oct 23 08:23:25 GMT+0200 2013
Upload Date  : Tue Oct 29 21:25:43 GMT+0100 2013
Geotag Info  : Latitude:48.520697, Longitude:8.324890
Views        : 1,664
Comments     : 0


+---------+
|  TITLE  |
+---------+
Deer


+---------------+
|  DESCRIPTION  |
+---------------+
(no description)


+--------+
|  TAGS  |
+--------+
travel landscape Europe Germany Black Forest Baiersbronn Mitteltal Schwarzwald autumn fall trees leaves foliage hiking meadow sunny deer 