+--------------------------------------+
|   Flickr Photo Metadata              |
|   Created by Bulkr on Apr 15, 2016   |
|   http://clipyourphotos.com/bulkr    |
+--------------------------------------+

+--------+
|  INFO  |
+--------+
Photographer : ButterflySha
Photo URL    : https://www.flickr.com/photos/butterflysha/73330017/
License      : Creative Commons (http://creativecommons.org/licenses)
Taken Date   : Wed Dec 7 12:33:36 GMT+0100 2005
Upload Date  : Wed Dec 14 00:58:33 GMT+0100 2005
Views        : 280
Comments     : 2


+---------+
|  TITLE  |
+---------+
Got any food?


+---------------+
|  DESCRIPTION  |
+---------------+
(no description)


+--------+
|  TAGS  |
+--------+
snow gift magical allisrightwiththeworld deer 