+--------------------------------------+
|   Flickr Photo Metadata              |
|   Created by Bulkr on Apr 15, 2016   |
|   http://clipyourphotos.com/bulkr    |
+--------------------------------------+

+--------+
|  INFO  |
+--------+
Photographer : Vegansoldier
Photo URL    : https://www.flickr.com/photos/vegansoldier/4880743642/
License      : Creative Commons (http://creativecommons.org/licenses)
Taken Date   : Tue Jul 20 14:57:21 GMT+0200 2010
Upload Date  : Wed Aug 11 00:56:19 GMT+0200 2010
Views        : 398
Comments     : 0


+---------+
|  TITLE  |
+---------+
A Day at the Zoo 022


+---------------+
|  DESCRIPTION  |
+---------------+
(no description)


+--------+
|  TAGS  |
+--------+
deer buck 