+--------------------------------------+
|   Flickr Photo Metadata              |
|   Created by Bulkr on Apr 15, 2016   |
|   http://clipyourphotos.com/bulkr    |
+--------------------------------------+

+--------+
|  INFO  |
+--------+
Photographer : nordique
Photo URL    : https://www.flickr.com/photos/nordique/3039234781/
License      : Creative Commons (http://creativecommons.org/licenses)
Taken Date   : Mon Nov 17 15:01:30 GMT+0100 2008
Upload Date  : Tue Nov 18 03:41:39 GMT+0100 2008
Views        : 105
Comments     : 0


+---------+
|  TITLE  |
+---------+
Mule deer?


+---------------+
|  DESCRIPTION  |
+---------------+
(no description)


+--------+
|  TAGS  |
+--------+
(no tags)