+--------------------------------------+
|   Flickr Photo Metadata              |
|   Created by Bulkr on Apr 15, 2016   |
|   http://clipyourphotos.com/bulkr    |
+--------------------------------------+

+--------+
|  INFO  |
+--------+
Photographer : jimmypk218
Photo URL    : https://www.flickr.com/photos/jimmypk/6354823095/
License      : Creative Commons (http://creativecommons.org/licenses)
Taken Date   : Thu Nov 17 11:57:03 GMT+0100 2011
Upload Date  : Thu Nov 17 21:25:13 GMT+0100 2011
Views        : 146
Comments     : 0


+---------+
|  TITLE  |
+---------+
Getting Ready


+---------------+
|  DESCRIPTION  |
+---------------+
(no description)


+--------+
|  TAGS  |
+--------+
deer wildlife 