+--------------------------------------+
|   Flickr Photo Metadata              |
|   Created by Bulkr on Apr 15, 2016   |
|   http://clipyourphotos.com/bulkr    |
+--------------------------------------+

+--------+
|  INFO  |
+--------+
Photographer : tillwe
Photo URL    : https://www.flickr.com/photos/tillwe/9631418238/
License      : Creative Commons (http://creativecommons.org/licenses)
Taken Date   : Wed Aug 28 11:49:50 GMT+0200 2013
Upload Date  : Fri Aug 30 19:02:40 GMT+0200 2013
Views        : 122
Comments     : 0


+---------+
|  TITLE  |
+---------+
Deer I


+---------------+
|  DESCRIPTION  |
+---------------+
(no description)


+--------+
|  TAGS  |
+--------+
tillwe 2013-08 saarbrücken wildpark deer animal 