+--------------------------------------+
|   Flickr Photo Metadata              |
|   Created by Bulkr on Apr 15, 2016   |
|   http://clipyourphotos.com/bulkr    |
+--------------------------------------+

+--------+
|  INFO  |
+--------+
Photographer : audreyjm529
Photo URL    : https://www.flickr.com/photos/audreyjm529/6109928287/
License      : Creative Commons (http://creativecommons.org/licenses)
Taken Date   : Fri Sep 2 06:37:56 GMT+0200 2011
Upload Date  : Sun Sep 4 00:02:18 GMT+0200 2011
Views        : 627
Comments     : 2


+---------+
|  TITLE  |
+---------+
Fawns


+---------------+
|  DESCRIPTION  |
+---------------+
(no description)


+--------+
|  TAGS  |
+--------+
fawn fawns canon zoom wildlife deer 