+--------------------------------------+
|   Flickr Photo Metadata              |
|   Created by Bulkr on Apr 15, 2016   |
|   http://clipyourphotos.com/bulkr    |
+--------------------------------------+

+--------+
|  INFO  |
+--------+
Photographer : Aileen's Pics
Photo URL    : https://www.flickr.com/photos/phyls_photos/278403170/
License      : Creative Commons (http://creativecommons.org/licenses)
Taken Date   : Mon Oct 23 17:19:02 GMT+0200 2006
Upload Date  : Tue Oct 24 19:25:10 GMT+0200 2006
Views        : 476
Comments     : 0


+---------+
|  TITLE  |
+---------+
2 deer


+---------------+
|  DESCRIPTION  |
+---------------+
(no description)


+--------+
|  TAGS  |
+--------+
deer 