+--------------------------------------+
|   Flickr Photo Metadata              |
|   Created by Bulkr on Apr 15, 2016   |
|   http://clipyourphotos.com/bulkr    |
+--------------------------------------+

+--------+
|  INFO  |
+--------+
Photographer : Amanjeev
Photo URL    : https://www.flickr.com/photos/amanjeev/8101578127/
License      : Creative Commons (http://creativecommons.org/licenses)
Taken Date   : Wed Oct 17 17:44:23 GMT+0200 2012
Upload Date  : Fri Oct 19 04:12:12 GMT+0200 2012
Views        : 82
Comments     : 0


+---------+
|  TITLE  |
+---------+
Hello, I am interested


+---------------+
|  DESCRIPTION  |
+---------------+
(no description)


+--------+
|  TAGS  |
+--------+
Landscape Wildlife deer 