+--------------------------------------+
|   Flickr Photo Metadata              |
|   Created by Bulkr on Apr 15, 2016   |
|   http://clipyourphotos.com/bulkr    |
+--------------------------------------+

+--------+
|  INFO  |
+--------+
Photographer : bobosh_t
Photo URL    : https://www.flickr.com/photos/frted/5996770724/
License      : Creative Commons (http://creativecommons.org/licenses)
Taken Date   : Sat Jul 30 20:57:43 GMT+0200 2011
Upload Date  : Mon Aug 1 05:17:21 GMT+0200 2011
Views        : 47
Comments     : 0


+---------+
|  TITLE  |
+---------+
DSC_0207


+---------------+
|  DESCRIPTION  |
+---------------+
(no description)


+--------+
|  TAGS  |
+--------+
deer "St. Paul Church" 