+--------------------------------------+
|   Flickr Photo Metadata              |
|   Created by Bulkr on Apr 15, 2016   |
|   http://clipyourphotos.com/bulkr    |
+--------------------------------------+

+--------+
|  INFO  |
+--------+
Photographer : rambomuscles
Photo URL    : https://www.flickr.com/photos/rambomuscles/9968762284/
License      : Creative Commons (http://creativecommons.org/licenses)
Taken Date   : Sun Sep 22 07:24:35 GMT+0200 2013
Upload Date  : Fri Sep 27 19:09:25 GMT+0200 2013
Views        : 296
Comments     : 0


+---------+
|  TITLE  |
+---------+
(no title)


+---------------+
|  DESCRIPTION  |
+---------------+
(no description)


+--------+
|  TAGS  |
+--------+
Woburn Deer Park 