+--------------------------------------+
|   Flickr Photo Metadata              |
|   Created by Bulkr on Apr 15, 2016   |
|   http://clipyourphotos.com/bulkr    |
+--------------------------------------+

+--------+
|  INFO  |
+--------+
Photographer : Arran Cottage
Photo URL    : https://www.flickr.com/photos/arran-cottage/4790688812/
License      : Creative Commons (http://creativecommons.org/licenses)
Taken Date   : Thu Jul 8 12:14:19 GMT+0200 2010
Upload Date  : Tue Jul 13 18:24:12 GMT+0200 2010
Views        : 56
Comments     : 0


+---------+
|  TITLE  |
+---------+
P1050778


+---------------+
|  DESCRIPTION  |
+---------------+
(no description)


+--------+
|  TAGS  |
+--------+
arran lochranza deer 