+--------------------------------------+
|   Flickr Photo Metadata              |
|   Created by Bulkr on Apr 15, 2016   |
|   http://clipyourphotos.com/bulkr    |
+--------------------------------------+

+--------+
|  INFO  |
+--------+
Photographer : BrandonLord
Photo URL    : https://www.flickr.com/photos/95508982@N06/9866799113/
License      : Creative Commons (http://creativecommons.org/licenses)
Taken Date   : Tue Sep 17 10:55:50 GMT+0200 2013
Upload Date  : Sun Sep 22 05:50:49 GMT+0200 2013
Views        : 47
Comments     : 0


+---------+
|  TITLE  |
+---------+
Muledeer1


+---------------+
|  DESCRIPTION  |
+---------------+
(no description)


+--------+
|  TAGS  |
+--------+
mule deer tetons wyoming 