+--------------------------------------+
|   Flickr Photo Metadata              |
|   Created by Bulkr on Apr 15, 2016   |
|   http://clipyourphotos.com/bulkr    |
+--------------------------------------+

+--------+
|  INFO  |
+--------+
Photographer : Opt1mus76
Photo URL    : https://www.flickr.com/photos/opt1mus76/6122496924/
License      : Creative Commons (http://creativecommons.org/licenses)
Taken Date   : Sun Jul 31 13:29:33 GMT+0200 2011
Upload Date  : Wed Sep 7 03:25:16 GMT+0200 2011
Views        : 394
Comments     : 0


+---------+
|  TITLE  |
+---------+
Deer


+---------------+
|  DESCRIPTION  |
+---------------+
(no description)


+--------+
|  TAGS  |
+--------+
Deer "Dinosaur Adventure Park" 