+--------------------------------------+
|   Flickr Photo Metadata              |
|   Created by Bulkr on May 13, 2016   |
|   http://clipyourphotos.com/bulkr    |
+--------------------------------------+

+--------+
|  INFO  |
+--------+
Photographer : Belzie
Photo URL    : https://www.flickr.com/photos/23370518@N05/2539993724/
License      : Creative Commons (http://creativecommons.org/licenses)
Taken Date   : Sat May 31 18:24:26 GMT+0200 2008
Upload Date  : Sun Jun 1 00:24:26 GMT+0200 2008
Geotag Info  : Latitude:45.553006, Longitude:-73.771820
Views        : 1,038
Comments     : 16


+---------+
|  TITLE  |
+---------+
New friend. Nouvel ami.


+---------------+
|  DESCRIPTION  |
+---------------+
My mom got  many squirrels that come eat in her yard, now she having This little friend .

Ma mère a des amis écureuil qui viennent manger dans sa cours et maintenant elle a ce petit ami.


+--------+
|  TAGS  |
+--------+
tweaked tonemap qtpfsgui panasoniclumixdmcfz50 outside lavalqc laval ilovemypic iloveflickr hdrenfrancais hdraddicted hdr fz50 flickrclickers flickr face fabreville eyes dehors couleurs colors colorful catchycolors catchycolor animal ratton raccoon FLICKRZILLA! Flickrholics "Flickr Addicts" 