+--------------------------------------+
|   Flickr Photo Metadata              |
|   Created by Bulkr on May 13, 2016   |
|   http://clipyourphotos.com/bulkr    |
+--------------------------------------+

+--------+
|  INFO  |
+--------+
Photographer : post406
Photo URL    : https://www.flickr.com/photos/post406/2509349269/
License      : Creative Commons (http://creativecommons.org/licenses)
Taken Date   : Fri May 2 17:13:37 GMT+0200 2008
Upload Date  : Wed May 21 02:28:18 GMT+0200 2008
Geotag Info  : Latitude:25.818126, Longitude:-80.345077
Views        : 233
Comments     : 0


+---------+
|  TITLE  |
+---------+
Oh hai


+---------------+
|  DESCRIPTION  |
+---------------+
Just getting lunch


+--------+
|  TAGS  |
+--------+
doral golf raccoon vacation florida 