+--------------------------------------+
|   Flickr Photo Metadata              |
|   Created by Bulkr on May 13, 2016   |
|   http://clipyourphotos.com/bulkr    |
+--------------------------------------+

+--------+
|  INFO  |
+--------+
Photographer : dr. friendly
Photo URL    : https://www.flickr.com/photos/57777529@N02/5398249041/
License      : Creative Commons (http://creativecommons.org/licenses)
Taken Date   : Sat Jan 29 12:12:50 GMT+0100 2011
Upload Date  : Sat Jan 29 19:55:54 GMT+0100 2011
Views        : 361
Comments     : 0


+---------+
|  TITLE  |
+---------+
waschbär


+---------------+
|  DESCRIPTION  |
+---------------+
raccoon


+--------+
|  TAGS  |
+--------+
waschbär raccoon 