+--------------------------------------+
|   Flickr Photo Metadata              |
|   Created by Bulkr on May 13, 2016   |
|   http://clipyourphotos.com/bulkr    |
+--------------------------------------+

+--------+
|  INFO  |
+--------+
Photographer : Gunnshots
Photo URL    : https://www.flickr.com/photos/donald_gunn/16318936905/
License      : Creative Commons (http://creativecommons.org/licenses)
Taken Date   : Thu May 15 17:35:04 GMT+0200 2008
Upload Date  : Mon Jan 19 18:21:21 GMT+0100 2015
Views        : 122
Comments     : 0


+---------+
|  TITLE  |
+---------+
raccoons in tree


+---------------+
|  DESCRIPTION  |
+---------------+
(no description)


+--------+
|  TAGS  |
+--------+
Animals raccoons young tree nature fear masks wildlife ravine woods 