+--------------------------------------+
|   Flickr Photo Metadata              |
|   Created by Bulkr on May 13, 2016   |
|   http://clipyourphotos.com/bulkr    |
+--------------------------------------+

+--------+
|  INFO  |
+--------+
Photographer : gerrybuckel
Photo URL    : https://www.flickr.com/photos/91515698@N00/4723692897/
License      : Creative Commons (http://creativecommons.org/licenses)
Taken Date   : Mon Jun 21 09:53:48 GMT+0200 2010
Upload Date  : Tue Jun 22 14:37:50 GMT+0200 2010
Views        : 92
Comments     : 4


+---------+
|  TITLE  |
+---------+
Hang in there


+---------------+
|  DESCRIPTION  |
+---------------+
(no description)


+--------+
|  TAGS  |
+--------+
"Absolute Michigan" nature animals raccoons 