+--------------------------------------+
|   Flickr Photo Metadata              |
|   Created by Bulkr on May 13, 2016   |
|   http://clipyourphotos.com/bulkr    |
+--------------------------------------+

+--------+
|  INFO  |
+--------+
Photographer : A  Train
Photo URL    : https://www.flickr.com/photos/26424952@N00/18562179056/
License      : Creative Commons (http://creativecommons.org/licenses)
Taken Date   : Tue Jun 2 16:13:14 GMT+0200 2015
Upload Date  : Mon Jun 8 07:08:18 GMT+0200 2015
Views        : 324
Comments     : 0


+---------+
|  TITLE  |
+---------+
Raccoon


+---------------+
|  DESCRIPTION  |
+---------------+
(no description)


+--------+
|  TAGS  |
+--------+
Raccoon "Lexington Kentucky" Kentucky Park Wildlife Tree Climb Mask 