+--------------------------------------+
|   Flickr Photo Metadata              |
|   Created by Bulkr on May 13, 2016   |
|   http://clipyourphotos.com/bulkr    |
+--------------------------------------+

+--------+
|  INFO  |
+--------+
Photographer : ZeMoufette
Photo URL    : https://www.flickr.com/photos/zemoufette/4599526015/
License      : Creative Commons (http://creativecommons.org/licenses)
Taken Date   : Wed Feb 17 17:41:08 GMT+0100 2010
Upload Date  : Wed May 12 02:15:40 GMT+0200 2010
Views        : 1,087
Comments     : 0


+---------+
|  TITLE  |
+---------+
Raccoon


+---------------+
|  DESCRIPTION  |
+---------------+
(no description)


+--------+
|  TAGS  |
+--------+
raccoon 