+--------------------------------------+
|   Flickr Photo Metadata              |
|   Created by Bulkr on May 13, 2016   |
|   http://clipyourphotos.com/bulkr    |
+--------------------------------------+

+--------+
|  INFO  |
+--------+
Photographer : Daquella manera
Photo URL    : https://www.flickr.com/photos/daquellamanera/3082386561/
License      : Creative Commons (http://creativecommons.org/licenses)
Taken Date   : Sat Nov 22 12:54:03 GMT+0100 2008
Upload Date  : Thu Dec 4 21:51:55 GMT+0100 2008
Views        : 418
Comments     : 0


+---------+
|  TITLE  |
+---------+
Mapache


+---------------+
|  DESCRIPTION  |
+---------------+
(no description)


+--------+
|  TAGS  |
+--------+
dc washington washingtondc districtofcolumbia distrito roadkill muerte death carretera asfalto asphalt mapache raccoon racoon raccon 