+--------------------------------------+
|   Flickr Photo Metadata              |
|   Created by Bulkr on May 13, 2016   |
|   http://clipyourphotos.com/bulkr    |
+--------------------------------------+

+--------+
|  INFO  |
+--------+
Photographer : photoslyben
Photo URL    : https://www.flickr.com/photos/bnphotos400/6385364333/
License      : Creative Commons (http://creativecommons.org/licenses)
Taken Date   : Wed Mar 30 16:23:29 GMT+0200 2011
Upload Date  : Tue Nov 22 22:34:52 GMT+0100 2011
Views        : 20
Comments     : 0


+---------+
|  TITLE  |
+---------+
Raton laveur


+---------------+
|  DESCRIPTION  |
+---------------+
(no description)


+--------+
|  TAGS  |
+--------+
(no tags)