+--------------------------------------+
|   Flickr Photo Metadata              |
|   Created by Bulkr on May 13, 2016   |
|   http://clipyourphotos.com/bulkr    |
+--------------------------------------+

+--------+
|  INFO  |
+--------+
Photographer : icke48
Photo URL    : https://www.flickr.com/photos/icke48/15233283520/
License      : Creative Commons (http://creativecommons.org/licenses)
Taken Date   : Thu Oct 2 10:20:27 GMT+0200 2014
Upload Date  : Thu Oct 2 16:38:15 GMT+0200 2014
Views        : 124
Comments     : 0


+---------+
|  TITLE  |
+---------+
Waschbär


+---------------+
|  DESCRIPTION  |
+---------------+
(no description)


+--------+
|  TAGS  |
+--------+
(no tags)