+--------------------------------------+
|   Flickr Photo Metadata              |
|   Created by Bulkr on May 13, 2016   |
|   http://clipyourphotos.com/bulkr    |
+--------------------------------------+

+--------+
|  INFO  |
+--------+
Photographer : dmcdevit
Photo URL    : https://www.flickr.com/photos/dmcdevit/2102321461/
License      : Creative Commons (http://creativecommons.org/licenses)
Taken Date   : Thu May 31 04:29:43 GMT+0200 2007
Upload Date  : Tue Dec 11 09:25:26 GMT+0100 2007
Views        : 175
Comments     : 0


+---------+
|  TITLE  |
+---------+
One last try


+---------------+
|  DESCRIPTION  |
+---------------+
&quot;Even if I give you my most adorable sad puppy face?&quot;


+--------+
|  TAGS  |
+--------+
raccoon 