+--------------------------------------+
|   Flickr Photo Metadata              |
|   Created by Bulkr on May 13, 2016   |
|   http://clipyourphotos.com/bulkr    |
+--------------------------------------+

+--------+
|  INFO  |
+--------+
Photographer : granth
Photo URL    : https://www.flickr.com/photos/granth/2276062604/
License      : Creative Commons (http://creativecommons.org/licenses)
Taken Date   : Thu Feb 7 13:15:56 GMT+0100 2008
Upload Date  : Tue Feb 19 02:04:59 GMT+0100 2008
Views        : 158
Comments     : 0


+---------+
|  TITLE  |
+---------+
fats


+---------------+
|  DESCRIPTION  |
+---------------+
(no description)


+--------+
|  TAGS  |
+--------+
raccoon zoo "st martin" 