+--------------------------------------+
|   Flickr Photo Metadata              |
|   Created by Bulkr on Mar 09, 2016   |
|   http://clipyourphotos.com/bulkr    |
+--------------------------------------+

+--------+
|  INFO  |
+--------+
Photographer : Mr ATM
Photo URL    : https://www.flickr.com/photos/nickhubbard/17135824229/
License      : Creative Commons (http://creativecommons.org/licenses)
Taken Date   : Fri Apr 24 18:11:30 GMT+0200 2015
Upload Date  : Thu Apr 30 16:43:10 GMT+0200 2015
Views        : 28
Comments     : 0


+---------+
|  TITLE  |
+---------+
Welsh Sheep


+---------------+
|  DESCRIPTION  |
+---------------+
(no description)


+--------+
|  TAGS  |
+--------+
(no tags)