+--------------------------------------+
|   Flickr Photo Metadata              |
|   Created by Bulkr on Mar 09, 2016   |
|   http://clipyourphotos.com/bulkr    |
+--------------------------------------+

+--------+
|  INFO  |
+--------+
Photographer : bazzadaramblerimages
Photo URL    : https://www.flickr.com/photos/bazzadarambler/3747656402/
License      : Creative Commons (http://creativecommons.org/licenses)
Taken Date   : Wed Jul 22 23:08:58 GMT+0200 2009
Upload Date  : Thu Jul 23 00:08:58 GMT+0200 2009
Views        : 214
Comments     : 0


+---------+
|  TITLE  |
+---------+
Good morning sheep! Templeton, Devon.


+---------------+
|  DESCRIPTION  |
+---------------+
(no description)


+--------+
|  TAGS  |
+--------+
tiverton devon sheep 