+--------------------------------------+
|   Flickr Photo Metadata              |
|   Created by Bulkr on Mar 09, 2016   |
|   http://clipyourphotos.com/bulkr    |
+--------------------------------------+

+--------+
|  INFO  |
+--------+
Photographer : smerikal
Photo URL    : https://www.flickr.com/photos/smerikal/7418396670/
License      : Creative Commons (http://creativecommons.org/licenses)
Taken Date   : Wed Jun 20 19:10:16 GMT+0200 2012
Upload Date  : Fri Jun 22 08:17:40 GMT+0200 2012
Views        : 118
Comments     : 0


+---------+
|  TITLE  |
+---------+
Läsipää lammas


+---------------+
|  DESCRIPTION  |
+---------------+
(no description)


+--------+
|  TAGS  |
+--------+
lammas sheep korvamerkki tagged 