+--------------------------------------+
|   Flickr Photo Metadata              |
|   Created by Bulkr on Mar 09, 2016   |
|   http://clipyourphotos.com/bulkr    |
+--------------------------------------+

+--------+
|  INFO  |
+--------+
Photographer : ume-y
Photo URL    : https://www.flickr.com/photos/ume-y/4913389722/
License      : Creative Commons (http://creativecommons.org/licenses)
Taken Date   : Sat Aug 21 14:52:34 GMT+0200 2010
Upload Date  : Sat Aug 21 17:41:47 GMT+0200 2010
Views        : 245
Comments     : 0


+---------+
|  TITLE  |
+---------+
DSC05766


+---------------+
|  DESCRIPTION  |
+---------------+
(no description)


+--------+
|  TAGS  |
+--------+
farm sheep 羊 牧場 