+--------------------------------------+
|   Flickr Photo Metadata              |
|   Created by Bulkr on Mar 09, 2016   |
|   http://clipyourphotos.com/bulkr    |
+--------------------------------------+

+--------+
|  INFO  |
+--------+
Photographer : wiennat
Photo URL    : https://www.flickr.com/photos/wien/4574465161/
License      : Creative Commons (http://creativecommons.org/licenses)
Taken Date   : Mon May 3 14:11:02 GMT+0200 2010
Upload Date  : Mon May 3 16:49:20 GMT+0200 2010
Views        : 1,955
Comments     : 0


+---------+
|  TITLE  |
+---------+
Double Sheep


+---------------+
|  DESCRIPTION  |
+---------------+
(no description)


+--------+
|  TAGS  |
+--------+
sheep 