+--------------------------------------+
|   Flickr Photo Metadata              |
|   Created by Bulkr on Mar 09, 2016   |
|   http://clipyourphotos.com/bulkr    |
+--------------------------------------+

+--------+
|  INFO  |
+--------+
Photographer : Alex France
Photo URL    : https://www.flickr.com/photos/alexfrance/3438281725/
License      : Creative Commons (http://creativecommons.org/licenses)
Taken Date   : Mon Apr 13 13:34:11 GMT+0200 2009
Upload Date  : Mon Apr 13 20:02:05 GMT+0200 2009
Views        : 77
Comments     : 0


+---------+
|  TITLE  |
+---------+
DSC_7836


+---------------+
|  DESCRIPTION  |
+---------------+
(no description)


+--------+
|  TAGS  |
+--------+
sheep 