+--------------------------------------+
|   Flickr Photo Metadata              |
|   Created by Bulkr on Mar 09, 2016   |
|   http://clipyourphotos.com/bulkr    |
+--------------------------------------+

+--------+
|  INFO  |
+--------+
Photographer : tattiehowker
Photo URL    : https://www.flickr.com/photos/tattiehowker/7014970659/
License      : Creative Commons (http://creativecommons.org/licenses)
Taken Date   : Fri Dec 2 13:14:41 GMT+0100 2011
Upload Date  : Sun Mar 25 21:19:12 GMT+0200 2012
Views        : 206
Comments     : 0


+---------+
|  TITLE  |
+---------+
Ram


+---------------+
|  DESCRIPTION  |
+---------------+
(no description)


+--------+
|  TAGS  |
+--------+
ram sheep 