+--------------------------------------+
|   Flickr Photo Metadata              |
|   Created by Bulkr on Mar 09, 2016   |
|   http://clipyourphotos.com/bulkr    |
+--------------------------------------+

+--------+
|  INFO  |
+--------+
Photographer : jmayer1129
Photo URL    : https://www.flickr.com/photos/johnmichaelmayer/8562944858/
License      : Creative Commons (http://creativecommons.org/licenses)
Taken Date   : Sat Feb 16 15:42:09 GMT+0100 2013
Upload Date  : Sat Mar 16 18:32:53 GMT+0100 2013
Views        : 88
Comments     : 0


+---------+
|  TITLE  |
+---------+
DSC_0912


+---------------+
|  DESCRIPTION  |
+---------------+
(no description)


+--------+
|  TAGS  |
+--------+
sheep denver zoo 