+--------------------------------------+
|   Flickr Photo Metadata              |
|   Created by Bulkr on Mar 09, 2016   |
|   http://clipyourphotos.com/bulkr    |
+--------------------------------------+

+--------+
|  INFO  |
+--------+
Photographer : Annemeesie
Photo URL    : https://www.flickr.com/photos/31176813@N08/3465678349/
License      : Creative Commons (http://creativecommons.org/licenses)
Taken Date   : Tue Apr 21 10:50:19 GMT+0200 2009
Upload Date  : Wed Apr 22 21:03:59 GMT+0200 2009
Views        : 129
Comments     : 2


+---------+
|  TITLE  |
+---------+
IMG_0958-2


+---------------+
|  DESCRIPTION  |
+---------------+
(no description)


+--------+
|  TAGS  |
+--------+
spring color green field sheep 