+--------------------------------------+
|   Flickr Photo Metadata              |
|   Created by Bulkr on Mar 09, 2016   |
|   http://clipyourphotos.com/bulkr    |
+--------------------------------------+

+--------+
|  INFO  |
+--------+
Photographer : Rob124
Photo URL    : https://www.flickr.com/photos/15472273@N07/8999780130/
License      : Creative Commons (http://creativecommons.org/licenses)
Taken Date   : Wed Jun 5 17:46:12 GMT+0200 2013
Upload Date  : Sun Jun 9 21:42:54 GMT+0200 2013
Views        : 3,218
Comments     : 0


+---------+
|  TITLE  |
+---------+
Hamburg_178


+---------------+
|  DESCRIPTION  |
+---------------+
(no description)


+--------+
|  TAGS  |
+--------+
hamburg city summer schafe sheep deich 