+--------------------------------------+
|   Flickr Photo Metadata              |
|   Created by Bulkr on Mar 09, 2016   |
|   http://clipyourphotos.com/bulkr    |
+--------------------------------------+

+--------+
|  INFO  |
+--------+
Photographer : foilman
Photo URL    : https://www.flickr.com/photos/foilman/2712925329/
License      : Creative Commons (http://creativecommons.org/licenses)
Taken Date   : Sat Jul 9 10:57:09 GMT+0200 2005
Upload Date  : Tue Jul 29 13:44:18 GMT+0200 2008
Views        : 696
Comments     : 0


+---------+
|  TITLE  |
+---------+
Sheep


+---------------+
|  DESCRIPTION  |
+---------------+
A sheep also attempting the climb.


+--------+
|  TAGS  |
+--------+
scotland sheep "ben nevis" 