+--------------------------------------+
|   Flickr Photo Metadata              |
|   Created by Bulkr on Mar 09, 2016   |
|   http://clipyourphotos.com/bulkr    |
+--------------------------------------+

+--------+
|  INFO  |
+--------+
Photographer : windy_
Photo URL    : https://www.flickr.com/photos/acf_windy/4590795041/
License      : Creative Commons (http://creativecommons.org/licenses)
Taken Date   : Mon May 3 12:06:33 GMT+0200 2010
Upload Date  : Sun May 9 09:58:25 GMT+0200 2010
Views        : 66
Comments     : 0


+---------+
|  TITLE  |
+---------+
sheep callanish


+---------------+
|  DESCRIPTION  |
+---------------+
(no description)


+--------+
|  TAGS  |
+--------+
"Olympus E510" Callanish 