+--------------------------------------+
|   Flickr Photo Metadata              |
|   Created by Bulkr on Mar 09, 2016   |
|   http://clipyourphotos.com/bulkr    |
+--------------------------------------+

+--------+
|  INFO  |
+--------+
Photographer : LHOON
Photo URL    : https://www.flickr.com/photos/lhoon/4443683841/
License      : Creative Commons (http://creativecommons.org/licenses)
Taken Date   : Sun Mar 14 15:14:42 GMT+0100 2010
Upload Date  : Fri Mar 19 00:36:44 GMT+0100 2010
Geotag Info  : Latitude:51.391988, Longitude:4.500477
Views        : 221
Comments     : 0


+---------+
|  TITLE  |
+---------+
Sheep


+---------------+
|  DESCRIPTION  |
+---------------+
(no description)


+--------+
|  TAGS  |
+--------+
belgium belgique belgië noorderkempen antwerpen gr5 sheep 