+--------------------------------------+
|   Flickr Photo Metadata              |
|   Created by Bulkr on Mar 09, 2016   |
|   http://clipyourphotos.com/bulkr    |
+--------------------------------------+

+--------+
|  INFO  |
+--------+
Photographer : Elisa ...
Photo URL    : https://www.flickr.com/photos/elisariedel/4194059639/
License      : Creative Commons (http://creativecommons.org/licenses)
Taken Date   : Thu Dec 17 16:16:38 GMT+0100 2009
Upload Date  : Fri Dec 18 09:46:51 GMT+0100 2009
Views        : 335
Comments     : 1


+---------+
|  TITLE  |
+---------+
christmas sheep


+---------------+
|  DESCRIPTION  |
+---------------+
(no description)


+--------+
|  TAGS  |
+--------+
snow sneeuw nature animals schaap schaf sheep 