+--------------------------------------+
|   Flickr Photo Metadata              |
|   Created by Bulkr on Mar 09, 2016   |
|   http://clipyourphotos.com/bulkr    |
+--------------------------------------+

+--------+
|  INFO  |
+--------+
Photographer : tony_the_bald_eagle
Photo URL    : https://www.flickr.com/photos/42371658@N00/2898483314/
License      : Creative Commons (http://creativecommons.org/licenses)
Taken Date   : Mon Sep 29 07:01:20 GMT+0200 2008
Upload Date  : Mon Sep 29 11:23:00 GMT+0200 2008
Views        : 158
Comments     : 0


+---------+
|  TITLE  |
+---------+
NZ sheep


+---------------+
|  DESCRIPTION  |
+---------------+
(no description)


+--------+
|  TAGS  |
+--------+
(no tags)