+--------------------------------------+
|   Flickr Photo Metadata              |
|   Created by Bulkr on Mar 09, 2016   |
|   http://clipyourphotos.com/bulkr    |
+--------------------------------------+

+--------+
|  INFO  |
+--------+
Photographer : James Bird
Photo URL    : https://www.flickr.com/photos/jamesbird/3659238045/
License      : Creative Commons (http://creativecommons.org/licenses)
Taken Date   : Thu Jun 25 10:19:10 GMT+0200 2009
Upload Date  : Thu Jun 25 14:54:48 GMT+0200 2009
Views        : 31
Comments     : 0


+---------+
|  TITLE  |
+---------+
DSC_0071.jpg


+---------------+
|  DESCRIPTION  |
+---------------+
(no description)


+--------+
|  TAGS  |
+--------+
coal clough cliviger burnley overcast windfarm sheep 