+--------------------------------------+
|   Flickr Photo Metadata              |
|   Created by Bulkr on Mar 09, 2016   |
|   http://clipyourphotos.com/bulkr    |
+--------------------------------------+

+--------+
|  INFO  |
+--------+
Photographer : Sebastian Fuss
Photo URL    : https://www.flickr.com/photos/nolanus/10229671316/
License      : Creative Commons (http://creativecommons.org/licenses)
Taken Date   : Sun Jul 25 13:25:10 GMT+0200 2010
Upload Date  : Sat Oct 12 19:40:20 GMT+0200 2013
Views        : 1,116
Comments     : 0


+---------+
|  TITLE  |
+---------+
Look out sheep


+---------------+
|  DESCRIPTION  |
+---------------+
Looks like he/she today has to do the guard post.


+--------+
|  TAGS  |
+--------+
überwachen ausschau gucken hügel hill look out schaf schafe schauen schottland scotland sheep sheeps watch watching weiß white 