+--------------------------------------+
|   Flickr Photo Metadata              |
|   Created by Bulkr on Mar 09, 2016   |
|   http://clipyourphotos.com/bulkr    |
+--------------------------------------+

+--------+
|  INFO  |
+--------+
Photographer : theaucitron
Photo URL    : https://www.flickr.com/photos/theaucitron/5710924239/
License      : Creative Commons (http://creativecommons.org/licenses)
Taken Date   : Sun Apr 17 16:14:30 GMT+0200 2011
Upload Date  : Wed May 11 23:38:41 GMT+0200 2011
Views        : 3,643
Comments     : 0


+---------+
|  TITLE  |
+---------+
Sheep


+---------------+
|  DESCRIPTION  |
+---------------+
(no description)


+--------+
|  TAGS  |
+--------+
sheep 