+--------------------------------------+
|   Flickr Photo Metadata              |
|   Created by Bulkr on Mar 09, 2016   |
|   http://clipyourphotos.com/bulkr    |
+--------------------------------------+

+--------+
|  INFO  |
+--------+
Photographer : allielovestea
Photo URL    : https://www.flickr.com/photos/allielovestea/4255753653/
License      : Creative Commons (http://creativecommons.org/licenses)
Taken Date   : Thu Jan 7 12:13:16 GMT+0100 2010
Upload Date  : Fri Jan 8 11:35:21 GMT+0100 2010
Views        : 128
Comments     : 0


+---------+
|  TITLE  |
+---------+
cold sheep


+---------------+
|  DESCRIPTION  |
+---------------+
(no description)


+--------+
|  TAGS  |
+--------+
snow january2010 uk 