+--------------------------------------+
|   Flickr Photo Metadata              |
|   Created by Bulkr on Mar 09, 2016   |
|   http://clipyourphotos.com/bulkr    |
+--------------------------------------+

+--------+
|  INFO  |
+--------+
Photographer : Shamelessly Hannah
Photo URL    : https://www.flickr.com/photos/hannahk73/4338640123/
License      : Creative Commons (http://creativecommons.org/licenses)
Taken Date   : Sat Feb 6 14:34:04 GMT+0100 2010
Upload Date  : Mon Feb 8 01:24:59 GMT+0100 2010
Views        : 97
Comments     : 0


+---------+
|  TITLE  |
+---------+
Ella


+---------------+
|  DESCRIPTION  |
+---------------+
This was about 2 hours before she lambed.


+--------+
|  TAGS  |
+--------+
Goats ella sheep lamb 