+--------------------------------------+
|   Flickr Photo Metadata              |
|   Created by Bulkr on Mar 09, 2016   |
|   http://clipyourphotos.com/bulkr    |
+--------------------------------------+

+--------+
|  INFO  |
+--------+
Photographer : steve p2008
Photo URL    : https://www.flickr.com/photos/stevepj2009/3258135437/
License      : Creative Commons (http://creativecommons.org/licenses)
Taken Date   : Sat Mar 12 15:58:57 GMT+0100 2005
Upload Date  : Fri Feb 6 21:34:58 GMT+0100 2009
Views        : 167
Comments     : 0


+---------+
|  TITLE  |
+---------+
sheep


+---------------+
|  DESCRIPTION  |
+---------------+
(no description)


+--------+
|  TAGS  |
+--------+
sheep "green and pleasent land" 