+--------------------------------------+
|   Flickr Photo Metadata              |
|   Created by Bulkr on Mar 09, 2016   |
|   http://clipyourphotos.com/bulkr    |
+--------------------------------------+

+--------+
|  INFO  |
+--------+
Photographer : leppre
Photo URL    : https://www.flickr.com/photos/leppre/2460971819/
License      : Creative Commons (http://creativecommons.org/licenses)
Taken Date   : Sat May 3 15:31:24 GMT+0200 2008
Upload Date  : Sat May 3 16:31:24 GMT+0200 2008
Views        : 332
Comments     : 0


+---------+
|  TITLE  |
+---------+
Don't mind me..


+---------------+
|  DESCRIPTION  |
+---------------+
(no description)


+--------+
|  TAGS  |
+--------+
sheep blackbird donegal ireland 