+--------------------------------------+
|   Flickr Photo Metadata              |
|   Created by Bulkr on Mar 09, 2016   |
|   http://clipyourphotos.com/bulkr    |
+--------------------------------------+

+--------+
|  INFO  |
+--------+
Photographer : Clevergrrl
Photo URL    : https://www.flickr.com/photos/clevergrrl/3211278371/
License      : Creative Commons (http://creativecommons.org/licenses)
Taken Date   : Mon Jan 19 13:04:40 GMT+0100 2009
Upload Date  : Tue Jan 20 06:09:30 GMT+0100 2009
Views        : 1,325
Comments     : 0


+---------+
|  TITLE  |
+---------+
Sheep


+---------------+
|  DESCRIPTION  |
+---------------+
Sony dsc


+--------+
|  TAGS  |
+--------+
Canterbury cow calf stable grovetown georgia horses equine goat sheep dogs puppies 