+--------------------------------------+
|   Flickr Photo Metadata              |
|   Created by Bulkr on Mar 09, 2016   |
|   http://clipyourphotos.com/bulkr    |
+--------------------------------------+

+--------+
|  INFO  |
+--------+
Photographer : wiseguy71
Photo URL    : https://www.flickr.com/photos/wiseguy71/4110498087/
License      : Creative Commons (http://creativecommons.org/licenses)
Taken Date   : Sun Nov 15 16:23:28 GMT+0100 2009
Upload Date  : Tue Nov 17 03:43:29 GMT+0100 2009
Views        : 165
Comments     : 0


+---------+
|  TITLE  |
+---------+
Schaf


+---------------+
|  DESCRIPTION  |
+---------------+
(no description)


+--------+
|  TAGS  |
+--------+
Tier Schaf Sheep 