+--------------------------------------+
|   Flickr Photo Metadata              |
|   Created by Bulkr on Mar 09, 2016   |
|   http://clipyourphotos.com/bulkr    |
+--------------------------------------+

+--------+
|  INFO  |
+--------+
Photographer : Sunfox
Photo URL    : https://www.flickr.com/photos/sunfox/4611461258/
License      : Creative Commons (http://creativecommons.org/licenses)
Taken Date   : Thu May 13 11:10:47 GMT+0200 2010
Upload Date  : Sun May 16 12:29:37 GMT+0200 2010
Views        : 369
Comments     : 0


+---------+
|  TITLE  |
+---------+
Itching sheep


+---------------+
|  DESCRIPTION  |
+---------------+
(no description)


+--------+
|  TAGS  |
+--------+
itch sheep animal farm grass green tree 