+--------------------------------------+
|   Flickr Photo Metadata              |
|   Created by Bulkr on Mar 09, 2016   |
|   http://clipyourphotos.com/bulkr    |
+--------------------------------------+

+--------+
|  INFO  |
+--------+
Photographer : photosofdelilah
Photo URL    : https://www.flickr.com/photos/11071684@N02/15294784691/
License      : Creative Commons (http://creativecommons.org/licenses)
Taken Date   : Sat Apr 26 15:05:02 GMT+0200 2014
Upload Date  : Sat Sep 20 16:52:41 GMT+0200 2014
Views        : 256
Comments     : 0


+---------+
|  TITLE  |
+---------+
DSCF9274.jpg


+---------------+
|  DESCRIPTION  |
+---------------+
(no description)


+--------+
|  TAGS  |
+--------+
sheep shearing herding 