+--------------------------------------+
|   Flickr Photo Metadata              |
|   Created by Bulkr on Mar 09, 2016   |
|   http://clipyourphotos.com/bulkr    |
+--------------------------------------+

+--------+
|  INFO  |
+--------+
Photographer : nxo
Photo URL    : https://www.flickr.com/photos/nxo/3201319326/
License      : Creative Commons (http://creativecommons.org/licenses)
Taken Date   : Thu Jan 31 09:34:17 GMT+0100 2008
Upload Date  : Fri Jan 16 10:50:12 GMT+0100 2009
Views        : 54
Comments     : 0


+---------+
|  TITLE  |
+---------+
DSC00159.JPG


+---------------+
|  DESCRIPTION  |
+---------------+
(no description)


+--------+
|  TAGS  |
+--------+
riggerl sheep winter frost misty 