+--------------------------------------+
|   Flickr Photo Metadata              |
|   Created by Bulkr on Mar 09, 2016   |
|   http://clipyourphotos.com/bulkr    |
+--------------------------------------+

+--------+
|  INFO  |
+--------+
Photographer : msmornington
Photo URL    : https://www.flickr.com/photos/msmornington/7991923284/
License      : Creative Commons (http://creativecommons.org/licenses)
Taken Date   : Sat Sep 15 02:25:53 GMT+0200 2012
Upload Date  : Sun Sep 16 16:03:17 GMT+0200 2012
Views        : 304
Comments     : 0


+---------+
|  TITLE  |
+---------+
blackface sheep


+---------------+
|  DESCRIPTION  |
+---------------+
(no description)


+--------+
|  TAGS  |
+--------+
(no tags)