+--------------------------------------+
|   Flickr Photo Metadata              |
|   Created by Bulkr on Mar 09, 2016   |
|   http://clipyourphotos.com/bulkr    |
+--------------------------------------+

+--------+
|  INFO  |
+--------+
Photographer : Rivindu W
Photo URL    : https://www.flickr.com/photos/rivinduw/6279439184/
License      : Creative Commons (http://creativecommons.org/licenses)
Taken Date   : Sun Jan 3 21:59:35 GMT+0100 2010
Upload Date  : Tue Oct 25 09:15:10 GMT+0200 2011
Views        : 55
Comments     : 0


+---------+
|  TITLE  |
+---------+
Sheep


+---------------+
|  DESCRIPTION  |
+---------------+
(no description)


+--------+
|  TAGS  |
+--------+
(no tags)