+--------------------------------------+
|   Flickr Photo Metadata              |
|   Created by Bulkr on Mar 09, 2016   |
|   http://clipyourphotos.com/bulkr    |
+--------------------------------------+

+--------+
|  INFO  |
+--------+
Photographer : nihab
Photo URL    : https://www.flickr.com/photos/nihab/319453925/
License      : Creative Commons (http://creativecommons.org/licenses)
Taken Date   : Mon Dec 11 11:36:42 GMT+0100 2006
Upload Date  : Mon Dec 11 11:36:42 GMT+0100 2006
Views        : 65
Comments     : 0


+---------+
|  TITLE  |
+---------+
Unter Schafen


+---------------+
|  DESCRIPTION  |
+---------------+
(A Close Shave)


+--------+
|  TAGS  |
+--------+
Düsseldorf sheep 