+--------------------------------------+
|   Flickr Photo Metadata              |
|   Created by Bulkr on Mar 09, 2016   |
|   http://clipyourphotos.com/bulkr    |
+--------------------------------------+

+--------+
|  INFO  |
+--------+
Photographer : steve p2008
Photo URL    : https://www.flickr.com/photos/stevepj2009/5142040739/
License      : Creative Commons (http://creativecommons.org/licenses)
Taken Date   : Tue Nov 2 13:07:54 GMT+0100 2010
Upload Date  : Wed Nov 3 11:42:43 GMT+0100 2010
Views        : 173
Comments     : 0


+---------+
|  TITLE  |
+---------+
(no title)


+---------------+
|  DESCRIPTION  |
+---------------+
(no description)


+--------+
|  TAGS  |
+--------+
rural fields sheep 