+--------------------------------------+
|   Flickr Photo Metadata              |
|   Created by Bulkr on Mar 09, 2016   |
|   http://clipyourphotos.com/bulkr    |
+--------------------------------------+

+--------+
|  INFO  |
+--------+
Photographer : Ching Ching Tsui
Photo URL    : https://www.flickr.com/photos/chingchingtsui/16384043746/
License      : Creative Commons (http://creativecommons.org/licenses)
Taken Date   : Sat Oct 15 10:28:36 GMT+0200 2011
Upload Date  : Sat Jan 31 15:21:10 GMT+0100 2015
Views        : 544
Comments     : 0


+---------+
|  TITLE  |
+---------+
Sheep herding @Tibet


+---------------+
|  DESCRIPTION  |
+---------------+
(no description)


+--------+
|  TAGS  |
+--------+
flickrhongkong flickrHKMA 