+--------------------------------------+
|   Flickr Photo Metadata              |
|   Created by Bulkr on Mar 09, 2016   |
|   http://clipyourphotos.com/bulkr    |
+--------------------------------------+

+--------+
|  INFO  |
+--------+
Photographer : paraflyer
Photo URL    : https://www.flickr.com/photos/paraflyer/23229626181/
License      : Creative Commons (http://creativecommons.org/licenses)
Taken Date   : Sat Apr 14 15:59:57 GMT+0200 2007
Upload Date  : Thu Nov 26 02:01:12 GMT+0100 2015
Views        : 61
Comments     : 0


+---------+
|  TITLE  |
+---------+
a moment with sheeps


+---------------+
|  DESCRIPTION  |
+---------------+
(no description)


+--------+
|  TAGS  |
+--------+
Schleswig-Holstein Germany animals "even-toed ungulates" nature sheeps 