+--------------------------------------+
|   Flickr Photo Metadata              |
|   Created by Bulkr on Mar 09, 2016   |
|   http://clipyourphotos.com/bulkr    |
+--------------------------------------+

+--------+
|  INFO  |
+--------+
Photographer : "Stròlic Furlàn" - Davide Gabino
Photo URL    : https://www.flickr.com/photos/strolicfurlan/6410759103/
License      : Creative Commons (http://creativecommons.org/licenses)
Taken Date   : Sat Aug 27 18:58:37 GMT+0200 2011
Upload Date  : Sun Nov 27 12:32:59 GMT+0100 2011
Geotag Info  : Latitude:46.152339, Longitude:13.742179
Views        : 1,582
Comments     : 50


+---------+
|  TITLE  |
+---------+
La Pastorale - Sheeeeeeep


+---------------+
|  DESCRIPTION  |
+---------------+
Peeeeeecoreeeee.
Usciamo dal solito tran tran...
:D
Ciao!
Davide


+--------+
|  TAGS  |
+--------+
Nature animals sheep pecora explore "flickr explore" flickr 