+--------------------------------------+
|   Flickr Photo Metadata              |
|   Created by Bulkr on Mar 09, 2016   |
|   http://clipyourphotos.com/bulkr    |
+--------------------------------------+

+--------+
|  INFO  |
+--------+
Photographer : johan wieland
Photo URL    : https://www.flickr.com/photos/johanwieland/4065229036/
License      : Creative Commons (http://creativecommons.org/licenses)
Taken Date   : Sat Oct 31 14:02:40 GMT+0100 2009
Upload Date  : Sun Nov 1 19:13:38 GMT+0100 2009
Geotag Info  : Latitude:52.251661, Longitude:5.773701
Views        : 207
Comments     : 0


+---------+
|  TITLE  |
+---------+
Schapen bij het Uddelermeer


+---------------+
|  DESCRIPTION  |
+---------------+
waarom zou het beest met zwarte kop geen gele plaatjes aan de oren hebben? (van mij hoeft het ook niet!)


+--------+
|  TAGS  |
+--------+
Uddelermeer sheep schapen 