+--------------------------------------+
|   Flickr Photo Metadata              |
|   Created by Bulkr on Mar 09, 2016   |
|   http://clipyourphotos.com/bulkr    |
+--------------------------------------+

+--------+
|  INFO  |
+--------+
Photographer : Genta Mochizawa
Photo URL    : https://www.flickr.com/photos/foxwalk/8299447409/
License      : Creative Commons (http://creativecommons.org/licenses)
Taken Date   : Mon Mar 26 10:55:24 GMT+0200 2012
Upload Date  : Sun Dec 23 14:53:06 GMT+0100 2012
Views        : 206
Comments     : 0


+---------+
|  TITLE  |
+---------+
P1010945


+---------------+
|  DESCRIPTION  |
+---------------+
(no description)


+--------+
|  TAGS  |
+--------+
sheep 