+--------------------------------------+
|   Flickr Photo Metadata              |
|   Created by Bulkr on Mar 09, 2016   |
|   http://clipyourphotos.com/bulkr    |
+--------------------------------------+

+--------+
|  INFO  |
+--------+
Photographer : Neillwphoto
Photo URL    : https://www.flickr.com/photos/neillwphoto/8361308650/
License      : Creative Commons (http://creativecommons.org/licenses)
Taken Date   : Mon May 28 13:25:29 GMT+0200 2012
Upload Date  : Tue Jan 8 13:05:04 GMT+0100 2013
Views        : 107
Comments     : 0


+---------+
|  TITLE  |
+---------+
Sheep Running


+---------------+
|  DESCRIPTION  |
+---------------+
(no description)


+--------+
|  TAGS  |
+--------+
(no tags)