+--------------------------------------+
|   Flickr Photo Metadata              |
|   Created by Bulkr on Mar 09, 2016   |
|   http://clipyourphotos.com/bulkr    |
+--------------------------------------+

+--------+
|  INFO  |
+--------+
Photographer : Shropshire&TelfordTSB
Photo URL    : https://www.flickr.com/photos/shropshiretelfordtsb/15198094778/
License      : Creative Commons (http://creativecommons.org/licenses)
Taken Date   : Mon Jun 10 20:35:13 GMT+0200 2013
Upload Date  : Sun Sep 28 23:40:08 GMT+0200 2014
Views        : 77
Comments     : 0


+---------+
|  TITLE  |
+---------+
Sheep


+---------------+
|  DESCRIPTION  |
+---------------+
(no description)


+--------+
|  TAGS  |
+--------+
(no tags)