+--------------------------------------+
|   Flickr Photo Metadata              |
|   Created by Bulkr on Mar 09, 2016   |
|   http://clipyourphotos.com/bulkr    |
+--------------------------------------+

+--------+
|  INFO  |
+--------+
Photographer : mrsdkrebs
Photo URL    : https://www.flickr.com/photos/mrsdkrebs/6834332722/
License      : Creative Commons (http://creativecommons.org/licenses)
Taken Date   : Tue Mar 13 17:55:39 GMT+0100 2012
Upload Date  : Tue Mar 13 23:44:44 GMT+0100 2012
Views        : 94
Comments     : 0


+---------+
|  TITLE  |
+---------+
IMG_7927


+---------------+
|  DESCRIPTION  |
+---------------+
(no description)


+--------+
|  TAGS  |
+--------+
sheep ranch lamb 