+--------------------------------------+
|   Flickr Photo Metadata              |
|   Created by Bulkr on Mar 09, 2016   |
|   http://clipyourphotos.com/bulkr    |
+--------------------------------------+

+--------+
|  INFO  |
+--------+
Photographer : Georges Perret
Photo URL    : https://www.flickr.com/photos/georgesjacquaire/11563371964/
License      : Creative Commons (http://creativecommons.org/licenses)
Taken Date   : Tue Aug 9 14:21:02 GMT+0200 2011
Upload Date  : Thu Dec 26 12:50:36 GMT+0100 2013
Views        : 5
Comments     : 0


+---------+
|  TITLE  |
+---------+
2049


+---------------+
|  DESCRIPTION  |
+---------------+
(no description)


+--------+
|  TAGS  |
+--------+
(no tags)