+--------------------------------------+
|   Flickr Photo Metadata              |
|   Created by Bulkr on Mar 09, 2016   |
|   http://clipyourphotos.com/bulkr    |
+--------------------------------------+

+--------+
|  INFO  |
+--------+
Photographer : paulius.malinovskis
Photo URL    : https://www.flickr.com/photos/134741223@N04/21739757721/
License      : Creative Commons (http://creativecommons.org/licenses)
Taken Date   : Sat Jun 6 14:19:28 GMT+0200 2015
Upload Date  : Sat Sep 26 16:45:55 GMT+0200 2015
Views        : 3,238
Comments     : 4


+---------+
|  TITLE  |
+---------+
Sheeps


+---------------+
|  DESCRIPTION  |
+---------------+
(no description)


+--------+
|  TAGS  |
+--------+
sheep models 