+--------------------------------------+
|   Flickr Photo Metadata              |
|   Created by Bulkr on Mar 09, 2016   |
|   http://clipyourphotos.com/bulkr    |
+--------------------------------------+

+--------+
|  INFO  |
+--------+
Photographer : Tim Green aka atoach
Photo URL    : https://www.flickr.com/photos/atoach/8669648398/
License      : Creative Commons (http://creativecommons.org/licenses)
Taken Date   : Sun Apr 21 12:51:40 GMT+0200 2013
Upload Date  : Sun Apr 21 21:12:49 GMT+0200 2013
Views        : 635
Comments     : 4


+---------+
|  TITLE  |
+---------+
Dinner for two


+---------------+
|  DESCRIPTION  |
+---------------+
(no description)


+--------+
|  TAGS  |
+--------+
sheep 