+--------------------------------------+
|   Flickr Photo Metadata              |
|   Created by Bulkr on Mar 09, 2016   |
|   http://clipyourphotos.com/bulkr    |
+--------------------------------------+

+--------+
|  INFO  |
+--------+
Photographer : isamiga76
Photo URL    : https://www.flickr.com/photos/33852840@N06/3564611156/
License      : Creative Commons (http://creativecommons.org/licenses)
Taken Date   : Mon May 25 16:28:14 GMT+0200 2009
Upload Date  : Mon May 25 23:46:32 GMT+0200 2009
Views        : 114
Comments     : 0


+---------+
|  TITLE  |
+---------+
Two Friends


+---------------+
|  DESCRIPTION  |
+---------------+
(no description)


+--------+
|  TAGS  |
+--------+
Sheep Normandy France 