+--------------------------------------+
|   Flickr Photo Metadata              |
|   Created by Bulkr on Mar 09, 2016   |
|   http://clipyourphotos.com/bulkr    |
+--------------------------------------+

+--------+
|  INFO  |
+--------+
Photographer : dyniss
Photo URL    : https://www.flickr.com/photos/dyniss/12738797663/
License      : Creative Commons (http://creativecommons.org/licenses)
Taken Date   : Mon Feb 17 10:08:57 GMT+0100 2014
Upload Date  : Mon Feb 24 06:23:58 GMT+0100 2014
Views        : 281
Comments     : 0


+---------+
|  TITLE  |
+---------+
Sheep Accumulation


+---------------+
|  DESCRIPTION  |
+---------------+
They thought we were going to feed them.


+--------+
|  TAGS  |
+--------+
Scotland sheep white mountains "mountain range" cloudy lichen moss green horns black face rocks boulders overcast 