+--------------------------------------+
|   Flickr Photo Metadata              |
|   Created by Bulkr on Mar 09, 2016   |
|   http://clipyourphotos.com/bulkr    |
+--------------------------------------+

+--------+
|  INFO  |
+--------+
Photographer : bradleygee
Photo URL    : https://www.flickr.com/photos/icanchangethisright/3290198805/
License      : Creative Commons (http://creativecommons.org/licenses)
Taken Date   : Tue Jan 6 09:58:00 GMT+0100 2009
Upload Date  : Wed Feb 18 18:46:31 GMT+0100 2009
Views        : 589
Comments     : 0


+---------+
|  TITLE  |
+---------+
horny sheep


+---------------+
|  DESCRIPTION  |
+---------------+
(no description)


+--------+
|  TAGS  |
+--------+
fun animal window free fake office sheep amarillo texas "thompson park" zoo horn horny assay wool 