+--------------------------------------+
|   Flickr Photo Metadata              |
|   Created by Bulkr on Mar 09, 2016   |
|   http://clipyourphotos.com/bulkr    |
+--------------------------------------+

+--------+
|  INFO  |
+--------+
Photographer : Jamie C2009
Photo URL    : https://www.flickr.com/photos/jamiec2009/11582064645/
License      : Creative Commons (http://creativecommons.org/licenses)
Taken Date   : Fri Dec 27 11:24:54 GMT+0100 2013
Upload Date  : Fri Dec 27 12:26:24 GMT+0100 2013
Views        : 35
Comments     : 0


+---------+
|  TITLE  |
+---------+
Sheep


+---------------+
|  DESCRIPTION  |
+---------------+
(no description)


+--------+
|  TAGS  |
+--------+
(no tags)