+--------------------------------------+
|   Flickr Photo Metadata              |
|   Created by Bulkr on Mar 09, 2016   |
|   http://clipyourphotos.com/bulkr    |
+--------------------------------------+

+--------+
|  INFO  |
+--------+
Photographer : Atli Harðarson
Photo URL    : https://www.flickr.com/photos/atlih/2955612282/
License      : Creative Commons (http://creativecommons.org/licenses)
Taken Date   : Sun Oct 19 14:06:58 GMT+0200 2008
Upload Date  : Sun Oct 19 20:29:34 GMT+0200 2008
Geotag Info  : Latitude:64.340874, Longitude:-22.036170
Views        : 7,822
Comments     : 14


+---------+
|  TITLE  |
+---------+
The black sheep


+---------------+
|  DESCRIPTION  |
+---------------+
(no description)


+--------+
|  TAGS  |
+--------+
sheep Akrafjall Akranes 