+--------------------------------------+
|   Flickr Photo Metadata              |
|   Created by Bulkr on Mar 09, 2016   |
|   http://clipyourphotos.com/bulkr    |
+--------------------------------------+

+--------+
|  INFO  |
+--------+
Photographer : Neillwphoto
Photo URL    : https://www.flickr.com/photos/neillwphoto/8360304893/
License      : Creative Commons (http://creativecommons.org/licenses)
Taken Date   : Mon Jun 18 13:00:40 GMT+0200 2012
Upload Date  : Tue Jan 8 13:32:49 GMT+0100 2013
Views        : 888
Comments     : 0


+---------+
|  TITLE  |
+---------+
Sheep resting


+---------------+
|  DESCRIPTION  |
+---------------+
(no description)


+--------+
|  TAGS  |
+--------+
Sheep 