+--------------------------------------+
|   Flickr Photo Metadata              |
|   Created by Bulkr on Mar 09, 2016   |
|   http://clipyourphotos.com/bulkr    |
+--------------------------------------+

+--------+
|  INFO  |
+--------+
Photographer : Life Lenses
Photo URL    : https://www.flickr.com/photos/bugginout/4347120982/
License      : Creative Commons (http://creativecommons.org/licenses)
Taken Date   : Wed Feb 10 12:15:35 GMT+0100 2010
Upload Date  : Wed Feb 10 21:56:07 GMT+0100 2010
Views        : 1,065
Comments     : 0


+---------+
|  TITLE  |
+---------+
Netherland Light wool cross Sheep


+---------------+
|  DESCRIPTION  |
+---------------+
(no description)


+--------+
|  TAGS  |
+--------+
Sheep 