+--------------------------------------+
|   Flickr Photo Metadata              |
|   Created by Bulkr on Mar 09, 2016   |
|   http://clipyourphotos.com/bulkr    |
+--------------------------------------+

+--------+
|  INFO  |
+--------+
Photographer : louisathomson
Photo URL    : https://www.flickr.com/photos/louisathomson/4034576964/
License      : Creative Commons (http://creativecommons.org/licenses)
Taken Date   : Thu Oct 22 08:42:41 GMT+0200 2009
Upload Date  : Thu Oct 22 12:51:39 GMT+0200 2009
Views        : 79
Comments     : 0


+---------+
|  TITLE  |
+---------+
sheep


+---------------+
|  DESCRIPTION  |
+---------------+
(no description)


+--------+
|  TAGS  |
+--------+
"beck hole" "North Yorkshire Moors" walking hills countryside sheep 