+--------------------------------------+
|   Flickr Photo Metadata              |
|   Created by Bulkr on Mar 09, 2016   |
|   http://clipyourphotos.com/bulkr    |
+--------------------------------------+

+--------+
|  INFO  |
+--------+
Photographer : Jon Olav
Photo URL    : https://www.flickr.com/photos/jonolave/4892984525/
License      : Creative Commons (http://creativecommons.org/licenses)
Taken Date   : Sun Jul 11 14:20:14 GMT+0200 2010
Upload Date  : Sun Aug 15 12:19:36 GMT+0200 2010
Geotag Info  : Latitude:61.829578, Longitude:6.006646
Views        : 193
Comments     : 0


+---------+
|  TITLE  |
+---------+
"What are you looking at?"


+---------------+
|  DESCRIPTION  |
+---------------+
(no description)


+--------+
|  TAGS  |
+--------+
expression sau sauestiren sheep stupid 