+--------------------------------------+
|   Flickr Photo Metadata              |
|   Created by Bulkr on Mar 09, 2016   |
|   http://clipyourphotos.com/bulkr    |
+--------------------------------------+

+--------+
|  INFO  |
+--------+
Photographer : gruetisabelle
Photo URL    : https://www.flickr.com/photos/37067082@N08/5911580287/
License      : Creative Commons (http://creativecommons.org/licenses)
Taken Date   : Tue Jul 5 12:48:48 GMT+0200 2011
Upload Date  : Thu Jul 7 14:15:55 GMT+0200 2011
Views        : 213
Comments     : 0


+---------+
|  TITLE  |
+---------+
2011-07-05 12.48.49


+---------------+
|  DESCRIPTION  |
+---------------+
(no description)


+--------+
|  TAGS  |
+--------+
mouton sheep 