+--------------------------------------+
|   Flickr Photo Metadata              |
|   Created by Bulkr on Mar 09, 2016   |
|   http://clipyourphotos.com/bulkr    |
+--------------------------------------+

+--------+
|  INFO  |
+--------+
Photographer : Just chaos
Photo URL    : https://www.flickr.com/photos/7326810@N08/5058598916/
License      : Creative Commons (http://creativecommons.org/licenses)
Taken Date   : Mon Oct 4 05:19:37 GMT+0200 2010
Upload Date  : Thu Oct 7 01:27:31 GMT+0200 2010
Views        : 241
Comments     : 0


+---------+
|  TITLE  |
+---------+
Shetland Sheep


+---------------+
|  DESCRIPTION  |
+---------------+
(no description)


+--------+
|  TAGS  |
+--------+
(no tags)