+--------------------------------------+
|   Flickr Photo Metadata              |
|   Created by Bulkr on Mar 09, 2016   |
|   http://clipyourphotos.com/bulkr    |
+--------------------------------------+

+--------+
|  INFO  |
+--------+
Photographer : gleepythehen
Photo URL    : https://www.flickr.com/photos/gleepy/7759825104/
License      : Creative Commons (http://creativecommons.org/licenses)
Taken Date   : Thu Aug 9 10:32:57 GMT+0200 2012
Upload Date  : Sat Aug 11 18:58:56 GMT+0200 2012
Views        : 37
Comments     : 0


+---------+
|  TITLE  |
+---------+
dsc_0168


+---------------+
|  DESCRIPTION  |
+---------------+
(no description)


+--------+
|  TAGS  |
+--------+
"erie county fair" sheep 