+--------------------------------------+
|   Flickr Photo Metadata              |
|   Created by Bulkr on Mar 09, 2016   |
|   http://clipyourphotos.com/bulkr    |
+--------------------------------------+

+--------+
|  INFO  |
+--------+
Photographer : j.bohnsack
Photo URL    : https://www.flickr.com/photos/bohnsack/6927730814/
License      : Creative Commons (http://creativecommons.org/licenses)
Taken Date   : Thu Apr 12 16:39:00 GMT+0200 2012
Upload Date  : Fri Apr 13 16:54:36 GMT+0200 2012
Views        : 71
Comments     : 0


+---------+
|  TITLE  |
+---------+
IMG_1367


+---------------+
|  DESCRIPTION  |
+---------------+
(no description)


+--------+
|  TAGS  |
+--------+
sheep lambs 