+--------------------------------------+
|   Flickr Photo Metadata              |
|   Created by Bulkr on Mar 09, 2016   |
|   http://clipyourphotos.com/bulkr    |
+--------------------------------------+

+--------+
|  INFO  |
+--------+
Photographer : Free Flower Photos
Photo URL    : https://www.flickr.com/photos/137445322@N04/23900789640/
License      : Creative Commons (http://creativecommons.org/licenses)
Taken Date   : Tue Jan 5 11:38:39 GMT+0100 2016
Upload Date  : Tue Jan 5 20:52:33 GMT+0100 2016
Views        : 12
Comments     : 0


+---------+
|  TITLE  |
+---------+
sheep


+---------------+
|  DESCRIPTION  |
+---------------+
(no description)


+--------+
|  TAGS  |
+--------+
(no tags)