+--------------------------------------+
|   Flickr Photo Metadata              |
|   Created by Bulkr on Mar 09, 2016   |
|   http://clipyourphotos.com/bulkr    |
+--------------------------------------+

+--------+
|  INFO  |
+--------+
Photographer : sammydavisdog
Photo URL    : https://www.flickr.com/photos/25559122@N06/5579333154/
License      : Creative Commons (http://creativecommons.org/licenses)
Taken Date   : Thu Mar 31 10:51:58 GMT+0200 2011
Upload Date  : Fri Apr 1 12:04:51 GMT+0200 2011
Views        : 89
Comments     : 1


+---------+
|  TITLE  |
+---------+
P3310590


+---------------+
|  DESCRIPTION  |
+---------------+
(no description)


+--------+
|  TAGS  |
+--------+
sheep lambs 