+--------------------------------------+
|   Flickr Photo Metadata              |
|   Created by Bulkr on Mar 09, 2016   |
|   http://clipyourphotos.com/bulkr    |
+--------------------------------------+

+--------+
|  INFO  |
+--------+
Photographer : Fotos_von_Carlos
Photo URL    : https://www.flickr.com/photos/42177787@N04/4744586151/
License      : Creative Commons (http://creativecommons.org/licenses)
Taken Date   : Tue Jun 29 08:32:22 GMT+0200 2010
Upload Date  : Tue Jun 29 08:32:22 GMT+0200 2010
Views        : 286
Comments     : 0


+---------+
|  TITLE  |
+---------+
Hey! Was kuckst du!?!


+---------------+
|  DESCRIPTION  |
+---------------+
(no description)


+--------+
|  TAGS  |
+--------+
schaf sheep portrait grass gras essen eating 