+--------------------------------------+
|   Flickr Photo Metadata              |
|   Created by Bulkr on Mar 09, 2016   |
|   http://clipyourphotos.com/bulkr    |
+--------------------------------------+

+--------+
|  INFO  |
+--------+
Photographer : Georges Perret
Photo URL    : https://www.flickr.com/photos/georgesjacquaire/11544459986/
License      : Creative Commons (http://creativecommons.org/licenses)
Taken Date   : Sun Jun 21 07:57:19 GMT+0200 2009
Upload Date  : Wed Dec 25 10:37:19 GMT+0100 2013
Views        : 10
Comments     : 0


+---------+
|  TITLE  |
+---------+
1782


+---------------+
|  DESCRIPTION  |
+---------------+
(no description)


+--------+
|  TAGS  |
+--------+
(no tags)