+--------------------------------------+
|   Flickr Photo Metadata              |
|   Created by Bulkr on Mar 09, 2016   |
|   http://clipyourphotos.com/bulkr    |
+--------------------------------------+

+--------+
|  INFO  |
+--------+
Photographer : knittymarie
Photo URL    : https://www.flickr.com/photos/knittymarie/16912059779/
License      : Creative Commons (http://creativecommons.org/licenses)
Taken Date   : Sat Apr 17 13:34:29 GMT+0200 2010
Upload Date  : Fri Apr 10 15:05:56 GMT+0200 2015
Views        : 89
Comments     : 0


+---------+
|  TITLE  |
+---------+
Sheep


+---------------+
|  DESCRIPTION  |
+---------------+
(no description)


+--------+
|  TAGS  |
+--------+
"Daegwallyeong Sheep Farm" Gangwon-do Korea Sheep 