+--------------------------------------+
|   Flickr Photo Metadata              |
|   Created by Bulkr on Mar 09, 2016   |
|   http://clipyourphotos.com/bulkr    |
+--------------------------------------+

+--------+
|  INFO  |
+--------+
Photographer : MICOLO J Thanx 4, 2.2 million+ views
Photo URL    : https://www.flickr.com/photos/robin1966/16231139260/
License      : Creative Commons (http://creativecommons.org/licenses)
Taken Date   : Sun Feb 1 20:51:34 GMT+0100 2015
Upload Date  : Sun Feb 1 15:13:08 GMT+0100 2015
Views        : 7,556
Comments     : 2


+---------+
|  TITLE  |
+---------+
Muddy feet sheep


+---------------+
|  DESCRIPTION  |
+---------------+
(no description)


+--------+
|  TAGS  |
+--------+
sheep 