+--------------------------------------+
|   Flickr Photo Metadata              |
|   Created by Bulkr on Apr 14, 2016   |
|   http://clipyourphotos.com/bulkr    |
+--------------------------------------+

+--------+
|  INFO  |
+--------+
Photographer : Martijn.Munneke
Photo URL    : https://www.flickr.com/photos/martijnmunneke/6558959135/
License      : Creative Commons (http://creativecommons.org/licenses)
Taken Date   : Mon Dec 19 07:13:48 GMT+0100 2011
Upload Date  : Fri Dec 23 13:54:26 GMT+0100 2011
Views        : 843
Comments     : 0


+---------+
|  TITLE  |
+---------+
Zebra


+---------------+
|  DESCRIPTION  |
+---------------+
(no description)


+--------+
|  TAGS  |
+--------+
botswana okovango delta zebras milking drinking 