+--------------------------------------+
|   Flickr Photo Metadata              |
|   Created by Bulkr on Apr 14, 2016   |
|   http://clipyourphotos.com/bulkr    |
+--------------------------------------+

+--------+
|  INFO  |
+--------+
Photographer : chidorian
Photo URL    : https://www.flickr.com/photos/chidorian/51717584/
License      : Creative Commons (http://creativecommons.org/licenses)
Taken Date   : Sat Oct 8 14:37:06 GMT+0200 2005
Upload Date  : Wed Oct 12 02:58:23 GMT+0200 2005
Views        : 725
Comments     : 0


+---------+
|  TITLE  |
+---------+
Zebra


+---------------+
|  DESCRIPTION  |
+---------------+
(no description)


+--------+
|  TAGS  |
+--------+
zebra animal zoo tamazoo fakelomo lomoize 