+--------------------------------------+
|   Flickr Photo Metadata              |
|   Created by Bulkr on Apr 14, 2016   |
|   http://clipyourphotos.com/bulkr    |
+--------------------------------------+

+--------+
|  INFO  |
+--------+
Photographer : DekkaTen
Photo URL    : https://www.flickr.com/photos/dekka10/5525312714/
License      : Creative Commons (http://creativecommons.org/licenses)
Taken Date   : Sun Aug 1 12:16:17 GMT+0200 2010
Upload Date  : Mon Mar 14 05:10:33 GMT+0100 2011
Views        : 231
Comments     : 0


+---------+
|  TITLE  |
+---------+
P1100354


+---------------+
|  DESCRIPTION  |
+---------------+
(no description)


+--------+
|  TAGS  |
+--------+
zebra head close up stripes zoo 