+--------------------------------------+
|   Flickr Photo Metadata              |
|   Created by Bulkr on Apr 14, 2016   |
|   http://clipyourphotos.com/bulkr    |
+--------------------------------------+

+--------+
|  INFO  |
+--------+
Photographer : angela n.
Photo URL    : https://www.flickr.com/photos/aon/4677023182/
License      : Creative Commons (http://creativecommons.org/licenses)
Taken Date   : Sat Jun 5 10:16:04 GMT+0200 2010
Upload Date  : Mon Jun 7 02:25:10 GMT+0200 2010
Views        : 223
Comments     : 0


+---------+
|  TITLE  |
+---------+
National Zoo


+---------------+
|  DESCRIPTION  |
+---------------+
Well-endowed Zebra


+--------+
|  TAGS  |
+--------+
zebra fb 