+--------------------------------------+
|   Flickr Photo Metadata              |
|   Created by Bulkr on Apr 14, 2016   |
|   http://clipyourphotos.com/bulkr    |
+--------------------------------------+

+--------+
|  INFO  |
+--------+
Photographer : Thumbling
Photo URL    : https://www.flickr.com/photos/thumbling/92410043/
License      : Creative Commons (http://creativecommons.org/licenses)
Taken Date   : Thu Jan 19 11:21:49 GMT+0100 2006
Upload Date  : Sun Jan 29 04:20:56 GMT+0100 2006
Views        : 117
Comments     : 0


+---------+
|  TITLE  |
+---------+
P1020338


+---------------+
|  DESCRIPTION  |
+---------------+
(no description)


+--------+
|  TAGS  |
+--------+
kenya safari amboseli zebra 