+--------------------------------------+
|   Flickr Photo Metadata              |
|   Created by Bulkr on Apr 14, 2016   |
|   http://clipyourphotos.com/bulkr    |
+--------------------------------------+

+--------+
|  INFO  |
+--------+
Photographer : whatleydude
Photo URL    : https://www.flickr.com/photos/whatleydude/3712901711/
License      : Creative Commons (http://creativecommons.org/licenses)
Taken Date   : Wed Jul 8 09:19:52 GMT+0200 2009
Upload Date  : Wed Jul 8 11:19:52 GMT+0200 2009
Views        : 190
Comments     : 0


+---------+
|  TITLE  |
+---------+
Zebras in Damaraland


+---------------+
|  DESCRIPTION  |
+---------------+
(no description)


+--------+
|  TAGS  |
+--------+
namibia safari sandboarding "serra cafeme" "Hartmann Valley" lucozade lucozadechallenge challenge1 damaraland 