+--------------------------------------+
|   Flickr Photo Metadata              |
|   Created by Bulkr on Apr 14, 2016   |
|   http://clipyourphotos.com/bulkr    |
+--------------------------------------+

+--------+
|  INFO  |
+--------+
Photographer : RunHikeTravel
Photo URL    : https://www.flickr.com/photos/wanderkarm/8335807292/
License      : Creative Commons (http://creativecommons.org/licenses)
Taken Date   : Tue Nov 13 12:19:47 GMT+0100 2012
Upload Date  : Wed Jan 2 00:44:13 GMT+0100 2013
Views        : 22
Comments     : 0


+---------+
|  TITLE  |
+---------+
Ngorongoro Crater Zebra 1


+---------------+
|  DESCRIPTION  |
+---------------+
(no description)


+--------+
|  TAGS  |
+--------+
(no tags)