+--------------------------------------+
|   Flickr Photo Metadata              |
|   Created by Bulkr on Apr 14, 2016   |
|   http://clipyourphotos.com/bulkr    |
+--------------------------------------+

+--------+
|  INFO  |
+--------+
Photographer : samsaundersleeds
Photo URL    : https://www.flickr.com/photos/samsaunders/14958656779/
License      : Creative Commons (http://creativecommons.org/licenses)
Taken Date   : Thu Sep 4 18:06:26 GMT+0200 2014
Upload Date  : Fri Sep 5 10:38:45 GMT+0200 2014
Views        : 128
Comments     : 0


+---------+
|  TITLE  |
+---------+
Zebra Bottoms


+---------------+
|  DESCRIPTION  |
+---------------+
(no description)


+--------+
|  TAGS  |
+--------+
Bristol Zebra "Wild Place" 