+--------------------------------------+
|   Flickr Photo Metadata              |
|   Created by Bulkr on Apr 14, 2016   |
|   http://clipyourphotos.com/bulkr    |
+--------------------------------------+

+--------+
|  INFO  |
+--------+
Photographer : Dr. Warner
Photo URL    : https://www.flickr.com/photos/rwwmd/2240788653/
License      : Creative Commons (http://creativecommons.org/licenses)
Taken Date   : Tue Jan 1 00:00:02 GMT+0100 1980
Upload Date  : Mon Feb 4 08:42:06 GMT+0100 2008
Views        : 335
Comments     : 0


+---------+
|  TITLE  |
+---------+
IMG_3688


+---------------+
|  DESCRIPTION  |
+---------------+
(no description)


+--------+
|  TAGS  |
+--------+
africa safari animal desert zebra african 