+--------------------------------------+
|   Flickr Photo Metadata              |
|   Created by Bulkr on Apr 14, 2016   |
|   http://clipyourphotos.com/bulkr    |
+--------------------------------------+

+--------+
|  INFO  |
+--------+
Photographer : aecole2010
Photo URL    : https://www.flickr.com/photos/aecole/8254883117/
License      : Creative Commons (http://creativecommons.org/licenses)
Taken Date   : Tue Nov 20 07:36:34 GMT+0100 2012
Upload Date  : Sat Dec 8 22:03:53 GMT+0100 2012
Views        : 93
Comments     : 0


+---------+
|  TITLE  |
+---------+
zebra with oxpecker


+---------------+
|  DESCRIPTION  |
+---------------+
(no description)


+--------+
|  TAGS  |
+--------+
(no tags)