+--------------------------------------+
|   Flickr Photo Metadata              |
|   Created by Bulkr on Apr 14, 2016   |
|   http://clipyourphotos.com/bulkr    |
+--------------------------------------+

+--------+
|  INFO  |
+--------+
Photographer : Andrew Currie
Photo URL    : https://www.flickr.com/photos/andrewcurrie/6196171899/
License      : Creative Commons (http://creativecommons.org/licenses)
Taken Date   : Mon Sep 19 10:13:05 GMT+0200 2011
Upload Date  : Fri Sep 30 02:15:57 GMT+0200 2011
Views        : 83
Comments     : 0


+---------+
|  TITLE  |
+---------+
Zebra Noms


+---------------+
|  DESCRIPTION  |
+---------------+
(no description)


+--------+
|  TAGS  |
+--------+
(no tags)