+--------------------------------------+
|   Flickr Photo Metadata              |
|   Created by Bulkr on Apr 14, 2016   |
|   http://clipyourphotos.com/bulkr    |
+--------------------------------------+

+--------+
|  INFO  |
+--------+
Photographer : A_of_DooM
Photo URL    : https://www.flickr.com/photos/a_of_doom/1717465611/
License      : Creative Commons (http://creativecommons.org/licenses)
Taken Date   : Mon Sep 3 08:16:01 GMT+0200 2007
Upload Date  : Wed Oct 24 02:10:33 GMT+0200 2007
Views        : 51
Comments     : 0


+---------+
|  TITLE  |
+---------+
stripey


+---------------+
|  DESCRIPTION  |
+---------------+
(no description)


+--------+
|  TAGS  |
+--------+
zebra stripey world travelling adventure singapore 