+--------------------------------------+
|   Flickr Photo Metadata              |
|   Created by Bulkr on Apr 14, 2016   |
|   http://clipyourphotos.com/bulkr    |
+--------------------------------------+

+--------+
|  INFO  |
+--------+
Photographer : blieusong
Photo URL    : https://www.flickr.com/photos/blieusong/7234368932/
License      : Creative Commons (http://creativecommons.org/licenses)
Taken Date   : Wed Feb 1 08:31:57 GMT+0100 2012
Upload Date  : Sun May 20 17:58:29 GMT+0200 2012
Views        : 1,881
Comments     : 0


+---------+
|  TITLE  |
+---------+
IMG_8712.jpg


+---------------+
|  DESCRIPTION  |
+---------------+
(no description)


+--------+
|  TAGS  |
+--------+
Amboseli Kenya safari zebra 