+--------------------------------------+
|   Flickr Photo Metadata              |
|   Created by Bulkr on Apr 14, 2016   |
|   http://clipyourphotos.com/bulkr    |
+--------------------------------------+

+--------+
|  INFO  |
+--------+
Photographer : whatleydude
Photo URL    : https://www.flickr.com/photos/whatleydude/3706492501/
License      : Creative Commons (http://creativecommons.org/licenses)
Taken Date   : Tue Jul 7 13:52:46 GMT+0200 2009
Upload Date  : Tue Jul 7 15:52:46 GMT+0200 2009
Views        : 151
Comments     : 0


+---------+
|  TITLE  |
+---------+
Damaraland: Zebra


+---------------+
|  DESCRIPTION  |
+---------------+
(no description)


+--------+
|  TAGS  |
+--------+
lucozade lucozadechallenge challenge1 damaraland safari wild namibia 