+--------------------------------------+
|   Flickr Photo Metadata              |
|   Created by Bulkr on Apr 14, 2016   |
|   http://clipyourphotos.com/bulkr    |
+--------------------------------------+

+--------+
|  INFO  |
+--------+
Photographer : shizhao
Photo URL    : https://www.flickr.com/photos/shizhao/458868430/
License      : Creative Commons (http://creativecommons.org/licenses)
Taken Date   : Sun Apr 8 17:53:58 GMT+0200 2007
Upload Date  : Sat Apr 14 18:59:16 GMT+0200 2007
Views        : 142
Comments     : 0


+---------+
|  TITLE  |
+---------+
2007北京海洋馆 024


+---------------+
|  DESCRIPTION  |
+---------------+
(no description)


+--------+
|  TAGS  |
+--------+
china beijing zoo 2007 zebra 