+--------------------------------------+
|   Flickr Photo Metadata              |
|   Created by Bulkr on Apr 14, 2016   |
|   http://clipyourphotos.com/bulkr    |
+--------------------------------------+

+--------+
|  INFO  |
+--------+
Photographer : RORSCHACH23
Photo URL    : https://www.flickr.com/photos/kristenfulara/3620681731/
License      : Creative Commons (http://creativecommons.org/licenses)
Taken Date   : Sat Jul 7 04:29:32 GMT+0200 2007
Upload Date  : Sat Jun 13 07:00:18 GMT+0200 2009
Views        : 119
Comments     : 0


+---------+
|  TITLE  |
+---------+
Ouch


+---------------+
|  DESCRIPTION  |
+---------------+
(no description)


+--------+
|  TAGS  |
+--------+
zebra equine zoo plains 