+--------------------------------------+
|   Flickr Photo Metadata              |
|   Created by Bulkr on Apr 14, 2016   |
|   http://clipyourphotos.com/bulkr    |
+--------------------------------------+

+--------+
|  INFO  |
+--------+
Photographer : Shiraz Chakera
Photo URL    : https://www.flickr.com/photos/shirazc/6215550534/
License      : Creative Commons (http://creativecommons.org/licenses)
Taken Date   : Wed Sep 14 17:27:37 GMT+0200 2011
Upload Date  : Wed Oct 5 23:03:21 GMT+0200 2011
Views        : 56
Comments     : 0


+---------+
|  TITLE  |
+---------+
Zebras


+---------------+
|  DESCRIPTION  |
+---------------+
(no description)


+--------+
|  TAGS  |
+--------+
(no tags)