+--------------------------------------+
|   Flickr Photo Metadata              |
|   Created by Bulkr on Apr 14, 2016   |
|   http://clipyourphotos.com/bulkr    |
+--------------------------------------+

+--------+
|  INFO  |
+--------+
Photographer : calibansfolly
Photo URL    : https://www.flickr.com/photos/7275169@N03/3609384314/
License      : Creative Commons (http://creativecommons.org/licenses)
Taken Date   : Thu May 28 05:42:36 GMT+0200 2009
Upload Date  : Tue Jun 9 02:37:52 GMT+0200 2009
Views        : 68
Comments     : 0


+---------+
|  TITLE  |
+---------+
zebra


+---------------+
|  DESCRIPTION  |
+---------------+
(no description)


+--------+
|  TAGS  |
+--------+
etosha 