+--------------------------------------+
|   Flickr Photo Metadata              |
|   Created by Bulkr on Apr 14, 2016   |
|   http://clipyourphotos.com/bulkr    |
+--------------------------------------+

+--------+
|  INFO  |
+--------+
Photographer : NinaZed
Photo URL    : https://www.flickr.com/photos/ninazed/4229610309/
License      : Creative Commons (http://creativecommons.org/licenses)
Taken Date   : Wed Dec 30 20:00:57 GMT+0100 2009
Upload Date  : Thu Dec 31 05:00:57 GMT+0100 2009
Views        : 2,286
Comments     : 0


+---------+
|  TITLE  |
+---------+
zebra


+---------------+
|  DESCRIPTION  |
+---------------+
(no description)


+--------+
|  TAGS  |
+--------+
zebra 