+--------------------------------------+
|   Flickr Photo Metadata              |
|   Created by Bulkr on Apr 14, 2016   |
|   http://clipyourphotos.com/bulkr    |
+--------------------------------------+

+--------+
|  INFO  |
+--------+
Photographer : Lorraine R
Photo URL    : https://www.flickr.com/photos/ddloz/1014417387/
License      : Creative Commons (http://creativecommons.org/licenses)
Taken Date   : Sun Apr 23 07:56:50 GMT+0200 2006
Upload Date  : Mon Dec 18 01:57:29 GMT+0100 2006
Views        : 13
Comments     : 0


+---------+
|  TITLE  |
+---------+
vfz06 - Zebra


+---------------+
|  DESCRIPTION  |
+---------------+
(no description)


+--------+
|  TAGS  |
+--------+
(no tags)