+--------------------------------------+
|   Flickr Photo Metadata              |
|   Created by Bulkr on Apr 14, 2016   |
|   http://clipyourphotos.com/bulkr    |
+--------------------------------------+

+--------+
|  INFO  |
+--------+
Photographer : amitp
Photo URL    : https://www.flickr.com/photos/amitp/12243301484/
License      : Creative Commons (http://creativecommons.org/licenses)
Taken Date   : Sun Jan 5 16:14:25 GMT+0100 2014
Upload Date  : Sat Feb 1 00:52:47 GMT+0100 2014
Views        : 697
Comments     : 0


+---------+
|  TITLE  |
+---------+
Smile!


+---------------+
|  DESCRIPTION  |
+---------------+
(no description)


+--------+
|  TAGS  |
+--------+
creatures safariwest zebra e-m1 