+--------------------------------------+
|   Flickr Photo Metadata              |
|   Created by Bulkr on Apr 14, 2016   |
|   http://clipyourphotos.com/bulkr    |
+--------------------------------------+

+--------+
|  INFO  |
+--------+
Photographer : stefanie says
Photo URL    : https://www.flickr.com/photos/stefaniesays/2553867940/
License      : Creative Commons (http://creativecommons.org/licenses)
Taken Date   : Sun Jun 1 13:32:45 GMT+0200 2008
Upload Date  : Thu Jun 5 16:34:39 GMT+0200 2008
Views        : 345
Comments     : 0


+---------+
|  TITLE  |
+---------+
zebra down


+---------------+
|  DESCRIPTION  |
+---------------+
(no description)


+--------+
|  TAGS  |
+--------+
brookfieldzoo zebra 