+--------------------------------------+
|   Flickr Photo Metadata              |
|   Created by Bulkr on Apr 14, 2016   |
|   http://clipyourphotos.com/bulkr    |
+--------------------------------------+

+--------+
|  INFO  |
+--------+
Photographer : Murky1
Photo URL    : https://www.flickr.com/photos/mvjaf/353166741/
License      : Creative Commons (http://creativecommons.org/licenses)
Taken Date   : Sat Dec 16 08:40:01 GMT+0100 2006
Upload Date  : Wed Jan 10 23:20:39 GMT+0100 2007
Views        : 171
Comments     : 0


+---------+
|  TITLE  |
+---------+
zebra


+---------------+
|  DESCRIPTION  |
+---------------+
(no description)


+--------+
|  TAGS  |
+--------+
Tanzania "Saadani Game Reserve" Saadani 