+--------------------------------------+
|   Flickr Photo Metadata              |
|   Created by Bulkr on Apr 14, 2016   |
|   http://clipyourphotos.com/bulkr    |
+--------------------------------------+

+--------+
|  INFO  |
+--------+
Photographer : samurai_dave
Photo URL    : https://www.flickr.com/photos/88657298@N00/6871553656/
License      : Creative Commons (http://creativecommons.org/licenses)
Taken Date   : Mon Feb 27 23:10:46 GMT+0100 2012
Upload Date  : Mon Mar 26 16:18:02 GMT+0200 2012
Views        : 91
Comments     : 0


+---------+
|  TITLE  |
+---------+
P2270543


+---------------+
|  DESCRIPTION  |
+---------------+
(no description)


+--------+
|  TAGS  |
+--------+
Tanzania safari Serengeti zebra 