+--------------------------------------+
|   Flickr Photo Metadata              |
|   Created by Bulkr on Apr 14, 2016   |
|   http://clipyourphotos.com/bulkr    |
+--------------------------------------+

+--------+
|  INFO  |
+--------+
Photographer : Pirate_nms (Nathan Smith Photography)
Photo URL    : https://www.flickr.com/photos/40450182@N04/7669268306/
License      : Creative Commons (http://creativecommons.org/licenses)
Taken Date   : Tue Mar 6 23:33:48 GMT+0100 2012
Upload Date  : Sun Jul 29 17:48:19 GMT+0200 2012
Views        : 6
Comments     : 0


+---------+
|  TITLE  |
+---------+
_DSC3188


+---------------+
|  DESCRIPTION  |
+---------------+
Zebra


+--------+
|  TAGS  |
+--------+
(no tags)