+--------------------------------------+
|   Flickr Photo Metadata              |
|   Created by Bulkr on Apr 14, 2016   |
|   http://clipyourphotos.com/bulkr    |
+--------------------------------------+

+--------+
|  INFO  |
+--------+
Photographer : theducks
Photo URL    : https://www.flickr.com/photos/theducks/2234044853/
License      : Creative Commons (http://creativecommons.org/licenses)
Taken Date   : Wed Jun 16 11:45:58 GMT+0200 2004
Upload Date  : Fri Feb 1 14:30:01 GMT+0100 2008
Views        : 58
Comments     : 0


+---------+
|  TITLE  |
+---------+
IMG_4258.jpg


+---------------+
|  DESCRIPTION  |
+---------------+
(no description)


+--------+
|  TAGS  |
+--------+
zebra melbourne australia zoo 