+--------------------------------------+
|   Flickr Photo Metadata              |
|   Created by Bulkr on Apr 14, 2016   |
|   http://clipyourphotos.com/bulkr    |
+--------------------------------------+

+--------+
|  INFO  |
+--------+
Photographer : thedeadparrot
Photo URL    : https://www.flickr.com/photos/thedeadparrot/6137863145/
License      : Creative Commons (http://creativecommons.org/licenses)
Taken Date   : Sat Sep 10 10:49:14 GMT+0200 2011
Upload Date  : Mon Sep 12 01:25:29 GMT+0200 2011
Views        : 57
Comments     : 0


+---------+
|  TITLE  |
+---------+
zebra


+---------------+
|  DESCRIPTION  |
+---------------+
(no description)


+--------+
|  TAGS  |
+--------+
franklin park zoo 