+--------------------------------------+
|   Flickr Photo Metadata              |
|   Created by Bulkr on Apr 14, 2016   |
|   http://clipyourphotos.com/bulkr    |
+--------------------------------------+

+--------+
|  INFO  |
+--------+
Photographer : Wojtek Szkutnik
Photo URL    : https://www.flickr.com/photos/wojtekszkutnik/7387824950/
License      : Creative Commons (http://creativecommons.org/licenses)
Taken Date   : Sun Jun 17 16:44:19 GMT+0200 2012
Upload Date  : Sun Jun 17 19:46:21 GMT+0200 2012
Views        : 474
Comments     : 0


+---------+
|  TITLE  |
+---------+
Zebra


+---------------+
|  DESCRIPTION  |
+---------------+
(no description)


+--------+
|  TAGS  |
+--------+
zebra zoo krakow animals 