+--------------------------------------+
|   Flickr Photo Metadata              |
|   Created by Bulkr on Apr 14, 2016   |
|   http://clipyourphotos.com/bulkr    |
+--------------------------------------+

+--------+
|  INFO  |
+--------+
Photographer : sociate
Photo URL    : https://www.flickr.com/photos/sociate/3110173522/
License      : Creative Commons (http://creativecommons.org/licenses)
Taken Date   : Sun Nov 30 01:43:52 GMT+0100 2008
Upload Date  : Mon Dec 15 08:40:51 GMT+0100 2008
Views        : 376
Comments     : 0


+---------+
|  TITLE  |
+---------+
Zebras


+---------------+
|  DESCRIPTION  |
+---------------+
(no description)


+--------+
|  TAGS  |
+--------+
tanzania ngorongoro zebras 