+--------------------------------------+
|   Flickr Photo Metadata              |
|   Created by Bulkr on Apr 14, 2016   |
|   http://clipyourphotos.com/bulkr    |
+--------------------------------------+

+--------+
|  INFO  |
+--------+
Photographer : egvvnd
Photo URL    : https://www.flickr.com/photos/ericvv/3596711079/
License      : Creative Commons (http://creativecommons.org/licenses)
Taken Date   : Thu Jun 4 15:31:37 GMT+0200 2009
Upload Date  : Fri Jun 5 08:18:46 GMT+0200 2009
Views        : 22
Comments     : 0


+---------+
|  TITLE  |
+---------+
Zebra 2


+---------------+
|  DESCRIPTION  |
+---------------+
(no description)


+--------+
|  TAGS  |
+--------+
Brookfield Zoo Chicago Illinois 