+--------------------------------------+
|   Flickr Photo Metadata              |
|   Created by Bulkr on Apr 14, 2016   |
|   http://clipyourphotos.com/bulkr    |
+--------------------------------------+

+--------+
|  INFO  |
+--------+
Photographer : verdi85
Photo URL    : https://www.flickr.com/photos/verdi85/8414885294/
License      : Creative Commons (http://creativecommons.org/licenses)
Taken Date   : Mon Aug 9 16:51:03 GMT+0200 2010
Upload Date  : Fri Jan 25 19:40:15 GMT+0100 2013
Views        : 84
Comments     : 0


+---------+
|  TITLE  |
+---------+
DSC_1641


+---------------+
|  DESCRIPTION  |
+---------------+
(no description)


+--------+
|  TAGS  |
+--------+
Uganda 2010 Africa Kampala Nature Afkrika zebra Equus Afrika 