+--------------------------------------+
|   Flickr Photo Metadata              |
|   Created by Bulkr on Apr 14, 2016   |
|   http://clipyourphotos.com/bulkr    |
+--------------------------------------+

+--------+
|  INFO  |
+--------+
Photographer : roycoert
Photo URL    : https://www.flickr.com/photos/rbcoert/5891080567/
License      : Creative Commons (http://creativecommons.org/licenses)
Taken Date   : Fri Aug 27 11:07:16 GMT+0200 2010
Upload Date  : Fri Jul 1 19:54:00 GMT+0200 2011
Views        : 8
Comments     : 0


+---------+
|  TITLE  |
+---------+
Zebras


+---------------+
|  DESCRIPTION  |
+---------------+
(no description)


+--------+
|  TAGS  |
+--------+
(no tags)