+--------------------------------------+
|   Flickr Photo Metadata              |
|   Created by Bulkr on Apr 14, 2016   |
|   http://clipyourphotos.com/bulkr    |
+--------------------------------------+

+--------+
|  INFO  |
+--------+
Photographer : msafari2425
Photo URL    : https://www.flickr.com/photos/msafari/6017112739/
License      : Creative Commons (http://creativecommons.org/licenses)
Taken Date   : Sat Jul 9 01:11:50 GMT+0200 2011
Upload Date  : Sun Aug 7 13:25:30 GMT+0200 2011
Views        : 146
Comments     : 0


+---------+
|  TITLE  |
+---------+
Zebra


+---------------+
|  DESCRIPTION  |
+---------------+
(no description)


+--------+
|  TAGS  |
+--------+
Safari Kenya 