+--------------------------------------+
|   Flickr Photo Metadata              |
|   Created by Bulkr on Apr 14, 2016   |
|   http://clipyourphotos.com/bulkr    |
+--------------------------------------+

+--------+
|  INFO  |
+--------+
Photographer : Kris Abildgaard
Photo URL    : https://www.flickr.com/photos/kris92soccer/6090458230/
License      : Creative Commons (http://creativecommons.org/licenses)
Taken Date   : Sun Aug 28 14:36:58 GMT+0200 2011
Upload Date  : Sun Aug 28 22:37:08 GMT+0200 2011
Views        : 75
Comments     : 0


+---------+
|  TITLE  |
+---------+
Zebra


+---------------+
|  DESCRIPTION  |
+---------------+
(no description)


+--------+
|  TAGS  |
+--------+
(no tags)