+--------------------------------------+
|   Flickr Photo Metadata              |
|   Created by Bulkr on Apr 14, 2016   |
|   http://clipyourphotos.com/bulkr    |
+--------------------------------------+

+--------+
|  INFO  |
+--------+
Photographer : msdeegan
Photo URL    : https://www.flickr.com/photos/msdi/14605043342/
License      : Creative Commons (http://creativecommons.org/licenses)
Taken Date   : Sun Jul 6 15:15:57 GMT+0200 2014
Upload Date  : Tue Jul 8 18:15:40 GMT+0200 2014
Views        : 56
Comments     : 0


+---------+
|  TITLE  |
+---------+
Zebra


+---------------+
|  DESCRIPTION  |
+---------------+
(no description)


+--------+
|  TAGS  |
+--------+
(no tags)