+--------------------------------------+
|   Flickr Photo Metadata              |
|   Created by Bulkr on Apr 14, 2016   |
|   http://clipyourphotos.com/bulkr    |
+--------------------------------------+

+--------+
|  INFO  |
+--------+
Photographer : Angie Dixon
Photo URL    : https://www.flickr.com/photos/angiedixon/3547685920/
License      : Creative Commons (http://creativecommons.org/licenses)
Taken Date   : Sat May 12 12:50:44 GMT+0200 2007
Upload Date  : Wed May 20 03:38:16 GMT+0200 2009
Views        : 59
Comments     : 0


+---------+
|  TITLE  |
+---------+
Zebra II


+---------------+
|  DESCRIPTION  |
+---------------+
(no description)


+--------+
|  TAGS  |
+--------+
(no tags)