+--------------------------------------+
|   Flickr Photo Metadata              |
|   Created by Bulkr on Feb 02, 2016   |
|   http://clipyourphotos.com/bulkr    |
+--------------------------------------+

+--------+
|  INFO  |
+--------+
Photographer : Dmitry Smalyuk
Photo URL    : https://www.flickr.com/photos/smalukmitya/6968281795/
License      : Creative Commons (http://creativecommons.org/licenses)
Taken Date   : Sat Mar 10 04:39:54 GMT+0100 2012
Upload Date  : Sat Mar 10 02:54:55 GMT+0100 2012
Views        : 47
Comments     : 0


+---------+
|  TITLE  |
+---------+
(no title)


+---------------+
|  DESCRIPTION  |
+---------------+
(no description)


+--------+
|  TAGS  |
+--------+
BNL 