+--------------------------------------+
|   Flickr Photo Metadata              |
|   Created by Bulkr on Feb 02, 2016   |
|   http://clipyourphotos.com/bulkr    |
+--------------------------------------+

+--------+
|  INFO  |
+--------+
Photographer : Sergio Conti
Photo URL    : https://www.flickr.com/photos/sergioconti/15719149955/
License      : Creative Commons (http://creativecommons.org/licenses)
Taken Date   : Tue Aug 19 13:23:44 GMT+0200 2014
Upload Date  : Wed Nov 5 20:38:35 GMT+0100 2014
Views        : 50
Comments     : 0


+---------+
|  TITLE  |
+---------+
P1000535


+---------------+
|  DESCRIPTION  |
+---------------+
(no description)


+--------+
|  TAGS  |
+--------+
20140819 Africa animali Gnu Namibia Springbok vacanze 