+--------------------------------------+
|   Flickr Photo Metadata              |
|   Created by Bulkr on Feb 02, 2016   |
|   http://clipyourphotos.com/bulkr    |
+--------------------------------------+

+--------+
|  INFO  |
+--------+
Photographer : diditstart
Photo URL    : https://www.flickr.com/photos/rbcoert/5890900751/
License      : Creative Commons (http://creativecommons.org/licenses)
Taken Date   : Thu Aug 26 17:07:30 GMT+0200 2010
Upload Date  : Fri Jul 1 18:46:20 GMT+0200 2011
Views        : 74
Comments     : 0


+---------+
|  TITLE  |
+---------+
Gazelle


+---------------+
|  DESCRIPTION  |
+---------------+
(no description)


+--------+
|  TAGS  |
+--------+
(no tags)