+--------------------------------------+
|   Flickr Photo Metadata              |
|   Created by Bulkr on Feb 02, 2016   |
|   http://clipyourphotos.com/bulkr    |
+--------------------------------------+

+--------+
|  INFO  |
+--------+
Photographer : zwennie
Photo URL    : https://www.flickr.com/photos/zwennie/7184347149/
License      : Creative Commons (http://creativecommons.org/licenses)
Taken Date   : Sun May 20 14:28:37 GMT+0200 2012
Upload Date  : Sun May 20 14:28:37 GMT+0200 2012
Views        : 61
Comments     : 0


+---------+
|  TITLE  |
+---------+
Antilopen


+---------------+
|  DESCRIPTION  |
+---------------+
Im Zoo Leipzig


+--------+
|  TAGS  |
+--------+
Antilope Deutschland Frühjahr Frühling Leipzig Nachmittags Sachsen Sonne Zoo sonnig sunny 