+--------------------------------------+
|   Flickr Photo Metadata              |
|   Created by Bulkr on Feb 02, 2016   |
|   http://clipyourphotos.com/bulkr    |
+--------------------------------------+

+--------+
|  INFO  |
+--------+
Photographer : hottholler
Photo URL    : https://www.flickr.com/photos/hottholler/23280242823/
License      : Creative Commons (http://creativecommons.org/licenses)
Taken Date   : Tue Oct 6 09:25:24 GMT+0200 2015
Upload Date  : Tue Dec 22 14:25:55 GMT+0100 2015
Views        : 26
Comments     : 0


+---------+
|  TITLE  |
+---------+
(no title)


+---------------+
|  DESCRIPTION  |
+---------------+
(no description)


+--------+
|  TAGS  |
+--------+
(no tags)