+--------------------------------------+
|   Flickr Photo Metadata              |
|   Created by Bulkr on Feb 02, 2016   |
|   http://clipyourphotos.com/bulkr    |
+--------------------------------------+

+--------+
|  INFO  |
+--------+
Photographer : Fwiffo
Photo URL    : https://www.flickr.com/photos/fwiffo/5191226716/
License      : Creative Commons (http://creativecommons.org/licenses)
Taken Date   : Sat Mar 13 15:20:54 GMT+0100 2010
Upload Date  : Sat Nov 20 03:39:56 GMT+0100 2010
Views        : 10
Comments     : 0


+---------+
|  TITLE  |
+---------+
DSC_0315


+---------------+
|  DESCRIPTION  |
+---------------+
(no description)


+--------+
|  TAGS  |
+--------+
africa 