+--------------------------------------+
|   Flickr Photo Metadata              |
|   Created by Bulkr on Feb 02, 2016   |
|   http://clipyourphotos.com/bulkr    |
+--------------------------------------+

+--------+
|  INFO  |
+--------+
Photographer : sam_churchill
Photo URL    : https://www.flickr.com/photos/samchurchill/7884762956/
License      : Creative Commons (http://creativecommons.org/licenses)
Taken Date   : Tue Aug 28 04:24:37 GMT+0200 2012
Upload Date  : Wed Aug 29 04:55:19 GMT+0200 2012
Views        : 64
Comments     : 0


+---------+
|  TITLE  |
+---------+
DSC01065a


+---------------+
|  DESCRIPTION  |
+---------------+
(no description)


+--------+
|  TAGS  |
+--------+
(no tags)