+--------------------------------------+
|   Flickr Photo Metadata              |
|   Created by Bulkr on Feb 02, 2016   |
|   http://clipyourphotos.com/bulkr    |
+--------------------------------------+

+--------+
|  INFO  |
+--------+
Photographer : lifeobject
Photo URL    : https://www.flickr.com/photos/69273163@N04/6447132575/
License      : Creative Commons (http://creativecommons.org/licenses)
Taken Date   : Fri Dec 2 21:26:16 GMT+0100 2011
Upload Date  : Sat Dec 3 16:55:24 GMT+0100 2011
Views        : 28
Comments     : 0


+---------+
|  TITLE  |
+---------+
Cute Deer


+---------------+
|  DESCRIPTION  |
+---------------+
(no description)


+--------+
|  TAGS  |
+--------+
(no tags)