+--------------------------------------+
|   Flickr Photo Metadata              |
|   Created by Bulkr on Feb 02, 2016   |
|   http://clipyourphotos.com/bulkr    |
+--------------------------------------+

+--------+
|  INFO  |
+--------+
Photographer : Stephen.P.Temple
Photo URL    : https://www.flickr.com/photos/122772068@N08/14435512282/
License      : Creative Commons (http://creativecommons.org/licenses)
Taken Date   : Thu Jul 14 15:12:23 GMT+0200 2011
Upload Date  : Mon Jun 16 17:28:23 GMT+0200 2014
Views        : 102
Comments     : 0


+---------+
|  TITLE  |
+---------+
2011-07-14_15-12-23_7D.jpg


+---------------+
|  DESCRIPTION  |
+---------------+
(no description)


+--------+
|  TAGS  |
+--------+
wildlife springbok kenya 