+--------------------------------------+
|   Flickr Photo Metadata              |
|   Created by Bulkr on Feb 02, 2016   |
|   http://clipyourphotos.com/bulkr    |
+--------------------------------------+

+--------+
|  INFO  |
+--------+
Photographer : jabberwock
Photo URL    : https://www.flickr.com/photos/jabberwock/8349602956/
License      : Creative Commons (http://creativecommons.org/licenses)
Taken Date   : Wed Oct 24 05:12:57 GMT+0200 2012
Upload Date  : Sat Jan 5 13:05:04 GMT+0100 2013
Geotag Info  : Latitude:-33.466473, Longitude:26.050472
Views        : 116
Comments     : 0


+---------+
|  TITLE  |
+---------+
IMG_9986


+---------------+
|  DESCRIPTION  |
+---------------+
(no description)


+--------+
|  TAGS  |
+--------+
Africa Shamwari Antelope 