+--------------------------------------+
|   Flickr Photo Metadata              |
|   Created by Bulkr on Feb 02, 2016   |
|   http://clipyourphotos.com/bulkr    |
+--------------------------------------+

+--------+
|  INFO  |
+--------+
Photographer : nijaba
Photo URL    : https://www.flickr.com/photos/nbarcet/5485211276/
License      : Creative Commons (http://creativecommons.org/licenses)
Taken Date   : Wed Feb 23 09:15:50 GMT+0100 2011
Upload Date  : Mon Feb 28 09:25:02 GMT+0100 2011
Views        : 45
Comments     : 0


+---------+
|  TITLE  |
+---------+
IMG_6811


+---------------+
|  DESCRIPTION  |
+---------------+
(no description)


+--------+
|  TAGS  |
+--------+
SA ZA SouthAfrica safari animal wild wilderness nature antilope antelope 