+--------------------------------------+
|   Flickr Photo Metadata              |
|   Created by Bulkr on Feb 02, 2016   |
|   http://clipyourphotos.com/bulkr    |
+--------------------------------------+

+--------+
|  INFO  |
+--------+
Photographer : siamesepuppy
Photo URL    : https://www.flickr.com/photos/siamesepuppy/7925709864/
License      : Creative Commons (http://creativecommons.org/licenses)
Taken Date   : Sat Jul 2 12:24:38 GMT+0200 2011
Upload Date  : Tue Sep 4 02:01:34 GMT+0200 2012
Views        : 55
Comments     : 0


+---------+
|  TITLE  |
+---------+
IMG_1349


+---------------+
|  DESCRIPTION  |
+---------------+
(no description)


+--------+
|  TAGS  |
+--------+
(no tags)