+--------------------------------------+
|   Flickr Photo Metadata              |
|   Created by Bulkr on Feb 02, 2016   |
|   http://clipyourphotos.com/bulkr    |
+--------------------------------------+

+--------+
|  INFO  |
+--------+
Photographer : mazinkaizer01
Photo URL    : https://www.flickr.com/photos/126678102@N08/15051583557/
License      : Creative Commons (http://creativecommons.org/licenses)
Taken Date   : Wed Jan 1 00:16:36 GMT+0100 2014
Upload Date  : Sun Sep 14 20:14:41 GMT+0200 2014
Views        : 15
Comments     : 0


+---------+
|  TITLE  |
+---------+
DSCF1450


+---------------+
|  DESCRIPTION  |
+---------------+
(no description)


+--------+
|  TAGS  |
+--------+
(no tags)