+--------------------------------------+
|   Flickr Photo Metadata              |
|   Created by Bulkr on Apr 13, 2016   |
|   http://clipyourphotos.com/bulkr    |
+--------------------------------------+

+--------+
|  INFO  |
+--------+
Photographer : simply.jessi
Photo URL    : https://www.flickr.com/photos/simplyjessi/6326125362/
License      : Creative Commons (http://creativecommons.org/licenses)
Taken Date   : Fri Jan 2 22:46:28 GMT+0100 2009
Upload Date  : Tue Nov 8 15:57:30 GMT+0100 2011
Views        : 51
Comments     : 0


+---------+
|  TITLE  |
+---------+
IMG_2935


+---------------+
|  DESCRIPTION  |
+---------------+
(no description)


+--------+
|  TAGS  |
+--------+
ferrets ferret weasels weasel dook 