+--------------------------------------+
|   Flickr Photo Metadata              |
|   Created by Bulkr on Feb 09, 2016   |
|   http://clipyourphotos.com/bulkr    |
+--------------------------------------+

+--------+
|  INFO  |
+--------+
Photographer : Kekka
Photo URL    : https://www.flickr.com/photos/kekka/225399253/
License      : Creative Commons (http://creativecommons.org/licenses)
Taken Date   : Wed Apr 27 19:04:16 GMT+0200 2005
Upload Date  : Sat Aug 26 20:49:18 GMT+0200 2006
Views        : 654
Comments     : 3


+---------+
|  TITLE  |
+---------+
Looking out the windows


+---------------+
|  DESCRIPTION  |
+---------------+
(no description)


+--------+
|  TAGS  |
+--------+
cat persian colourpoint 