+--------------------------------------+
|   Flickr Photo Metadata              |
|   Created by Bulkr on Feb 09, 2016   |
|   http://clipyourphotos.com/bulkr    |
+--------------------------------------+

+--------+
|  INFO  |
+--------+
Photographer : andreboeni
Photo URL    : https://www.flickr.com/photos/andreboeni/16338261818/
License      : Creative Commons (http://creativecommons.org/licenses)
Taken Date   : Fri Feb 13 15:16:44 GMT+0100 2015
Upload Date  : Sat Feb 14 11:39:46 GMT+0100 2015
Views        : 59
Comments     : 0


+---------+
|  TITLE  |
+---------+
Ouzo the Persian Cat


+---------------+
|  DESCRIPTION  |
+---------------+
Born 1991


+--------+
|  TAGS  |
+--------+
(no tags)