+--------------------------------------+
|   Flickr Photo Metadata              |
|   Created by Bulkr on Feb 09, 2016   |
|   http://clipyourphotos.com/bulkr    |
+--------------------------------------+

+--------+
|  INFO  |
+--------+
Photographer : | El Caganer - Over 6 Million views!
Photo URL    : https://www.flickr.com/photos/seat850/3342280528/
License      : Creative Commons (http://creativecommons.org/licenses)
Taken Date   : Mon Mar 9 12:21:26 GMT+0100 2009
Upload Date  : Mon Mar 9 20:21:26 GMT+0100 2009
Views        : 244
Comments     : 0


+---------+
|  TITLE  |
+---------+
Beastie the puff ball


+---------------+
|  DESCRIPTION  |
+---------------+
(no description)


+--------+
|  TAGS  |
+--------+
persian cat kitten 