+--------------------------------------+
|   Flickr Photo Metadata              |
|   Created by Bulkr on Feb 09, 2016   |
|   http://clipyourphotos.com/bulkr    |
+--------------------------------------+

+--------+
|  INFO  |
+--------+
Photographer : khanb1
Photo URL    : https://www.flickr.com/photos/albaraa/5813004445/
License      : Creative Commons (http://creativecommons.org/licenses)
Taken Date   : Tue Jun 7 18:51:28 GMT+0200 2011
Upload Date  : Thu Jun 9 01:31:53 GMT+0200 2011
Geotag Info  : Latitude:39.080532, Longitude:-77.061474
Views        : 1,062
Comments     : 0


+---------+
|  TITLE  |
+---------+
Cutie our other Persian Cat


+---------------+
|  DESCRIPTION  |
+---------------+
Follow me on twitter <a href="http://www.twitter.com/khanb1" rel="nofollow">@khanb1</a>
&quot;LIKE&quot; me on <a href="http://www.facebook.com/belal.marketing" rel="nofollow">Facebook</a>
Visit my blog: <a href="http://www.leechon.com" rel="nofollow">Leechon</a>


+--------+
|  TAGS  |
+--------+
persian cat pet "pets nature neighborhood home" 