+--------------------------------------+
|   Flickr Photo Metadata              |
|   Created by Bulkr on Feb 09, 2016   |
|   http://clipyourphotos.com/bulkr    |
+--------------------------------------+

+--------+
|  INFO  |
+--------+
Photographer : Kyle.MJA
Photo URL    : https://www.flickr.com/photos/124935955@N06/14337431874/
License      : Creative Commons (http://creativecommons.org/licenses)
Taken Date   : Fri May 23 20:57:48 GMT+0200 2014
Upload Date  : Tue Jun 3 17:39:13 GMT+0200 2014
Views        : 203
Comments     : 0


+---------+
|  TITLE  |
+---------+
DSC_0004


+---------------+
|  DESCRIPTION  |
+---------------+
(no description)


+--------+
|  TAGS  |
+--------+
"Blurred Background" Bokeh Cat "Effect #" Grey "Persian Cat" 