+--------------------------------------+
|   Flickr Photo Metadata              |
|   Created by Bulkr on Feb 09, 2016   |
|   http://clipyourphotos.com/bulkr    |
+--------------------------------------+

+--------+
|  INFO  |
+--------+
Photographer : khanb1
Photo URL    : https://www.flickr.com/photos/albaraa/9558440109/
License      : Creative Commons (http://creativecommons.org/licenses)
Taken Date   : Thu Aug 8 13:42:05 GMT+0200 2013
Upload Date  : Wed Aug 21 06:46:20 GMT+0200 2013
Views        : 623
Comments     : 0


+---------+
|  TITLE  |
+---------+
stop teasing me


+---------------+
|  DESCRIPTION  |
+---------------+
(no description)


+--------+
|  TAGS  |
+--------+
fluffy cat persian cute 