+--------------------------------------+
|   Flickr Photo Metadata              |
|   Created by Bulkr on Feb 09, 2016   |
|   http://clipyourphotos.com/bulkr    |
+--------------------------------------+

+--------+
|  INFO  |
+--------+
Photographer : jhderojas
Photo URL    : https://www.flickr.com/photos/jhderojas/2932875694/
License      : Creative Commons (http://creativecommons.org/licenses)
Taken Date   : Sat Oct 11 15:41:51 GMT+0200 2008
Upload Date  : Sun Oct 12 00:18:47 GMT+0200 2008
Views        : 1,413
Comments     : 0


+---------+
|  TITLE  |
+---------+
El gato rapado


+---------------+
|  DESCRIPTION  |
+---------------+
Madre de dios, parece un gremlin de lo feo que esta


+--------+
|  TAGS  |
+--------+
gato rapado persa 