+--------------------------------------+
|   Flickr Photo Metadata              |
|   Created by Bulkr on Feb 09, 2016   |
|   http://clipyourphotos.com/bulkr    |
+--------------------------------------+

+--------+
|  INFO  |
+--------+
Photographer : Michele C.
Photo URL    : https://www.flickr.com/photos/michelecarlesi/214896713/
License      : Creative Commons (http://creativecommons.org/licenses)
Taken Date   : Sat May 28 00:36:15 GMT+0200 2005
Upload Date  : Mon Aug 14 11:20:11 GMT+0200 2006
Views        : 172
Comments     : 0


+---------+
|  TITLE  |
+---------+
lakamka


+---------------+
|  DESCRIPTION  |
+---------------+
(no description)


+--------+
|  TAGS  |
+--------+
cat gatto persian animal 