+--------------------------------------+
|   Flickr Photo Metadata              |
|   Created by Bulkr on Feb 09, 2016   |
|   http://clipyourphotos.com/bulkr    |
+--------------------------------------+

+--------+
|  INFO  |
+--------+
Photographer : alixanaeuphoria
Photo URL    : https://www.flickr.com/photos/alixanaeuphoria/539148673/
License      : Creative Commons (http://creativecommons.org/licenses)
Taken Date   : Sun Jun 10 00:16:13 GMT+0200 2007
Upload Date  : Sun Jun 10 20:36:01 GMT+0200 2007
Views        : 400
Comments     : 2


+---------+
|  TITLE  |
+---------+
Untitled kitty


+---------------+
|  DESCRIPTION  |
+---------------+
We may call her Dunmer :P But I think she looks like an owl out of a Jim Henson movie.


+--------+
|  TAGS  |
+--------+
kitty cat persian bed-squatter incubus 