+--------------------------------------+
|   Flickr Photo Metadata              |
|   Created by Bulkr on Feb 09, 2016   |
|   http://clipyourphotos.com/bulkr    |
+--------------------------------------+

+--------+
|  INFO  |
+--------+
Photographer : akk_rus
Photo URL    : https://www.flickr.com/photos/akras/2460964917/
License      : Creative Commons (http://creativecommons.org/licenses)
Taken Date   : Sun Apr 6 17:37:33 GMT+0200 2008
Upload Date  : Sat May 3 16:27:54 GMT+0200 2008
Geotag Info  : Latitude:55.645957, Longitude:37.395615
Views        : 1,340
Comments     : 15


+---------+
|  TITLE  |
+---------+
Under an umbrella


+---------------+
|  DESCRIPTION  |
+---------------+
(no description)


+--------+
|  TAGS  |
+--------+
marcellothecat marcello persian pets pet animals кошки кошка коты кот feline chinchilla chats chat cats cat bestofcats 