+--------------------------------------+
|   Flickr Photo Metadata              |
|   Created by Bulkr on Feb 09, 2016   |
|   http://clipyourphotos.com/bulkr    |
+--------------------------------------+

+--------+
|  INFO  |
+--------+
Photographer : akk_rus
Photo URL    : https://www.flickr.com/photos/akras/6291467283/
License      : Creative Commons (http://creativecommons.org/licenses)
Taken Date   : Sat Sep 17 10:41:01 GMT+0200 2011
Upload Date  : Sat Oct 29 17:56:59 GMT+0200 2011
Views        : 2,521
Comments     : 21


+---------+
|  TITLE  |
+---------+
Two cats. Both in flickr


+---------------+
|  DESCRIPTION  |
+---------------+
(no description)


+--------+
|  TAGS  |
+--------+
"50mm f/1.4G" "AF-S NIKKOR 50mm f/1.4G" 50mm f/1.4G NIKKOR Moscow Nikon D80 "Nikon D80" Russia Moskau Moscou Москва Россия Marcello persian cat cats pet pets chat chats animal animals nature feline gato кот коты кошка chinchilla 