+--------------------------------------+
|   Flickr Photo Metadata              |
|   Created by Bulkr on Feb 09, 2016   |
|   http://clipyourphotos.com/bulkr    |
+--------------------------------------+

+--------+
|  INFO  |
+--------+
Photographer : Chris Benseler
Photo URL    : https://www.flickr.com/photos/chrisbenseler/8473865231/
License      : Creative Commons (http://creativecommons.org/licenses)
Taken Date   : Thu Feb 14 19:52:13 GMT+0100 2013
Upload Date  : Fri Feb 15 00:15:58 GMT+0100 2013
Views        : 3,445
Comments     : 5


+---------+
|  TITLE  |
+---------+
Lisa


+---------------+
|  DESCRIPTION  |
+---------------+
(no description)


+--------+
|  TAGS  |
+--------+
cat gato persa persian close nikon 