+--------------------------------------+
|   Flickr Photo Metadata              |
|   Created by Bulkr on Feb 09, 2016   |
|   http://clipyourphotos.com/bulkr    |
+--------------------------------------+

+--------+
|  INFO  |
+--------+
Photographer : Between a Rock
Photo URL    : https://www.flickr.com/photos/44743850@N00/3186822583/
License      : Creative Commons (http://creativecommons.org/licenses)
Taken Date   : Thu Nov 20 20:35:21 GMT+0100 2008
Upload Date  : Sun Jan 11 12:12:55 GMT+0100 2009
Views        : 287
Comments     : 0


+---------+
|  TITLE  |
+---------+
Peswar asleep


+---------------+
|  DESCRIPTION  |
+---------------+
(no description)


+--------+
|  TAGS  |
+--------+
Peswar cat Persian 