+--------------------------------------+
|   Flickr Photo Metadata              |
|   Created by Bulkr on Feb 09, 2016   |
|   http://clipyourphotos.com/bulkr    |
+--------------------------------------+

+--------+
|  INFO  |
+--------+
Photographer : lindsayΔlachance
Photo URL    : https://www.flickr.com/photos/lindsaylachance/4630501251/
License      : Creative Commons (http://creativecommons.org/licenses)
Taken Date   : Sat May 22 20:59:00 GMT+0200 2010
Upload Date  : Sun May 23 05:59:00 GMT+0200 2010
Views        : 1,193
Comments     : 0


+---------+
|  TITLE  |
+---------+
Wtf Cat


+---------------+
|  DESCRIPTION  |
+---------------+
Taken by surprise, apparently


+--------+
|  TAGS  |
+--------+
disposable camera persian cat sleeping bed pillows 