+--------------------------------------+
|   Flickr Photo Metadata              |
|   Created by Bulkr on Feb 09, 2016   |
|   http://clipyourphotos.com/bulkr    |
+--------------------------------------+

+--------+
|  INFO  |
+--------+
Photographer : allenthepostman
Photo URL    : https://www.flickr.com/photos/allenthepostman/2575902538/
License      : Creative Commons (http://creativecommons.org/licenses)
Taken Date   : Fri Jun 13 14:34:06 GMT+0200 2008
Upload Date  : Fri Jun 13 18:17:28 GMT+0200 2008
Views        : 280
Comments     : 0


+---------+
|  TITLE  |
+---------+
watching...


+---------------+
|  DESCRIPTION  |
+---------------+
Scaredy...I`d been teasing him with a long piece of grass...Jun 2008


+--------+
|  TAGS  |
+--------+
cats pets persian "chinchilla persian" animals 