+--------------------------------------+
|   Flickr Photo Metadata              |
|   Created by Bulkr on Feb 09, 2016   |
|   http://clipyourphotos.com/bulkr    |
+--------------------------------------+

+--------+
|  INFO  |
+--------+
Photographer : allenthepostman
Photo URL    : https://www.flickr.com/photos/allenthepostman/3365326450/
License      : Creative Commons (http://creativecommons.org/licenses)
Taken Date   : Wed Mar 18 10:21:02 GMT+0100 2009
Upload Date  : Wed Mar 18 11:56:04 GMT+0100 2009
Views        : 319
Comments     : 0


+---------+
|  TITLE  |
+---------+
Scaredy


+---------------+
|  DESCRIPTION  |
+---------------+
Mar 2009


+--------+
|  TAGS  |
+--------+
cats pets persian "chinchilla persian" animals 