+--------------------------------------+
|   Flickr Photo Metadata              |
|   Created by Bulkr on Feb 09, 2016   |
|   http://clipyourphotos.com/bulkr    |
+--------------------------------------+

+--------+
|  INFO  |
+--------+
Photographer : fiat luxe
Photo URL    : https://www.flickr.com/photos/fiatluxe/146620844/
License      : Creative Commons (http://creativecommons.org/licenses)
Taken Date   : Sun May 14 19:49:10 GMT+0200 2006
Upload Date  : Mon May 15 04:49:10 GMT+0200 2006
Geotag Info  : Latitude:40.764941, Longitude:-73.994121
Views        : 359
Comments     : 0


+---------+
|  TITLE  |
+---------+
Bath Time


+---------------+
|  DESCRIPTION  |
+---------------+
(no description)


+--------+
|  TAGS  |
+--------+
furburger kitten persian himalayan rebar 