+--------------------------------------+
|   Flickr Photo Metadata              |
|   Created by Bulkr on Feb 09, 2016   |
|   http://clipyourphotos.com/bulkr    |
+--------------------------------------+

+--------+
|  INFO  |
+--------+
Photographer : miamormiamor
Photo URL    : https://www.flickr.com/photos/93174191@N00/482881446/
License      : Creative Commons (http://creativecommons.org/licenses)
Taken Date   : Thu May 3 19:41:24 GMT+0200 2007
Upload Date  : Thu May 3 20:01:03 GMT+0200 2007
Views        : 1,319
Comments     : 10


+---------+
|  TITLE  |
+---------+
(no title)


+---------------+
|  DESCRIPTION  |
+---------------+
(no description)


+--------+
|  TAGS  |
+--------+
persa persian gatos cats pets mascotas kitty kitten Uma d40 