+--------------------------------------+
|   Flickr Photo Metadata              |
|   Created by Bulkr on Feb 09, 2016   |
|   http://clipyourphotos.com/bulkr    |
+--------------------------------------+

+--------+
|  INFO  |
+--------+
Photographer : kitty.green66
Photo URL    : https://www.flickr.com/photos/53887959@N07/4985410748/
License      : Creative Commons (http://creativecommons.org/licenses)
Taken Date   : Thu Apr 1 10:40:32 GMT+0200 2010
Upload Date  : Mon Sep 13 05:07:37 GMT+0200 2010
Views        : 903
Comments     : 0


+---------+
|  TITLE  |
+---------+
Persian Kitten


+---------------+
|  DESCRIPTION  |
+---------------+
(no description)


+--------+
|  TAGS  |
+--------+
(no tags)