+--------------------------------------+
|   Flickr Photo Metadata              |
|   Created by Bulkr on Feb 09, 2016   |
|   http://clipyourphotos.com/bulkr    |
+--------------------------------------+

+--------+
|  INFO  |
+--------+
Photographer : Kekka
Photo URL    : https://www.flickr.com/photos/kekka/225399268/
License      : Creative Commons (http://creativecommons.org/licenses)
Taken Date   : Wed Aug 10 15:50:17 GMT+0200 2005
Upload Date  : Sat Aug 26 20:49:20 GMT+0200 2006
Views        : 464
Comments     : 0


+---------+
|  TITLE  |
+---------+
In the window


+---------------+
|  DESCRIPTION  |
+---------------+
(no description)


+--------+
|  TAGS  |
+--------+
cat persian colourpoint 