+--------------------------------------+
|   Flickr Photo Metadata              |
|   Created by Bulkr on Feb 09, 2016   |
|   http://clipyourphotos.com/bulkr    |
+--------------------------------------+

+--------+
|  INFO  |
+--------+
Photographer : | El Caganer - Over 6 Million views!
Photo URL    : https://www.flickr.com/photos/seat850/3342375532/
License      : Creative Commons (http://creativecommons.org/licenses)
Taken Date   : Mon Mar 9 12:54:39 GMT+0100 2009
Upload Date  : Mon Mar 9 21:00:16 GMT+0100 2009
Views        : 276
Comments     : 0


+---------+
|  TITLE  |
+---------+
Not a bad spot.


+---------------+
|  DESCRIPTION  |
+---------------+
(no description)


+--------+
|  TAGS  |
+--------+
cat kitten bicolor persian 