+--------------------------------------+
|   Flickr Photo Metadata              |
|   Created by Bulkr on Feb 09, 2016   |
|   http://clipyourphotos.com/bulkr    |
+--------------------------------------+

+--------+
|  INFO  |
+--------+
Photographer : Tedece
Photo URL    : https://www.flickr.com/photos/tedece/7294036838/
License      : Creative Commons (http://creativecommons.org/licenses)
Taken Date   : Tue May 29 13:10:11 GMT+0200 2012
Upload Date  : Tue May 29 13:10:11 GMT+0200 2012
Geotag Info  : Latitude:44.039887, Longitude:4.898132
Views        : 131
Comments     : 0


+---------+
|  TITLE  |
+---------+
#cat #persian


+---------------+
|  DESCRIPTION  |
+---------------+
(no description)


+--------+
|  TAGS  |
+--------+
"instagram app" square "square format" iphoneography uploaded:by=instagram Rise foursquare:venue=4d6f41fb0d996dcb38a9b38e 