+--------------------------------------+
|   Flickr Photo Metadata              |
|   Created by Bulkr on Feb 09, 2016   |
|   http://clipyourphotos.com/bulkr    |
+--------------------------------------+

+--------+
|  INFO  |
+--------+
Photographer : pinkiwinkitinki
Photo URL    : https://www.flickr.com/photos/55638925@N00/146883909/
License      : Creative Commons (http://creativecommons.org/licenses)
Taken Date   : Tue Apr 11 07:36:46 GMT+0200 2006
Upload Date  : Mon May 15 15:28:37 GMT+0200 2006
Views        : 739
Comments     : 2


+---------+
|  TITLE  |
+---------+
mimetic


+---------------+
|  DESCRIPTION  |
+---------------+
(no description)


+--------+
|  TAGS  |
+--------+
cats persian orchidea plant animal cat sniff smell annusare gatto pianta orchid I LOVE NATURE 