+--------------------------------------+
|   Flickr Photo Metadata              |
|   Created by Bulkr on Feb 09, 2016   |
|   http://clipyourphotos.com/bulkr    |
+--------------------------------------+

+--------+
|  INFO  |
+--------+
Photographer : Kyle.MJA
Photo URL    : https://www.flickr.com/photos/124935955@N06/14251371484/
License      : Creative Commons (http://creativecommons.org/licenses)
Taken Date   : Sun May 4 09:55:47 GMT+0200 2014
Upload Date  : Fri May 23 16:55:54 GMT+0200 2014
Views        : 395
Comments     : 0


+---------+
|  TITLE  |
+---------+
DSC_0023


+---------------+
|  DESCRIPTION  |
+---------------+
(no description)


+--------+
|  TAGS  |
+--------+
"Blurred Background" Bokeh Cat "Effect #" Grey "Persian Cat" 