+--------------------------------------+
|   Flickr Photo Metadata              |
|   Created by Bulkr on Feb 09, 2016   |
|   http://clipyourphotos.com/bulkr    |
+--------------------------------------+

+--------+
|  INFO  |
+--------+
Photographer : jikatu
Photo URL    : https://www.flickr.com/photos/jikatu/3911853474/
License      : Creative Commons (http://creativecommons.org/licenses)
Taken Date   : Fri Sep 11 11:42:54 GMT+0200 2009
Upload Date  : Sat Sep 12 08:41:31 GMT+0200 2009
Views        : 152
Comments     : 0


+---------+
|  TITLE  |
+---------+
IMG_4960


+---------------+
|  DESCRIPTION  |
+---------------+
(no description)


+--------+
|  TAGS  |
+--------+
cat canon canon5dmkII Turkish Ottoman turco istambul estambul Osmanlıca Osmanlı Türkçes Arabic Persian jikatu baikovicius 