+--------------------------------------+
|   Flickr Photo Metadata              |
|   Created by Bulkr on Feb 09, 2016   |
|   http://clipyourphotos.com/bulkr    |
+--------------------------------------+

+--------+
|  INFO  |
+--------+
Photographer : akk_rus
Photo URL    : https://www.flickr.com/photos/akras/2329059798/
License      : Creative Commons (http://creativecommons.org/licenses)
Taken Date   : Sun Mar 9 11:11:06 GMT+0100 2008
Upload Date  : Wed Mar 12 14:05:11 GMT+0100 2008
Views        : 496
Comments     : 7


+---------+
|  TITLE  |
+---------+
Sleeping Marcello


+---------------+
|  DESCRIPTION  |
+---------------+
(no description)


+--------+
|  TAGS  |
+--------+
Marcello silver persian cat cats pet pets chat chats animal animals nature feline Sony dsc-h9 dsc h9 