+--------------------------------------+
|   Flickr Photo Metadata              |
|   Created by Bulkr on Feb 09, 2016   |
|   http://clipyourphotos.com/bulkr    |
+--------------------------------------+

+--------+
|  INFO  |
+--------+
Photographer : kirichkov
Photo URL    : https://www.flickr.com/photos/kirichkov/4992443973/
License      : Creative Commons (http://creativecommons.org/licenses)
Taken Date   : Sat May 8 08:56:38 GMT+0200 2010
Upload Date  : Wed Sep 15 14:26:23 GMT+0200 2010
Views        : 510
Comments     : 1


+---------+
|  TITLE  |
+---------+
Don't touch me - I'm angry


+---------------+
|  DESCRIPTION  |
+---------------+
(no description)


+--------+
|  TAGS  |
+--------+
cats "persian cat" 