+--------------------------------------+
|   Flickr Photo Metadata              |
|   Created by Bulkr on Feb 09, 2016   |
|   http://clipyourphotos.com/bulkr    |
+--------------------------------------+

+--------+
|  INFO  |
+--------+
Photographer : Haseo
Photo URL    : https://www.flickr.com/photos/m_power/10641703065/
License      : Creative Commons (http://creativecommons.org/licenses)
Taken Date   : Sat Nov 2 22:35:32 GMT+0100 2013
Upload Date  : Sun Nov 3 10:12:42 GMT+0100 2013
Views        : 481
Comments     : 0


+---------+
|  TITLE  |
+---------+
my kitten


+---------------+
|  DESCRIPTION  |
+---------------+
Hello. 
I upload after a long time. 
Thank you :)

Contax Distagon 1.4/35 f1.4 &amp; SONY NEX-5N


+--------+
|  TAGS  |
+--------+
Persian ChinchillaSilves contax distagon nex nex-5n 猫 ネコ ペルシャ チンチラ チンチラシルバー 