+--------------------------------------+
|   Flickr Photo Metadata              |
|   Created by Bulkr on Feb 09, 2016   |
|   http://clipyourphotos.com/bulkr    |
+--------------------------------------+

+--------+
|  INFO  |
+--------+
Photographer : akk_rus
Photo URL    : https://www.flickr.com/photos/akras/6058126837/
License      : Creative Commons (http://creativecommons.org/licenses)
Taken Date   : Sun Jun 5 10:35:30 GMT+0200 2011
Upload Date  : Fri Aug 19 10:46:03 GMT+0200 2011
Views        : 1,571
Comments     : 23


+---------+
|  TITLE  |
+---------+
Serious guy


+---------------+
|  DESCRIPTION  |
+---------------+
(no description)


+--------+
|  TAGS  |
+--------+
"50mm f/1.4G" "AF-S NIKKOR 50mm f/1.4G" 50mm f/1.4G NIKKOR Marcello persian cat cats pet pets chat chats animal animals nature feline gato кот коты кошка chinchilla Moscow Nikon D80 "Nikon D80" Russia Moskau Moscou Москва Россия 