+--------------------------------------+
|   Flickr Photo Metadata              |
|   Created by Bulkr on Feb 09, 2016   |
|   http://clipyourphotos.com/bulkr    |
+--------------------------------------+

+--------+
|  INFO  |
+--------+
Photographer : akk_rus
Photo URL    : https://www.flickr.com/photos/akras/3489640904/
License      : Creative Commons (http://creativecommons.org/licenses)
Taken Date   : Mon Apr 13 20:23:42 GMT+0200 2009
Upload Date  : Thu Apr 30 21:40:32 GMT+0200 2009
Views        : 1,333
Comments     : 40


+---------+
|  TITLE  |
+---------+
DSC_1529


+---------------+
|  DESCRIPTION  |
+---------------+
(no description)


+--------+
|  TAGS  |
+--------+
"Nikon D80" Nikon D80 pet pets animal cat cats Marcello persian chat chats animals nature feline gato кот коты кошка platinumphoto SOE BEJ kissablekat 