+--------------------------------------+
|   Flickr Photo Metadata              |
|   Created by Bulkr on Feb 09, 2016   |
|   http://clipyourphotos.com/bulkr    |
+--------------------------------------+

+--------+
|  INFO  |
+--------+
Photographer : gunman47
Photo URL    : https://www.flickr.com/photos/gunman47/8346362760/
License      : Creative Commons (http://creativecommons.org/licenses)
Taken Date   : Mon Dec 17 13:29:43 GMT+0100 2012
Upload Date  : Fri Jan 4 16:07:22 GMT+0100 2013
Geotag Info  : Latitude:25.107500, Longitude:121.830333
Views        : 918
Comments     : 0


+---------+
|  TITLE  |
+---------+
Shy looking superstar Persian Cat


+---------------+
|  DESCRIPTION  |
+---------------+
(no description)


+--------+
|  TAGS  |
+--------+
Cats Houtong Cat Village Pingxi Line Station superstar Persian shy looking cute 猴硐 侯硐 貓村 猫村 瑞芳 貓 猫 猫咪 貓咪 台灣 台湾 