+--------------------------------------+
|   Flickr Photo Metadata              |
|   Created by Bulkr on Feb 09, 2016   |
|   http://clipyourphotos.com/bulkr    |
+--------------------------------------+

+--------+
|  INFO  |
+--------+
Photographer : Radarsmum67
Photo URL    : https://www.flickr.com/photos/radarsmum67/13919923028/
License      : Creative Commons (http://creativecommons.org/licenses)
Taken Date   : Sun Apr 27 16:50:48 GMT+0200 2014
Upload Date  : Sun May 4 20:24:34 GMT+0200 2014
Views        : 1,035
Comments     : 9


+---------+
|  TITLE  |
+---------+
Beans, Prince & Rupert


+---------------+
|  DESCRIPTION  |
+---------------+
(no description)


+--------+
|  TAGS  |
+--------+
cats rupert beans prince mygarden persian 