+--------------------------------------+
|   Flickr Photo Metadata              |
|   Created by Bulkr on Feb 09, 2016   |
|   http://clipyourphotos.com/bulkr    |
+--------------------------------------+

+--------+
|  INFO  |
+--------+
Photographer : pinkiwinkitinki
Photo URL    : https://www.flickr.com/photos/55638925@N00/1366827196/
License      : Creative Commons (http://creativecommons.org/licenses)
Taken Date   : Fri Aug 31 22:32:55 GMT+0200 2007
Upload Date  : Wed Sep 12 17:31:53 GMT+0200 2007
Views        : 1,138
Comments     : 7


+---------+
|  TITLE  |
+---------+
miss suki


+---------------+
|  DESCRIPTION  |
+---------------+
(no description)


+--------+
|  TAGS  |
+--------+
suki gatto persiano white cat persian feline domestic 