+--------------------------------------+
|   Flickr Photo Metadata              |
|   Created by Bulkr on Feb 09, 2016   |
|   http://clipyourphotos.com/bulkr    |
+--------------------------------------+

+--------+
|  INFO  |
+--------+
Photographer : kitty.green66
Photo URL    : https://www.flickr.com/photos/53887959@N07/4985433074/
License      : Creative Commons (http://creativecommons.org/licenses)
Taken Date   : Mon Jun 21 10:34:01 GMT+0200 2010
Upload Date  : Mon Sep 13 05:14:33 GMT+0200 2010
Views        : 5,065
Comments     : 0


+---------+
|  TITLE  |
+---------+
Persian cat


+---------------+
|  DESCRIPTION  |
+---------------+
(no description)


+--------+
|  TAGS  |
+--------+
(no tags)