+--------------------------------------+
|   Flickr Photo Metadata              |
|   Created by Bulkr on Feb 09, 2016   |
|   http://clipyourphotos.com/bulkr    |
+--------------------------------------+

+--------+
|  INFO  |
+--------+
Photographer : anglerp1
Photo URL    : https://www.flickr.com/photos/anglerp/463597366/
License      : Creative Commons (http://creativecommons.org/licenses)
Taken Date   : Wed Apr 18 15:24:19 GMT+0200 2007
Upload Date  : Wed Apr 18 05:32:58 GMT+0200 2007
Views        : 424
Comments     : 0


+---------+
|  TITLE  |
+---------+
Jackson Persian


+---------------+
|  DESCRIPTION  |
+---------------+
. Lion Clip.. Jackson has come in many times for brush and baths , this was his first shave and he did wonderful.


+--------+
|  TAGS  |
+--------+
more dogs pet cat groomed 