+--------------------------------------+
|   Flickr Photo Metadata              |
|   Created by Bulkr on Feb 09, 2016   |
|   http://clipyourphotos.com/bulkr    |
+--------------------------------------+

+--------+
|  INFO  |
+--------+
Photographer : andreboeni
Photo URL    : https://www.flickr.com/photos/andreboeni/15905785093/
License      : Creative Commons (http://creativecommons.org/licenses)
Taken Date   : Fri Feb 13 15:16:35 GMT+0100 2015
Upload Date  : Sat Feb 14 11:39:47 GMT+0100 2015
Views        : 44
Comments     : 0


+---------+
|  TITLE  |
+---------+
Dollar the Persian cat


+---------------+
|  DESCRIPTION  |
+---------------+
Born 1989


+--------+
|  TAGS  |
+--------+
(no tags)