+--------------------------------------+
|   Flickr Photo Metadata              |
|   Created by Bulkr on Feb 09, 2016   |
|   http://clipyourphotos.com/bulkr    |
+--------------------------------------+

+--------+
|  INFO  |
+--------+
Photographer : lurch1980
Photo URL    : https://www.flickr.com/photos/omgitslurch/3891178448/
License      : Creative Commons (http://creativecommons.org/licenses)
Taken Date   : Sat Sep 5 16:54:08 GMT+0200 2009
Upload Date  : Sun Sep 6 00:28:12 GMT+0200 2009
Views        : 349
Comments     : 0


+---------+
|  TITLE  |
+---------+
IMG_0045


+---------------+
|  DESCRIPTION  |
+---------------+
(no description)


+--------+
|  TAGS  |
+--------+
2 cats snuggling british shorthair persian exotic cat kitten asleep sleeping 