+--------------------------------------+
|   Flickr Photo Metadata              |
|   Created by Bulkr on Feb 09, 2016   |
|   http://clipyourphotos.com/bulkr    |
+--------------------------------------+

+--------+
|  INFO  |
+--------+
Photographer : phunkstarr
Photo URL    : https://www.flickr.com/photos/jonmelsa/2975717606/
License      : Creative Commons (http://creativecommons.org/licenses)
Taken Date   : Sun Oct 26 12:55:58 GMT+0100 2008
Upload Date  : Sun Oct 26 20:41:19 GMT+0100 2008
Views        : 490
Comments     : 0


+---------+
|  TITLE  |
+---------+
Complaint


+---------------+
|  DESCRIPTION  |
+---------------+
&quot;I would like, by this expression on my face, to register a formal complaint about the fact that I was not included in the meal on a more involved basis.&quot;


+--------+
|  TAGS  |
+--------+
silver shaded persian cat cute 