+--------------------------------------+
|   Flickr Photo Metadata              |
|   Created by Bulkr on Feb 09, 2016   |
|   http://clipyourphotos.com/bulkr    |
+--------------------------------------+

+--------+
|  INFO  |
+--------+
Photographer : kirichkov
Photo URL    : https://www.flickr.com/photos/kirichkov/4992444449/
License      : Creative Commons (http://creativecommons.org/licenses)
Taken Date   : Sat May 8 08:58:27 GMT+0200 2010
Upload Date  : Wed Sep 15 14:26:38 GMT+0200 2010
Views        : 243
Comments     : 0


+---------+
|  TITLE  |
+---------+
I wish I could hit you with that, Mr. Photographer!


+---------------+
|  DESCRIPTION  |
+---------------+
(no description)


+--------+
|  TAGS  |
+--------+
cats "persian cat" 