+--------------------------------------+
|   Flickr Photo Metadata              |
|   Created by Bulkr on Feb 09, 2016   |
|   http://clipyourphotos.com/bulkr    |
+--------------------------------------+

+--------+
|  INFO  |
+--------+
Photographer : kirichkov
Photo URL    : https://www.flickr.com/photos/kirichkov/7134650877/
License      : Creative Commons (http://creativecommons.org/licenses)
Taken Date   : Sun Apr 29 19:18:33 GMT+0200 2012
Upload Date  : Wed May 2 08:26:49 GMT+0200 2012
Views        : 176
Comments     : 0


+---------+
|  TITLE  |
+---------+
Sun in her hair


+---------------+
|  DESCRIPTION  |
+---------------+
(no description)


+--------+
|  TAGS  |
+--------+
"persian cat" cat 