+--------------------------------------+
|   Flickr Photo Metadata              |
|   Created by Bulkr on Feb 09, 2016   |
|   http://clipyourphotos.com/bulkr    |
+--------------------------------------+

+--------+
|  INFO  |
+--------+
Photographer : pinkiwinkitinki
Photo URL    : https://www.flickr.com/photos/55638925@N00/2838716313/
License      : Creative Commons (http://creativecommons.org/licenses)
Taken Date   : Sun Oct 5 23:50:27 GMT+0200 2008
Upload Date  : Mon Sep 8 11:43:39 GMT+0200 2008
Views        : 396
Comments     : 0


+---------+
|  TITLE  |
+---------+
Suki


+---------------+
|  DESCRIPTION  |
+---------------+
(no description)


+--------+
|  TAGS  |
+--------+
suki gatto persiano white cat persian feline domestic 