+--------------------------------------+
|   Flickr Photo Metadata              |
|   Created by Bulkr on Feb 09, 2016   |
|   http://clipyourphotos.com/bulkr    |
+--------------------------------------+

+--------+
|  INFO  |
+--------+
Photographer : allenthepostman
Photo URL    : https://www.flickr.com/photos/allenthepostman/5428285307/
License      : Creative Commons (http://creativecommons.org/licenses)
Taken Date   : Tue Feb 8 14:23:52 GMT+0100 2011
Upload Date  : Tue Feb 8 19:36:42 GMT+0100 2011
Views        : 203
Comments     : 0


+---------+
|  TITLE  |
+---------+
Scaredy


+---------------+
|  DESCRIPTION  |
+---------------+
Feb 2011


+--------+
|  TAGS  |
+--------+
cats persian "chinchilla persian" animals pets 