+--------------------------------------+
|   Flickr Photo Metadata              |
|   Created by Bulkr on Feb 09, 2016   |
|   http://clipyourphotos.com/bulkr    |
+--------------------------------------+

+--------+
|  INFO  |
+--------+
Photographer : khanb1
Photo URL    : https://www.flickr.com/photos/albaraa/8120797862/
License      : Creative Commons (http://creativecommons.org/licenses)
Taken Date   : Wed Nov 9 15:11:32 GMT+0100 2011
Upload Date  : Thu Oct 25 03:23:35 GMT+0200 2012
Views        : 3,959
Comments     : 0


+---------+
|  TITLE  |
+---------+
Happy and Excited Kitten


+---------------+
|  DESCRIPTION  |
+---------------+
(no description)


+--------+
|  TAGS  |
+--------+
kitten cat persian fluffy cute 