+--------------------------------------+
|   Flickr Photo Metadata              |
|   Created by Bulkr on Feb 09, 2016   |
|   http://clipyourphotos.com/bulkr    |
+--------------------------------------+

+--------+
|  INFO  |
+--------+
Photographer : allenthepostman
Photo URL    : https://www.flickr.com/photos/allenthepostman/2584613766/
License      : Creative Commons (http://creativecommons.org/licenses)
Taken Date   : Mon Jun 16 16:03:22 GMT+0200 2008
Upload Date  : Mon Jun 16 18:28:45 GMT+0200 2008
Views        : 222
Comments     : 0


+---------+
|  TITLE  |
+---------+
Scaredy


+---------------+
|  DESCRIPTION  |
+---------------+
back garden,June 2008


+--------+
|  TAGS  |
+--------+
cats persian "chinchilla persian" pets animals 