+--------------------------------------+
|   Flickr Photo Metadata              |
|   Created by Bulkr on Feb 09, 2016   |
|   http://clipyourphotos.com/bulkr    |
+--------------------------------------+

+--------+
|  INFO  |
+--------+
Photographer : pinkiwinkitinki
Photo URL    : https://www.flickr.com/photos/55638925@N00/309472602/
License      : Creative Commons (http://creativecommons.org/licenses)
Taken Date   : Tue Apr 11 11:30:09 GMT+0200 2006
Upload Date  : Wed Nov 29 14:37:42 GMT+0100 2006
Views        : 390
Comments     : 7


+---------+
|  TITLE  |
+---------+
sete


+---------------+
|  DESCRIPTION  |
+---------------+
(no description)


+--------+
|  TAGS  |
+--------+
suki gatto persiano white cat persian feline domestic 