+--------------------------------------+
|   Flickr Photo Metadata              |
|   Created by Bulkr on Feb 09, 2016   |
|   http://clipyourphotos.com/bulkr    |
+--------------------------------------+

+--------+
|  INFO  |
+--------+
Photographer : khanb1
Photo URL    : https://www.flickr.com/photos/albaraa/5971918789/
License      : Creative Commons (http://creativecommons.org/licenses)
Taken Date   : Sun Jul 24 19:00:48 GMT+0200 2011
Upload Date  : Mon Jul 25 02:43:41 GMT+0200 2011
Views        : 361
Comments     : 0


+---------+
|  TITLE  |
+---------+
Flacky and kufi having fun


+---------------+
|  DESCRIPTION  |
+---------------+
(no description)


+--------+
|  TAGS  |
+--------+
kitten kittens cat cats persian cute 