+--------------------------------------+
|   Flickr Photo Metadata              |
|   Created by Bulkr on Feb 09, 2016   |
|   http://clipyourphotos.com/bulkr    |
+--------------------------------------+

+--------+
|  INFO  |
+--------+
Photographer : mirry.fm
Photo URL    : https://www.flickr.com/photos/la-mirry/4465302299/
License      : Creative Commons (http://creativecommons.org/licenses)
Taken Date   : Mon Mar 15 17:19:11 GMT+0100 2010
Upload Date  : Sat Mar 27 01:10:22 GMT+0100 2010
Views        : 273
Comments     : 3


+---------+
|  TITLE  |
+---------+
(no title)


+---------------+
|  DESCRIPTION  |
+---------------+
beeeautiful kitty


+--------+
|  TAGS  |
+--------+
nikon d80 "nikon 50mm" persian cat fluffy 