+--------------------------------------+
|   Flickr Photo Metadata              |
|   Created by Bulkr on Feb 09, 2016   |
|   http://clipyourphotos.com/bulkr    |
+--------------------------------------+

+--------+
|  INFO  |
+--------+
Photographer : Volkan_83
Photo URL    : https://www.flickr.com/photos/volkan83/7040033437/
License      : Creative Commons (http://creativecommons.org/licenses)
Taken Date   : Sun Apr 1 08:39:48 GMT+0200 2012
Upload Date  : Mon Apr 2 23:38:23 GMT+0200 2012
Geotag Info  : Latitude:52.230322, Longitude:5.172500
Views        : 742
Comments     : 0


+---------+
|  TITLE  |
+---------+
look at me shining


+---------------+
|  DESCRIPTION  |
+---------------+
(no description)


+--------+
|  TAGS  |
+--------+
Persian cat longhair "chinchilla persian" "black shaded" chilling relax iran kedisi poes harig haarbal katten kedi mustache sony a300 "10 megapixel" "50 mm" 1.4 ايران زبان فارسی חתול איראן פרסית מרחץ טורקי Кот Иран персидский[x] 