+--------------------------------------+
|   Flickr Photo Metadata              |
|   Created by Bulkr on Feb 09, 2016   |
|   http://clipyourphotos.com/bulkr    |
+--------------------------------------+

+--------+
|  INFO  |
+--------+
Photographer : vanaddie
Photo URL    : https://www.flickr.com/photos/vanaddie/7594518294/
License      : Creative Commons (http://creativecommons.org/licenses)
Taken Date   : Tue Jul 17 22:19:48 GMT+0200 2012
Upload Date  : Wed Jul 18 04:30:32 GMT+0200 2012
Views        : 60
Comments     : 0


+---------+
|  TITLE  |
+---------+
Asia


+---------------+
|  DESCRIPTION  |
+---------------+
(no description)


+--------+
|  TAGS  |
+--------+
asia persian cat 