+--------------------------------------+
|   Flickr Photo Metadata              |
|   Created by Bulkr on Feb 09, 2016   |
|   http://clipyourphotos.com/bulkr    |
+--------------------------------------+

+--------+
|  INFO  |
+--------+
Photographer : Between a Rock
Photo URL    : https://www.flickr.com/photos/44743850@N00/3184676795/
License      : Creative Commons (http://creativecommons.org/licenses)
Taken Date   : Sat Jan 10 11:28:08 GMT+0100 2009
Upload Date  : Sat Jan 10 19:18:31 GMT+0100 2009
Views        : 358
Comments     : 0


+---------+
|  TITLE  |
+---------+
Peswar


+---------------+
|  DESCRIPTION  |
+---------------+
(no description)


+--------+
|  TAGS  |
+--------+
Peswar Persian cat 