+--------------------------------------+
|   Flickr Photo Metadata              |
|   Created by Bulkr on Feb 09, 2016   |
|   http://clipyourphotos.com/bulkr    |
+--------------------------------------+

+--------+
|  INFO  |
+--------+
Photographer : Bradsview
Photo URL    : https://www.flickr.com/photos/bfra07/12945755813/
License      : Creative Commons (http://creativecommons.org/licenses)
Taken Date   : Sat Dec 28 13:32:04 GMT+0100 2013
Upload Date  : Wed Mar 5 10:47:23 GMT+0100 2014
Views        : 851
Comments     : 5


+---------+
|  TITLE  |
+---------+
Kosi - contemplating another photo shoot


+---------------+
|  DESCRIPTION  |
+---------------+
(no description)


+--------+
|  TAGS  |
+--------+
Persian "Persian cat" "Red Persian" cat feline furry 