+--------------------------------------+
|   Flickr Photo Metadata              |
|   Created by Bulkr on Feb 09, 2016   |
|   http://clipyourphotos.com/bulkr    |
+--------------------------------------+

+--------+
|  INFO  |
+--------+
Photographer : marimbajlamesa
Photo URL    : https://www.flickr.com/photos/marimbajlamesa/6241770915/
License      : Creative Commons (http://creativecommons.org/licenses)
Taken Date   : Wed Oct 12 15:09:38 GMT+0200 2011
Upload Date  : Fri Oct 14 02:05:47 GMT+0200 2011
Geotag Info  : Latitude:41.370528, Longitude:2.133438
Views        : 4,031
Comments     : 36


+---------+
|  TITLE  |
+---------+
Little Persian


+---------------+
|  DESCRIPTION  |
+---------------+
(no description)


+--------+
|  TAGS  |
+--------+
cat gato gat gatto gatito pussy gatet minino miau meow felino feline felin feli animal cachorro cadell chat marimbajlamesa 