+--------------------------------------+
|   Flickr Photo Metadata              |
|   Created by Bulkr on Feb 09, 2016   |
|   http://clipyourphotos.com/bulkr    |
+--------------------------------------+

+--------+
|  INFO  |
+--------+
Photographer : allenthepostman
Photo URL    : https://www.flickr.com/photos/allenthepostman/1794089989/
License      : Creative Commons (http://creativecommons.org/licenses)
Taken Date   : Sun Oct 28 18:05:13 GMT+0100 2007
Upload Date  : Sun Oct 28 21:36:23 GMT+0100 2007
Views        : 388
Comments     : 0


+---------+
|  TITLE  |
+---------+
Scaredy


+---------------+
|  DESCRIPTION  |
+---------------+
(no description)


+--------+
|  TAGS  |
+--------+
cats chinchilla persian pets animals 