+--------------------------------------+
|   Flickr Photo Metadata              |
|   Created by Bulkr on Feb 09, 2016   |
|   http://clipyourphotos.com/bulkr    |
+--------------------------------------+

+--------+
|  INFO  |
+--------+
Photographer : kirichkov
Photo URL    : https://www.flickr.com/photos/kirichkov/3754806496/
License      : Creative Commons (http://creativecommons.org/licenses)
Taken Date   : Sun Jul 19 20:52:41 GMT+0200 2009
Upload Date  : Sat Jul 25 12:39:36 GMT+0200 2009
Views        : 260
Comments     : 0


+---------+
|  TITLE  |
+---------+
DSC_0091


+---------------+
|  DESCRIPTION  |
+---------------+
(no description)


+--------+
|  TAGS  |
+--------+
cats puffy "persian cat" 