+--------------------------------------+
|   Flickr Photo Metadata              |
|   Created by Bulkr on Feb 09, 2016   |
|   http://clipyourphotos.com/bulkr    |
+--------------------------------------+

+--------+
|  INFO  |
+--------+
Photographer : akk_rus
Photo URL    : https://www.flickr.com/photos/akras/724223504/
License      : Creative Commons (http://creativecommons.org/licenses)
Taken Date   : Sat May 5 13:43:50 GMT+0200 2007
Upload Date  : Thu Jul 5 09:21:20 GMT+0200 2007
Geotag Info  : Latitude:55.645848, Longitude:37.396001
Views        : 397
Comments     : 1


+---------+
|  TITLE  |
+---------+
Marcello170_m


+---------------+
|  DESCRIPTION  |
+---------------+
(no description)


+--------+
|  TAGS  |
+--------+
Marcello persian cat pet Nikon cats pets feline 