+--------------------------------------+
|   Flickr Photo Metadata              |
|   Created by Bulkr on Apr 15, 2016   |
|   http://clipyourphotos.com/bulkr    |
+--------------------------------------+

+--------+
|  INFO  |
+--------+
Photographer : calbeeb
Photo URL    : https://www.flickr.com/photos/calbeeb/4485808497/
License      : Creative Commons (http://creativecommons.org/licenses)
Taken Date   : Fri Apr 2 17:24:06 GMT+0200 2010
Upload Date  : Sat Apr 3 11:10:43 GMT+0200 2010
Views        : 256
Comments     : 0


+---------+
|  TITLE  |
+---------+
8-)


+---------------+
|  DESCRIPTION  |
+---------------+
(no description)


+--------+
|  TAGS  |
+--------+
"ocean park" panda 