+--------------------------------------+
|   Flickr Photo Metadata              |
|   Created by Bulkr on Apr 15, 2016   |
|   http://clipyourphotos.com/bulkr    |
+--------------------------------------+

+--------+
|  INFO  |
+--------+
Photographer : Dai Luo
Photo URL    : https://www.flickr.com/photos/dailuo/5438990362/
License      : Creative Commons (http://creativecommons.org/licenses)
Taken Date   : Thu Apr 22 11:35:19 GMT+0200 2010
Upload Date  : Sat Feb 12 16:48:23 GMT+0100 2011
Geotag Info  : Latitude:30.710109, Longitude:104.071254
Views        : 552
Comments     : 0


+---------+
|  TITLE  |
+---------+
I'll itch your back if you itch mine


+---------------+
|  DESCRIPTION  |
+---------------+
Cheng Du panda reserve


+--------+
|  TAGS  |
+--------+
red panda chengdu bear canon 