+--------------------------------------+
|   Flickr Photo Metadata              |
|   Created by Bulkr on Apr 15, 2016   |
|   http://clipyourphotos.com/bulkr    |
+--------------------------------------+

+--------+
|  INFO  |
+--------+
Photographer : x.Rain.z
Photo URL    : https://www.flickr.com/photos/yunasong/4407820283/
License      : Creative Commons (http://creativecommons.org/licenses)
Taken Date   : Sat May 30 10:16:54 GMT+0200 2009
Upload Date  : Fri Mar 5 11:38:07 GMT+0100 2010
Views        : 5
Comments     : 0


+---------+
|  TITLE  |
+---------+
IMG_1207


+---------------+
|  DESCRIPTION  |
+---------------+
(no description)


+--------+
|  TAGS  |
+--------+
(no tags)