+--------------------------------------+
|   Flickr Photo Metadata              |
|   Created by Bulkr on Apr 15, 2016   |
|   http://clipyourphotos.com/bulkr    |
+--------------------------------------+

+--------+
|  INFO  |
+--------+
Photographer : vmlinuz
Photo URL    : https://www.flickr.com/photos/15229508@N00/2894492422/
License      : Creative Commons (http://creativecommons.org/licenses)
Taken Date   : Sat Sep 27 14:12:59 GMT+0200 2008
Upload Date  : Sun Sep 28 07:43:55 GMT+0200 2008
Geotag Info  : Latitude:22.245370, Longitude:114.175500
Views        : 191
Comments     : 0


+---------+
|  TITLE  |
+---------+
img_2006


+---------------+
|  DESCRIPTION  |
+---------------+
(no description)


+--------+
|  TAGS  |
+--------+
panda "giant panda" "ocean park" 