+--------------------------------------+
|   Flickr Photo Metadata              |
|   Created by Bulkr on Apr 15, 2016   |
|   http://clipyourphotos.com/bulkr    |
+--------------------------------------+

+--------+
|  INFO  |
+--------+
Photographer : samurai_dave
Photo URL    : https://www.flickr.com/photos/88657298@N00/7680616574/
License      : Creative Commons (http://creativecommons.org/licenses)
Taken Date   : Thu Jun 28 04:41:47 GMT+0200 2012
Upload Date  : Tue Jul 31 02:26:18 GMT+0200 2012
Views        : 332
Comments     : 0


+---------+
|  TITLE  |
+---------+
IMG_3804


+---------------+
|  DESCRIPTION  |
+---------------+
(no description)


+--------+
|  TAGS  |
+--------+
chengdu china pandas "panda bear" 