+--------------------------------------+
|   Flickr Photo Metadata              |
|   Created by Bulkr on Apr 15, 2016   |
|   http://clipyourphotos.com/bulkr    |
+--------------------------------------+

+--------+
|  INFO  |
+--------+
Photographer : mliu92
Photo URL    : https://www.flickr.com/photos/mliu92/7484827700/
License      : Creative Commons (http://creativecommons.org/licenses)
Taken Date   : Sun Jul 1 10:14:44 GMT+0200 2012
Upload Date  : Mon Jul 2 07:21:52 GMT+0200 2012
Geotag Info  : Latitude:32.737057, Longitude:-117.149105
Views        : 240
Comments     : 0


+---------+
|  TITLE  |
+---------+
Which One 9287


+---------------+
|  DESCRIPTION  |
+---------------+
He is pretty happy, though, isn't he?


+--------+
|  TAGS  |
+--------+
"san diego" zoo giant panda gao 