+--------------------------------------+
|   Flickr Photo Metadata              |
|   Created by Bulkr on Apr 15, 2016   |
|   http://clipyourphotos.com/bulkr    |
+--------------------------------------+

+--------+
|  INFO  |
+--------+
Photographer : uhuru1701
Photo URL    : https://www.flickr.com/photos/uhuru1701/2248427123/
License      : Creative Commons (http://creativecommons.org/licenses)
Taken Date   : Thu Feb 7 11:14:35 GMT+0100 2008
Upload Date  : Thu Feb 7 20:14:35 GMT+0100 2008
Views        : 534
Comments     : 0


+---------+
|  TITLE  |
+---------+
Panda


+---------------+
|  DESCRIPTION  |
+---------------+
(no description)


+--------+
|  TAGS  |
+--------+
"public domain" animals nature images bear 