+--------------------------------------+
|   Flickr Photo Metadata              |
|   Created by Bulkr on Apr 15, 2016   |
|   http://clipyourphotos.com/bulkr    |
+--------------------------------------+

+--------+
|  INFO  |
+--------+
Photographer : x.Rain.z
Photo URL    : https://www.flickr.com/photos/yunasong/4408473008/
License      : Creative Commons (http://creativecommons.org/licenses)
Taken Date   : Sat May 30 09:20:56 GMT+0200 2009
Upload Date  : Fri Mar 5 09:47:18 GMT+0100 2010
Views        : 9
Comments     : 0


+---------+
|  TITLE  |
+---------+
IMG_1078


+---------------+
|  DESCRIPTION  |
+---------------+
(no description)


+--------+
|  TAGS  |
+--------+
(no tags)