+--------------------------------------+
|   Flickr Photo Metadata              |
|   Created by Bulkr on Apr 15, 2016   |
|   http://clipyourphotos.com/bulkr    |
+--------------------------------------+

+--------+
|  INFO  |
+--------+
Photographer : Pandora_60
Photo URL    : https://www.flickr.com/photos/77843769@N00/813075745/
License      : Creative Commons (http://creativecommons.org/licenses)
Taken Date   : Sat Jul 14 21:30:52 GMT+0200 2007
Upload Date  : Sun Jul 15 03:30:52 GMT+0200 2007
Views        : 303
Comments     : 2


+---------+
|  TITLE  |
+---------+
sleeping beauty


+---------------+
|  DESCRIPTION  |
+---------------+
(no description)


+--------+
|  TAGS  |
+--------+
"National Zoo" Pandas "Tai Shan" 