+--------------------------------------+
|   Flickr Photo Metadata              |
|   Created by Bulkr on Apr 15, 2016   |
|   http://clipyourphotos.com/bulkr    |
+--------------------------------------+

+--------+
|  INFO  |
+--------+
Photographer : jeminichronicles
Photo URL    : https://www.flickr.com/photos/jeminichronicles/4126809901/
License      : Creative Commons (http://creativecommons.org/licenses)
Taken Date   : Sun Nov 22 19:51:43 GMT+0100 2009
Upload Date  : Sun Nov 22 20:51:43 GMT+0100 2009
Views        : 67
Comments     : 0


+---------+
|  TITLE  |
+---------+
IMG_8378


+---------------+
|  DESCRIPTION  |
+---------------+
(no description)


+--------+
|  TAGS  |
+--------+
chengdu china "panda base" 