+--------------------------------------+
|   Flickr Photo Metadata              |
|   Created by Bulkr on Apr 15, 2016   |
|   http://clipyourphotos.com/bulkr    |
+--------------------------------------+

+--------+
|  INFO  |
+--------+
Photographer : sanfamedia.com
Photo URL    : https://www.flickr.com/photos/kudo88/4265006841/
License      : Creative Commons (http://creativecommons.org/licenses)
Taken Date   : Sun Dec 27 05:26:01 GMT+0100 2009
Upload Date  : Mon Jan 11 10:55:45 GMT+0100 2010
Views        : 395
Comments     : 0


+---------+
|  TITLE  |
+---------+
Chengdu Panda Base


+---------------+
|  DESCRIPTION  |
+---------------+
Chengdu Panda Base


+--------+
|  TAGS  |
+--------+
China Chengdu Panda "Giant Panda" Bambus Sichuan 