+--------------------------------------+
|   Flickr Photo Metadata              |
|   Created by Bulkr on Apr 15, 2016   |
|   http://clipyourphotos.com/bulkr    |
+--------------------------------------+

+--------+
|  INFO  |
+--------+
Photographer : peachsmack
Photo URL    : https://www.flickr.com/photos/16068674@N00/310770890/
License      : Creative Commons (http://creativecommons.org/licenses)
Taken Date   : Sat Jan 1 00:00:02 GMT+0100 2000
Upload Date  : Fri Dec 1 04:13:11 GMT+0100 2006
Views        : 255
Comments     : 0


+---------+
|  TITLE  |
+---------+
IMG_5031


+---------------+
|  DESCRIPTION  |
+---------------+
(no description)


+--------+
|  TAGS  |
+--------+
panda 