+--------------------------------------+
|   Flickr Photo Metadata              |
|   Created by Bulkr on Apr 15, 2016   |
|   http://clipyourphotos.com/bulkr    |
+--------------------------------------+

+--------+
|  INFO  |
+--------+
Photographer : pattista
Photo URL    : https://www.flickr.com/photos/pattista/82363989/
License      : Creative Commons (http://creativecommons.org/licenses)
Taken Date   : Wed Jan 4 23:16:16 GMT+0100 2006
Upload Date  : Thu Jan 5 05:16:16 GMT+0100 2006
Views        : 342
Comments     : 0


+---------+
|  TITLE  |
+---------+
73084266_710834806d


+---------------+
|  DESCRIPTION  |
+---------------+
(no description)


+--------+
|  TAGS  |
+--------+
taishan washingtondc nationalzoo panda butterstick 