+--------------------------------------+
|   Flickr Photo Metadata              |
|   Created by Bulkr on Apr 15, 2016   |
|   http://clipyourphotos.com/bulkr    |
+--------------------------------------+

+--------+
|  INFO  |
+--------+
Photographer : puliarf
Photo URL    : https://www.flickr.com/photos/puliarfanita/3457184838/
License      : Creative Commons (http://creativecommons.org/licenses)
Taken Date   : Mon Oct 27 14:43:41 GMT+0100 2008
Upload Date  : Sun Apr 19 23:09:20 GMT+0200 2009
Views        : 851
Comments     : 0


+---------+
|  TITLE  |
+---------+
Pandas and the Chonqing Zoo


+---------------+
|  DESCRIPTION  |
+---------------+
lunch


+--------+
|  TAGS  |
+--------+
panda chonqing "chonqing zoo" 