+--------------------------------------+
|   Flickr Photo Metadata              |
|   Created by Bulkr on Apr 15, 2016   |
|   http://clipyourphotos.com/bulkr    |
+--------------------------------------+

+--------+
|  INFO  |
+--------+
Photographer : kenner116
Photo URL    : https://www.flickr.com/photos/kenner116/2488203823/
License      : Creative Commons (http://creativecommons.org/licenses)
Taken Date   : Thu Jul 21 20:40:52 GMT+0200 2005
Upload Date  : Thu Jul 21 21:40:52 GMT+0200 2005
Views        : 243
Comments     : 0


+---------+
|  TITLE  |
+---------+
China Trip 100


+---------------+
|  DESCRIPTION  |
+---------------+
(no description)


+--------+
|  TAGS  |
+--------+
china prc sichuan chengdu panda 