+--------------------------------------+
|   Flickr Photo Metadata              |
|   Created by Bulkr on Apr 15, 2016   |
|   http://clipyourphotos.com/bulkr    |
+--------------------------------------+

+--------+
|  INFO  |
+--------+
Photographer : Photocapy
Photo URL    : https://www.flickr.com/photos/photocapy/44062113/
License      : Creative Commons (http://creativecommons.org/licenses)
Taken Date   : Mon Jan 6 05:06:37 GMT+0100 2003
Upload Date  : Sat Sep 17 19:33:04 GMT+0200 2005
Views        : 3,540
Comments     : 2


+---------+
|  TITLE  |
+---------+
happy Panda


+---------------+
|  DESCRIPTION  |
+---------------+
(no description)


+--------+
|  TAGS  |
+--------+
Japan Tokyo Ueno Zoo park animal animals giant panda food bamboo 