+--------------------------------------+
|   Flickr Photo Metadata              |
|   Created by Bulkr on Apr 15, 2016   |
|   http://clipyourphotos.com/bulkr    |
+--------------------------------------+

+--------+
|  INFO  |
+--------+
Photographer : MatHampson
Photo URL    : https://www.flickr.com/photos/mathampson/3966983222/
License      : Creative Commons (http://creativecommons.org/licenses)
Taken Date   : Mon Aug 31 08:13:05 GMT+0200 2009
Upload Date  : Tue Sep 29 21:26:14 GMT+0200 2009
Views        : 369
Comments     : 1


+---------+
|  TITLE  |
+---------+
Om nom nom


+---------------+
|  DESCRIPTION  |
+---------------+
(no description)


+--------+
|  TAGS  |
+--------+
panda bamboo 