+--------------------------------------+
|   Flickr Photo Metadata              |
|   Created by Bulkr on Apr 15, 2016   |
|   http://clipyourphotos.com/bulkr    |
+--------------------------------------+

+--------+
|  INFO  |
+--------+
Photographer : spakattacks
Photo URL    : https://www.flickr.com/photos/spakattacks/253738667/
License      : Creative Commons (http://creativecommons.org/licenses)
Taken Date   : Wed Mar 17 11:20:08 GMT+0100 2004
Upload Date  : Wed Sep 27 03:37:04 GMT+0200 2006
Views        : 3,073
Comments     : 0


+---------+
|  TITLE  |
+---------+
Bear Hug


+---------------+
|  DESCRIPTION  |
+---------------+
(no description)


+--------+
|  TAGS  |
+--------+
"national zoo" animals panda "panda bear" bear pandas 