+--------------------------------------+
|   Flickr Photo Metadata              |
|   Created by Bulkr on Apr 15, 2016   |
|   http://clipyourphotos.com/bulkr    |
+--------------------------------------+

+--------+
|  INFO  |
+--------+
Photographer : heschong
Photo URL    : https://www.flickr.com/photos/heschong/469366193/
License      : Creative Commons (http://creativecommons.org/licenses)
Taken Date   : Sun Apr 22 08:01:07 GMT+0200 2007
Upload Date  : Mon Apr 23 04:59:11 GMT+0200 2007
Views        : 157
Comments     : 0


+---------+
|  TITLE  |
+---------+
Panda


+---------------+
|  DESCRIPTION  |
+---------------+
(no description)


+--------+
|  TAGS  |
+--------+
atlanta zoo vacation 