+--------------------------------------+
|   Flickr Photo Metadata              |
|   Created by Bulkr on Apr 06, 2016   |
|   http://clipyourphotos.com/bulkr    |
+--------------------------------------+

+--------+
|  INFO  |
+--------+
Photographer : smalltownguy22
Photo URL    : https://www.flickr.com/photos/smalltownguy22/3349288845/
License      : Creative Commons (http://creativecommons.org/licenses)
Taken Date   : Wed Mar 11 09:49:39 GMT+0100 2009
Upload Date  : Thu Mar 12 22:01:11 GMT+0100 2009
Geotag Info  : Latitude:31.767954, Longitude:-106.443861
Views        : 32
Comments     : 0


+---------+
|  TITLE  |
+---------+
bats


+---------------+
|  DESCRIPTION  |
+---------------+
a woman pointed @ them (I didn't see them at all) And I used my camera as &quot;light&quot; to see them and this was a good shot!!


+--------+
|  TAGS  |
+--------+
(no tags)