+--------------------------------------+
|   commons.wikimedia Photo Metadata   |
+--------------------------------------+



+--------+
|  INFO  |
+--------+
Photographer : Stefan Didam
Photo URL    : https://commons.wikimedia.org/wiki/File:Fledermaus_(Schmallenberg_5).jpg
License      : Creative Commons (https://en.wikipedia.org/wiki/en:Creative_Commons) 3.0 Unported (//creativecommons.org/licenses/by-sa/3.0/deed.en)
Date         : 2012-04
