+--------------------------------------+
|   commons.wikimedia Photo Metadata   |
+--------------------------------------+



+--------+
|  INFO  |
+--------+
Photographer : Michael Autumn
Photo URL    : https://commons.wikimedia.org/wiki/File:P1070111-Northern-Ghost-Bat-(diclidurus-albus).jpg
License      : Creative Commons (https://en.wikipedia.org/wiki/en:Creative_Commons) Attribution-Share Alike 4.0 International (//creativecommons.org/licenses/by-sa/4.0/deed.en)
Date         : 2015-12-20
