+--------------------------------------+
|   Flickr Photo Metadata              |
|   Created by Bulkr on Apr 06, 2016   |
|   http://clipyourphotos.com/bulkr    |
+--------------------------------------+

+--------+
|  INFO  |
+--------+
Photographer : 蘇育群
Photo URL    : https://www.flickr.com/photos/gprsgo1/9365939330/
License      : Creative Commons (http://creativecommons.org/licenses)
Taken Date   : Tue Jul 16 08:17:39 GMT+0200 2013
Upload Date  : Thu Jul 25 15:04:20 GMT+0200 2013
Views        : 29
Comments     : 0


+---------+
|  TITLE  |
+---------+
R0022992


+---------------+
|  DESCRIPTION  |
+---------------+
(no description)


+--------+
|  TAGS  |
+--------+
bat 