+--------------------------------------+
|   commons.wikimedia Photo Metadata   |
+--------------------------------------+



+--------+
|  INFO  |
+--------+
Photographer : Felineora
Photo URL    : https://commons.wikimedia.org/wiki/File:Trachops_cirrhosus.jpg
License      : Creative Commons (//en.wikipedia.org/wiki/en:Creative_Commons) Attribution 3.0 Unported (//creativecommons.org/licenses/by/3.0/deed.en)
Date         : 
