+--------------------------------------+
|   Flickr Photo Metadata              |
|   Created by Bulkr on Apr 06, 2016   |
|   http://clipyourphotos.com/bulkr    |
+--------------------------------------+

+--------+
|  INFO  |
+--------+
Photographer : shehal
Photo URL    : https://www.flickr.com/photos/shehal/2130617967/
License      : Creative Commons (http://creativecommons.org/licenses)
Taken Date   : Sun Dec 23 11:32:13 GMT+0100 2007
Upload Date  : Sun Dec 23 18:04:07 GMT+0100 2007
Views        : 75
Comments     : 0


+---------+
|  TITLE  |
+---------+
bats


+---------------+
|  DESCRIPTION  |
+---------------+
(no description)


+--------+
|  TAGS  |
+--------+
srilanka kandy peradeniya botanical gardens lanka 