+--------------------------------------+
|     opencage.info Photo Metadata     |
+--------------------------------------+



+--------+
|  INFO  |
+--------+
Photographer : -
Photo URL    : http://opencage.info/pics.e/large_16803.asp
License      : Creative Commons's Attribution-ShareAlike 2.5 (https://creativecommons.org/licenses/by-sa/2.5/)
Date         : 2012-07-15
