+--------------------------------------+
|   commons.wikimedia Photo Metadata   |
+--------------------------------------+



+--------+
|  INFO  |
+--------+
Photographer : Wie146
Photo URL    : https://commons.wikimedia.org/wiki/File:Macrog_sobrin_120912-0046_tdp.jpg
License      : Creative Commons (https://en.wikipedia.org/wiki/en:Creative_Commons) Attribution-Share Alike 3.0 Unported (//creativecommons.org/licenses/by-sa/3.0/deed.en)
Date         : 2012-09-12
