+--------------------------------------+
|   Flickr Photo Metadata              |
|   Created by Bulkr on Apr 06, 2016   |
|   http://clipyourphotos.com/bulkr    |
+--------------------------------------+

+--------+
|  INFO  |
+--------+
Photographer : Jo Naylor
Photo URL    : https://www.flickr.com/photos/pandora_6666/3615411016/
License      : Creative Commons (http://creativecommons.org/licenses)
Taken Date   : Wed Jun 10 18:20:12 GMT+0200 2009
Upload Date  : Thu Jun 11 01:20:12 GMT+0200 2009
Views        : 2,418
Comments     : 0


+---------+
|  TITLE  |
+---------+
a bit blurry but he's so cute


+---------------+
|  DESCRIPTION  |
+---------------+
yes, this is a bat!! It was laying on the ground at my dad's house - I almost stepped on it in fact until he started screaching at me


+--------+
|  TAGS  |
+--------+
bat animal night fangs cool 