+--------------------------------------+
|   commons.wikimedia Photo Metadata   |
+--------------------------------------+



+--------+
|  INFO  |
+--------+
Photographer : Bryancalabro
Photo URL    : https://commons.wikimedia.org/wiki/File:A_sleepy_bat..jpg
License      : Creative Commons (https://en.wikipedia.org/wiki/en:Creative_Commons) Attribution-Share Alike 3.0 Unported (//creativecommons.org/licenses/by-sa/3.0/deed.en)
Date         : 2011-05-11 00:00:18
