+--------------------------------------+
|   Flickr Photo Metadata              |
|   Created by Bulkr on Mar 09, 2016   |
|   http://clipyourphotos.com/bulkr    |
+--------------------------------------+

+--------+
|  INFO  |
+--------+
Photographer : tristanf
Photo URL    : https://www.flickr.com/photos/tristanf/108972776/
License      : Creative Commons (http://creativecommons.org/licenses)
Taken Date   : Mon Mar 6 10:48:18 GMT+0100 2006
Upload Date  : Tue Mar 7 02:28:51 GMT+0100 2006
Views        : 79
Comments     : 0


+---------+
|  TITLE  |
+---------+
Seal


+---------------+
|  DESCRIPTION  |
+---------------+
Doesn't look too happy


+--------+
|  TAGS  |
+--------+
seal sandiego etech conference seaworld 