+--------------------------------------+
|   Flickr Photo Metadata              |
|   Created by Bulkr on Mar 09, 2016   |
|   http://clipyourphotos.com/bulkr    |
+--------------------------------------+

+--------+
|  INFO  |
+--------+
Photographer : hans s
Photo URL    : https://www.flickr.com/photos/archeon/1019759899/
License      : Creative Commons (http://creativecommons.org/licenses)
Taken Date   : Sun Jul 22 12:15:44 GMT+0200 2007
Upload Date  : Sun Aug 5 21:24:59 GMT+0200 2007
Geotag Info  : Latitude:53.398376, Longitude:6.454467
Views        : 546
Comments     : 7


+---------+
|  TITLE  |
+---------+
halli galli


+---------------+
|  DESCRIPTION  |
+---------------+
a card game which we did a lot this holiday (you have to push the bell the moment you see 5 equal fruits)


+--------+
|  TAGS  |
+--------+
vakantie 2007 seal halligalli game ABigFave ImpressedBeauty zeehondencrèche 