+--------------------------------------+
|   Flickr Photo Metadata              |
|   Created by Bulkr on Mar 09, 2016   |
|   http://clipyourphotos.com/bulkr    |
+--------------------------------------+

+--------+
|  INFO  |
+--------+
Photographer : choogie
Photo URL    : https://www.flickr.com/photos/25898350@N06/9372579199/
License      : Creative Commons (http://creativecommons.org/licenses)
Taken Date   : Sun Jun 9 14:09:46 GMT+0200 2013
Upload Date  : Sat Jul 27 04:52:40 GMT+0200 2013
Views        : 64
Comments     : 0


+---------+
|  TITLE  |
+---------+
Elephant Seals


+---------------+
|  DESCRIPTION  |
+---------------+
(no description)


+--------+
|  TAGS  |
+--------+
(no tags)