+--------------------------------------+
|   Flickr Photo Metadata              |
|   Created by Bulkr on Mar 09, 2016   |
|   http://clipyourphotos.com/bulkr    |
+--------------------------------------+

+--------+
|  INFO  |
+--------+
Photographer : Panegyrics of Granovetter
Photo URL    : https://www.flickr.com/photos/sarah_c_murray/5446953785/
License      : Creative Commons (http://creativecommons.org/licenses)
Taken Date   : Tue Feb 15 14:19:16 GMT+0100 2011
Upload Date  : Tue Feb 15 08:02:03 GMT+0100 2011
Geotag Info  : Latitude:37.121864, Longitude:-122.334995
Views        : 155
Comments     : 0


+---------+
|  TITLE  |
+---------+
9178


+---------------+
|  DESCRIPTION  |
+---------------+
(no description)


+--------+
|  TAGS  |
+--------+
"Año Nuevo" "elephant seals" whelps "slaughtered for their oil-rich blubber" 