+--------------------------------------+
|   Flickr Photo Metadata              |
|   Created by Bulkr on Mar 09, 2016   |
|   http://clipyourphotos.com/bulkr    |
+--------------------------------------+

+--------+
|  INFO  |
+--------+
Photographer : Just chaos
Photo URL    : https://www.flickr.com/photos/7326810@N08/2296246677/
License      : Creative Commons (http://creativecommons.org/licenses)
Taken Date   : Tue Feb 26 11:48:57 GMT+0100 2008
Upload Date  : Wed Feb 27 22:26:58 GMT+0100 2008
Views        : 60
Comments     : 0


+---------+
|  TITLE  |
+---------+
Elephant Seal


+---------------+
|  DESCRIPTION  |
+---------------+
(no description)


+--------+
|  TAGS  |
+--------+
ano nuevo 