+--------------------------------------+
|   Flickr Photo Metadata              |
|   Created by Bulkr on Mar 09, 2016   |
|   http://clipyourphotos.com/bulkr    |
+--------------------------------------+

+--------+
|  INFO  |
+--------+
Photographer : rhwalker22
Photo URL    : https://www.flickr.com/photos/russwalker/7059442769/
License      : Creative Commons (http://creativecommons.org/licenses)
Taken Date   : Sun Apr 8 21:54:54 GMT+0200 2012
Upload Date  : Mon Apr 9 06:31:27 GMT+0200 2012
Views        : 172
Comments     : 0


+---------+
|  TITLE  |
+---------+
seal pup


+---------------+
|  DESCRIPTION  |
+---------------+
(no description)


+--------+
|  TAGS  |
+--------+
alki seattle wildlife 