+--------------------------------------+
|   Flickr Photo Metadata              |
|   Created by Bulkr on Mar 09, 2016   |
|   http://clipyourphotos.com/bulkr    |
+--------------------------------------+

+--------+
|  INFO  |
+--------+
Photographer : branestawm2002
Photo URL    : https://www.flickr.com/photos/branestawm/11209774396/
License      : Creative Commons (http://creativecommons.org/licenses)
Taken Date   : Wed Dec 4 13:37:19 GMT+0100 2013
Upload Date  : Wed Dec 4 19:45:10 GMT+0100 2013
Views        : 361
Comments     : 0


+---------+
|  TITLE  |
+---------+
xDSC_0152-sRGB


+---------------+
|  DESCRIPTION  |
+---------------+
Seals at Donna Nook Dec 13


+--------+
|  TAGS  |
+--------+
seal seals pup pups "donna nook" 