+--------------------------------------+
|   Flickr Photo Metadata              |
|   Created by Bulkr on Mar 09, 2016   |
|   http://clipyourphotos.com/bulkr    |
+--------------------------------------+

+--------+
|  INFO  |
+--------+
Photographer : hcopperm
Photo URL    : https://www.flickr.com/photos/hcopperman/2614488086/
License      : Creative Commons (http://creativecommons.org/licenses)
Taken Date   : Wed Jun 11 21:31:00 GMT+0200 2008
Upload Date  : Thu Jun 26 23:44:05 GMT+0200 2008
Views        : 40
Comments     : 0


+---------+
|  TITLE  |
+---------+
Elephant Seals


+---------------+
|  DESCRIPTION  |
+---------------+
(no description)


+--------+
|  TAGS  |
+--------+
(no tags)