+--------------------------------------+
|   Flickr Photo Metadata              |
|   Created by Bulkr on Mar 09, 2016   |
|   http://clipyourphotos.com/bulkr    |
+--------------------------------------+

+--------+
|  INFO  |
+--------+
Photographer : NOAA Photo Library
Photo URL    : https://www.flickr.com/photos/noaaphotolib/5187915796/
License      : Creative Commons (http://creativecommons.org/licenses)
Taken Date   : Thu Nov 18 14:04:46 GMT+0100 2010
Upload Date  : Thu Nov 18 20:06:56 GMT+0100 2010
Views        : 512
Comments     : 0


+---------+
|  TITLE  |
+---------+
anim0179


+---------------+
|  DESCRIPTION  |
+---------------+
(no description)


+--------+
|  TAGS  |
+--------+
NOAA seals 