+--------------------------------------+
|   Flickr Photo Metadata              |
|   Created by Bulkr on Mar 09, 2016   |
|   http://clipyourphotos.com/bulkr    |
+--------------------------------------+

+--------+
|  INFO  |
+--------+
Photographer : Robin Miller Photography - westcoastrobin
Photo URL    : https://www.flickr.com/photos/westcoastrobin/8426339257/
License      : Creative Commons (http://creativecommons.org/licenses)
Taken Date   : Mon Apr 27 15:16:21 GMT+0200 2009
Upload Date  : Tue Jan 29 16:45:38 GMT+0100 2013
Views        : 130
Comments     : 0


+---------+
|  TITLE  |
+---------+
female elephant seals cambria


+---------------+
|  DESCRIPTION  |
+---------------+
(no description)


+--------+
|  TAGS  |
+--------+
(no tags)