+--------------------------------------+
|   Flickr Photo Metadata              |
|   Created by Bulkr on Mar 09, 2016   |
|   http://clipyourphotos.com/bulkr    |
+--------------------------------------+

+--------+
|  INFO  |
+--------+
Photographer : chapmankj75
Photo URL    : https://www.flickr.com/photos/25553993@N02/9116927393/
License      : Creative Commons (http://creativecommons.org/licenses)
Taken Date   : Sun Dec 2 09:17:09 GMT+0100 2012
Upload Date  : Sun Jun 23 20:12:57 GMT+0200 2013
Views        : 1,079
Comments     : 0


+---------+
|  TITLE  |
+---------+
Grey Seal Pup


+---------------+
|  DESCRIPTION  |
+---------------+
(no description)


+--------+
|  TAGS  |
+--------+
Grey Seal chapmankj75 "Donna Nook" 