+--------------------------------------+
|   Flickr Photo Metadata              |
|   Created by Bulkr on Mar 09, 2016   |
|   http://clipyourphotos.com/bulkr    |
+--------------------------------------+

+--------+
|  INFO  |
+--------+
Photographer : www.FranceHouseHunt.com
Photo URL    : https://www.flickr.com/photos/francehousehunt/5933078478/
License      : Creative Commons (http://creativecommons.org/licenses)
Taken Date   : Tue Jan 1 00:00:13 GMT+0100 1980
Upload Date  : Wed Jul 13 09:03:06 GMT+0200 2011
Views        : 890
Comments     : 0


+---------+
|  TITLE  |
+---------+
Seal - by FranceHouseHunt.com


+---------------+
|  DESCRIPTION  |
+---------------+
Seal - photo by FranceHouseHunt.com


+--------+
|  TAGS  |
+--------+
seal sea water cute 