+--------------------------------------+
|   Flickr Photo Metadata              |
|   Created by Bulkr on Mar 10, 2016   |
|   http://clipyourphotos.com/bulkr    |
+--------------------------------------+

+--------+
|  INFO  |
+--------+
Photographer : JohnBWilson
Photo URL    : https://www.flickr.com/photos/johnbwilson/14741400001/
License      : Creative Commons (http://creativecommons.org/licenses)
Taken Date   : Fri Jul 25 16:46:32 GMT+0200 2014
Upload Date  : Fri Jul 25 23:50:46 GMT+0200 2014
Views        : 548
Comments     : 0


+---------+
|  TITLE  |
+---------+
Chimp


+---------------+
|  DESCRIPTION  |
+---------------+
(no description)


+--------+
|  TAGS  |
+--------+
@BioparcF chimpanzee Fuengirola Bioparc 