+--------------------------------------+
|   Flickr Photo Metadata              |
|   Created by Bulkr on Mar 10, 2016   |
|   http://clipyourphotos.com/bulkr    |
+--------------------------------------+

+--------+
|  INFO  |
+--------+
Photographer : naitokz
Photo URL    : https://www.flickr.com/photos/naitokz/4139817399/
License      : Creative Commons (http://creativecommons.org/licenses)
Taken Date   : Sat Nov 28 12:09:14 GMT+0100 2009
Upload Date  : Sat Nov 28 10:30:03 GMT+0100 2009
Views        : 1,232
Comments     : 0


+---------+
|  TITLE  |
+---------+
Chimpanzee


+---------------+
|  DESCRIPTION  |
+---------------+
(no description)


+--------+
|  TAGS  |
+--------+
Japan Kanagawa 神奈川 Yokohama 横浜 ZOORASIA ズーラシア よこはま動物園 chimpanzee チンパンジー zoo 動物園 monkey 猿 さる サル ape 