+--------------------------------------+
|   Flickr Photo Metadata              |
|   Created by Bulkr on Mar 10, 2016   |
|   http://clipyourphotos.com/bulkr    |
+--------------------------------------+

+--------+
|  INFO  |
+--------+
Photographer : richardrichard
Photo URL    : https://www.flickr.com/photos/richardtoller/9487277629/
License      : Creative Commons (http://creativecommons.org/licenses)
Taken Date   : Sun Jul 28 09:30:31 GMT+0200 2013
Upload Date  : Sun Aug 11 23:34:05 GMT+0200 2013
Views        : 237
Comments     : 0


+---------+
|  TITLE  |
+---------+
P7280625


+---------------+
|  DESCRIPTION  |
+---------------+
Chimpanzee


+--------+
|  TAGS  |
+--------+
(no tags)