+--------------------------------------+
|   Flickr Photo Metadata              |
|   Created by Bulkr on Mar 10, 2016   |
|   http://clipyourphotos.com/bulkr    |
+--------------------------------------+

+--------+
|  INFO  |
+--------+
Photographer : orca_bc
Photo URL    : https://www.flickr.com/photos/101951515@N07/10339974903/
License      : Creative Commons (http://creativecommons.org/licenses)
Taken Date   : Sat Sep 7 14:05:07 GMT+0200 2013
Upload Date  : Fri Oct 18 07:05:32 GMT+0200 2013
Views        : 1,493
Comments     : 2


+---------+
|  TITLE  |
+---------+
CHIMP130907_1014-Edit


+---------------+
|  DESCRIPTION  |
+---------------+
(no description)


+--------+
|  TAGS  |
+--------+
Chimp Chimpanzee Chimpanzees Chimps "Common chimpanzee" "Pan troglodytes" ape babies baby "colloquially chimp" females love mom moms monkey 