+--------------------------------------+
|   Flickr Photo Metadata              |
|   Created by Bulkr on Mar 10, 2016   |
|   http://clipyourphotos.com/bulkr    |
+--------------------------------------+

+--------+
|  INFO  |
+--------+
Photographer : Dolax
Photo URL    : https://www.flickr.com/photos/64830484@N04/5902344239/
License      : Creative Commons (http://creativecommons.org/licenses)
Taken Date   : Fri Jun 24 11:42:34 GMT+0200 2011
Upload Date  : Tue Jul 5 00:08:34 GMT+0200 2011
Views        : 61
Comments     : 0


+---------+
|  TITLE  |
+---------+
chimpanzee family


+---------------+
|  DESCRIPTION  |
+---------------+
(no description)


+--------+
|  TAGS  |
+--------+
(no tags)