+--------------------------------------+
|   Flickr Photo Metadata              |
|   Created by Bulkr on Mar 10, 2016   |
|   http://clipyourphotos.com/bulkr    |
+--------------------------------------+

+--------+
|  INFO  |
+--------+
Photographer : Nigel's Europe & beyond 2
Photo URL    : https://www.flickr.com/photos/zooeurope/13167861103/
License      : Creative Commons (http://creativecommons.org/licenses)
Taken Date   : Sat Sep 14 12:21:14 GMT+0200 2013
Upload Date  : Sat Mar 15 15:30:55 GMT+0100 2014
Views        : 134
Comments     : 0


+---------+
|  TITLE  |
+---------+
Chester Zoo


+---------------+
|  DESCRIPTION  |
+---------------+
Chimpanzee


+--------+
|  TAGS  |
+--------+
"Chester Zoo" Chimpanzees 