+--------------------------------------+
|   Flickr Photo Metadata              |
|   Created by Bulkr on Mar 10, 2016   |
|   http://clipyourphotos.com/bulkr    |
+--------------------------------------+

+--------+
|  INFO  |
+--------+
Photographer : pelican
Photo URL    : https://www.flickr.com/photos/pelican/7575599208/
License      : Creative Commons (http://creativecommons.org/licenses)
Taken Date   : Sat Jul 7 22:20:42 GMT+0200 2012
Upload Date  : Sun Jul 15 18:29:05 GMT+0200 2012
Views        : 420
Comments     : 0


+---------+
|  TITLE  |
+---------+
Al Ain zoo, UAE


+---------------+
|  DESCRIPTION  |
+---------------+
(no description)


+--------+
|  TAGS  |
+--------+
"smc PENTAX-DA 18-135mm F3.5-5.6 ED AL [IF] DC WR" K-5 "al ain" zoo chimpanzee 