+--------------------------------------+
|   Flickr Photo Metadata              |
|   Created by Bulkr on Mar 10, 2016   |
|   http://clipyourphotos.com/bulkr    |
+--------------------------------------+

+--------+
|  INFO  |
+--------+
Photographer : (: Rebecca-louise :)
Photo URL    : https://www.flickr.com/photos/50066720@N03/5664295765/
License      : Creative Commons (http://creativecommons.org/licenses)
Taken Date   : Tue Apr 26 10:32:43 GMT+0200 2011
Upload Date  : Thu Apr 28 16:05:45 GMT+0200 2011
Views        : 77
Comments     : 0


+---------+
|  TITLE  |
+---------+
chimpanzees at Monkey world


+---------------+
|  DESCRIPTION  |
+---------------+
Think!


+--------+
|  TAGS  |
+--------+
(no tags)