+--------------------------------------+
|   Flickr Photo Metadata              |
|   Created by Bulkr on Mar 11, 2016   |
|   http://clipyourphotos.com/bulkr    |
+--------------------------------------+

+--------+
|  INFO  |
+--------+
Photographer : downatthezoo
Photo URL    : https://www.flickr.com/photos/devolve/9329685955/
License      : Creative Commons (http://creativecommons.org/licenses)
Taken Date   : Fri Jul 19 06:47:48 GMT+0200 2013
Upload Date  : Sun Jul 21 05:02:55 GMT+0200 2013
Views        : 155
Comments     : 0


+---------+
|  TITLE  |
+---------+
2013-07-19 06.47.48-1


+---------------+
|  DESCRIPTION  |
+---------------+
(no description)


+--------+
|  TAGS  |
+--------+
"chimpanzee tool use" "Pan troglodytes" chimpanzees Kumamoto "Kumamoto chimpanzee sanctuary" 