+--------------------------------------+
|   Flickr Photo Metadata              |
|   Created by Bulkr on Mar 10, 2016   |
|   http://clipyourphotos.com/bulkr    |
+--------------------------------------+

+--------+
|  INFO  |
+--------+
Photographer : Newtown grafitti
Photo URL    : https://www.flickr.com/photos/newtown_grafitti/6998545426/
License      : Creative Commons (http://creativecommons.org/licenses)
Taken Date   : Sat May 5 11:49:39 GMT+0200 2012
Upload Date  : Sat May 5 13:23:06 GMT+0200 2012
Views        : 632
Comments     : 0


+---------+
|  TITLE  |
+---------+
Zoo, XIII


+---------------+
|  DESCRIPTION  |
+---------------+
Suck your toe


+--------+
|  TAGS  |
+--------+
Sydney "Taronga Park" Zoo Mosman chimpanzee 