+--------------------------------------+
|   Flickr Photo Metadata              |
|   Created by Bulkr on Mar 10, 2016   |
|   http://clipyourphotos.com/bulkr    |
+--------------------------------------+

+--------+
|  INFO  |
+--------+
Photographer : nakashi
Photo URL    : https://www.flickr.com/photos/nakashi/19060834498/
License      : Creative Commons (http://creativecommons.org/licenses)
Taken Date   : Sat Jun 27 12:26:24 GMT+0200 2015
Upload Date  : Mon Jun 29 01:38:59 GMT+0200 2015
Views        : 59
Comments     : 0


+---------+
|  TITLE  |
+---------+
Chimpanzee


+---------------+
|  DESCRIPTION  |
+---------------+
(no description)


+--------+
|  TAGS  |
+--------+
tama zoo tamazoo tokyo japan 