+--------------------------------------+
|   Flickr Photo Metadata              |
|   Created by Bulkr on Mar 10, 2016   |
|   http://clipyourphotos.com/bulkr    |
+--------------------------------------+

+--------+
|  INFO  |
+--------+
Photographer : mikecogh
Photo URL    : https://www.flickr.com/photos/mikecogh/10170745695/
License      : Creative Commons (http://creativecommons.org/licenses)
Taken Date   : Thu Oct 3 15:12:21 GMT+0200 2013
Upload Date  : Wed Oct 9 16:32:20 GMT+0200 2013
Geotag Info  : Latitude:-35.103731, Longitude:139.145138
Views        : 450
Comments     : 0


+---------+
|  TITLE  |
+---------+
Closeness


+---------------+
|  DESCRIPTION  |
+---------------+
(no description)


+--------+
|  TAGS  |
+--------+
Monarto zoo chimpanzees hairy baby close 