+--------------------------------------+
|   Flickr Photo Metadata              |
|   Created by Bulkr on Mar 10, 2016   |
|   http://clipyourphotos.com/bulkr    |
+--------------------------------------+

+--------+
|  INFO  |
+--------+
Photographer : CHeitz
Photo URL    : https://www.flickr.com/photos/coreyheitzmd/556657262/
License      : Creative Commons (http://creativecommons.org/licenses)
Taken Date   : Mon Jun 11 17:08:23 GMT+0200 2007
Upload Date  : Sat Jun 16 16:24:08 GMT+0200 2007
Geotag Info  : Latitude:28.036474, Longitude:-82.421729
Views        : 59
Comments     : 0


+---------+
|  TITLE  |
+---------+
chimpanzee


+---------------+
|  DESCRIPTION  |
+---------------+
(no description)


+--------+
|  TAGS  |
+--------+
Animals 