+--------------------------------------+
|   Flickr Photo Metadata              |
|   Created by Bulkr on Mar 10, 2016   |
|   http://clipyourphotos.com/bulkr    |
+--------------------------------------+

+--------+
|  INFO  |
+--------+
Photographer : ctrlaltdileep
Photo URL    : https://www.flickr.com/photos/ctrlaltdileep/13878861755/
License      : Creative Commons (http://creativecommons.org/licenses)
Taken Date   : Sun Apr 13 12:08:15 GMT+0200 2014
Upload Date  : Tue Apr 15 21:48:18 GMT+0200 2014
Views        : 3,166
Comments     : 0


+---------+
|  TITLE  |
+---------+
Chimp Chimpanzee Ape


+---------------+
|  DESCRIPTION  |
+---------------+
(no description)


+--------+
|  TAGS  |
+--------+
Ape Chimp Chimpanzee Monkey Whipsnade "Whipsnade Zoo" ZSL Zoo 