+--------------------------------------+
|   Flickr Photo Metadata              |
|   Created by Bulkr on Mar 11, 2016   |
|   http://clipyourphotos.com/bulkr    |
+--------------------------------------+

+--------+
|  INFO  |
+--------+
Photographer : gill_penney
Photo URL    : https://www.flickr.com/photos/gillpenney/3262185243/
License      : Creative Commons (http://creativecommons.org/licenses)
Taken Date   : Sat Feb 3 16:27:58 GMT+0100 2007
Upload Date  : Sun Feb 8 11:43:25 GMT+0100 2009
Views        : 309
Comments     : 0


+---------+
|  TITLE  |
+---------+
Untitled-73


+---------------+
|  DESCRIPTION  |
+---------------+
(no description)


+--------+
|  TAGS  |
+--------+
gombe mahale tanzania chimpanzee chimps "lake tanganyika" 