+--------------------------------------+
|   Flickr Photo Metadata              |
|   Created by Bulkr on Mar 10, 2016   |
|   http://clipyourphotos.com/bulkr    |
+--------------------------------------+

+--------+
|  INFO  |
+--------+
Photographer : mmarchin
Photo URL    : https://www.flickr.com/photos/mmarchin/10432460/
License      : Creative Commons (http://creativecommons.org/licenses)
Taken Date   : Sat Sep 11 12:56:37 GMT+0200 2004
Upload Date  : Sat Apr 23 00:43:53 GMT+0200 2005
Views        : 423
Comments     : 0


+---------+
|  TITLE  |
+---------+
Poor baby


+---------------+
|  DESCRIPTION  |
+---------------+
(no description)


+--------+
|  TAGS  |
+--------+
chimpanzee "mushroom festival" 