+--------------------------------------+
|   Flickr Photo Metadata              |
|   Created by Bulkr on Mar 10, 2016   |
|   http://clipyourphotos.com/bulkr    |
+--------------------------------------+

+--------+
|  INFO  |
+--------+
Photographer : Just chaos
Photo URL    : https://www.flickr.com/photos/7326810@N08/3050906476/
License      : Creative Commons (http://creativecommons.org/licenses)
Taken Date   : Wed Oct 22 11:32:05 GMT+0200 2008
Upload Date  : Sat Nov 22 19:30:19 GMT+0100 2008
Views        : 53
Comments     : 0


+---------+
|  TITLE  |
+---------+
Chimpanzee


+---------------+
|  DESCRIPTION  |
+---------------+
(no description)


+--------+
|  TAGS  |
+--------+
SanFranciscozoo 