+--------------------------------------+
|   Flickr Photo Metadata              |
|   Created by Bulkr on Mar 11, 2016   |
|   http://clipyourphotos.com/bulkr    |
+--------------------------------------+

+--------+
|  INFO  |
+--------+
Photographer : gill_penney
Photo URL    : https://www.flickr.com/photos/gillpenney/3262029479/
License      : Creative Commons (http://creativecommons.org/licenses)
Taken Date   : Sun Feb 4 16:14:31 GMT+0100 2007
Upload Date  : Sun Feb 8 09:55:55 GMT+0100 2009
Views        : 245
Comments     : 0


+---------+
|  TITLE  |
+---------+
Untitled-27


+---------------+
|  DESCRIPTION  |
+---------------+
(no description)


+--------+
|  TAGS  |
+--------+
gombe mahale tanzania chimpanzee chimps "lake tanganyika" 