+--------------------------------------+
|   Flickr Photo Metadata              |
|   Created by Bulkr on Mar 10, 2016   |
|   http://clipyourphotos.com/bulkr    |
+--------------------------------------+

+--------+
|  INFO  |
+--------+
Photographer : JohnBWilson
Photo URL    : https://www.flickr.com/photos/johnbwilson/14939868106/
License      : Creative Commons (http://creativecommons.org/licenses)
Taken Date   : Mon Aug 18 15:32:11 GMT+0200 2014
Upload Date  : Mon Aug 18 23:21:49 GMT+0200 2014
Views        : 502
Comments     : 0


+---------+
|  TITLE  |
+---------+
Chimpanzee


+---------------+
|  DESCRIPTION  |
+---------------+
(no description)


+--------+
|  TAGS  |
+--------+
@BioparcF "Fuengirola Bioparc" chimp 