+--------------------------------------+
|   Flickr Photo Metadata              |
|   Created by Bulkr on Mar 11, 2016   |
|   http://clipyourphotos.com/bulkr    |
+--------------------------------------+

+--------+
|  INFO  |
+--------+
Photographer : BigMikeSndTech
Photo URL    : https://www.flickr.com/photos/bigmikesndtech/4190257711/
License      : Creative Commons (http://creativecommons.org/licenses)
Taken Date   : Thu Dec 10 17:01:52 GMT+0100 2009
Upload Date  : Wed Dec 16 20:20:17 GMT+0100 2009
Views        : 205
Comments     : 0


+---------+
|  TITLE  |
+---------+
IMG_3617


+---------------+
|  DESCRIPTION  |
+---------------+
(no description)


+--------+
|  TAGS  |
+--------+
"Tacugama Chimpanzee Sanctuary" Freetown "Sierra Leone" 