+--------------------------------------+
|   Flickr Photo Metadata              |
|   Created by Bulkr on Mar 10, 2016   |
|   http://clipyourphotos.com/bulkr    |
+--------------------------------------+

+--------+
|  INFO  |
+--------+
Photographer : (: Rebecca-louise :)
Photo URL    : https://www.flickr.com/photos/50066720@N03/5664329707/
License      : Creative Commons (http://creativecommons.org/licenses)
Taken Date   : Tue Apr 26 15:05:00 GMT+0200 2011
Upload Date  : Thu Apr 28 16:28:00 GMT+0200 2011
Views        : 264
Comments     : 0


+---------+
|  TITLE  |
+---------+
chimpanzee


+---------------+
|  DESCRIPTION  |
+---------------+
This chimp was rolling grass in his hands as if it was making a small fireSomething he/she learned pre monkey world no doubt.All the chimpanzees have names and usually a pretty awful history, poor things.


+--------+
|  TAGS  |
+--------+
(no tags)