+--------------------------------------+
|   Flickr Photo Metadata              |
|   Created by Bulkr on Mar 10, 2016   |
|   http://clipyourphotos.com/bulkr    |
+--------------------------------------+

+--------+
|  INFO  |
+--------+
Photographer : savemejebus
Photo URL    : https://www.flickr.com/photos/47266767@N00/4268490574/
License      : Creative Commons (http://creativecommons.org/licenses)
Taken Date   : Sun Jan 10 15:33:17 GMT+0100 2010
Upload Date  : Tue Jan 12 08:01:23 GMT+0100 2010
Views        : 31
Comments     : 0


+---------+
|  TITLE  |
+---------+
Chimpanzees


+---------------+
|  DESCRIPTION  |
+---------------+
(no description)


+--------+
|  TAGS  |
+--------+
(no tags)