+--------------------------------------+
|   Flickr Photo Metadata              |
|   Created by Bulkr on Mar 10, 2016   |
|   http://clipyourphotos.com/bulkr    |
+--------------------------------------+

+--------+
|  INFO  |
+--------+
Photographer : zanthrax-dot-nl
Photo URL    : https://www.flickr.com/photos/zanthraxnl/3669506616/
License      : Creative Commons (http://creativecommons.org/licenses)
Taken Date   : Sun Jun 28 12:09:51 GMT+0200 2009
Upload Date  : Sun Jun 28 22:34:33 GMT+0200 2009
Views        : 231
Comments     : 0


+---------+
|  TITLE  |
+---------+
IMG_4233


+---------------+
|  DESCRIPTION  |
+---------------+
(no description)


+--------+
|  TAGS  |
+--------+
Chimpanzee 