+--------------------------------------+
|   Flickr Photo Metadata              |
|   Created by Bulkr on Mar 10, 2016   |
|   http://clipyourphotos.com/bulkr    |
+--------------------------------------+

+--------+
|  INFO  |
+--------+
Photographer : _temaki_
Photo URL    : https://www.flickr.com/photos/_temaki_/5338733309/
License      : Creative Commons (http://creativecommons.org/licenses)
Taken Date   : Sun Jan 9 12:13:19 GMT+0100 2011
Upload Date  : Sun Jan 9 15:42:14 GMT+0100 2011
Views        : 102
Comments     : 0


+---------+
|  TITLE  |
+---------+
チンパンジー(Chimpanzee)


+---------------+
|  DESCRIPTION  |
+---------------+
寝っ転がって好き放題食ってダラッダラしてるおまえはおれか！！！！！


+--------+
|  TAGS  |
+--------+
多摩動物公園 "tama zoo" 