+--------------------------------------+
|   Flickr Photo Metadata              |
|   Created by Bulkr on Mar 10, 2016   |
|   http://clipyourphotos.com/bulkr    |
+--------------------------------------+

+--------+
|  INFO  |
+--------+
Photographer : snarglebarf
Photo URL    : https://www.flickr.com/photos/77272877@N00/11985409503/
License      : Creative Commons (http://creativecommons.org/licenses)
Taken Date   : Thu Jan 16 12:23:55 GMT+0100 2014
Upload Date  : Thu Jan 16 21:50:30 GMT+0100 2014
Views        : 425
Comments     : 0


+---------+
|  TITLE  |
+---------+
Chimp taking a dump


+---------------+
|  DESCRIPTION  |
+---------------+
Chimpanzee. Kibale National Park.


+--------+
|  TAGS  |
+--------+
Chimpanzee 