+--------------------------------------+
|   Flickr Photo Metadata              |
|   Created by Bulkr on Mar 10, 2016   |
|   http://clipyourphotos.com/bulkr    |
+--------------------------------------+

+--------+
|  INFO  |
+--------+
Photographer : AndEggs
Photo URL    : https://www.flickr.com/photos/baconandeggs/5680927459/
License      : Creative Commons (http://creativecommons.org/licenses)
Taken Date   : Tue Dec 14 10:59:49 GMT+0100 2010
Upload Date  : Mon May 2 22:45:06 GMT+0200 2011
Views        : 50
Comments     : 0


+---------+
|  TITLE  |
+---------+
chimpanzee 3


+---------------+
|  DESCRIPTION  |
+---------------+
(no description)


+--------+
|  TAGS  |
+--------+
(no tags)