+--------------------------------------+
|   Flickr Photo Metadata              |
|   Created by Bulkr on Mar 10, 2016   |
|   http://clipyourphotos.com/bulkr    |
+--------------------------------------+

+--------+
|  INFO  |
+--------+
Photographer : irishwildcat
Photo URL    : https://www.flickr.com/photos/irishwildcat/1844369015/
License      : Creative Commons (http://creativecommons.org/licenses)
Taken Date   : Sun Sep 9 09:56:34 GMT+0200 2007
Upload Date  : Sat Nov 3 18:23:28 GMT+0100 2007
Views        : 1,495
Comments     : 1


+---------+
|  TITLE  |
+---------+
Age and Wisdom


+---------------+
|  DESCRIPTION  |
+---------------+
(no description)


+--------+
|  TAGS  |
+--------+
"NC Zoo" mammal chimpanzee AnimalAddiction! 