+--------------------------------------+
|   Flickr Photo Metadata              |
|   Created by Bulkr on Mar 11, 2016   |
|   http://clipyourphotos.com/bulkr    |
+--------------------------------------+

+--------+
|  INFO  |
+--------+
Photographer : cortneymartin82
Photo URL    : https://www.flickr.com/photos/cmartin82/3058258518/
License      : Creative Commons (http://creativecommons.org/licenses)
Taken Date   : Sat Nov 22 03:57:51 GMT+0100 2008
Upload Date  : Tue Nov 25 06:23:45 GMT+0100 2008
Views        : 218
Comments     : 0


+---------+
|  TITLE  |
+---------+
Don't call me "Bubbles"


+---------------+
|  DESCRIPTION  |
+---------------+
(no description)


+--------+
|  TAGS  |
+--------+
"Lincoln Park Zoo" Chicago chimp chimpanzee 