+--------------------------------------+
|   Flickr Photo Metadata              |
|   Created by Bulkr on Mar 10, 2016   |
|   http://clipyourphotos.com/bulkr    |
+--------------------------------------+

+--------+
|  INFO  |
+--------+
Photographer : Junk Food Monkey
Photo URL    : https://www.flickr.com/photos/99908158@N05/9450928283/
License      : Creative Commons (http://creativecommons.org/licenses)
Taken Date   : Sat Aug 3 12:23:33 GMT+0200 2013
Upload Date  : Tue Aug 6 19:51:43 GMT+0200 2013
Geotag Info  : Latitude:55.943384, Longitude:-3.270406
Views        : 343
Comments     : 0


+---------+
|  TITLE  |
+---------+
grrrr


+---------------+
|  DESCRIPTION  |
+---------------+
(no description)


+--------+
|  TAGS  |
+--------+
Chimp Chimpanzee 