+--------------------------------------+
|   Flickr Photo Metadata              |
|   Created by Bulkr on Mar 10, 2016   |
|   http://clipyourphotos.com/bulkr    |
+--------------------------------------+

+--------+
|  INFO  |
+--------+
Photographer : gill_penney
Photo URL    : https://www.flickr.com/photos/gillpenney/3263006632/
License      : Creative Commons (http://creativecommons.org/licenses)
Taken Date   : Sat Feb 3 16:06:46 GMT+0100 2007
Upload Date  : Sun Feb 8 11:39:39 GMT+0100 2009
Views        : 273
Comments     : 0


+---------+
|  TITLE  |
+---------+
Untitled-70


+---------------+
|  DESCRIPTION  |
+---------------+
(no description)


+--------+
|  TAGS  |
+--------+
gombe mahale tanzania chimpanzee chimps "lake tanganyika" 