+--------------------------------------+
|   Flickr Photo Metadata              |
|   Created by Bulkr on Mar 10, 2016   |
|   http://clipyourphotos.com/bulkr    |
+--------------------------------------+

+--------+
|  INFO  |
+--------+
Photographer : Just chaos
Photo URL    : https://www.flickr.com/photos/7326810@N08/1626176799/
License      : Creative Commons (http://creativecommons.org/licenses)
Taken Date   : Thu Oct 18 11:15:59 GMT+0200 2007
Upload Date  : Fri Oct 19 04:56:38 GMT+0200 2007
Views        : 179
Comments     : 0


+---------+
|  TITLE  |
+---------+
Chimpanzee


+---------------+
|  DESCRIPTION  |
+---------------+
Pan troglodytes


+--------+
|  TAGS  |
+--------+
oaklandzoo Zoo Animals Animal Mammal primate Pan troglodytes Animalia Chordata Mammalia Primates Hominidae Homininae Hominini Panina 