+--------------------------------------+
|   Flickr Photo Metadata              |
|   Created by Bulkr on Mar 11, 2016   |
|   http://clipyourphotos.com/bulkr    |
+--------------------------------------+

+--------+
|  INFO  |
+--------+
Photographer : dearanxiety
Photo URL    : https://www.flickr.com/photos/dearanxiety/4652299259/
License      : Creative Commons (http://creativecommons.org/licenses)
Taken Date   : Sun Mar 14 15:01:12 GMT+0100 2010
Upload Date  : Sun May 30 16:03:31 GMT+0200 2010
Views        : 116
Comments     : 0


+---------+
|  TITLE  |
+---------+
Ngamba Island Chimpanzee Reserve


+---------------+
|  DESCRIPTION  |
+---------------+
(no description)


+--------+
|  TAGS  |
+--------+
(no tags)