+--------------------------------------+
|   Flickr Photo Metadata              |
|   Created by Bulkr on Mar 10, 2016   |
|   http://clipyourphotos.com/bulkr    |
+--------------------------------------+

+--------+
|  INFO  |
+--------+
Photographer : dearanxiety
Photo URL    : https://www.flickr.com/photos/dearanxiety/4652274355/
License      : Creative Commons (http://creativecommons.org/licenses)
Taken Date   : Sun Mar 14 14:48:53 GMT+0100 2010
Upload Date  : Sun May 30 15:52:41 GMT+0200 2010
Views        : 34
Comments     : 0


+---------+
|  TITLE  |
+---------+
Ngamba Island Chimpanzee Reserve


+---------------+
|  DESCRIPTION  |
+---------------+
(no description)


+--------+
|  TAGS  |
+--------+
(no tags)