+--------------------------------------+
|   Flickr Photo Metadata              |
|   Created by Bulkr on Mar 10, 2016   |
|   http://clipyourphotos.com/bulkr    |
+--------------------------------------+

+--------+
|  INFO  |
+--------+
Photographer : Schristia
Photo URL    : https://www.flickr.com/photos/schristia/4369276882/
License      : Creative Commons (http://creativecommons.org/licenses)
Taken Date   : Sun Jan 24 15:34:01 GMT+0100 2010
Upload Date  : Fri Feb 19 01:10:55 GMT+0100 2010
Views        : 1,557
Comments     : 37


+---------+
|  TITLE  |
+---------+
"I am a happy chimp. You can see from my face."   (DSC_0157)


+---------------+
|  DESCRIPTION  |
+---------------+
(no description)


+--------+
|  TAGS  |
+--------+
primate ape chimpanzee zoo nature ABigFave DiamondClassPhotographer flickrdiamond 