+--------------------------------------+
|   Flickr Photo Metadata              |
|   Created by Bulkr on Mar 10, 2016   |
|   http://clipyourphotos.com/bulkr    |
+--------------------------------------+

+--------+
|  INFO  |
+--------+
Photographer : bigmick
Photo URL    : https://www.flickr.com/photos/adwentures/19187477/
License      : Creative Commons (http://creativecommons.org/licenses)
Taken Date   : Sat Jun 10 13:09:14 GMT+0200 2006
Upload Date  : Mon Jun 13 23:56:01 GMT+0200 2005
Views        : 284
Comments     : 0


+---------+
|  TITLE  |
+---------+
DSC09937


+---------------+
|  DESCRIPTION  |
+---------------+
(no description)


+--------+
|  TAGS  |
+--------+
zoo nieces taronga sydney chimpanzees apes 