+--------------------------------------+
|   Flickr Photo Metadata              |
|   Created by Bulkr on Mar 11, 2016   |
|   http://clipyourphotos.com/bulkr    |
+--------------------------------------+

+--------+
|  INFO  |
+--------+
Photographer : lora_313
Photo URL    : https://www.flickr.com/photos/lora313/3496807709/
License      : Creative Commons (http://creativecommons.org/licenses)
Taken Date   : Sun Apr 19 04:23:09 GMT+0200 2009
Upload Date  : Sun May 3 17:48:05 GMT+0200 2009
Views        : 28
Comments     : 0


+---------+
|  TITLE  |
+---------+
Hamster Show in California


+---------------+
|  DESCRIPTION  |
+---------------+
(no description)


+--------+
|  TAGS  |
+--------+
(no tags)