+--------------------------------------+
|   Flickr Photo Metadata              |
|   Created by Bulkr on Mar 11, 2016   |
|   http://clipyourphotos.com/bulkr    |
+--------------------------------------+

+--------+
|  INFO  |
+--------+
Photographer : riywo
Photo URL    : https://www.flickr.com/photos/riywo/2157772866/
License      : Creative Commons (http://creativecommons.org/licenses)
Taken Date   : Wed Dec 26 21:25:41 GMT+0100 2007
Upload Date  : Wed Jan 2 08:07:48 GMT+0100 2008
Views        : 75
Comments     : 0


+---------+
|  TITLE  |
+---------+
CIMG2316


+---------------+
|  DESCRIPTION  |
+---------------+
(no description)


+--------+
|  TAGS  |
+--------+
hamster 