+--------------------------------------+
|   Flickr Photo Metadata              |
|   Created by Bulkr on Mar 11, 2016   |
|   http://clipyourphotos.com/bulkr    |
+--------------------------------------+

+--------+
|  INFO  |
+--------+
Photographer : dennisreimann
Photo URL    : https://www.flickr.com/photos/dbloete/2238275933/
License      : Creative Commons (http://creativecommons.org/licenses)
Taken Date   : Sat Feb 2 12:48:54 GMT+0100 2008
Upload Date  : Sun Feb 3 13:00:12 GMT+0100 2008
Views        : 145
Comments     : 0


+---------+
|  TITLE  |
+---------+
PICT6663


+---------------+
|  DESCRIPTION  |
+---------------+
(no description)


+--------+
|  TAGS  |
+--------+
Finchen Hamster 