+--------------------------------------+
|   Flickr Photo Metadata              |
|   Created by Bulkr on Mar 11, 2016   |
|   http://clipyourphotos.com/bulkr    |
+--------------------------------------+

+--------+
|  INFO  |
+--------+
Photographer : .angels.
Photo URL    : https://www.flickr.com/photos/badlydrawn/13547565/
License      : Creative Commons (http://creativecommons.org/licenses)
Taken Date   : Wed May 11 19:41:40 GMT+0200 2005
Upload Date  : Thu May 12 14:35:00 GMT+0200 2005
Views        : 117
Comments     : 0


+---------+
|  TITLE  |
+---------+
IMGP3085


+---------------+
|  DESCRIPTION  |
+---------------+
ndut lagi:p lucu yah!


+--------+
|  TAGS  |
+--------+
hamster 