+--------------------------------------+
|   Flickr Photo Metadata              |
|   Created by Bulkr on Mar 11, 2016   |
|   http://clipyourphotos.com/bulkr    |
+--------------------------------------+

+--------+
|  INFO  |
+--------+
Photographer : Haxxah and KraZug
Photo URL    : https://www.flickr.com/photos/hannah_and_simon/396873590/
License      : Creative Commons (http://creativecommons.org/licenses)
Taken Date   : Tue Feb 20 21:28:59 GMT+0100 2007
Upload Date  : Tue Feb 20 22:32:59 GMT+0100 2007
Views        : 41
Comments     : 0


+---------+
|  TITLE  |
+---------+
Tug o war with lettuce


+---------------+
|  DESCRIPTION  |
+---------------+
(no description)


+--------+
|  TAGS  |
+--------+
hamster Smudge 