+--------------------------------------+
|   Flickr Photo Metadata              |
|   Created by Bulkr on Mar 11, 2016   |
|   http://clipyourphotos.com/bulkr    |
+--------------------------------------+

+--------+
|  INFO  |
+--------+
Photographer : Liebre.De.Marzo
Photo URL    : https://www.flickr.com/photos/remiradioactive/13990266287/
License      : Creative Commons (http://creativecommons.org/licenses)
Taken Date   : Mon Apr 14 12:51:53 GMT+0200 2014
Upload Date  : Tue May 13 14:40:46 GMT+0200 2014
Views        : 852
Comments     : 0


+---------+
|  TITLE  |
+---------+
Mallyn


+---------------+
|  DESCRIPTION  |
+---------------+
OLYMPUS DIGITAL CAMERA


+--------+
|  TAGS  |
+--------+
hamster 