+--------------------------------------+
|   Flickr Photo Metadata              |
|   Created by Bulkr on Mar 11, 2016   |
|   http://clipyourphotos.com/bulkr    |
+--------------------------------------+

+--------+
|  INFO  |
+--------+
Photographer : riywo
Photo URL    : https://www.flickr.com/photos/riywo/2157769552/
License      : Creative Commons (http://creativecommons.org/licenses)
Taken Date   : Mon Dec 24 18:40:32 GMT+0100 2007
Upload Date  : Wed Jan 2 08:06:16 GMT+0100 2008
Views        : 764
Comments     : 0


+---------+
|  TITLE  |
+---------+
CIMG2151


+---------------+
|  DESCRIPTION  |
+---------------+
(no description)


+--------+
|  TAGS  |
+--------+
hamster 