+--------------------------------------+
|   Flickr Photo Metadata              |
|   Created by Bulkr on Mar 11, 2016   |
|   http://clipyourphotos.com/bulkr    |
+--------------------------------------+

+--------+
|  INFO  |
+--------+
Photographer : hisashi_0822
Photo URL    : https://www.flickr.com/photos/hisashiv/1184535718/
License      : Creative Commons (http://creativecommons.org/licenses)
Taken Date   : Mon Aug 13 17:39:40 GMT+0200 2007
Upload Date  : Mon Aug 20 18:58:57 GMT+0200 2007
Views        : 670
Comments     : 0


+---------+
|  TITLE  |
+---------+
L1370935.JPG


+---------------+
|  DESCRIPTION  |
+---------------+
(no description)


+--------+
|  TAGS  |
+--------+
ハムスター hamster 