+--------------------------------------+
|   Flickr Photo Metadata              |
|   Created by Bulkr on Mar 11, 2016   |
|   http://clipyourphotos.com/bulkr    |
+--------------------------------------+

+--------+
|  INFO  |
+--------+
Photographer : henri.tomic
Photo URL    : https://www.flickr.com/photos/126148410@N03/14825315312/
License      : Creative Commons (http://creativecommons.org/licenses)
Taken Date   : Mon Aug 4 10:48:45 GMT+0200 2014
Upload Date  : Mon Aug 4 10:48:45 GMT+0200 2014
Views        : 1,369
Comments     : 0


+---------+
|  TITLE  |
+---------+
Hamster in der Transportbox


+---------------+
|  DESCRIPTION  |
+---------------+
(no description)


+--------+
|  TAGS  |
+--------+
pet Haustier Hamster animal 