+--------------------------------------+
|   Flickr Photo Metadata              |
|   Created by Bulkr on Mar 11, 2016   |
|   http://clipyourphotos.com/bulkr    |
+--------------------------------------+

+--------+
|  INFO  |
+--------+
Photographer : jpockele
Photo URL    : https://www.flickr.com/photos/jpockele/445323362/
License      : Creative Commons (http://creativecommons.org/licenses)
Taken Date   : Tue Apr 3 23:10:52 GMT+0200 2007
Upload Date  : Tue Apr 3 23:10:52 GMT+0200 2007
Geotag Info  : Latitude:51.279589, Longitude:4.442111
Views        : 426
Comments     : 0


+---------+
|  TITLE  |
+---------+
Maria's new home


+---------------+
|  DESCRIPTION  |
+---------------+
(no description)


+--------+
|  TAGS  |
+--------+
sien en maria roborofski dwarf hamster 