+--------------------------------------+
|   Flickr Photo Metadata              |
|   Created by Bulkr on Mar 11, 2016   |
|   http://clipyourphotos.com/bulkr    |
+--------------------------------------+

+--------+
|  INFO  |
+--------+
Photographer : steffens77
Photo URL    : https://www.flickr.com/photos/steffens77/9918757514/
License      : Creative Commons (http://creativecommons.org/licenses)
Taken Date   : Thu Sep 19 11:13:25 GMT+0200 2013
Upload Date  : Tue Sep 24 18:56:02 GMT+0200 2013
Geotag Info  : Latitude:41.970766, Longitude:-91.712242
Views        : 93
Comments     : 0


+---------+
|  TITLE  |
+---------+
(no title)


+---------------+
|  DESCRIPTION  |
+---------------+
(no description)


+--------+
|  TAGS  |
+--------+
hamster Oreo pets 