+--------------------------------------+
|   Flickr Photo Metadata              |
|   Created by Bulkr on Mar 11, 2016   |
|   http://clipyourphotos.com/bulkr    |
+--------------------------------------+

+--------+
|  INFO  |
+--------+
Photographer : wendati
Photo URL    : https://www.flickr.com/photos/wendati/480191635/
License      : Creative Commons (http://creativecommons.org/licenses)
Taken Date   : Sat Aug 5 18:11:12 GMT+0200 2006
Upload Date  : Tue May 1 19:47:27 GMT+0200 2007
Geotag Info  : Latitude:51.764241, Longitude:5.514289
Views        : 92
Comments     : 0


+---------+
|  TITLE  |
+---------+
PICT1003


+---------------+
|  DESCRIPTION  |
+---------------+
(no description)


+--------+
|  TAGS  |
+--------+
hamster animal 