+--------------------------------------+
|   Flickr Photo Metadata              |
|   Created by Bulkr on Mar 11, 2016   |
|   http://clipyourphotos.com/bulkr    |
+--------------------------------------+

+--------+
|  INFO  |
+--------+
Photographer : Vivatier
Photo URL    : https://www.flickr.com/photos/vivatier/4462184654/
License      : Creative Commons (http://creativecommons.org/licenses)
Taken Date   : Thu Mar 25 10:06:42 GMT+0100 2010
Upload Date  : Thu Mar 25 10:06:42 GMT+0100 2010
Views        : 701
Comments     : 0


+---------+
|  TITLE  |
+---------+
Kleintiere_03


+---------------+
|  DESCRIPTION  |
+---------------+
(no description)


+--------+
|  TAGS  |
+--------+
Kleintiere Kleintier Hamster Meerschwein Frettchen Hase 