+--------------------------------------+
|   Flickr Photo Metadata              |
|   Created by Bulkr on Mar 11, 2016   |
|   http://clipyourphotos.com/bulkr    |
+--------------------------------------+

+--------+
|  INFO  |
+--------+
Photographer : jpockele
Photo URL    : https://www.flickr.com/photos/jpockele/301199462/
License      : Creative Commons (http://creativecommons.org/licenses)
Taken Date   : Sun Nov 19 21:38:11 GMT+0100 2006
Upload Date  : Sun Nov 19 21:38:11 GMT+0100 2006
Geotag Info  : Latitude:51.279555, Longitude:4.442338
Views        : 906
Comments     : 4


+---------+
|  TITLE  |
+---------+
Sien and Maria


+---------------+
|  DESCRIPTION  |
+---------------+
(no description)


+--------+
|  TAGS  |
+--------+
"Sien en Maria" roborofsky dwarf hamster cute 