+--------------------------------------+
|   Flickr Photo Metadata              |
|   Created by Bulkr on Mar 11, 2016   |
|   http://clipyourphotos.com/bulkr    |
+--------------------------------------+

+--------+
|  INFO  |
+--------+
Photographer : Lyn Lomasi
Photo URL    : https://www.flickr.com/photos/lynlomasi/7957267750/
License      : Creative Commons (http://creativecommons.org/licenses)
Taken Date   : Tue Aug 16 07:36:24 GMT+0200 2011
Upload Date  : Sat Sep 8 22:16:57 GMT+0200 2012
Views        : 1,292
Comments     : 0


+---------+
|  TITLE  |
+---------+
Russian Dwarf Hamster Saying Hi


+---------------+
|  DESCRIPTION  |
+---------------+
(no description)


+--------+
|  TAGS  |
+--------+
hamsters dwarf Russian pets 