+--------------------------------------+
|   Flickr Photo Metadata              |
|   Created by Bulkr on Mar 11, 2016   |
|   http://clipyourphotos.com/bulkr    |
+--------------------------------------+

+--------+
|  INFO  |
+--------+
Photographer : necrocake
Photo URL    : https://www.flickr.com/photos/necrocake/2381406924/
License      : Creative Commons (http://creativecommons.org/licenses)
Taken Date   : Wed Apr 2 00:14:45 GMT+0200 2008
Upload Date  : Wed Apr 2 00:14:45 GMT+0200 2008
Views        : 568
Comments     : 0


+---------+
|  TITLE  |
+---------+
two hams and a sink


+---------------+
|  DESCRIPTION  |
+---------------+
Hannelore is a bit on the fat side, so I decided to give her a new workout to mix things up. I had her sis join so she won't be so lonely


+--------+
|  TAGS  |
+--------+
Roborovski robos dwarf hamster pets sink 