+--------------------------------------+
|   Flickr Photo Metadata              |
|   Created by Bulkr on Mar 11, 2016   |
|   http://clipyourphotos.com/bulkr    |
+--------------------------------------+

+--------+
|  INFO  |
+--------+
Photographer : Kamalts
Photo URL    : https://www.flickr.com/photos/134188516@N05/19154568904/
License      : Creative Commons (http://creativecommons.org/licenses)
Taken Date   : Fri Jul 17 09:54:33 GMT+0200 2015
Upload Date  : Fri Jul 17 18:54:33 GMT+0200 2015
Views        : 139
Comments     : 0


+---------+
|  TITLE  |
+---------+
Hámster enjaulado


+---------------+
|  DESCRIPTION  |
+---------------+
(no description)


+--------+
|  TAGS  |
+--------+
hamster macro bigotes hocico mascota animal naturaleza pelaje curioso 