+--------------------------------------+
|   Flickr Photo Metadata              |
|   Created by Bulkr on Mar 11, 2016   |
|   http://clipyourphotos.com/bulkr    |
+--------------------------------------+

+--------+
|  INFO  |
+--------+
Photographer : dennisreimann
Photo URL    : https://www.flickr.com/photos/dbloete/2243371335/
License      : Creative Commons (http://creativecommons.org/licenses)
Taken Date   : Mon Feb 4 18:59:51 GMT+0100 2008
Upload Date  : Tue Feb 5 11:26:34 GMT+0100 2008
Views        : 235
Comments     : 1


+---------+
|  TITLE  |
+---------+
PICT6690


+---------------+
|  DESCRIPTION  |
+---------------+
(no description)


+--------+
|  TAGS  |
+--------+
Hamster Finchen 