+--------------------------------------+
|   Flickr Photo Metadata              |
|   Created by Bulkr on Mar 11, 2016   |
|   http://clipyourphotos.com/bulkr    |
+--------------------------------------+

+--------+
|  INFO  |
+--------+
Photographer : lincoln-log
Photo URL    : https://www.flickr.com/photos/lincolnlog/1117553583/
License      : Creative Commons (http://creativecommons.org/licenses)
Taken Date   : Sun Feb 22 07:16:15 GMT+0100 2004
Upload Date  : Tue Aug 14 21:06:46 GMT+0200 2007
Views        : 194
Comments     : 1


+---------+
|  TITLE  |
+---------+
tessyandthehampster


+---------------+
|  DESCRIPTION  |
+---------------+
(no description)


+--------+
|  TAGS  |
+--------+
hamster 