+--------------------------------------+
|   Flickr Photo Metadata              |
|   Created by Bulkr on Mar 11, 2016   |
|   http://clipyourphotos.com/bulkr    |
+--------------------------------------+

+--------+
|  INFO  |
+--------+
Photographer : the.exploding.girl.
Photo URL    : https://www.flickr.com/photos/the-exploding-girl/9231663016/
License      : Creative Commons (http://creativecommons.org/licenses)
Taken Date   : Sun Jul 7 11:30:01 GMT+0200 2013
Upload Date  : Sun Jul 7 16:30:01 GMT+0200 2013
Views        : 127
Comments     : 0


+---------+
|  TITLE  |
+---------+
Mi pequeño amor #hamster


+---------------+
|  DESCRIPTION  |
+---------------+
(no description)


+--------+
|  TAGS  |
+--------+
"instagram app" square "square format" iphoneography uploaded:by=instagram Walden 