+--------------------------------------+
|   Flickr Photo Metadata              |
|   Created by Bulkr on Mar 11, 2016   |
|   http://clipyourphotos.com/bulkr    |
+--------------------------------------+

+--------+
|  INFO  |
+--------+
Photographer : Damork
Photo URL    : https://www.flickr.com/photos/damork/6080432403/
License      : Creative Commons (http://creativecommons.org/licenses)
Taken Date   : Sat Aug 20 19:05:17 GMT+0200 2011
Upload Date  : Thu Aug 25 23:09:55 GMT+0200 2011
Views        : 145
Comments     : 0


+---------+
|  TITLE  |
+---------+
IMG_7406


+---------------+
|  DESCRIPTION  |
+---------------+
(no description)


+--------+
|  TAGS  |
+--------+
pertti bertil hamster roborowski 