+--------------------------------------+
|   Flickr Photo Metadata              |
|   Created by Bulkr on Mar 11, 2016   |
|   http://clipyourphotos.com/bulkr    |
+--------------------------------------+

+--------+
|  INFO  |
+--------+
Photographer : frankieleon
Photo URL    : https://www.flickr.com/photos/armydre2008/3955264135/
License      : Creative Commons (http://creativecommons.org/licenses)
Taken Date   : Sat Sep 26 10:57:27 GMT+0200 2009
Upload Date  : Sat Sep 26 17:08:55 GMT+0200 2009
Views        : 1,128
Comments     : 2


+---------+
|  TITLE  |
+---------+
stare down the paparazzi


+---------------+
|  DESCRIPTION  |
+---------------+
(no description)


+--------+
|  TAGS  |
+--------+
"dwarf hamster" pet animal cute cage prison bars crunchie rat race photographer paparazzi mouse small frankieleon mice "Creative Commons" "best of" interestingness popular interesting cc 