+--------------------------------------+
|   Flickr Photo Metadata              |
|   Created by Bulkr on Mar 11, 2016   |
|   http://clipyourphotos.com/bulkr    |
+--------------------------------------+

+--------+
|  INFO  |
+--------+
Photographer : riywo
Photo URL    : https://www.flickr.com/photos/riywo/2168143249/
License      : Creative Commons (http://creativecommons.org/licenses)
Taken Date   : Sat Jan 5 17:56:51 GMT+0100 2008
Upload Date  : Sat Jan 5 15:22:32 GMT+0100 2008
Views        : 84
Comments     : 0


+---------+
|  TITLE  |
+---------+
CIMG2440


+---------------+
|  DESCRIPTION  |
+---------------+
(no description)


+--------+
|  TAGS  |
+--------+
hamster 