+--------------------------------------+
|   Flickr Photo Metadata              |
|   Created by Bulkr on Mar 11, 2016   |
|   http://clipyourphotos.com/bulkr    |
+--------------------------------------+

+--------+
|  INFO  |
+--------+
Photographer : rkimpeljr
Photo URL    : https://www.flickr.com/photos/rkimpeljr/195515233/
License      : Creative Commons (http://creativecommons.org/licenses)
Taken Date   : Thu Mar 23 22:45:14 GMT+0100 2006
Upload Date  : Sat Jul 22 20:13:11 GMT+0200 2006
Views        : 34
Comments     : 0


+---------+
|  TITLE  |
+---------+
P1020425


+---------------+
|  DESCRIPTION  |
+---------------+
(no description)


+--------+
|  TAGS  |
+--------+
Harvey hamster couch 