+--------------------------------------+
|   Flickr Photo Metadata              |
|   Created by Bulkr on Mar 11, 2016   |
|   http://clipyourphotos.com/bulkr    |
+--------------------------------------+

+--------+
|  INFO  |
+--------+
Photographer : cdrussorusso
Photo URL    : https://www.flickr.com/photos/23516192@N08/2631488991/
License      : Creative Commons (http://creativecommons.org/licenses)
Taken Date   : Sun Mar 30 22:23:32 GMT+0200 2008
Upload Date  : Wed Jul 2 23:15:30 GMT+0200 2008
Views        : 950
Comments     : 1


+---------+
|  TITLE  |
+---------+
Hero


+---------------+
|  DESCRIPTION  |
+---------------+
(no description)


+--------+
|  TAGS  |
+--------+
dwarf hamster cute adorable sweet small chomik criceto Русский křeček 宠物仓鼠 動物ハムスター estrangeirismo Cricetinae Trpasličí Dwerg nain Nano ドワーフハムスター 드워프 햄스터 Гном Hámster Enano 