+--------------------------------------+
|   Flickr Photo Metadata              |
|   Created by Bulkr on Mar 11, 2016   |
|   http://clipyourphotos.com/bulkr    |
+--------------------------------------+

+--------+
|  INFO  |
+--------+
Photographer : riywo
Photo URL    : https://www.flickr.com/photos/riywo/2156989973/
License      : Creative Commons (http://creativecommons.org/licenses)
Taken Date   : Tue Jan 1 13:43:28 GMT+0100 2008
Upload Date  : Wed Jan 2 08:14:46 GMT+0100 2008
Views        : 77
Comments     : 0


+---------+
|  TITLE  |
+---------+
CIMG2352


+---------------+
|  DESCRIPTION  |
+---------------+
(no description)


+--------+
|  TAGS  |
+--------+
hamster 