+--------------------------------------+
|   Flickr Photo Metadata              |
|   Created by Bulkr on Mar 11, 2016   |
|   http://clipyourphotos.com/bulkr    |
+--------------------------------------+

+--------+
|  INFO  |
+--------+
Photographer : cdrussorusso
Photo URL    : https://www.flickr.com/photos/23516192@N08/3337957254/
License      : Creative Commons (http://creativecommons.org/licenses)
Taken Date   : Wed Mar 4 22:52:03 GMT+0100 2009
Upload Date  : Sun Mar 8 13:10:54 GMT+0100 2009
Views        : 1,682
Comments     : 1


+---------+
|  TITLE  |
+---------+
Dinner time.


+---------------+
|  DESCRIPTION  |
+---------------+
(no description)


+--------+
|  TAGS  |
+--------+
winter white dwarf hamster Cricetinae CHOMIK 宠物仓鼠 動物ハムスター criceto Trpasličí křeček Dwerg nain Nano ドワーフハムスター 드워프 햄스터 Гном Hámster Enano 