+--------------------------------------+
|   Flickr Photo Metadata              |
|   Created by Bulkr on Mar 11, 2016   |
|   http://clipyourphotos.com/bulkr    |
+--------------------------------------+

+--------+
|  INFO  |
+--------+
Photographer : necrocake
Photo URL    : https://www.flickr.com/photos/necrocake/2449227235/
License      : Creative Commons (http://creativecommons.org/licenses)
Taken Date   : Sat Mar 29 21:41:53 GMT+0100 2008
Upload Date  : Mon Apr 28 21:23:35 GMT+0200 2008
Views        : 243
Comments     : 1


+---------+
|  TITLE  |
+---------+
Vibeke


+---------------+
|  DESCRIPTION  |
+---------------+
What's that?


+--------+
|  TAGS  |
+--------+
roborovski robo hamster dwarf pet 