+--------------------------------------+
|   Flickr Photo Metadata              |
|   Created by Bulkr on Mar 11, 2016   |
|   http://clipyourphotos.com/bulkr    |
+--------------------------------------+

+--------+
|  INFO  |
+--------+
Photographer : Jess Peacock
Photo URL    : https://www.flickr.com/photos/cheekymunkey21/4317560054/
License      : Creative Commons (http://creativecommons.org/licenses)
Taken Date   : Sun Jan 31 00:24:37 GMT+0100 2010
Upload Date  : Sun Jan 31 01:31:11 GMT+0100 2010
Views        : 401
Comments     : 0


+---------+
|  TITLE  |
+---------+
Black Hamster


+---------------+
|  DESCRIPTION  |
+---------------+
(no description)


+--------+
|  TAGS  |
+--------+
Hamster 