+--------------------------------------+
|   Flickr Photo Metadata              |
|   Created by Bulkr on Mar 11, 2016   |
|   http://clipyourphotos.com/bulkr    |
+--------------------------------------+

+--------+
|  INFO  |
+--------+
Photographer : .angels.
Photo URL    : https://www.flickr.com/photos/badlydrawn/67022022/
License      : Creative Commons (http://creativecommons.org/licenses)
Taken Date   : Fri Nov 25 09:02:17 GMT+0100 2005
Upload Date  : Sat Nov 26 07:29:58 GMT+0100 2005
Views        : 63
Comments     : 1


+---------+
|  TITLE  |
+---------+
25112005(004)


+---------------+
|  DESCRIPTION  |
+---------------+
(no description)


+--------+
|  TAGS  |
+--------+
Hamster 