+--------------------------------------+
|   Flickr Photo Metadata              |
|   Created by Bulkr on Mar 11, 2016   |
|   http://clipyourphotos.com/bulkr    |
+--------------------------------------+

+--------+
|  INFO  |
+--------+
Photographer : Checo Che
Photo URL    : https://www.flickr.com/photos/checoche/9426381370/
License      : Creative Commons (http://creativecommons.org/licenses)
Taken Date   : Sun Jan 6 18:23:13 GMT+0100 2013
Upload Date  : Sat Aug 3 01:59:52 GMT+0200 2013
Views        : 558
Comments     : 0


+---------+
|  TITLE  |
+---------+
Mechita le pidió semillas de girasol...


+---------------+
|  DESCRIPTION  |
+---------------+
Mechita le pidió semillas de girasol a los reyes y ellos le cumplen 

7 Likes on Instagram

3 Comments on Instagram:

<a href="http://instagram.com/roxanne1406" rel="nofollow">roxanne1406</a>: No le pide barritas para hámster?

<a href="http://instagram.com/checoche" rel="nofollow">checoche</a>: @roxanne1406 ella dice que es 100% natural, puro gourmet :P

<a href="http://instagram.com/alleart" rel="nofollow">alleart</a>: Qué linda está Meche bb


+--------+
|  TAGS  |
+--------+
uploaded:by=flickstagram instagram:photo=363271785458988914_418356 