+--------------------------------------+
|   Flickr Photo Metadata              |
|   Created by Bulkr on Mar 11, 2016   |
|   http://clipyourphotos.com/bulkr    |
+--------------------------------------+

+--------+
|  INFO  |
+--------+
Photographer : cdrussorusso
Photo URL    : https://www.flickr.com/photos/23516192@N08/3431564043/
License      : Creative Commons (http://creativecommons.org/licenses)
Taken Date   : Sat Apr 11 19:33:22 GMT+0200 2009
Upload Date  : Sat Apr 11 20:37:18 GMT+0200 2009
Views        : 6,163
Comments     : 3


+---------+
|  TITLE  |
+---------+
Roborovski Hamster


+---------------+
|  DESCRIPTION  |
+---------------+
I just scattered there food around, roughly 60 or 70 pieces of food and they both wanted the same one. 2 seconds after this picture they were both TRYING to eat the same piece.


+--------+
|  TAGS  |
+--------+
Roborovski Dwarf Hamster adorable chinese chomik chomiki ciamus cricetinae criceto cute cutest dwerg enano estrangeirismo hamsters hámster kupa krecek savic sawdust cage critter hammie pet scooby doo zuzia animal rodent animals milutkie winter white nain nano roborovsky russian russians scubus small sweet syrian teeth trpaslicí 