+--------------------------------------+
|   Flickr Photo Metadata              |
|   Created by Bulkr on Mar 11, 2016   |
|   http://clipyourphotos.com/bulkr    |
+--------------------------------------+

+--------+
|  INFO  |
+--------+
Photographer : necrocake
Photo URL    : https://www.flickr.com/photos/necrocake/2431922989/
License      : Creative Commons (http://creativecommons.org/licenses)
Taken Date   : Fri Mar 21 13:06:28 GMT+0100 2008
Upload Date  : Tue Apr 22 01:29:01 GMT+0200 2008
Views        : 1,154
Comments     : 1


+---------+
|  TITLE  |
+---------+
hannelore


+---------------+
|  DESCRIPTION  |
+---------------+
hehe if you look closely you can see her foot. I'm almost look like I am choking her because you cheeks were so stuffed XD Taken with my boy's camera


+--------+
|  TAGS  |
+--------+
roborovski robo dwarf hamster pet 