+--------------------------------------+
|   Flickr Photo Metadata              |
|   Created by Bulkr on Mar 11, 2016   |
|   http://clipyourphotos.com/bulkr    |
+--------------------------------------+

+--------+
|  INFO  |
+--------+
Photographer : cdrussorusso
Photo URL    : https://www.flickr.com/photos/23516192@N08/2453243986/
License      : Creative Commons (http://creativecommons.org/licenses)
Taken Date   : Fri Feb 22 22:18:05 GMT+0100 2008
Upload Date  : Wed Apr 30 00:49:48 GMT+0200 2008
Views        : 8,783
Comments     : 9


+---------+
|  TITLE  |
+---------+
Russian Dwarf Hamster


+---------------+
|  DESCRIPTION  |
+---------------+
(no description)


+--------+
|  TAGS  |
+--------+
hamster hamsters chomik chomiki dwarf syrian russian roborovsky Cricetinae 宠物仓鼠 動物ハムスター criceto Trpasličí křeček Dwerg nain Nano ドワーフハムスター 드워프 햄스터 Гном Hámster Enano 