+--------------------------------------+
|   Flickr Photo Metadata              |
|   Created by Bulkr on Mar 11, 2016   |
|   http://clipyourphotos.com/bulkr    |
+--------------------------------------+

+--------+
|  INFO  |
+--------+
Photographer : Zaloa Etxaniz
Photo URL    : https://www.flickr.com/photos/zetxaniz/7163949329/
License      : Creative Commons (http://creativecommons.org/licenses)
Taken Date   : Thu Jun 7 18:56:22 GMT+0200 2012
Upload Date  : Thu Jun 7 21:15:43 GMT+0200 2012
Views        : 187
Comments     : 0


+---------+
|  TITLE  |
+---------+
Txuri


+---------------+
|  DESCRIPTION  |
+---------------+
familixako 5garrena


+--------+
|  TAGS  |
+--------+
txuri hamster 