+--------------------------------------+
|   Flickr Photo Metadata              |
|   Created by Bulkr on Mar 11, 2016   |
|   http://clipyourphotos.com/bulkr    |
+--------------------------------------+

+--------+
|  INFO  |
+--------+
Photographer : necrocake
Photo URL    : https://www.flickr.com/photos/necrocake/2363078846/
License      : Creative Commons (http://creativecommons.org/licenses)
Taken Date   : Wed Mar 19 23:08:38 GMT+0100 2008
Upload Date  : Wed Mar 26 03:29:52 GMT+0100 2008
Views        : 226
Comments     : 0


+---------+
|  TITLE  |
+---------+
Vibeke


+---------------+
|  DESCRIPTION  |
+---------------+
Yogurt drop!!!


+--------+
|  TAGS  |
+--------+
roborovski robo dwarf hamster pet 