+--------------------------------------+
|   Flickr Photo Metadata              |
|   Created by Bulkr on Mar 11, 2016   |
|   http://clipyourphotos.com/bulkr    |
+--------------------------------------+

+--------+
|  INFO  |
+--------+
Photographer : Zaloa Etxaniz
Photo URL    : https://www.flickr.com/photos/zetxaniz/7349159400/
License      : Creative Commons (http://creativecommons.org/licenses)
Taken Date   : Thu Jun 7 18:53:53 GMT+0200 2012
Upload Date  : Thu Jun 7 21:15:39 GMT+0200 2012
Views        : 146
Comments     : 0


+---------+
|  TITLE  |
+---------+
(no title)


+---------------+
|  DESCRIPTION  |
+---------------+
(no description)


+--------+
|  TAGS  |
+--------+
txuri hamster 