+--------------------------------------+
|   Flickr Photo Metadata              |
|   Created by Bulkr on Mar 11, 2016   |
|   http://clipyourphotos.com/bulkr    |
+--------------------------------------+

+--------+
|  INFO  |
+--------+
Photographer : Su--May
Photo URL    : https://www.flickr.com/photos/su-may/6403930813/
License      : Creative Commons (http://creativecommons.org/licenses)
Taken Date   : Tue Nov 22 22:23:02 GMT+0100 2011
Upload Date  : Sat Nov 26 08:18:38 GMT+0100 2011
Views        : 657
Comments     : 0


+---------+
|  TITLE  |
+---------+
Boris the hamster


+---------------+
|  DESCRIPTION  |
+---------------+
(no description)


+--------+
|  TAGS  |
+--------+
"Boris Alexander Harrods male syrian hamster" Su-May took pictures "Boris the hamster" Hamsters Hamster "Syrian hamster" "Male syrian hamster" "Boris The Chan" 