+--------------------------------------+
|   Flickr Photo Metadata              |
|   Created by Bulkr on Mar 11, 2016   |
|   http://clipyourphotos.com/bulkr    |
+--------------------------------------+

+--------+
|  INFO  |
+--------+
Photographer : farfouillechani
Photo URL    : https://www.flickr.com/photos/farfouille/3086777523/
License      : Creative Commons (http://creativecommons.org/licenses)
Taken Date   : Sat Dec 6 11:09:31 GMT+0100 2008
Upload Date  : Sat Dec 6 20:09:31 GMT+0100 2008
Views        : 13
Comments     : 0


+---------+
|  TITLE  |
+---------+
Hamster


+---------------+
|  DESCRIPTION  |
+---------------+
(no description)


+--------+
|  TAGS  |
+--------+
800x600 