+--------------------------------------+
|   Flickr Photo Metadata              |
|   Created by Bulkr on Mar 11, 2016   |
|   http://clipyourphotos.com/bulkr    |
+--------------------------------------+

+--------+
|  INFO  |
+--------+
Photographer : Extra Zebra
Photo URL    : https://www.flickr.com/photos/23438569@N02/6757523563/
License      : Creative Commons (http://creativecommons.org/licenses)
Taken Date   : Sun Aug 28 15:01:03 GMT+0200 2011
Upload Date  : Wed Jan 25 00:58:52 GMT+0100 2012
Views        : 4,215
Comments     : 6


+---------+
|  TITLE  |
+---------+
Animal


+---------------+
|  DESCRIPTION  |
+---------------+
(no description)


+--------+
|  TAGS  |
+--------+
hamster animal zoo cute 