+--------------------------------------+
|   Flickr Photo Metadata              |
|   Created by Bulkr on Mar 11, 2016   |
|   http://clipyourphotos.com/bulkr    |
+--------------------------------------+

+--------+
|  INFO  |
+--------+
Photographer : Lyn Lomasi
Photo URL    : https://www.flickr.com/photos/lynlomasi/7957046718/
License      : Creative Commons (http://creativecommons.org/licenses)
Taken Date   : Sun Oct 23 02:53:00 GMT+0200 2011
Upload Date  : Sat Sep 8 22:17:23 GMT+0200 2012
Views        : 653
Comments     : 0


+---------+
|  TITLE  |
+---------+
Russian Dwarf Hamster Coming Home


+---------------+
|  DESCRIPTION  |
+---------------+
(no description)


+--------+
|  TAGS  |
+--------+
hamsters pets dwarf hamster 