+--------------------------------------+
|   Flickr Photo Metadata              |
|   Created by Bulkr on Mar 11, 2016   |
|   http://clipyourphotos.com/bulkr    |
+--------------------------------------+

+--------+
|  INFO  |
+--------+
Photographer : Marc Bres Gil
Photo URL    : https://www.flickr.com/photos/marcbres/6961367087/
License      : Creative Commons (http://creativecommons.org/licenses)
Taken Date   : Sat Jan 28 22:04:41 GMT+0100 2012
Upload Date  : Wed Mar 7 11:46:13 GMT+0100 2012
Views        : 88
Comments     : 0


+---------+
|  TITLE  |
+---------+
IMG_3790


+---------------+
|  DESCRIPTION  |
+---------------+
(no description)


+--------+
|  TAGS  |
+--------+
hàmsters hamsters 