+--------------------------------------+
|   Flickr Photo Metadata              |
|   Created by Bulkr on Mar 11, 2016   |
|   http://clipyourphotos.com/bulkr    |
+--------------------------------------+

+--------+
|  INFO  |
+--------+
Photographer : Haxxah and KraZug
Photo URL    : https://www.flickr.com/photos/hannah_and_simon/707331042/
License      : Creative Commons (http://creativecommons.org/licenses)
Taken Date   : Sun Jul 1 20:38:52 GMT+0200 2007
Upload Date  : Tue Jul 3 19:04:11 GMT+0200 2007
Views        : 75
Comments     : 0


+---------+
|  TITLE  |
+---------+
Smudge with a new toy (20)


+---------------+
|  DESCRIPTION  |
+---------------+
(no description)


+--------+
|  TAGS  |
+--------+
hamster Smudge 