+--------------------------------------+
|   Flickr Photo Metadata              |
|   Created by Bulkr on Mar 11, 2016   |
|   http://clipyourphotos.com/bulkr    |
+--------------------------------------+

+--------+
|  INFO  |
+--------+
Photographer : Damork
Photo URL    : https://www.flickr.com/photos/damork/3980007070/
License      : Creative Commons (http://creativecommons.org/licenses)
Taken Date   : Wed Sep 9 19:43:05 GMT+0200 2009
Upload Date  : Sun Oct 4 13:46:11 GMT+0200 2009
Views        : 214
Comments     : 0


+---------+
|  TITLE  |
+---------+
Pieni tuholainen


+---------------+
|  DESCRIPTION  |
+---------------+
(no description)


+--------+
|  TAGS  |
+--------+
hamster hamsteri 