+--------------------------------------+
|   Flickr Photo Metadata              |
|   Created by Bulkr on Mar 11, 2016   |
|   http://clipyourphotos.com/bulkr    |
+--------------------------------------+

+--------+
|  INFO  |
+--------+
Photographer : The359
Photo URL    : https://www.flickr.com/photos/the359/802221250/
License      : Creative Commons (http://creativecommons.org/licenses)
Taken Date   : Mon Jul 2 02:34:49 GMT+0200 2007
Upload Date  : Fri Jul 13 22:47:20 GMT+0200 2007
Views        : 107
Comments     : 0


+---------+
|  TITLE  |
+---------+
Pause


+---------------+
|  DESCRIPTION  |
+---------------+
(no description)


+--------+
|  TAGS  |
+--------+
hamster 