+--------------------------------------+
|   Flickr Photo Metadata              |
|   Created by Bulkr on Mar 11, 2016   |
|   http://clipyourphotos.com/bulkr    |
+--------------------------------------+

+--------+
|  INFO  |
+--------+
Photographer : necrocake
Photo URL    : https://www.flickr.com/photos/necrocake/2535054410/
License      : Creative Commons (http://creativecommons.org/licenses)
Taken Date   : Fri May 23 02:25:26 GMT+0200 2008
Upload Date  : Fri May 30 00:07:56 GMT+0200 2008
Views        : 161
Comments     : 0


+---------+
|  TITLE  |
+---------+
Vibeke


+---------------+
|  DESCRIPTION  |
+---------------+
(no description)


+--------+
|  TAGS  |
+--------+
roborovski robo hamster dawrf pet 