+--------------------------------------+
|   Flickr Photo Metadata              |
|   Created by Bulkr on Mar 11, 2016   |
|   http://clipyourphotos.com/bulkr    |
+--------------------------------------+

+--------+
|  INFO  |
+--------+
Photographer : 00abstrahiert99
Photo URL    : https://www.flickr.com/photos/discofiasko/973262382/
License      : Creative Commons (http://creativecommons.org/licenses)
Taken Date   : Sat Jul 14 12:29:46 GMT+0200 2007
Upload Date  : Wed Aug 1 12:44:23 GMT+0200 2007
Views        : 116
Comments     : 0


+---------+
|  TITLE  |
+---------+
barcelona 22.


+---------------+
|  DESCRIPTION  |
+---------------+
(no description)


+--------+
|  TAGS  |
+--------+
barcelona larambla cage hamster guineapig 