+--------------------------------------+
|   Flickr Photo Metadata              |
|   Created by Bulkr on Mar 11, 2016   |
|   http://clipyourphotos.com/bulkr    |
+--------------------------------------+

+--------+
|  INFO  |
+--------+
Photographer : cliff1066™
Photo URL    : https://www.flickr.com/photos/nostri-imago/3605415297/
License      : Creative Commons (http://creativecommons.org/licenses)
Taken Date   : Sun Jun 7 21:52:54 GMT+0200 2009
Upload Date  : Mon Jun 8 05:17:04 GMT+0200 2009
Views        : 296
Comments     : 0


+---------+
|  TITLE  |
+---------+
DSCN2248


+---------------+
|  DESCRIPTION  |
+---------------+
(no description)


+--------+
|  TAGS  |
+--------+
Loki Hamster 