+--------------------------------------+
|   Flickr Photo Metadata              |
|   Created by Bulkr on Mar 11, 2016   |
|   http://clipyourphotos.com/bulkr    |
+--------------------------------------+

+--------+
|  INFO  |
+--------+
Photographer : º|Sangmin|º
Photo URL    : https://www.flickr.com/photos/sangmin/3531203941/
License      : Creative Commons (http://creativecommons.org/licenses)
Taken Date   : Wed Mar 18 12:07:22 GMT+0100 2009
Upload Date  : Thu May 14 22:18:49 GMT+0200 2009
Views        : 1,158
Comments     : 1


+---------+
|  TITLE  |
+---------+
Cute Little Hamster


+---------------+
|  DESCRIPTION  |
+---------------+
say hi to my hamster! ^^


+--------+
|  TAGS  |
+--------+
hamster cute "let me out" please hey hello 