+--------------------------------------+
|   Flickr Photo Metadata              |
|   Created by Bulkr on Mar 11, 2016   |
|   http://clipyourphotos.com/bulkr    |
+--------------------------------------+

+--------+
|  INFO  |
+--------+
Photographer : PretendSky
Photo URL    : https://www.flickr.com/photos/115521320@N03/12147492684/
License      : Creative Commons (http://creativecommons.org/licenses)
Taken Date   : Tue Mar 29 16:15:37 GMT+0200 2011
Upload Date  : Sun Jan 26 08:30:13 GMT+0100 2014
Views        : 26
Comments     : 0


+---------+
|  TITLE  |
+---------+
Otis III


+---------------+
|  DESCRIPTION  |
+---------------+
my hamster


+--------+
|  TAGS  |
+--------+
(no tags)