+--------------------------------------+
|   Flickr Photo Metadata              |
|   Created by Bulkr on Mar 11, 2016   |
|   http://clipyourphotos.com/bulkr    |
+--------------------------------------+

+--------+
|  INFO  |
+--------+
Photographer : Keren_
Photo URL    : https://www.flickr.com/photos/keren/4183683725/
License      : Creative Commons (http://creativecommons.org/licenses)
Taken Date   : Mon Nov 16 11:37:41 GMT+0100 2009
Upload Date  : Mon Dec 14 09:45:13 GMT+0100 2009
Views        : 246
Comments     : 0


+---------+
|  TITLE  |
+---------+
Alie


+---------------+
|  DESCRIPTION  |
+---------------+
(no description)


+--------+
|  TAGS  |
+--------+
hamster 