+--------------------------------------+
|   Flickr Photo Metadata              |
|   Created by Bulkr on Mar 11, 2016   |
|   http://clipyourphotos.com/bulkr    |
+--------------------------------------+

+--------+
|  INFO  |
+--------+
Photographer : dennisreimann
Photo URL    : https://www.flickr.com/photos/dbloete/2244163508/
License      : Creative Commons (http://creativecommons.org/licenses)
Taken Date   : Sun Feb 3 14:34:42 GMT+0100 2008
Upload Date  : Tue Feb 5 11:25:34 GMT+0100 2008
Views        : 742
Comments     : 3


+---------+
|  TITLE  |
+---------+
PICT6686


+---------------+
|  DESCRIPTION  |
+---------------+
(no description)


+--------+
|  TAGS  |
+--------+
Hamster Finchen 