+--------------------------------------+
|   Flickr Photo Metadata              |
|   Created by Bulkr on Apr 19, 2016   |
|   http://clipyourphotos.com/bulkr    |
+--------------------------------------+

+--------+
|  INFO  |
+--------+
Photographer : LandBetweenTheLakesKYTN
Photo URL    : https://www.flickr.com/photos/lblkytn/14834703171/
License      : Creative Commons (http://creativecommons.org/licenses)
Taken Date   : Tue Jun 17 13:51:10 GMT+0200 2014
Upload Date  : Tue Aug 5 20:18:16 GMT+0200 2014
Views        : 466
Comments     : 0


+---------+
|  TITLE  |
+---------+
Bobcat


+---------------+
|  DESCRIPTION  |
+---------------+
Taken at Woodlands Nature Station in Land Between The Lakes. Photo by Brooke Gilley


+--------+
|  TAGS  |
+--------+
LandBetweenTheLakesKYTN "Land Between The Lakes" "US Forest Service" nature "environmental education" "Kentucky Lake" "Lake Barkley" history camping birding biking hiking hunting Kentucky Tennessee "public lands" "scenic driving" "wildlife watching" 