+--------------------------------------+
|   Flickr Photo Metadata              |
|   Created by Bulkr on Apr 19, 2016   |
|   http://clipyourphotos.com/bulkr    |
+--------------------------------------+

+--------+
|  INFO  |
+--------+
Photographer : Emilio_13
Photo URL    : https://www.flickr.com/photos/emil_kabanov/15918183853/
License      : Creative Commons (http://creativecommons.org/licenses)
Taken Date   : Fri Apr 25 15:47:20 GMT+0200 2014
Upload Date  : Sun Feb 15 16:20:09 GMT+0100 2015
Views        : 51
Comments     : 0


+---------+
|  TITLE  |
+---------+
lynx


+---------------+
|  DESCRIPTION  |
+---------------+
(no description)


+--------+
|  TAGS  |
+--------+
cats 