+--------------------------------------+
|   Flickr Photo Metadata              |
|   Created by Bulkr on Apr 19, 2016   |
|   http://clipyourphotos.com/bulkr    |
+--------------------------------------+

+--------+
|  INFO  |
+--------+
Photographer : LanyonM
Photo URL    : https://www.flickr.com/photos/lanyonm/10811716886/
License      : Creative Commons (http://creativecommons.org/licenses)
Taken Date   : Thu Oct 24 18:31:23 GMT+0200 2013
Upload Date  : Tue Nov 12 03:56:11 GMT+0100 2013
Views        : 62
Comments     : 0


+---------+
|  TITLE  |
+---------+
Bobcat


+---------------+
|  DESCRIPTION  |
+---------------+
near the top of Vernal Falls


+--------+
|  TAGS  |
+--------+
(no tags)