+--------------------------------------+
|   Flickr Photo Metadata              |
|   Created by Bulkr on Apr 19, 2016   |
|   http://clipyourphotos.com/bulkr    |
+--------------------------------------+

+--------+
|  INFO  |
+--------+
Photographer : USFWS Pacific
Photo URL    : https://www.flickr.com/photos/usfwspacific/5532077055/
License      : Creative Commons (http://creativecommons.org/licenses)
Taken Date   : Wed Mar 16 10:37:48 GMT+0100 2011
Upload Date  : Wed Mar 16 18:37:48 GMT+0100 2011
Views        : 148
Comments     : 0


+---------+
|  TITLE  |
+---------+
Lynx


+---------------+
|  DESCRIPTION  |
+---------------+
(no description)


+--------+
|  TAGS  |
+--------+
(no tags)