+--------------------------------------+
|   Flickr Photo Metadata              |
|   Created by Bulkr on Apr 19, 2016   |
|   http://clipyourphotos.com/bulkr    |
+--------------------------------------+

+--------+
|  INFO  |
+--------+
Photographer : pink_pixie21
Photo URL    : https://www.flickr.com/photos/11172034@N08/3778866530/
License      : Creative Commons (http://creativecommons.org/licenses)
Taken Date   : Sat Aug 1 14:52:44 GMT+0200 2009
Upload Date  : Sat Aug 1 21:07:35 GMT+0200 2009
Views        : 519
Comments     : 0


+---------+
|  TITLE  |
+---------+
Lynx yawn


+---------------+
|  DESCRIPTION  |
+---------------+
(no description)


+--------+
|  TAGS  |
+--------+
lynx mammal fur teeth yawn yawning zoo borth animalarium 