+--------------------------------------+
|   Flickr Photo Metadata              |
|   Created by Bulkr on Apr 19, 2016   |
|   http://clipyourphotos.com/bulkr    |
+--------------------------------------+

+--------+
|  INFO  |
+--------+
Photographer : tommypjr
Photo URL    : https://www.flickr.com/photos/tommypayne/72238124/
License      : Creative Commons (http://creativecommons.org/licenses)
Taken Date   : Sat Dec 10 04:16:50 GMT+0100 2005
Upload Date  : Sun Dec 11 02:44:56 GMT+0100 2005
Views        : 54
Comments     : 0


+---------+
|  TITLE  |
+---------+
Chirakawa golf 2 Dce 05 252


+---------------+
|  DESCRIPTION  |
+---------------+
(no description)


+--------+
|  TAGS  |
+--------+
bobcat arizona 