+--------------------------------------+
|   Flickr Photo Metadata              |
|   Created by Bulkr on Apr 19, 2016   |
|   http://clipyourphotos.com/bulkr    |
+--------------------------------------+

+--------+
|  INFO  |
+--------+
Photographer : RachelC.Photography
Photo URL    : https://www.flickr.com/photos/lehcar1477/5893168965/
License      : Creative Commons (http://creativecommons.org/licenses)
Taken Date   : Fri Jul 1 16:53:31 GMT+0200 2011
Upload Date  : Sat Jul 2 13:13:06 GMT+0200 2011
Views        : 349
Comments     : 0


+---------+
|  TITLE  |
+---------+
IMG_3113


+---------------+
|  DESCRIPTION  |
+---------------+
(no description)


+--------+
|  TAGS  |
+--------+
bobcat buttonwood park zoo new bedford massachusetts "creative commons" 