+--------------------------------------+
|   Flickr Photo Metadata              |
|   Created by Bulkr on Apr 19, 2016   |
|   http://clipyourphotos.com/bulkr    |
+--------------------------------------+

+--------+
|  INFO  |
+--------+
Photographer : cattibo
Photo URL    : https://www.flickr.com/photos/cattibo/8918474795/
License      : Creative Commons (http://creativecommons.org/licenses)
Taken Date   : Fri Mar 9 11:57:24 GMT+0100 2012
Upload Date  : Sun Jun 2 04:16:00 GMT+0200 2013
Views        : 13
Comments     : 0


+---------+
|  TITLE  |
+---------+
Lynx


+---------------+
|  DESCRIPTION  |
+---------------+
Lynx


+--------+
|  TAGS  |
+--------+
(no tags)