+--------------------------------------+
|   Flickr Photo Metadata              |
|   Created by Bulkr on Apr 19, 2016   |
|   http://clipyourphotos.com/bulkr    |
+--------------------------------------+

+--------+
|  INFO  |
+--------+
Photographer : Kakakrokodil
Photo URL    : https://www.flickr.com/photos/karinjonsson/5930288877/
License      : Creative Commons (http://creativecommons.org/licenses)
Taken Date   : Tue Jul 12 14:37:40 GMT+0200 2011
Upload Date  : Tue Jul 12 18:53:04 GMT+0200 2011
Views        : 1,002
Comments     : 0


+---------+
|  TITLE  |
+---------+
Målmedveten


+---------------+
|  DESCRIPTION  |
+---------------+
(no description)


+--------+
|  TAGS  |
+--------+
lodjur lo lynx "borås djurpark" djurpark zoo borås "eurasian lynx" tass paw 