+--------------------------------------+
|   Flickr Photo Metadata              |
|   Created by Bulkr on Feb 10, 2016   |
|   http://clipyourphotos.com/bulkr    |
+--------------------------------------+

+--------+
|  INFO  |
+--------+
Photographer : Overmarslee
Photo URL    : https://www.flickr.com/photos/huzicha/2493613259/
License      : Creative Commons (http://creativecommons.org/licenses)
Taken Date   : Wed May 14 14:35:02 GMT+0200 2008
Upload Date  : Thu May 15 09:15:06 GMT+0200 2008
Views        : 625
Comments     : 0


+---------+
|  TITLE  |
+---------+
horse


+---------------+
|  DESCRIPTION  |
+---------------+
(no description)


+--------+
|  TAGS  |
+--------+
̩̩horse people smile timberland china chinese 