+--------------------------------------+
|   Flickr Photo Metadata              |
|   Created by Bulkr on Feb 10, 2016   |
|   http://clipyourphotos.com/bulkr    |
+--------------------------------------+

+--------+
|  INFO  |
+--------+
Photographer : dustpuppy
Photo URL    : https://www.flickr.com/photos/dustpuppy/1617979/
License      : Creative Commons (http://creativecommons.org/licenses)
Taken Date   : Sun Sep 5 10:03:56 GMT+0200 2004
Upload Date  : Sun Nov 21 22:03:19 GMT+0100 2004
Views        : 116
Comments     : 0


+---------+
|  TITLE  |
+---------+
Pferd


+---------------+
|  DESCRIPTION  |
+---------------+
/ <a href="http://www.crudpuppy.de" rel="nofollow">Ratr</a>: 60.0% (40 ratings)


+--------+
|  TAGS  |
+--------+
animals horse 