+--------------------------------------+
|   Flickr Photo Metadata              |
|   Created by Bulkr on Feb 10, 2016   |
|   http://clipyourphotos.com/bulkr    |
+--------------------------------------+

+--------+
|  INFO  |
+--------+
Photographer : Richard Masoner / Cyclelicious
Photo URL    : https://www.flickr.com/photos/bike/413130146/
License      : Creative Commons (http://creativecommons.org/licenses)
Taken Date   : Sat Mar 3 16:26:52 GMT+0100 2007
Upload Date  : Wed Mar 7 02:16:14 GMT+0100 2007
Views        : 671
Comments     : 0


+---------+
|  TITLE  |
+---------+
The out of service horse


+---------------+
|  DESCRIPTION  |
+---------------+
(no description)


+--------+
|  TAGS  |
+--------+
police horse san+jose 