+--------------------------------------+
|   Flickr Photo Metadata              |
|   Created by Bulkr on Feb 10, 2016   |
|   http://clipyourphotos.com/bulkr    |
+--------------------------------------+

+--------+
|  INFO  |
+--------+
Photographer : MattyGregs
Photo URL    : https://www.flickr.com/photos/mattygregs/9215830113/
License      : Creative Commons (http://creativecommons.org/licenses)
Taken Date   : Wed Jul 3 14:19:32 GMT+0200 2013
Upload Date  : Fri Jul 5 21:13:57 GMT+0200 2013
Views        : 105
Comments     : 0


+---------+
|  TITLE  |
+---------+
Interest


+---------------+
|  DESCRIPTION  |
+---------------+
(no description)


+--------+
|  TAGS  |
+--------+
Horses horse pony farm 