+--------------------------------------+
|   Flickr Photo Metadata              |
|   Created by Bulkr on Feb 10, 2016   |
|   http://clipyourphotos.com/bulkr    |
+--------------------------------------+

+--------+
|  INFO  |
+--------+
Photographer : RichardBH
Photo URL    : https://www.flickr.com/photos/rbh/14387552425/
License      : Creative Commons (http://creativecommons.org/licenses)
Taken Date   : Sat May 24 13:17:11 GMT+0200 2014
Upload Date  : Tue Jun 10 04:27:44 GMT+0200 2014
Views        : 73
Comments     : 0


+---------+
|  TITLE  |
+---------+
Dixie


+---------------+
|  DESCRIPTION  |
+---------------+
(no description)


+--------+
|  TAGS  |
+--------+
horse 