+--------------------------------------+
|   Flickr Photo Metadata              |
|   Created by Bulkr on Feb 10, 2016   |
|   http://clipyourphotos.com/bulkr    |
+--------------------------------------+

+--------+
|  INFO  |
+--------+
Photographer : Jot Ha
Photo URL    : https://www.flickr.com/photos/114233952@N04/15437831570/
License      : Creative Commons (http://creativecommons.org/licenses)
Taken Date   : Sat Oct 25 16:16:38 GMT+0200 2014
Upload Date  : Sat Oct 25 16:17:34 GMT+0200 2014
Views        : 30
Comments     : 0


+---------+
|  TITLE  |
+---------+
Pferd


+---------------+
|  DESCRIPTION  |
+---------------+
(no description)


+--------+
|  TAGS  |
+--------+
(no tags)