+--------------------------------------+
|   Flickr Photo Metadata              |
|   Created by Bulkr on Feb 10, 2016   |
|   http://clipyourphotos.com/bulkr    |
+--------------------------------------+

+--------+
|  INFO  |
+--------+
Photographer : Creative Ads and Designs
Photo URL    : https://www.flickr.com/photos/creativeadsdesigns/7162228478/
License      : Creative Commons (http://creativecommons.org/licenses)
Taken Date   : Tue Jan 10 13:47:42 GMT+0100 2012
Upload Date  : Wed May 9 04:41:36 GMT+0200 2012
Views        : 10
Comments     : 0


+---------+
|  TITLE  |
+---------+
Horses


+---------------+
|  DESCRIPTION  |
+---------------+
(no description)


+--------+
|  TAGS  |
+--------+
(no tags)