+--------------------------------------+
|   Flickr Photo Metadata              |
|   Created by Bulkr on Feb 10, 2016   |
|   http://clipyourphotos.com/bulkr    |
+--------------------------------------+

+--------+
|  INFO  |
+--------+
Photographer : sk8geek
Photo URL    : https://www.flickr.com/photos/sk8geek/7358382548/
License      : Creative Commons (http://creativecommons.org/licenses)
Taken Date   : Fri May 18 13:45:04 GMT+0200 2012
Upload Date  : Sun Jun 10 19:32:11 GMT+0200 2012
Views        : 406
Comments     : 0


+---------+
|  TITLE  |
+---------+
DSC_1078


+---------------+
|  DESCRIPTION  |
+---------------+
(no description)


+--------+
|  TAGS  |
+--------+
horse 