+--------------------------------------+
|   Flickr Photo Metadata              |
|   Created by Bulkr on Feb 10, 2016   |
|   http://clipyourphotos.com/bulkr    |
+--------------------------------------+

+--------+
|  INFO  |
+--------+
Photographer : luagh45
Photo URL    : https://www.flickr.com/photos/luagh45/6423058205/
License      : Creative Commons (http://creativecommons.org/licenses)
Taken Date   : Mon Nov 28 20:54:12 GMT+0100 2011
Upload Date  : Tue Nov 29 05:54:12 GMT+0100 2011
Views        : 862
Comments     : 0


+---------+
|  TITLE  |
+---------+
Black Horse Color


+---------------+
|  DESCRIPTION  |
+---------------+
(no description)


+--------+
|  TAGS  |
+--------+
luagh45 horse color colour 