+--------------------------------------+
|   Flickr Photo Metadata              |
|   Created by Bulkr on Feb 10, 2016   |
|   http://clipyourphotos.com/bulkr    |
+--------------------------------------+

+--------+
|  INFO  |
+--------+
Photographer : _TC Photography_
Photo URL    : https://www.flickr.com/photos/_motormouse_/10756804596/
License      : Creative Commons (http://creativecommons.org/licenses)
Taken Date   : Fri Sep 6 16:53:28 GMT+0200 2013
Upload Date  : Sat Nov 9 12:44:06 GMT+0100 2013
Views        : 404
Comments     : 0


+---------+
|  TITLE  |
+---------+
Horses 3


+---------------+
|  DESCRIPTION  |
+---------------+
(no description)


+--------+
|  TAGS  |
+--------+
"Melbourne CBD" Horses 