+--------------------------------------+
|   Flickr Photo Metadata              |
|   Created by Bulkr on Feb 10, 2016   |
|   http://clipyourphotos.com/bulkr    |
+--------------------------------------+

+--------+
|  INFO  |
+--------+
Photographer : eorlenrard
Photo URL    : https://www.flickr.com/photos/101463346@N02/9701498932/
License      : Creative Commons (http://creativecommons.org/licenses)
Taken Date   : Sun Sep 8 10:30:48 GMT+0200 2013
Upload Date  : Sun Sep 8 14:58:27 GMT+0200 2013
Views        : 153
Comments     : 0


+---------+
|  TITLE  |
+---------+
IMG_0117


+---------------+
|  DESCRIPTION  |
+---------------+
(no description)


+--------+
|  TAGS  |
+--------+
"Barnimer Dörferweg" Pferd "Falkenberger Feldmark" 