+--------------------------------------+
|   Flickr Photo Metadata              |
|   Created by Bulkr on Feb 10, 2016   |
|   http://clipyourphotos.com/bulkr    |
+--------------------------------------+

+--------+
|  INFO  |
+--------+
Photographer : Fif'
Photo URL    : https://www.flickr.com/photos/philippelemoine/6880586297/
License      : Creative Commons (http://creativecommons.org/licenses)
Taken Date   : Thu Jul 14 17:44:45 GMT+0200 2011
Upload Date  : Wed Feb 15 13:30:40 GMT+0100 2012
Views        : 268
Comments     : 0


+---------+
|  TITLE  |
+---------+
cheval


+---------------+
|  DESCRIPTION  |
+---------------+
(no description)


+--------+
|  TAGS  |
+--------+
horse animal cheval france 2011 