+--------------------------------------+
|   Flickr Photo Metadata              |
|   Created by Bulkr on Feb 10, 2016   |
|   http://clipyourphotos.com/bulkr    |
+--------------------------------------+

+--------+
|  INFO  |
+--------+
Photographer : CinCool
Photo URL    : https://www.flickr.com/photos/cincooldesigns/13828064483/
License      : Creative Commons (http://creativecommons.org/licenses)
Taken Date   : Fri Apr 11 20:27:59 GMT+0200 2014
Upload Date  : Sun Apr 13 20:42:09 GMT+0200 2014
Views        : 23
Comments     : 0


+---------+
|  TITLE  |
+---------+
Horse


+---------------+
|  DESCRIPTION  |
+---------------+
(no description)


+--------+
|  TAGS  |
+--------+
(no tags)