+--------------------------------------+
|   Flickr Photo Metadata              |
|   Created by Bulkr on Feb 10, 2016   |
|   http://clipyourphotos.com/bulkr    |
+--------------------------------------+

+--------+
|  INFO  |
+--------+
Photographer : die varga
Photo URL    : https://www.flickr.com/photos/74339172@N04/7826128342/
License      : Creative Commons (http://creativecommons.org/licenses)
Taken Date   : Sat Aug 18 21:46:07 GMT+0200 2012
Upload Date  : Mon Aug 20 22:25:12 GMT+0200 2012
Views        : 62
Comments     : 0


+---------+
|  TITLE  |
+---------+
pferd frisst mann


+---------------+
|  DESCRIPTION  |
+---------------+
(no description)


+--------+
|  TAGS  |
+--------+
(no tags)