+--------------------------------------+
|   Flickr Photo Metadata              |
|   Created by Bulkr on Feb 10, 2016   |
|   http://clipyourphotos.com/bulkr    |
+--------------------------------------+

+--------+
|  INFO  |
+--------+
Photographer : Katie Hannan
Photo URL    : https://www.flickr.com/photos/katie_hannan/4044986880/
License      : Creative Commons (http://creativecommons.org/licenses)
Taken Date   : Sun Oct 25 12:23:23 GMT+0100 2009
Upload Date  : Mon Oct 26 01:48:31 GMT+0100 2009
Views        : 217
Comments     : 0


+---------+
|  TITLE  |
+---------+
Sunday Session


+---------------+
|  DESCRIPTION  |
+---------------+
(no description)


+--------+
|  TAGS  |
+--------+
horse horses riding 