+--------------------------------------+
|   Flickr Photo Metadata              |
|   Created by Bulkr on Feb 10, 2016   |
|   http://clipyourphotos.com/bulkr    |
+--------------------------------------+

+--------+
|  INFO  |
+--------+
Photographer : Jannis_V
Photo URL    : https://www.flickr.com/photos/52336371@N07/14522760836/
License      : Creative Commons (http://creativecommons.org/licenses)
Taken Date   : Mon Jun 30 16:17:02 GMT+0200 2014
Upload Date  : Mon Jun 30 23:27:35 GMT+0200 2014
Views        : 140
Comments     : 0


+---------+
|  TITLE  |
+---------+
Tiny Horse


+---------------+
|  DESCRIPTION  |
+---------------+
(no description)


+--------+
|  TAGS  |
+--------+
Pony Horse Pferd 