+--------------------------------------+
|   Flickr Photo Metadata              |
|   Created by Bulkr on Feb 10, 2016   |
|   http://clipyourphotos.com/bulkr    |
+--------------------------------------+

+--------+
|  INFO  |
+--------+
Photographer : Denis789
Photo URL    : https://www.flickr.com/photos/potirons/13976375115/
License      : Creative Commons (http://creativecommons.org/licenses)
Taken Date   : Tue Apr 22 17:16:32 GMT+0200 2014
Upload Date  : Wed Apr 23 02:23:24 GMT+0200 2014
Views        : 381
Comments     : 0


+---------+
|  TITLE  |
+---------+
P1360275b


+---------------+
|  DESCRIPTION  |
+---------------+
(no description)


+--------+
|  TAGS  |
+--------+
cheval horse 