+--------------------------------------+
|   Flickr Photo Metadata              |
|   Created by Bulkr on Feb 10, 2016   |
|   http://clipyourphotos.com/bulkr    |
+--------------------------------------+

+--------+
|  INFO  |
+--------+
Photographer : Sheila in Moonducks
Photo URL    : https://www.flickr.com/photos/aspis7/4662637787/
License      : Creative Commons (http://creativecommons.org/licenses)
Taken Date   : Wed Apr 21 11:12:13 GMT+0200 2010
Upload Date  : Wed Jun 2 14:30:44 GMT+0200 2010
Views        : 579
Comments     : 9


+---------+
|  TITLE  |
+---------+
browsing hay


+---------------+
|  DESCRIPTION  |
+---------------+
,,


+--------+
|  TAGS  |
+--------+
horse 