+--------------------------------------+
|   Flickr Photo Metadata              |
|   Created by Bulkr on Feb 10, 2016   |
|   http://clipyourphotos.com/bulkr    |
+--------------------------------------+

+--------+
|  INFO  |
+--------+
Photographer : Jolante
Photo URL    : https://www.flickr.com/photos/koekiehaas/30288563/
License      : Creative Commons (http://creativecommons.org/licenses)
Taken Date   : Sun Sep 7 13:32:46 GMT+0200 2003
Upload Date  : Mon Aug 1 15:45:46 GMT+0200 2005
Views        : 1,400
Comments     : 0


+---------+
|  TITLE  |
+---------+
Horses 1


+---------------+
|  DESCRIPTION  |
+---------------+
M durft ook te aaien


+--------+
|  TAGS  |
+--------+
horse 