+--------------------------------------+
|   Flickr Photo Metadata              |
|   Created by Bulkr on Feb 10, 2016   |
|   http://clipyourphotos.com/bulkr    |
+--------------------------------------+

+--------+
|  INFO  |
+--------+
Photographer : lostandcold
Photo URL    : https://www.flickr.com/photos/lostandcold/4804166568/
License      : Creative Commons (http://creativecommons.org/licenses)
Taken Date   : Sun Jun 13 13:08:21 GMT+0200 2010
Upload Date  : Sun Jul 18 08:41:23 GMT+0200 2010
Views        : 36
Comments     : 0


+---------+
|  TITLE  |
+---------+
Horse


+---------------+
|  DESCRIPTION  |
+---------------+
(no description)


+--------+
|  TAGS  |
+--------+
(no tags)