+--------------------------------------+
|   Flickr Photo Metadata              |
|   Created by Bulkr on Feb 10, 2016   |
|   http://clipyourphotos.com/bulkr    |
+--------------------------------------+

+--------+
|  INFO  |
+--------+
Photographer : Rob124
Photo URL    : https://www.flickr.com/photos/15472273@N07/3838793979/
License      : Creative Commons (http://creativecommons.org/licenses)
Taken Date   : Sat Aug 15 18:57:37 GMT+0200 2009
Upload Date  : Thu Aug 20 11:34:10 GMT+0200 2009
Views        : 1,743
Comments     : 0


+---------+
|  TITLE  |
+---------+
Holiday_087


+---------------+
|  DESCRIPTION  |
+---------------+
(no description)


+--------+
|  TAGS  |
+--------+
summer sommer holiday rhein rhin rad radtour bike karlsruhe elsass alsace see wasser girl mädchen pferd horse 