+--------------------------------------+
|   Flickr Photo Metadata              |
|   Created by Bulkr on Feb 10, 2016   |
|   http://clipyourphotos.com/bulkr    |
+--------------------------------------+

+--------+
|  INFO  |
+--------+
Photographer : ceiling
Photo URL    : https://www.flickr.com/photos/ceiling/2836203233/
License      : Creative Commons (http://creativecommons.org/licenses)
Taken Date   : Sun Aug 31 11:07:07 GMT+0200 2008
Upload Date  : Sun Sep 7 19:55:42 GMT+0200 2008
Views        : 1,943
Comments     : 0


+---------+
|  TITLE  |
+---------+
yawning horse


+---------------+
|  DESCRIPTION  |
+---------------+
(no description)


+--------+
|  TAGS  |
+--------+
horse yawning yawn 