+--------------------------------------+
|   Flickr Photo Metadata              |
|   Created by Bulkr on Feb 10, 2016   |
|   http://clipyourphotos.com/bulkr    |
+--------------------------------------+

+--------+
|  INFO  |
+--------+
Photographer : Northernhorse.com
Photo URL    : https://www.flickr.com/photos/northhorse/5037383811/
License      : Creative Commons (http://creativecommons.org/licenses)
Taken Date   : Wed Sep 29 18:48:47 GMT+0200 2010
Upload Date  : Thu Sep 30 03:48:47 GMT+0200 2010
Views        : 35
Comments     : 0


+---------+
|  TITLE  |
+---------+
DSCN1790


+---------------+
|  DESCRIPTION  |
+---------------+
(no description)


+--------+
|  TAGS  |
+--------+
horse 