+--------------------------------------+
|   Flickr Photo Metadata              |
|   Created by Bulkr on Feb 10, 2016   |
|   http://clipyourphotos.com/bulkr    |
+--------------------------------------+

+--------+
|  INFO  |
+--------+
Photographer : CoreForce
Photo URL    : https://www.flickr.com/photos/coreforce/2955756046/
License      : Creative Commons (http://creativecommons.org/licenses)
Taken Date   : Sun Oct 19 16:05:48 GMT+0200 2008
Upload Date  : Sun Oct 19 21:14:10 GMT+0200 2008
Geotag Info  : Latitude:52.038250, Longitude:8.921113
Views        : 139
Comments     : 0


+---------+
|  TITLE  |
+---------+
Fury und Freund


+---------------+
|  DESCRIPTION  |
+---------------+
(no description)


+--------+
|  TAGS  |
+--------+
horse pferd autumn herbst 