+--------------------------------------+
|   Flickr Photo Metadata              |
|   Created by Bulkr on Feb 10, 2016   |
|   http://clipyourphotos.com/bulkr    |
+--------------------------------------+

+--------+
|  INFO  |
+--------+
Photographer : ajmexico
Photo URL    : https://www.flickr.com/photos/ajmexico/3158088530/
License      : Creative Commons (http://creativecommons.org/licenses)
Taken Date   : Fri Dec 26 10:40:34 GMT+0100 2008
Upload Date  : Fri Jan 2 01:05:29 GMT+0100 2009
Views        : 518
Comments     : 0


+---------+
|  TITLE  |
+---------+
Pasture Pose Two


+---------------+
|  DESCRIPTION  |
+---------------+
(no description)


+--------+
|  TAGS  |
+--------+
horse animal nature farm 