+--------------------------------------+
|   Flickr Photo Metadata              |
|   Created by Bulkr on Feb 10, 2016   |
|   http://clipyourphotos.com/bulkr    |
+--------------------------------------+

+--------+
|  INFO  |
+--------+
Photographer : M.J.K.Ranch
Photo URL    : https://www.flickr.com/photos/bluebelltwist/2939258023/
License      : Creative Commons (http://creativecommons.org/licenses)
Taken Date   : Sat Oct 11 05:26:27 GMT+0200 2008
Upload Date  : Tue Oct 14 02:02:44 GMT+0200 2008
Views        : 298
Comments     : 0


+---------+
|  TITLE  |
+---------+
Legacy


+---------------+
|  DESCRIPTION  |
+---------------+
my new girl


+--------+
|  TAGS  |
+--------+
horses 