+--------------------------------------+
|   Flickr Photo Metadata              |
|   Created by Bulkr on Feb 10, 2016   |
|   http://clipyourphotos.com/bulkr    |
+--------------------------------------+

+--------+
|  INFO  |
+--------+
Photographer : Danel Solabarrieta
Photo URL    : https://www.flickr.com/photos/danelu/5228814638/
License      : Creative Commons (http://creativecommons.org/licenses)
Taken Date   : Sat Oct 16 13:58:53 GMT+0200 2010
Upload Date  : Fri Dec 3 11:43:23 GMT+0100 2010
Geotag Info  : Latitude:42.907150, Longitude:-0.781440
Views        : 705
Comments     : 4


+---------+
|  TITLE  |
+---------+
horse


+---------------+
|  DESCRIPTION  |
+---------------+
(no description)


+--------+
|  TAGS  |
+--------+
horse caballo zaldi animal 