+--------------------------------------+
|   Flickr Photo Metadata              |
|   Created by Bulkr on Feb 10, 2016   |
|   http://clipyourphotos.com/bulkr    |
+--------------------------------------+

+--------+
|  INFO  |
+--------+
Photographer : luagh45
Photo URL    : https://www.flickr.com/photos/luagh45/6423046601/
License      : Creative Commons (http://creativecommons.org/licenses)
Taken Date   : Mon Nov 28 20:51:37 GMT+0100 2011
Upload Date  : Tue Nov 29 05:51:37 GMT+0100 2011
Views        : 2,255
Comments     : 0


+---------+
|  TITLE  |
+---------+
Belgian Draft Horse


+---------------+
|  DESCRIPTION  |
+---------------+
(no description)


+--------+
|  TAGS  |
+--------+
Luagh45 horse Breed 