+--------------------------------------+
|   Flickr Photo Metadata              |
|   Created by Bulkr on Feb 10, 2016   |
|   http://clipyourphotos.com/bulkr    |
+--------------------------------------+

+--------+
|  INFO  |
+--------+
Photographer : tina.hughes48
Photo URL    : https://www.flickr.com/photos/123841143@N03/14010803080/
License      : Creative Commons (http://creativecommons.org/licenses)
Taken Date   : Thu May 15 07:54:32 GMT+0200 2014
Upload Date  : Fri May 16 11:28:37 GMT+0200 2014
Views        : 412
Comments     : 0


+---------+
|  TITLE  |
+---------+
Heaven Under Saddle


+---------------+
|  DESCRIPTION  |
+---------------+
Heaven and Crystal


+--------+
|  TAGS  |
+--------+
Horses 