+--------------------------------------+
|   Flickr Photo Metadata              |
|   Created by Bulkr on Feb 10, 2016   |
|   http://clipyourphotos.com/bulkr    |
+--------------------------------------+

+--------+
|  INFO  |
+--------+
Photographer : Jayt74
Photo URL    : https://www.flickr.com/photos/jayt74/4319613557/
License      : Creative Commons (http://creativecommons.org/licenses)
Taken Date   : Sun Jan 31 21:56:14 GMT+0100 2010
Upload Date  : Sun Jan 31 22:58:52 GMT+0100 2010
Views        : 464
Comments     : 5


+---------+
|  TITLE  |
+---------+
Horse feed.


+---------------+
|  DESCRIPTION  |
+---------------+
(no description)


+--------+
|  TAGS  |
+--------+
horse topaz NikonD5000 