+--------------------------------------+
|   Flickr Photo Metadata              |
|   Created by Bulkr on Feb 10, 2016   |
|   http://clipyourphotos.com/bulkr    |
+--------------------------------------+

+--------+
|  INFO  |
+--------+
Photographer : pixelmaster-x
Photo URL    : https://www.flickr.com/photos/pixelmaster-x/1584330669/
License      : Creative Commons (http://creativecommons.org/licenses)
Taken Date   : Sun Oct 14 12:36:34 GMT+0200 2007
Upload Date  : Tue Oct 16 08:34:10 GMT+0200 2007
Views        : 179
Comments     : 0


+---------+
|  TITLE  |
+---------+
100_5193


+---------------+
|  DESCRIPTION  |
+---------------+
(no description)


+--------+
|  TAGS  |
+--------+
Pferde Pferd 