+--------------------------------------+
|   Flickr Photo Metadata              |
|   Created by Bulkr on Feb 10, 2016   |
|   http://clipyourphotos.com/bulkr    |
+--------------------------------------+

+--------+
|  INFO  |
+--------+
Photographer : senkiwboo
Photo URL    : https://www.flickr.com/photos/senkiwboo/3812395143/
License      : Creative Commons (http://creativecommons.org/licenses)
Taken Date   : Tue Aug 11 18:18:44 GMT+0200 2009
Upload Date  : Wed Aug 12 01:18:44 GMT+0200 2009
Views        : 25
Comments     : 0


+---------+
|  TITLE  |
+---------+
Horse


+---------------+
|  DESCRIPTION  |
+---------------+
(no description)


+--------+
|  TAGS  |
+--------+
(no tags)