+--------------------------------------+
|   Flickr Photo Metadata              |
|   Created by Bulkr on Feb 10, 2016   |
|   http://clipyourphotos.com/bulkr    |
+--------------------------------------+

+--------+
|  INFO  |
+--------+
Photographer : dsasso
Photo URL    : https://www.flickr.com/photos/dsasso/86140469/
License      : Creative Commons (http://creativecommons.org/licenses)
Taken Date   : Tue Jan 3 15:56:33 GMT+0100 2006
Upload Date  : Fri Jan 13 20:15:14 GMT+0100 2006
Views        : 574
Comments     : 1


+---------+
|  TITLE  |
+---------+
horse


+---------------+
|  DESCRIPTION  |
+---------------+
(no description)


+--------+
|  TAGS  |
+--------+
horse snow 