+--------------------------------------+
|   Flickr Photo Metadata              |
|   Created by Bulkr on Feb 10, 2016   |
|   http://clipyourphotos.com/bulkr    |
+--------------------------------------+

+--------+
|  INFO  |
+--------+
Photographer : bebal
Photo URL    : https://www.flickr.com/photos/bebal/8036074957/
License      : Creative Commons (http://creativecommons.org/licenses)
Taken Date   : Sat Sep 29 18:20:07 GMT+0200 2012
Upload Date  : Sat Sep 29 18:20:07 GMT+0200 2012
Views        : 21
Comments     : 0


+---------+
|  TITLE  |
+---------+
Pferds


+---------------+
|  DESCRIPTION  |
+---------------+
(no description)


+--------+
|  TAGS  |
+--------+
"instagram app" square "square format" iphoneography uploaded:by=instagram Sierra 