+--------------------------------------+
|   Flickr Photo Metadata              |
|   Created by Bulkr on Feb 10, 2016   |
|   http://clipyourphotos.com/bulkr    |
+--------------------------------------+

+--------+
|  INFO  |
+--------+
Photographer : Conor Lawless
Photo URL    : https://www.flickr.com/photos/conchur/335647431/
License      : Creative Commons (http://creativecommons.org/licenses)
Taken Date   : Thu Dec 28 11:32:06 GMT+0100 2006
Upload Date  : Thu Dec 28 00:40:41 GMT+0100 2006
Views        : 473
Comments     : 2


+---------+
|  TITLE  |
+---------+
Close


+---------------+
|  DESCRIPTION  |
+---------------+
(no description)


+--------+
|  TAGS  |
+--------+
horse brown 