+--------------------------------------+
|   Flickr Photo Metadata              |
|   Created by Bulkr on Feb 10, 2016   |
|   http://clipyourphotos.com/bulkr    |
+--------------------------------------+

+--------+
|  INFO  |
+--------+
Photographer : the12thplaya
Photo URL    : https://www.flickr.com/photos/the12thplaya/4717690471/
License      : Creative Commons (http://creativecommons.org/licenses)
Taken Date   : Sun Jun 20 20:07:51 GMT+0200 2010
Upload Date  : Sun Jun 20 21:07:51 GMT+0200 2010
Views        : 1,400
Comments     : 0


+---------+
|  TITLE  |
+---------+
Horse & Stable


+---------------+
|  DESCRIPTION  |
+---------------+
(no description)


+--------+
|  TAGS  |
+--------+
iphonecamera horse stables 