+--------------------------------------+
|   Flickr Photo Metadata              |
|   Created by Bulkr on Feb 10, 2016   |
|   http://clipyourphotos.com/bulkr    |
+--------------------------------------+

+--------+
|  INFO  |
+--------+
Photographer : lmnop88a
Photo URL    : https://www.flickr.com/photos/d_lee/442649198/
License      : Creative Commons (http://creativecommons.org/licenses)
Taken Date   : Sat Mar 31 14:45:09 GMT+0200 2007
Upload Date  : Mon Apr 2 00:12:53 GMT+0200 2007
Views        : 44
Comments     : 2


+---------+
|  TITLE  |
+---------+
Horse


+---------------+
|  DESCRIPTION  |
+---------------+
(no description)


+--------+
|  TAGS  |
+--------+
"Puck's Farm" Pucks Toronto Canon Animals "24-70mm f/2.8L" 