+--------------------------------------+
|   Flickr Photo Metadata              |
|   Created by Bulkr on Feb 10, 2016   |
|   http://clipyourphotos.com/bulkr    |
+--------------------------------------+

+--------+
|  INFO  |
+--------+
Photographer : Sindre-Wimberger
Photo URL    : https://www.flickr.com/photos/sindre-wimberger/323204897/
License      : Creative Commons (http://creativecommons.org/licenses)
Taken Date   : Sat Sep 9 17:03:02 GMT+0200 2006
Upload Date  : Sat Sep 9 18:03:02 GMT+0200 2006
Views        : 43
Comments     : 0


+---------+
|  TITLE  |
+---------+
Pferde am Mjøsa


+---------------+
|  DESCRIPTION  |
+---------------+
(no description)


+--------+
|  TAGS  |
+--------+
2006 september norwegen norway pferd 