+--------------------------------------+
|   Flickr Photo Metadata              |
|   Created by Bulkr on Feb 10, 2016   |
|   http://clipyourphotos.com/bulkr    |
+--------------------------------------+

+--------+
|  INFO  |
+--------+
Photographer : Arend Vermazeren
Photo URL    : https://www.flickr.com/photos/vermazeren/5315858153/
License      : Creative Commons (http://creativecommons.org/licenses)
Taken Date   : Sun Jan 2 14:01:36 GMT+0100 2011
Upload Date  : Sun Jan 2 17:09:53 GMT+0100 2011
Views        : 1,411
Comments     : 4


+---------+
|  TITLE  |
+---------+
Affection


+---------------+
|  DESCRIPTION  |
+---------------+
(no description)


+--------+
|  TAGS  |
+--------+
affection horses hug aanhankelijk 