+--------------------------------------+
|   Flickr Photo Metadata              |
|   Created by Bulkr on Feb 10, 2016   |
|   http://clipyourphotos.com/bulkr    |
+--------------------------------------+

+--------+
|  INFO  |
+--------+
Photographer : sembrandogirasoles
Photo URL    : https://www.flickr.com/photos/sembrandogirasoles/6793488841/
License      : Creative Commons (http://creativecommons.org/licenses)
Taken Date   : Mon Jan 30 17:38:15 GMT+0100 2012
Upload Date  : Tue Jan 31 04:38:56 GMT+0100 2012
Views        : 108
Comments     : 0


+---------+
|  TITLE  |
+---------+
horse


+---------------+
|  DESCRIPTION  |
+---------------+
(no description)


+--------+
|  TAGS  |
+--------+
(no tags)