+--------------------------------------+
|   Flickr Photo Metadata              |
|   Created by Bulkr on Feb 10, 2016   |
|   http://clipyourphotos.com/bulkr    |
+--------------------------------------+

+--------+
|  INFO  |
+--------+
Photographer : Rob124
Photo URL    : https://www.flickr.com/photos/15472273@N07/7482235908/
License      : Creative Commons (http://creativecommons.org/licenses)
Taken Date   : Sat Jun 30 17:28:09 GMT+0200 2012
Upload Date  : Sun Jul 1 23:25:41 GMT+0200 2012
Geotag Info  : Latitude:48.831115, Longitude:9.320054
Views        : 2,025
Comments     : 0


+---------+
|  TITLE  |
+---------+
Staufer_168


+---------------+
|  DESCRIPTION  |
+---------------+
(no description)


+--------+
|  TAGS  |
+--------+
staufer spektakel waiblingen markt mittelaltermarkt mittelalter festival middle ages medieval pferd horse 