+--------------------------------------+
|   Flickr Photo Metadata              |
|   Created by Bulkr on Feb 10, 2016   |
|   http://clipyourphotos.com/bulkr    |
+--------------------------------------+

+--------+
|  INFO  |
+--------+
Photographer : iluvcocacola
Photo URL    : https://www.flickr.com/photos/iluvcocacola/15522716009/
License      : Creative Commons (http://creativecommons.org/licenses)
Taken Date   : Sun Nov 2 11:38:05 GMT+0100 2014
Upload Date  : Tue Nov 4 13:07:18 GMT+0100 2014
Views        : 721
Comments     : 0


+---------+
|  TITLE  |
+---------+
Valley View Acres


+---------------+
|  DESCRIPTION  |
+---------------+
Riding lessons


+--------+
|  TAGS  |
+--------+
horse rider girl valleyviewacres illinois 