+--------------------------------------+
|   Flickr Photo Metadata              |
|   Created by Bulkr on Feb 10, 2016   |
|   http://clipyourphotos.com/bulkr    |
+--------------------------------------+

+--------+
|  INFO  |
+--------+
Photographer : Yuya Tamai
Photo URL    : https://www.flickr.com/photos/tamaiyuya/2234967908/
License      : Creative Commons (http://creativecommons.org/licenses)
Taken Date   : Wed Aug 30 17:08:43 GMT+0200 2006
Upload Date  : Fri Feb 1 16:05:36 GMT+0100 2008
Views        : 33
Comments     : 0


+---------+
|  TITLE  |
+---------+
Horses


+---------------+
|  DESCRIPTION  |
+---------------+
(no description)


+--------+
|  TAGS  |
+--------+
horse 木曽馬 畜産センター 