+--------------------------------------+
|   Flickr Photo Metadata              |
|   Created by Bulkr on Feb 10, 2016   |
|   http://clipyourphotos.com/bulkr    |
+--------------------------------------+

+--------+
|  INFO  |
+--------+
Photographer : alison.mckellar
Photo URL    : https://www.flickr.com/photos/alisonmckellar/2260015740/
License      : Creative Commons (http://creativecommons.org/licenses)
Taken Date   : Mon Sep 30 11:11:11 GMT+0200 2002
Upload Date  : Tue Feb 12 06:59:13 GMT+0100 2008
Views        : 19
Comments     : 0


+---------+
|  TITLE  |
+---------+
FL000013


+---------------+
|  DESCRIPTION  |
+---------------+
(no description)


+--------+
|  TAGS  |
+--------+
Horses 