+--------------------------------------+
|   Flickr Photo Metadata              |
|   Created by Bulkr on Feb 10, 2016   |
|   http://clipyourphotos.com/bulkr    |
+--------------------------------------+

+--------+
|  INFO  |
+--------+
Photographer : sylvester75117
Photo URL    : https://www.flickr.com/photos/8706285@N06/3463653349/
License      : Creative Commons (http://creativecommons.org/licenses)
Taken Date   : Tue Apr 21 00:00:02 GMT+0200 2009
Upload Date  : Wed Apr 22 03:12:17 GMT+0200 2009
Geotag Info  : Latitude:32.693267, Longitude:-95.881268
Views        : 2,261
Comments     : 8


+---------+
|  TITLE  |
+---------+
"MOON DANCER" Daughter of Cassels Danzel and New Moon Girl born 04/04/2009


+---------------+
|  DESCRIPTION  |
+---------------+
<a href="http://www.indianhorse.com/old/home.htm" rel="nofollow">www.indianhorse.com/old/home.htm</a>
<a href="http://www.allbreedpedigree.com/index.php?query_type=horse&amp;horse=MOON+DANCER9&amp;g=5&amp;cellpadding=0&amp;small_font=1&amp;l=" rel="nofollow">www.allbreedpedigree.com/index.php?query_type=horse&amp;h...</a>


+--------+
|  TAGS  |
+--------+
Foal Filly Mustang "Polish Arabian" Texas Horse Equine Arab "Indian Horse" decoratedanimal Edgewood "Edgewood Texas" Pinto "American Indian Horse Registry" "American Indian Horse" AIHR Mesteño Caballo Paard Cheval Pferd Άλογο Cavalo Лошадь paarden équin pferdeartig ίππειος equino 