+--------------------------------------+
|   Flickr Photo Metadata              |
|   Created by Bulkr on Feb 10, 2016   |
|   http://clipyourphotos.com/bulkr    |
+--------------------------------------+

+--------+
|  INFO  |
+--------+
Photographer : dalli58
Photo URL    : https://www.flickr.com/photos/dalli/2701403022/
License      : Creative Commons (http://creativecommons.org/licenses)
Taken Date   : Thu Jul 24 09:10:41 GMT+0200 2008
Upload Date  : Fri Jul 25 15:26:02 GMT+0200 2008
Views        : 4,162
Comments     : 1


+---------+
|  TITLE  |
+---------+
043 Sævar frá Stangarholti


+---------------+
|  DESCRIPTION  |
+---------------+
Guðmundur Arnarson  Sævar frá Stangarholti Grár/brúnn einlitt


+--------+
|  TAGS  |
+--------+
Horse Icelandic 5gangur 