+--------------------------------------+
|   Flickr Photo Metadata              |
|   Created by Bulkr on Feb 11, 2016   |
|   http://clipyourphotos.com/bulkr    |
+--------------------------------------+

+--------+
|  INFO  |
+--------+
Photographer : dev null
Photo URL    : https://www.flickr.com/photos/devnull/3199113455/
License      : Creative Commons (http://creativecommons.org/licenses)
Taken Date   : Thu Jan 15 20:45:15 GMT+0100 2009
Upload Date  : Thu Jan 15 20:45:15 GMT+0100 2009
Views        : 218
Comments     : 8


+---------+
|  TITLE  |
+---------+
für wendy.


+---------------+
|  DESCRIPTION  |
+---------------+
(no description)


+--------+
|  TAGS  |
+--------+
film scan wendy konica c35ef winter schnee siebengebirge snow horse pferd äsen "für wendy" 