+--------------------------------------+
|   Flickr Photo Metadata              |
|   Created by Bulkr on Feb 10, 2016   |
|   http://clipyourphotos.com/bulkr    |
+--------------------------------------+

+--------+
|  INFO  |
+--------+
Photographer : Andrew D Smith
Photo URL    : https://www.flickr.com/photos/andrewdsmith/2822008719/
License      : Creative Commons (http://creativecommons.org/licenses)
Taken Date   : Sat Aug 30 18:27:03 GMT+0200 2008
Upload Date  : Tue Sep 2 22:41:27 GMT+0200 2008
Views        : 88
Comments     : 0


+---------+
|  TITLE  |
+---------+
dsc_0513.jpg


+---------------+
|  DESCRIPTION  |
+---------------+
(no description)


+--------+
|  TAGS  |
+--------+
horse 