+--------------------------------------+
|   Flickr Photo Metadata              |
|   Created by Bulkr on Feb 10, 2016   |
|   http://clipyourphotos.com/bulkr    |
+--------------------------------------+

+--------+
|  INFO  |
+--------+
Photographer : GanMed64
Photo URL    : https://www.flickr.com/photos/ganmed64/5679450230/
License      : Creative Commons (http://creativecommons.org/licenses)
Taken Date   : Sat Apr 30 15:19:30 GMT+0200 2011
Upload Date  : Mon May 2 11:10:11 GMT+0200 2011
Views        : 26
Comments     : 0


+---------+
|  TITLE  |
+---------+
Horses


+---------------+
|  DESCRIPTION  |
+---------------+
(no description)


+--------+
|  TAGS  |
+--------+
(no tags)