+--------------------------------------+
|   Flickr Photo Metadata              |
|   Created by Bulkr on Feb 10, 2016   |
|   http://clipyourphotos.com/bulkr    |
+--------------------------------------+

+--------+
|  INFO  |
+--------+
Photographer : peggydavis66
Photo URL    : https://www.flickr.com/photos/11441121@N04/6215903428/
License      : Creative Commons (http://creativecommons.org/licenses)
Taken Date   : Thu Mar 17 16:08:23 GMT+0100 2011
Upload Date  : Thu Oct 6 01:34:06 GMT+0200 2011
Views        : 32
Comments     : 0


+---------+
|  TITLE  |
+---------+
IMG_0016


+---------------+
|  DESCRIPTION  |
+---------------+
(no description)


+--------+
|  TAGS  |
+--------+
horses 