+--------------------------------------+
|   Flickr Photo Metadata              |
|   Created by Bulkr on Feb 10, 2016   |
|   http://clipyourphotos.com/bulkr    |
+--------------------------------------+

+--------+
|  INFO  |
+--------+
Photographer : The Eggplant
Photo URL    : https://www.flickr.com/photos/eggplant/6196307429/
License      : Creative Commons (http://creativecommons.org/licenses)
Taken Date   : Mon Aug 29 11:14:32 GMT+0200 2011
Upload Date  : Fri Sep 30 03:25:37 GMT+0200 2011
Views        : 440
Comments     : 0


+---------+
|  TITLE  |
+---------+
Horses


+---------------+
|  DESCRIPTION  |
+---------------+
Or maybe mules? I can't really tell.


+--------+
|  TAGS  |
+--------+
Intercourse Pennsylvania farm horses 