+--------------------------------------+
|   Flickr Photo Metadata              |
|   Created by Bulkr on Feb 10, 2016   |
|   http://clipyourphotos.com/bulkr    |
+--------------------------------------+

+--------+
|  INFO  |
+--------+
Photographer : Shanna Mae
Photo URL    : https://www.flickr.com/photos/shannamae/5881734470/
License      : Creative Commons (http://creativecommons.org/licenses)
Taken Date   : Fri Jun 24 17:51:41 GMT+0200 2011
Upload Date  : Tue Jun 28 19:27:50 GMT+0200 2011
Geotag Info  : Latitude:38.950832, Longitude:-104.696273
Views        : 606
Comments     : 0


+---------+
|  TITLE  |
+---------+
Poco


+---------------+
|  DESCRIPTION  |
+---------------+
I want to change his eye to be showing somthing else, that requires a lot of work though


+--------+
|  TAGS  |
+--------+
horse eye 