+--------------------------------------+
|   Flickr Photo Metadata              |
|   Created by Bulkr on Feb 10, 2016   |
|   http://clipyourphotos.com/bulkr    |
+--------------------------------------+

+--------+
|  INFO  |
+--------+
Photographer : Fifi Banana
Photo URL    : https://www.flickr.com/photos/94119531@N06/8593692144/
License      : Creative Commons (http://creativecommons.org/licenses)
Taken Date   : Tue Mar 26 08:55:38 GMT+0100 2013
Upload Date  : Tue Mar 26 22:00:59 GMT+0100 2013
Views        : 163
Comments     : 0


+---------+
|  TITLE  |
+---------+
Horse 1


+---------------+
|  DESCRIPTION  |
+---------------+
(no description)


+--------+
|  TAGS  |
+--------+
horse single 