+--------------------------------------+
|   Flickr Photo Metadata              |
|   Created by Bulkr on Feb 10, 2016   |
|   http://clipyourphotos.com/bulkr    |
+--------------------------------------+

+--------+
|  INFO  |
+--------+
Photographer : Artandbeautyfreak
Photo URL    : https://www.flickr.com/photos/81056690@N03/7614072270/
License      : Creative Commons (http://creativecommons.org/licenses)
Taken Date   : Sun Jul 15 15:15:12 GMT+0200 2012
Upload Date  : Sat Jul 21 10:26:30 GMT+0200 2012
Views        : 1,458
Comments     : 0


+---------+
|  TITLE  |
+---------+
Brown horse


+---------------+
|  DESCRIPTION  |
+---------------+
It kind of looks like the horse stoke a pose =)


+--------+
|  TAGS  |
+--------+
brown horse nature 