+--------------------------------------+
|   Flickr Photo Metadata              |
|   Created by Bulkr on Feb 10, 2016   |
|   http://clipyourphotos.com/bulkr    |
+--------------------------------------+

+--------+
|  INFO  |
+--------+
Photographer : nicksarebi
Photo URL    : https://www.flickr.com/photos/34517490@N00/14940495670/
License      : Creative Commons (http://creativecommons.org/licenses)
Taken Date   : Tue Sep 2 17:21:24 GMT+0200 2014
Upload Date  : Wed Sep 3 13:40:10 GMT+0200 2014
Views        : 564
Comments     : 0


+---------+
|  TITLE  |
+---------+
Brecon Beacons


+---------------+
|  DESCRIPTION  |
+---------------+
(no description)


+--------+
|  TAGS  |
+--------+
wales horse foal cymru 