+--------------------------------------+
|   Flickr Photo Metadata              |
|   Created by Bulkr on Feb 10, 2016   |
|   http://clipyourphotos.com/bulkr    |
+--------------------------------------+

+--------+
|  INFO  |
+--------+
Photographer : PhillipC
Photo URL    : https://www.flickr.com/photos/flissphil/190179084/
License      : Creative Commons (http://creativecommons.org/licenses)
Taken Date   : Sat Dec 10 04:02:26 GMT+0100 2005
Upload Date  : Sat Jul 15 20:33:10 GMT+0200 2006
Views        : 682
Comments     : 2


+---------+
|  TITLE  |
+---------+
Patricia's horses,


+---------------+
|  DESCRIPTION  |
+---------------+
(no description)


+--------+
|  TAGS  |
+--------+
horse pmcneill wairarapa 2005 