+--------------------------------------+
|   Flickr Photo Metadata              |
|   Created by Bulkr on Feb 10, 2016   |
|   http://clipyourphotos.com/bulkr    |
+--------------------------------------+

+--------+
|  INFO  |
+--------+
Photographer : Shakespeare1980
Photo URL    : https://www.flickr.com/photos/shakespeareus/8718020756/
License      : Creative Commons (http://creativecommons.org/licenses)
Taken Date   : Sat Mar 30 11:58:16 GMT+0100 2013
Upload Date  : Tue May 7 17:32:00 GMT+0200 2013
Views        : 624
Comments     : 0


+---------+
|  TITLE  |
+---------+
Horse Embrace


+---------------+
|  DESCRIPTION  |
+---------------+
(no description)


+--------+
|  TAGS  |
+--------+
Horse 