+--------------------------------------+
|   Flickr Photo Metadata              |
|   Created by Bulkr on Feb 10, 2016   |
|   http://clipyourphotos.com/bulkr    |
+--------------------------------------+

+--------+
|  INFO  |
+--------+
Photographer : Zepfanman.com
Photo URL    : https://www.flickr.com/photos/zepfanman/7185112509/
License      : Creative Commons (http://creativecommons.org/licenses)
Taken Date   : Wed Jun 13 19:16:17 GMT+0200 2012
Upload Date  : Thu Jun 14 02:46:37 GMT+0200 2012
Views        : 131
Comments     : 0


+---------+
|  TITLE  |
+---------+
Man. Horse. Sun.


+---------------+
|  DESCRIPTION  |
+---------------+
IMG_3567mod


+--------+
|  TAGS  |
+--------+
Nathan horse Annie 