+--------------------------------------+
|   Flickr Photo Metadata              |
|   Created by Bulkr on Feb 10, 2016   |
|   http://clipyourphotos.com/bulkr    |
+--------------------------------------+

+--------+
|  INFO  |
+--------+
Photographer : debbie.hallsworth
Photo URL    : https://www.flickr.com/photos/dhallsworth/16080791729/
License      : Creative Commons (http://creativecommons.org/licenses)
Taken Date   : Sun Aug 24 16:56:19 GMT+0200 2014
Upload Date  : Mon Jan 12 23:03:32 GMT+0100 2015
Views        : 58
Comments     : 0


+---------+
|  TITLE  |
+---------+
P1000446


+---------------+
|  DESCRIPTION  |
+---------------+
(no description)


+--------+
|  TAGS  |
+--------+
Horses 