+--------------------------------------+
|   Flickr Photo Metadata              |
|   Created by Bulkr on Feb 10, 2016   |
|   http://clipyourphotos.com/bulkr    |
+--------------------------------------+

+--------+
|  INFO  |
+--------+
Photographer : mikemccaffrey
Photo URL    : https://www.flickr.com/photos/mccaffry/4440316752/
License      : Creative Commons (http://creativecommons.org/licenses)
Taken Date   : Sat Mar 13 23:24:34 GMT+0100 2010
Upload Date  : Wed Mar 17 07:08:08 GMT+0100 2010
Views        : 2,566
Comments     : 0


+---------+
|  TITLE  |
+---------+
IMG_2701 Horse Butts


+---------------+
|  DESCRIPTION  |
+---------------+
Carrie couldn't make it to sxsw this year, so I took this picture for her. Now she isn't missing anything.


+--------+
|  TAGS  |
+--------+
sxsw austin police horses 