+--------------------------------------+
|   Flickr Photo Metadata              |
|   Created by Bulkr on Feb 10, 2016   |
|   http://clipyourphotos.com/bulkr    |
+--------------------------------------+

+--------+
|  INFO  |
+--------+
Photographer : peter pearson
Photo URL    : https://www.flickr.com/photos/peterpearson/5679490720/
License      : Creative Commons (http://creativecommons.org/licenses)
Taken Date   : Sun Apr 24 09:34:33 GMT+0200 2011
Upload Date  : Mon May 2 11:30:08 GMT+0200 2011
Views        : 5,970
Comments     : 0


+---------+
|  TITLE  |
+---------+
Horses


+---------------+
|  DESCRIPTION  |
+---------------+
Horses


+--------+
|  TAGS  |
+--------+
"EF70-200mm f/4L USM" horses field surrey 