+--------------------------------------+
|   Flickr Photo Metadata              |
|   Created by Bulkr on Feb 10, 2016   |
|   http://clipyourphotos.com/bulkr    |
+--------------------------------------+

+--------+
|  INFO  |
+--------+
Photographer : yddis2012
Photo URL    : https://www.flickr.com/photos/yddis2012/7089616801/
License      : Creative Commons (http://creativecommons.org/licenses)
Taken Date   : Wed Apr 18 07:54:41 GMT+0200 2012
Upload Date  : Wed Apr 18 07:54:41 GMT+0200 2012
Views        : 6
Comments     : 0


+---------+
|  TITLE  |
+---------+
Horses


+---------------+
|  DESCRIPTION  |
+---------------+
(no description)


+--------+
|  TAGS  |
+--------+
flickrandroidapp:filter=none 