+--------------------------------------+
|   Flickr Photo Metadata              |
|   Created by Bulkr on Feb 10, 2016   |
|   http://clipyourphotos.com/bulkr    |
+--------------------------------------+

+--------+
|  INFO  |
+--------+
Photographer : Photos_by_Angela
Photo URL    : https://www.flickr.com/photos/angelabethell/4554192730/
License      : Creative Commons (http://creativecommons.org/licenses)
Taken Date   : Tue Apr 20 17:50:15 GMT+0200 2010
Upload Date  : Mon Apr 26 10:44:05 GMT+0200 2010
Views        : 33
Comments     : 5


+---------+
|  TITLE  |
+---------+
Horse


+---------------+
|  DESCRIPTION  |
+---------------+
(no description)


+--------+
|  TAGS  |
+--------+
(no tags)