+--------------------------------------+
|   Flickr Photo Metadata              |
|   Created by Bulkr on Feb 10, 2016   |
|   http://clipyourphotos.com/bulkr    |
+--------------------------------------+

+--------+
|  INFO  |
+--------+
Photographer : allenthepostman
Photo URL    : https://www.flickr.com/photos/allenthepostman/1439305326/
License      : Creative Commons (http://creativecommons.org/licenses)
Taken Date   : Tue Sep 25 17:49:30 GMT+0200 2007
Upload Date  : Tue Sep 25 20:45:07 GMT+0200 2007
Views        : 1,132
Comments     : 0


+---------+
|  TITLE  |
+---------+
Horse


+---------------+
|  DESCRIPTION  |
+---------------+
Mercer Park,Merstham


+--------+
|  TAGS  |
+--------+
horses 