+--------------------------------------+
|   Flickr Photo Metadata              |
|   Created by Bulkr on Feb 10, 2016   |
|   http://clipyourphotos.com/bulkr    |
+--------------------------------------+

+--------+
|  INFO  |
+--------+
Photographer : Tnkntx
Photo URL    : https://www.flickr.com/photos/tnkntx/5495316555/
License      : Creative Commons (http://creativecommons.org/licenses)
Taken Date   : Thu Mar 3 11:46:15 GMT+0100 2011
Upload Date  : Fri Mar 4 02:17:48 GMT+0100 2011
Views        : 186
Comments     : 0


+---------+
|  TITLE  |
+---------+
Somebody's horse


+---------------+
|  DESCRIPTION  |
+---------------+
(no description)


+--------+
|  TAGS  |
+--------+
horse 