+--------------------------------------+
|   Flickr Photo Metadata              |
|   Created by Bulkr on Feb 10, 2016   |
|   http://clipyourphotos.com/bulkr    |
+--------------------------------------+

+--------+
|  INFO  |
+--------+
Photographer : The Integer Club
Photo URL    : https://www.flickr.com/photos/integer_club/7754143730/
License      : Creative Commons (http://creativecommons.org/licenses)
Taken Date   : Wed Aug 8 16:57:33 GMT+0200 2012
Upload Date  : Fri Aug 10 20:42:15 GMT+0200 2012
Views        : 147
Comments     : 0


+---------+
|  TITLE  |
+---------+
Horse


+---------------+
|  DESCRIPTION  |
+---------------+
(no description)


+--------+
|  TAGS  |
+--------+
"Canon EOS 300" 35mm Film Belgium Bruges horse 