+--------------------------------------+
|   Flickr Photo Metadata              |
|   Created by Bulkr on Feb 10, 2016   |
|   http://clipyourphotos.com/bulkr    |
+--------------------------------------+

+--------+
|  INFO  |
+--------+
Photographer : Man Alive!
Photo URL    : https://www.flickr.com/photos/24365773@N03/19701630021/
License      : Creative Commons (http://creativecommons.org/licenses)
Taken Date   : Fri Jul 11 13:30:13 GMT+0200 2014
Upload Date  : Tue Jul 14 21:37:06 GMT+0200 2015
Views        : 554
Comments     : 0


+---------+
|  TITLE  |
+---------+
Horse Show


+---------------+
|  DESCRIPTION  |
+---------------+
Horse Show 12/07/2015


+--------+
|  TAGS  |
+--------+
"Horse Show" 