+--------------------------------------+
|   Flickr Photo Metadata              |
|   Created by Bulkr on Feb 10, 2016   |
|   http://clipyourphotos.com/bulkr    |
+--------------------------------------+

+--------+
|  INFO  |
+--------+
Photographer : backofthenapkin
Photo URL    : https://www.flickr.com/photos/buckaroobay/6228811105/
License      : Creative Commons (http://creativecommons.org/licenses)
Taken Date   : Fri Oct 7 05:15:30 GMT+0200 2011
Upload Date  : Mon Oct 10 06:40:26 GMT+0200 2011
Views        : 565
Comments     : 0


+---------+
|  TITLE  |
+---------+
Two horses kissing


+---------------+
|  DESCRIPTION  |
+---------------+
(no description)


+--------+
|  TAGS  |
+--------+
shasta horse 