+--------------------------------------+
|   Flickr Photo Metadata              |
|   Created by Bulkr on Feb 10, 2016   |
|   http://clipyourphotos.com/bulkr    |
+--------------------------------------+

+--------+
|  INFO  |
+--------+
Photographer : Social Medialistin
Photo URL    : https://www.flickr.com/photos/socialmedialistin/8969711639/
License      : Creative Commons (http://creativecommons.org/licenses)
Taken Date   : Sat Jun 1 15:10:05 GMT+0200 2013
Upload Date  : Thu Jun 6 18:50:06 GMT+0200 2013
Views        : 27
Comments     : 0


+---------+
|  TITLE  |
+---------+
Pferd


+---------------+
|  DESCRIPTION  |
+---------------+
(no description)


+--------+
|  TAGS  |
+--------+
(no tags)