+--------------------------------------+
|   Flickr Photo Metadata              |
|   Created by Bulkr on Feb 10, 2016   |
|   http://clipyourphotos.com/bulkr    |
+--------------------------------------+

+--------+
|  INFO  |
+--------+
Photographer : martinak15
Photo URL    : https://www.flickr.com/photos/martinaphotography/8972495409/
License      : Creative Commons (http://creativecommons.org/licenses)
Taken Date   : Thu Jun 6 19:04:49 GMT+0200 2013
Upload Date  : Fri Jun 7 21:05:00 GMT+0200 2013
Views        : 12,541
Comments     : 11


+---------+
|  TITLE  |
+---------+
(no title)


+---------------+
|  DESCRIPTION  |
+---------------+
Model: Jessica
<a href="http://www.facebook.com/pages/Martina-K-Photography/199152823537864" rel="nofollow">Facebook</a> | <a href="http://www.magnoliaeyes.blogspot.com" rel="nofollow">Website</a>


+--------+
|  TAGS  |
+--------+
horses horse animal portrait portraiture 