+--------------------------------------+
|   Flickr Photo Metadata              |
|   Created by Bulkr on Feb 10, 2016   |
|   http://clipyourphotos.com/bulkr    |
+--------------------------------------+

+--------+
|  INFO  |
+--------+
Photographer : karlafg
Photo URL    : https://www.flickr.com/photos/53316112@N00/14091472074/
License      : Creative Commons (http://creativecommons.org/licenses)
Taken Date   : Tue Apr 29 19:11:46 GMT+0200 2014
Upload Date  : Fri May 2 21:36:48 GMT+0200 2014
Views        : 212
Comments     : 0


+---------+
|  TITLE  |
+---------+
vastratunhem27


+---------------+
|  DESCRIPTION  |
+---------------+
nordsvensk häst kallblod nordsvenskar


+--------+
|  TAGS  |
+--------+
häst horse nordsvensk 