+--------------------------------------+
|   Flickr Photo Metadata              |
|   Created by Bulkr on Feb 10, 2016   |
|   http://clipyourphotos.com/bulkr    |
+--------------------------------------+

+--------+
|  INFO  |
+--------+
Photographer : M.J.K.Ranch
Photo URL    : https://www.flickr.com/photos/bluebelltwist/3035348123/
License      : Creative Commons (http://creativecommons.org/licenses)
Taken Date   : Sat Oct 11 05:20:17 GMT+0200 2008
Upload Date  : Sun Nov 16 22:36:29 GMT+0100 2008
Views        : 381
Comments     : 1


+---------+
|  TITLE  |
+---------+
~Legacy~


+---------------+
|  DESCRIPTION  |
+---------------+
i have waited so long for a horse like her, now if i could get her to load and finish  breaking her ill be great..


+--------+
|  TAGS  |
+--------+
horses 