+--------------------------------------+
|   Flickr Photo Metadata              |
|   Created by Bulkr on Feb 10, 2016   |
|   http://clipyourphotos.com/bulkr    |
+--------------------------------------+

+--------+
|  INFO  |
+--------+
Photographer : flyone
Photo URL    : https://www.flickr.com/photos/flyone1106/5872705593/
License      : Creative Commons (http://creativecommons.org/licenses)
Taken Date   : Sun Jun 26 15:06:31 GMT+0200 2011
Upload Date  : Sun Jun 26 17:16:53 GMT+0200 2011
Views        : 81
Comments     : 1


+---------+
|  TITLE  |
+---------+
埔心農場 楊梅


+---------------+
|  DESCRIPTION  |
+---------------+
(no description)


+--------+
|  TAGS  |
+--------+
埔心農場 horse 馬 flyone 