+--------------------------------------+
|   Flickr Photo Metadata              |
|   Created by Bulkr on Feb 10, 2016   |
|   http://clipyourphotos.com/bulkr    |
+--------------------------------------+

+--------+
|  INFO  |
+--------+
Photographer : mtneer_man
Photo URL    : https://www.flickr.com/photos/mtneer_man/2434665607/
License      : Creative Commons (http://creativecommons.org/licenses)
Taken Date   : Wed Apr 15 03:58:06 GMT+0200 2015
Upload Date  : Wed Apr 23 02:37:51 GMT+0200 2008
Views        : 310
Comments     : 0


+---------+
|  TITLE  |
+---------+
dwarf horse_0015


+---------------+
|  DESCRIPTION  |
+---------------+
(no description)


+--------+
|  TAGS  |
+--------+
rudy minaiture horse dwarf minature 