+--------------------------------------+
|   Flickr Photo Metadata              |
|   Created by Bulkr on Feb 10, 2016   |
|   http://clipyourphotos.com/bulkr    |
+--------------------------------------+

+--------+
|  INFO  |
+--------+
Photographer : grittycitygirl
Photo URL    : https://www.flickr.com/photos/grittycitygirl/1122785796/
License      : Creative Commons (http://creativecommons.org/licenses)
Taken Date   : Fri Feb 10 14:48:07 GMT+0100 2006
Upload Date  : Wed Aug 15 06:16:30 GMT+0200 2007
Views        : 110
Comments     : 0


+---------+
|  TITLE  |
+---------+
DSC02560


+---------------+
|  DESCRIPTION  |
+---------------+
Megan, me and Cash


+--------+
|  TAGS  |
+--------+
gainesville psj barn horse show 