+--------------------------------------+
|   Flickr Photo Metadata              |
|   Created by Bulkr on Feb 10, 2016   |
|   http://clipyourphotos.com/bulkr    |
+--------------------------------------+

+--------+
|  INFO  |
+--------+
Photographer : Rosa majalis
Photo URL    : https://www.flickr.com/photos/29898978@N02/18122662080/
License      : Creative Commons (http://creativecommons.org/licenses)
Taken Date   : Sat May 30 16:24:44 GMT+0200 2015
Upload Date  : Sun May 31 18:27:32 GMT+0200 2015
Views        : 140
Comments     : 0


+---------+
|  TITLE  |
+---------+
May 2015


+---------------+
|  DESCRIPTION  |
+---------------+
(no description)


+--------+
|  TAGS  |
+--------+
horse pferd landscape landschaft 