+--------------------------------------+
|   Flickr Photo Metadata              |
|   Created by Bulkr on Feb 10, 2016   |
|   http://clipyourphotos.com/bulkr    |
+--------------------------------------+

+--------+
|  INFO  |
+--------+
Photographer : TCtroi
Photo URL    : https://www.flickr.com/photos/tcastino/3878333753/
License      : Creative Commons (http://creativecommons.org/licenses)
Taken Date   : Fri Jan 11 14:14:08 GMT+0100 2008
Upload Date  : Tue Sep 1 21:17:58 GMT+0200 2009
Views        : 184
Comments     : 0


+---------+
|  TITLE  |
+---------+
Horses


+---------------+
|  DESCRIPTION  |
+---------------+
(no description)


+--------+
|  TAGS  |
+--------+
Animals Horses 