+--------------------------------------+
|   Flickr Photo Metadata              |
|   Created by Bulkr on Feb 10, 2016   |
|   http://clipyourphotos.com/bulkr    |
+--------------------------------------+

+--------+
|  INFO  |
+--------+
Photographer : Denis789
Photo URL    : https://www.flickr.com/photos/potirons/3840826122/
License      : Creative Commons (http://creativecommons.org/licenses)
Taken Date   : Fri Aug 21 08:09:23 GMT+0200 2009
Upload Date  : Fri Aug 21 16:48:24 GMT+0200 2009
Views        : 198
Comments     : 1


+---------+
|  TITLE  |
+---------+
P1190146


+---------------+
|  DESCRIPTION  |
+---------------+
(no description)


+--------+
|  TAGS  |
+--------+
panasonic g1 cheval horse animal лошадь hestur capall Pferd caballo cavallo حصان 