+--------------------------------------+
|   Flickr Photo Metadata              |
|   Created by Bulkr on Feb 10, 2016   |
|   http://clipyourphotos.com/bulkr    |
+--------------------------------------+

+--------+
|  INFO  |
+--------+
Photographer : Berto Garcia
Photo URL    : https://www.flickr.com/photos/bertogg/6203955610/
License      : Creative Commons (http://creativecommons.org/licenses)
Taken Date   : Sat Oct 1 17:20:34 GMT+0200 2011
Upload Date  : Sun Oct 2 16:36:11 GMT+0200 2011
Views        : 518
Comments     : 0


+---------+
|  TITLE  |
+---------+
Horses


+---------------+
|  DESCRIPTION  |
+---------------+
(no description)


+--------+
|  TAGS  |
+--------+
helsinki suomi finland horses 