+--------------------------------------+
|   Flickr Photo Metadata              |
|   Created by Bulkr on Feb 10, 2016   |
|   http://clipyourphotos.com/bulkr    |
+--------------------------------------+

+--------+
|  INFO  |
+--------+
Photographer : jrsnchzhrs
Photo URL    : https://www.flickr.com/photos/jrsnchzhrs/2324712332/
License      : Creative Commons (http://creativecommons.org/licenses)
Taken Date   : Mon Mar 10 10:57:26 GMT+0100 2008
Upload Date  : Mon Mar 10 17:57:26 GMT+0100 2008
Views        : 275
Comments     : 0


+---------+
|  TITLE  |
+---------+
Horse power


+---------------+
|  DESCRIPTION  |
+---------------+
Horse reflected


+--------+
|  TAGS  |
+--------+
horse brown animal 