+--------------------------------------+
|   Flickr Photo Metadata              |
|   Created by Bulkr on Feb 10, 2016   |
|   http://clipyourphotos.com/bulkr    |
+--------------------------------------+

+--------+
|  INFO  |
+--------+
Photographer : _bianconero
Photo URL    : https://www.flickr.com/photos/bianconero91/4207989147/
License      : Creative Commons (http://creativecommons.org/licenses)
Taken Date   : Tue Oct 20 14:53:00 GMT+0200 2009
Upload Date  : Wed Dec 23 13:42:45 GMT+0100 2009
Views        : 507
Comments     : 0


+---------+
|  TITLE  |
+---------+
horse


+---------------+
|  DESCRIPTION  |
+---------------+
(no description)


+--------+
|  TAGS  |
+--------+
horse pferd cavallo eye pony 