+--------------------------------------+
|   Flickr Photo Metadata              |
|   Created by Bulkr on Feb 10, 2016   |
|   http://clipyourphotos.com/bulkr    |
+--------------------------------------+

+--------+
|  INFO  |
+--------+
Photographer : Clearly Ambiguous
Photo URL    : https://www.flickr.com/photos/clearlyambiguous/4238855580/
License      : Creative Commons (http://creativecommons.org/licenses)
Taken Date   : Sun Oct 11 10:16:11 GMT+0200 2009
Upload Date  : Sun Jan 3 00:06:04 GMT+0100 2010
Views        : 444
Comments     : 0


+---------+
|  TITLE  |
+---------+
Horse


+---------------+
|  DESCRIPTION  |
+---------------+
(no description)


+--------+
|  TAGS  |
+--------+
Horse 