+--------------------------------------+
|   Flickr Photo Metadata              |
|   Created by Bulkr on Feb 10, 2016   |
|   http://clipyourphotos.com/bulkr    |
+--------------------------------------+

+--------+
|  INFO  |
+--------+
Photographer : shelleylyn
Photo URL    : https://www.flickr.com/photos/shelleylyn/4887495038/
License      : Creative Commons (http://creativecommons.org/licenses)
Taken Date   : Thu Aug 12 23:48:40 GMT+0200 2010
Upload Date  : Fri Aug 13 07:49:39 GMT+0200 2010
Views        : 256
Comments     : 0


+---------+
|  TITLE  |
+---------+
Horses


+---------------+
|  DESCRIPTION  |
+---------------+
(no description)


+--------+
|  TAGS  |
+--------+
horses ho 