+--------------------------------------+
|   Flickr Photo Metadata              |
|   Created by Bulkr on Feb 10, 2016   |
|   http://clipyourphotos.com/bulkr    |
+--------------------------------------+

+--------+
|  INFO  |
+--------+
Photographer : glen.dahlman
Photo URL    : https://www.flickr.com/photos/gldahl43/6765087025/
License      : Creative Commons (http://creativecommons.org/licenses)
Taken Date   : Fri Jul 9 19:08:38 GMT+0200 2010
Upload Date  : Thu Jan 26 12:51:29 GMT+0100 2012
Views        : 286
Comments     : 0


+---------+
|  TITLE  |
+---------+
DSC_0116


+---------------+
|  DESCRIPTION  |
+---------------+
(no description)


+--------+
|  TAGS  |
+--------+
horse 