+--------------------------------------+
|   Flickr Photo Metadata              |
|   Created by Bulkr on Feb 10, 2016   |
|   http://clipyourphotos.com/bulkr    |
+--------------------------------------+

+--------+
|  INFO  |
+--------+
Photographer : Rody09
Photo URL    : https://www.flickr.com/photos/rody09/9535260609/
License      : Creative Commons (http://creativecommons.org/licenses)
Taken Date   : Thu Aug 15 13:39:40 GMT+0200 2013
Upload Date  : Sun Aug 18 13:57:41 GMT+0200 2013
Views        : 1,435
Comments     : 0


+---------+
|  TITLE  |
+---------+
Parade Horses


+---------------+
|  DESCRIPTION  |
+---------------+
(no description)


+--------+
|  TAGS  |
+--------+
parade horses summer holiday 