+--------------------------------------+
|   Flickr Photo Metadata              |
|   Created by Bulkr on Apr 06, 2016   |
|   http://clipyourphotos.com/bulkr    |
+--------------------------------------+

+--------+
|  INFO  |
+--------+
Photographer : Scott Loarie
Photo URL    : https://www.flickr.com/photos/55368994@N06/10680667333/
License      : Creative Commons (http://creativecommons.org/licenses)
Taken Date   : Sat Oct 26 16:05:42 GMT+0200 2013
Upload Date  : Tue Nov 5 01:10:45 GMT+0100 2013
Views        : 22
Comments     : 0


+---------+
|  TITLE  |
+---------+
IMG_9143


+---------------+
|  DESCRIPTION  |
+---------------+
(no description)


+--------+
|  TAGS  |
+--------+
(no tags)