+--------------------------------------+
|   Flickr Photo Metadata              |
|   Created by Bulkr on Apr 06, 2016   |
|   http://clipyourphotos.com/bulkr    |
+--------------------------------------+

+--------+
|  INFO  |
+--------+
Photographer : Kommando Kraus
Photo URL    : https://www.flickr.com/photos/kommandokraus/4519898939/
License      : Creative Commons (http://creativecommons.org/licenses)
Taken Date   : Fri Apr 2 05:45:20 GMT+0200 2010
Upload Date  : Wed Apr 14 12:39:52 GMT+0200 2010
Views        : 34
Comments     : 1


+---------+
|  TITLE  |
+---------+
DSC_0082


+---------------+
|  DESCRIPTION  |
+---------------+
(no description)


+--------+
|  TAGS  |
+--------+
(no tags)