+--------------------------------------+
|   Flickr Photo Metadata              |
|   Created by Bulkr on Apr 06, 2016   |
|   http://clipyourphotos.com/bulkr    |
+--------------------------------------+

+--------+
|  INFO  |
+--------+
Photographer : jdog90
Photo URL    : https://www.flickr.com/photos/forthefunofit/9083623085/
License      : Creative Commons (http://creativecommons.org/licenses)
Taken Date   : Sat Apr 23 16:54:52 GMT+0200 2005
Upload Date  : Wed Jun 19 16:31:18 GMT+0200 2013
Views        : 73
Comments     : 0


+---------+
|  TITLE  |
+---------+
(no title)


+---------------+
|  DESCRIPTION  |
+---------------+
(no description)


+--------+
|  TAGS  |
+--------+
(no tags)