+--------------------------------------+
|   Flickr Photo Metadata              |
|   Created by Bulkr on Apr 06, 2016   |
|   http://clipyourphotos.com/bulkr    |
+--------------------------------------+

+--------+
|  INFO  |
+--------+
Photographer : maviscwling
Photo URL    : https://www.flickr.com/photos/maviscwling/2958236840/
License      : Creative Commons (http://creativecommons.org/licenses)
Taken Date   : Mon Jun 25 19:08:09 GMT+0200 2007
Upload Date  : Mon Oct 20 13:33:53 GMT+0200 2008
Views        : 74
Comments     : 0


+---------+
|  TITLE  |
+---------+
IMG_4310


+---------------+
|  DESCRIPTION  |
+---------------+
(no description)


+--------+
|  TAGS  |
+--------+
(no tags)