+--------------------------------------+
|   Flickr Photo Metadata              |
|   Created by Bulkr on Apr 06, 2016   |
|   http://clipyourphotos.com/bulkr    |
+--------------------------------------+

+--------+
|  INFO  |
+--------+
Photographer : ewen and donabel
Photo URL    : https://www.flickr.com/photos/donabelandewen/753994773/
License      : Creative Commons (http://creativecommons.org/licenses)
Taken Date   : Sat Jun 30 19:48:03 GMT+0200 2007
Upload Date  : Sun Jul 8 17:58:01 GMT+0200 2007
Views        : 543
Comments     : 0


+---------+
|  TITLE  |
+---------+
Bunny outside of cage


+---------------+
|  DESCRIPTION  |
+---------------+
(no description)


+--------+
|  TAGS  |
+--------+
rabbit bunny "Del mar fair" 