+--------------------------------------+
|   Flickr Photo Metadata              |
|   Created by Bulkr on Apr 06, 2016   |
|   http://clipyourphotos.com/bulkr    |
+--------------------------------------+

+--------+
|  INFO  |
+--------+
Photographer : hiro_y
Photo URL    : https://www.flickr.com/photos/hiroy/22593363977/
License      : Creative Commons (http://creativecommons.org/licenses)
Taken Date   : Sun Nov 15 01:00:11 GMT+0100 2015
Upload Date  : Sat Nov 14 17:00:11 GMT+0100 2015
Views        : 29
Comments     : 0


+---------+
|  TITLE  |
+---------+
夜も元気 #うさぎのムーン


+---------------+
|  DESCRIPTION  |
+---------------+
via Instagram <a href="https://instagram.com/p/-EjcL4mz-y/" rel="nofollow">instagram.com/p/-EjcL4mz-y/</a>


+--------+
|  TAGS  |
+--------+
#instagram 