+--------------------------------------+
|   Flickr Photo Metadata              |
|   Created by Bulkr on Apr 06, 2016   |
|   http://clipyourphotos.com/bulkr    |
+--------------------------------------+

+--------+
|  INFO  |
+--------+
Photographer : Dmitry Baranovskiy
Photo URL    : https://www.flickr.com/photos/dmitry-baranovskiy/9527772913/
License      : Creative Commons (http://creativecommons.org/licenses)
Taken Date   : Sat Aug 17 16:14:33 GMT+0200 2013
Upload Date  : Sat Aug 17 13:30:19 GMT+0200 2013
Views        : 826
Comments     : 0


+---------+
|  TITLE  |
+---------+
_MG_5689.jpg


+---------------+
|  DESCRIPTION  |
+---------------+
(no description)


+--------+
|  TAGS  |
+--------+
(no tags)