+--------------------------------------+
|   Flickr Photo Metadata              |
|   Created by Bulkr on Apr 06, 2016   |
|   http://clipyourphotos.com/bulkr    |
+--------------------------------------+

+--------+
|  INFO  |
+--------+
Photographer : Trubble
Photo URL    : https://www.flickr.com/photos/trubble_pics/6321146808/
License      : Creative Commons (http://creativecommons.org/licenses)
Taken Date   : Sun Sep 18 16:20:57 GMT+0200 2011
Upload Date  : Mon Nov 7 04:31:00 GMT+0100 2011
Views        : 64
Comments     : 0


+---------+
|  TITLE  |
+---------+
P9185755


+---------------+
|  DESCRIPTION  |
+---------------+
(no description)


+--------+
|  TAGS  |
+--------+
(no tags)