+--------------------------------------+
|   Flickr Photo Metadata              |
|   Created by Bulkr on Apr 06, 2016   |
|   http://clipyourphotos.com/bulkr    |
+--------------------------------------+

+--------+
|  INFO  |
+--------+
Photographer : rejohnson71
Photo URL    : https://www.flickr.com/photos/kandypics/7978097123/
License      : Creative Commons (http://creativecommons.org/licenses)
Taken Date   : Sat Aug 25 06:58:50 GMT+0200 2012
Upload Date  : Wed Sep 12 02:27:56 GMT+0200 2012
Views        : 983
Comments     : 0


+---------+
|  TITLE  |
+---------+
Bunny!


+---------------+
|  DESCRIPTION  |
+---------------+
(no description)


+--------+
|  TAGS  |
+--------+
(no tags)