+--------------------------------------+
|   Flickr Photo Metadata              |
|   Created by Bulkr on Apr 06, 2016   |
|   http://clipyourphotos.com/bulkr    |
+--------------------------------------+

+--------+
|  INFO  |
+--------+
Photographer : skpy
Photo URL    : https://www.flickr.com/photos/skippy/2687192240/
License      : Creative Commons (http://creativecommons.org/licenses)
Taken Date   : Sun Jul 20 12:49:17 GMT+0200 2008
Upload Date  : Mon Jul 21 00:50:34 GMT+0200 2008
Views        : 2,568
Comments     : 0


+---------+
|  TITLE  |
+---------+
rabbit


+---------------+
|  DESCRIPTION  |
+---------------+
(no description)


+--------+
|  TAGS  |
+--------+
skippy 2008 rabbit 