+--------------------------------------+
|   Flickr Photo Metadata              |
|   Created by Bulkr on Apr 06, 2016   |
|   http://clipyourphotos.com/bulkr    |
+--------------------------------------+

+--------+
|  INFO  |
+--------+
Photographer : faul
Photo URL    : https://www.flickr.com/photos/98706376@N00/7382249218/
License      : Creative Commons (http://creativecommons.org/licenses)
Taken Date   : Thu May 24 18:53:05 GMT+0200 2012
Upload Date  : Sun Jun 17 00:04:40 GMT+0200 2012
Views        : 511
Comments     : 0


+---------+
|  TITLE  |
+---------+
Eye


+---------------+
|  DESCRIPTION  |
+---------------+
(no description)


+--------+
|  TAGS  |
+--------+
bunny rabbit "Okra Paradise Farms" "Lowndes County" Georgia "24 May 2012" "Gretchen Quarterman" 