+--------------------------------------+
|   Flickr Photo Metadata              |
|   Created by Bulkr on Apr 06, 2016   |
|   http://clipyourphotos.com/bulkr    |
+--------------------------------------+

+--------+
|  INFO  |
+--------+
Photographer : twig73010
Photo URL    : https://www.flickr.com/photos/7890429@N03/4821920761/
License      : Creative Commons (http://creativecommons.org/licenses)
Taken Date   : Sat Jul 10 18:09:45 GMT+0200 2010
Upload Date  : Sat Jul 24 01:44:59 GMT+0200 2010
Views        : 2,108
Comments     : 0


+---------+
|  TITLE  |
+---------+
Rabbit in backyard


+---------------+
|  DESCRIPTION  |
+---------------+
(no description)


+--------+
|  TAGS  |
+--------+
rabbit 