+--------------------------------------+
|   Flickr Photo Metadata              |
|   Created by Bulkr on Apr 06, 2016   |
|   http://clipyourphotos.com/bulkr    |
+--------------------------------------+

+--------+
|  INFO  |
+--------+
Photographer : Forest Deity
Photo URL    : https://www.flickr.com/photos/forest_deity/5047053066/
License      : Creative Commons (http://creativecommons.org/licenses)
Taken Date   : Sat Oct 2 14:08:00 GMT+0200 2010
Upload Date  : Sun Oct 3 12:36:17 GMT+0200 2010
Views        : 34
Comments     : 0


+---------+
|  TITLE  |
+---------+
IMG_0212


+---------------+
|  DESCRIPTION  |
+---------------+
(no description)


+--------+
|  TAGS  |
+--------+
(no tags)