+--------------------------------------+
|   Flickr Photo Metadata              |
|   Created by Bulkr on Apr 06, 2016   |
|   http://clipyourphotos.com/bulkr    |
+--------------------------------------+

+--------+
|  INFO  |
+--------+
Photographer : www.metaphoricalplatypus.com
Photo URL    : https://www.flickr.com/photos/29638108@N06/9168400834/
License      : Creative Commons (http://creativecommons.org/licenses)
Taken Date   : Mon Dec 31 15:49:07 GMT+0100 2012
Upload Date  : Sat Jun 29 19:20:15 GMT+0200 2013
Views        : 1,327
Comments     : 0


+---------+
|  TITLE  |
+---------+
Rabbit


+---------------+
|  DESCRIPTION  |
+---------------+
OLYMPUS DIGITAL CAMERA


+--------+
|  TAGS  |
+--------+
rabbit bunny animals "wild animals" 