+--------------------------------------+
|   Flickr Photo Metadata              |
|   Created by Bulkr on Apr 06, 2016   |
|   http://clipyourphotos.com/bulkr    |
+--------------------------------------+

+--------+
|  INFO  |
+--------+
Photographer : mikebroatch
Photo URL    : https://www.flickr.com/photos/mikebroatch/2136131175/
License      : Creative Commons (http://creativecommons.org/licenses)
Taken Date   : Mon Dec 24 22:35:53 GMT+0100 2007
Upload Date  : Wed Dec 26 01:34:01 GMT+0100 2007
Views        : 675
Comments     : 0


+---------+
|  TITLE  |
+---------+
Feral Wrabbit


+---------------+
|  DESCRIPTION  |
+---------------+
Feral Wrabbit.


+--------+
|  TAGS  |
+--------+
Rabbit Feral Killer Caerbannog nasty big "pointy teeth" vicious streak mile wide holy hand grenade antioch 