+--------------------------------------+
|   Flickr Photo Metadata              |
|   Created by Bulkr on May 09, 2016   |
|   http://clipyourphotos.com/bulkr    |
+--------------------------------------+

+--------+
|  INFO  |
+--------+
Photographer : eliduke
Photo URL    : https://www.flickr.com/photos/elisfanclub/1131788220/
License      : Creative Commons (http://creativecommons.org/licenses)
Taken Date   : Fri Aug 10 14:23:33 GMT+0200 2007
Upload Date  : Fri Aug 10 15:23:33 GMT+0200 2007
Views        : 234
Comments     : 0


+---------+
|  TITLE  |
+---------+
a trip to the Indianapolis Zoo


+---------------+
|  DESCRIPTION  |
+---------------+
walruses


+--------+
|  TAGS  |
+--------+
indy zoo indianapoliszoo walruses 