+--------------------------------------+
|   Flickr Photo Metadata              |
|   Created by Bulkr on May 09, 2016   |
|   http://clipyourphotos.com/bulkr    |
+--------------------------------------+

+--------+
|  INFO  |
+--------+
Photographer : IAmLukeEdwards
Photo URL    : https://www.flickr.com/photos/iamlukeedwards/8442186323/
License      : Creative Commons (http://creativecommons.org/licenses)
Taken Date   : Sun Sep 14 21:20:10 GMT+0200 2008
Upload Date  : Mon Feb 4 01:03:34 GMT+0100 2013
Views        : 57
Comments     : 0


+---------+
|  TITLE  |
+---------+
Walrus at Seaworld


+---------------+
|  DESCRIPTION  |
+---------------+
(no description)


+--------+
|  TAGS  |
+--------+
"America 2008" 