+--------------------------------------+
|   commons.wikimedia Photo Metadata   |
+--------------------------------------+



+--------+
|  INFO  |
+--------+
Photographer : 
Photo URL    : https://commons.wikimedia.org/wiki/File:Noaa-walrus12.jpg
License      : public domain
Date         : 
