+--------------------------------------+
|   Flickr Photo Metadata              |
|   Created by Bulkr on Feb 11, 2016   |
|   http://clipyourphotos.com/bulkr    |
+--------------------------------------+

+--------+
|  INFO  |
+--------+
Photographer : kjulym7w28
Photo URL    : https://www.flickr.com/photos/46824267@N04/4386131074/
License      : Creative Commons (http://creativecommons.org/licenses)
Taken Date   : Sun Jun 21 01:54:57 GMT+0200 2009
Upload Date  : Thu Feb 25 00:09:36 GMT+0100 2010
Views        : 2,200
Comments     : 0


+---------+
|  TITLE  |
+---------+
German Shepherd


+---------------+
|  DESCRIPTION  |
+---------------+
Please credit me :)


+--------+
|  TAGS  |
+--------+
"German Shepherd" Dog 