+--------------------------------------+
|   Flickr Photo Metadata              |
|   Created by Bulkr on Feb 11, 2016   |
|   http://clipyourphotos.com/bulkr    |
+--------------------------------------+

+--------+
|  INFO  |
+--------+
Photographer : Perfect Zero
Photo URL    : https://www.flickr.com/photos/perfectzero/865732840/
License      : Creative Commons (http://creativecommons.org/licenses)
Taken Date   : Sun Mar 28 14:57:45 GMT+0200 2004
Upload Date  : Sat Jul 21 20:07:23 GMT+0200 2007
Views        : 712
Comments     : 0


+---------+
|  TITLE  |
+---------+
113_1357


+---------------+
|  DESCRIPTION  |
+---------------+
(no description)


+--------+
|  TAGS  |
+--------+
dog "german shepherd" 