+--------------------------------------+
|   Flickr Photo Metadata              |
|   Created by Bulkr on Feb 11, 2016   |
|   http://clipyourphotos.com/bulkr    |
+--------------------------------------+

+--------+
|  INFO  |
+--------+
Photographer : SamTheShepherd88
Photo URL    : https://www.flickr.com/photos/samtheshepherd88/4107472009/
License      : Creative Commons (http://creativecommons.org/licenses)
Taken Date   : Wed Nov 12 14:37:32 GMT+0100 2008
Upload Date  : Mon Nov 16 04:33:00 GMT+0100 2009
Views        : 1,035
Comments     : 0


+---------+
|  TITLE  |
+---------+
PB120060


+---------------+
|  DESCRIPTION  |
+---------------+
(no description)


+--------+
|  TAGS  |
+--------+
German Shepherds Christmas 