+--------------------------------------+
|   Flickr Photo Metadata              |
|   Created by Bulkr on Feb 11, 2016   |
|   http://clipyourphotos.com/bulkr    |
+--------------------------------------+

+--------+
|  INFO  |
+--------+
Photographer : youflavio
Photo URL    : https://www.flickr.com/photos/encontrado/9094228395/
License      : Creative Commons (http://creativecommons.org/licenses)
Taken Date   : Tue Aug 10 20:00:52 GMT+0200 2010
Upload Date  : Thu Jun 20 22:49:43 GMT+0200 2013
Views        : 126
Comments     : 0


+---------+
|  TITLE  |
+---------+
PNTX4445


+---------------+
|  DESCRIPTION  |
+---------------+
(no description)


+--------+
|  TAGS  |
+--------+
dog german shepherd 