+--------------------------------------+
|   Flickr Photo Metadata              |
|   Created by Bulkr on Feb 11, 2016   |
|   http://clipyourphotos.com/bulkr    |
+--------------------------------------+

+--------+
|  INFO  |
+--------+
Photographer : 2Tales
Photo URL    : https://www.flickr.com/photos/stigster/3881028357/
License      : Creative Commons (http://creativecommons.org/licenses)
Taken Date   : Sat Apr 15 15:19:05 GMT+0200 2006
Upload Date  : Wed Sep 2 18:02:17 GMT+0200 2009
Views        : 193
Comments     : 0


+---------+
|  TITLE  |
+---------+
DSC_0158.NEF


+---------------+
|  DESCRIPTION  |
+---------------+
(no description)


+--------+
|  TAGS  |
+--------+
"German Shepherd" Gopi dog 