+--------------------------------------+
|   Flickr Photo Metadata              |
|   Created by Bulkr on Feb 11, 2016   |
|   http://clipyourphotos.com/bulkr    |
+--------------------------------------+

+--------+
|  INFO  |
+--------+
Photographer : Saskia Biermann
Photo URL    : https://www.flickr.com/photos/67271904@N05/6569531067/
License      : Creative Commons (http://creativecommons.org/licenses)
Taken Date   : Sat Dec 24 18:57:04 GMT+0100 2011
Upload Date  : Sun Dec 25 17:09:04 GMT+0100 2011
Views        : 387
Comments     : 4


+---------+
|  TITLE  |
+---------+
Gismo am schlafen.


+---------------+
|  DESCRIPTION  |
+---------------+
©Saskia Biermann


+--------+
|  TAGS  |
+--------+
Gismo deutscher Schäferhund Rüde 