+--------------------------------------+
|   Flickr Photo Metadata              |
|   Created by Bulkr on Feb 11, 2016   |
|   http://clipyourphotos.com/bulkr    |
+--------------------------------------+

+--------+
|  INFO  |
+--------+
Photographer : daniela.magallon
Photo URL    : https://www.flickr.com/photos/87776777@N00/1072929993/
License      : Creative Commons (http://creativecommons.org/licenses)
Taken Date   : Tue Jul 31 21:25:54 GMT+0200 2007
Upload Date  : Fri Aug 10 19:50:12 GMT+0200 2007
Views        : 645
Comments     : 1


+---------+
|  TITLE  |
+---------+
A tomar la siesta


+---------------+
|  DESCRIPTION  |
+---------------+
(no description)


+--------+
|  TAGS  |
+--------+
fuser "pastor aleman" "german shepherd" schäferhund 