+--------------------------------------+
|   Flickr Photo Metadata              |
|   Created by Bulkr on Feb 11, 2016   |
|   http://clipyourphotos.com/bulkr    |
+--------------------------------------+

+--------+
|  INFO  |
+--------+
Photographer : MarilynJane
Photo URL    : https://www.flickr.com/photos/marilynjane/2412590223/
License      : Creative Commons (http://creativecommons.org/licenses)
Taken Date   : Fri Apr 11 14:08:39 GMT+0200 2008
Upload Date  : Mon Apr 14 13:26:00 GMT+0200 2008
Views        : 1,405
Comments     : 6


+---------+
|  TITLE  |
+---------+
Kim 11 weeks


+---------------+
|  DESCRIPTION  |
+---------------+
Ears up straight for a short while!


+--------+
|  TAGS  |
+--------+
Kim Dogs Pets Animals "German Shepherd" GSD 