+--------------------------------------+
|   Flickr Photo Metadata              |
|   Created by Bulkr on Feb 11, 2016   |
|   http://clipyourphotos.com/bulkr    |
+--------------------------------------+

+--------+
|  INFO  |
+--------+
Photographer : Sheribeari
Photo URL    : https://www.flickr.com/photos/bysheribeari/4808688088/
License      : Creative Commons (http://creativecommons.org/licenses)
Taken Date   : Sun Jul 18 17:55:10 GMT+0200 2010
Upload Date  : Mon Jul 19 15:01:59 GMT+0200 2010
Views        : 601
Comments     : 0


+---------+
|  TITLE  |
+---------+
Jager25 desktop


+---------------+
|  DESCRIPTION  |
+---------------+
(no description)


+--------+
|  TAGS  |
+--------+
"German Shepherd" dog pet GSD 