+--------------------------------------+
|   Flickr Photo Metadata              |
|   Created by Bulkr on Feb 11, 2016   |
|   http://clipyourphotos.com/bulkr    |
+--------------------------------------+

+--------+
|  INFO  |
+--------+
Photographer : daniela.magallon
Photo URL    : https://www.flickr.com/photos/87776777@N00/1399672445/
License      : Creative Commons (http://creativecommons.org/licenses)
Taken Date   : Thu Sep 13 16:46:13 GMT+0200 2007
Upload Date  : Tue Sep 18 06:56:49 GMT+0200 2007
Views        : 386
Comments     : 0


+---------+
|  TITLE  |
+---------+
Fuser y la lluvia


+---------------+
|  DESCRIPTION  |
+---------------+
Él es un perro modelo


+--------+
|  TAGS  |
+--------+
fuser "pastor aleman" "german shepherd" schäferhund 