+--------------------------------------+
|   Flickr Photo Metadata              |
|   Created by Bulkr on Feb 11, 2016   |
|   http://clipyourphotos.com/bulkr    |
+--------------------------------------+

+--------+
|  INFO  |
+--------+
Photographer : Duncan Imagery
Photo URL    : https://www.flickr.com/photos/duncanimagery/15318724051/
License      : Creative Commons (http://creativecommons.org/licenses)
Taken Date   : Mon Sep 22 17:18:48 GMT+0200 2014
Upload Date  : Mon Sep 22 17:26:06 GMT+0200 2014
Views        : 614
Comments     : 0


+---------+
|  TITLE  |
+---------+
IMG_0627


+---------------+
|  DESCRIPTION  |
+---------------+
Jenny


+--------+
|  TAGS  |
+--------+
dog "german shepherd" hdr 