+--------------------------------------+
|   Flickr Photo Metadata              |
|   Created by Bulkr on Feb 11, 2016   |
|   http://clipyourphotos.com/bulkr    |
+--------------------------------------+

+--------+
|  INFO  |
+--------+
Photographer : ceris42
Photo URL    : https://www.flickr.com/photos/ceris/5143833433/
License      : Creative Commons (http://creativecommons.org/licenses)
Taken Date   : Sat Oct 2 05:26:55 GMT+0200 2010
Upload Date  : Thu Nov 4 00:44:12 GMT+0100 2010
Views        : 140
Comments     : 0


+---------+
|  TITLE  |
+---------+
Sebastian


+---------------+
|  DESCRIPTION  |
+---------------+
(no description)


+--------+
|  TAGS  |
+--------+
German Shepherd Puppy 