+--------------------------------------+
|   Flickr Photo Metadata              |
|   Created by Bulkr on Feb 11, 2016   |
|   http://clipyourphotos.com/bulkr    |
+--------------------------------------+

+--------+
|  INFO  |
+--------+
Photographer : Ian McDonnell
Photo URL    : https://www.flickr.com/photos/ian_mcdonnell/16193577757/
License      : Creative Commons (http://creativecommons.org/licenses)
Taken Date   : Sun Jan 4 09:27:06 GMT+0100 2015
Upload Date  : Tue Jan 27 11:24:39 GMT+0100 2015
Views        : 137
Comments     : 0


+---------+
|  TITLE  |
+---------+
Garron 328


+---------------+
|  DESCRIPTION  |
+---------------+
(no description)


+--------+
|  TAGS  |
+--------+
Garron "German Shepherd Dog" GSD "german shepherd" 