+--------------------------------------+
|   Flickr Photo Metadata              |
|   Created by Bulkr on Feb 11, 2016   |
|   http://clipyourphotos.com/bulkr    |
+--------------------------------------+

+--------+
|  INFO  |
+--------+
Photographer : haroldmeerveld
Photo URL    : https://www.flickr.com/photos/haroldmeerveld/15284696893/
License      : Creative Commons (http://creativecommons.org/licenses)
Taken Date   : Fri Aug 15 19:38:26 GMT+0200 2014
Upload Date  : Sat Nov 29 12:00:55 GMT+0100 2014
Views        : 1,179
Comments     : 1


+---------+
|  TITLE  |
+---------+
Old German Shepherd


+---------------+
|  DESCRIPTION  |
+---------------+
German Shepherd


+--------+
|  TAGS  |
+--------+
"oud duitse herder" zandverstuiving 