+--------------------------------------+
|   Flickr Photo Metadata              |
|   Created by Bulkr on Feb 11, 2016   |
|   http://clipyourphotos.com/bulkr    |
+--------------------------------------+

+--------+
|  INFO  |
+--------+
Photographer : MarilynJane
Photo URL    : https://www.flickr.com/photos/marilynjane/4898407381/
License      : Creative Commons (http://creativecommons.org/licenses)
Taken Date   : Mon Aug 16 08:06:11 GMT+0200 2010
Upload Date  : Mon Aug 16 21:47:37 GMT+0200 2010
Views        : 439
Comments     : 3


+---------+
|  TITLE  |
+---------+
Watching!


+---------------+
|  DESCRIPTION  |
+---------------+
I don't know what!


+--------+
|  TAGS  |
+--------+
"'Hambledon Hill'" "'Child Okeford'" Dorset Dogs Lurcher GSD "'German Shepherd'" 