+--------------------------------------+
|   Flickr Photo Metadata              |
|   Created by Bulkr on Feb 11, 2016   |
|   http://clipyourphotos.com/bulkr    |
+--------------------------------------+

+--------+
|  INFO  |
+--------+
Photographer : lilli2de
Photo URL    : https://www.flickr.com/photos/seven_of9/4519186162/
License      : Creative Commons (http://creativecommons.org/licenses)
Taken Date   : Sat Apr 3 15:42:41 GMT+0200 2010
Upload Date  : Tue Apr 13 23:45:10 GMT+0200 2010
Views        : 258
Comments     : 2


+---------+
|  TITLE  |
+---------+
Who plays with me?


+---------------+
|  DESCRIPTION  |
+---------------+
Wer spielt mit mir Ball?


+--------+
|  TAGS  |
+--------+
April2010 "Theo und Freunde" "Theo and friends" "Belgischer Schäferhund" lilli 