+--------------------------------------+
|   Flickr Photo Metadata              |
|   Created by Bulkr on Feb 11, 2016   |
|   http://clipyourphotos.com/bulkr    |
+--------------------------------------+

+--------+
|  INFO  |
+--------+
Photographer : gomagoti
Photo URL    : https://www.flickr.com/photos/gomagoti/10096243874/
License      : Creative Commons (http://creativecommons.org/licenses)
Taken Date   : Sat Oct 5 13:41:15 GMT+0200 2013
Upload Date  : Sat Oct 5 10:22:58 GMT+0200 2013
Views        : 546
Comments     : 0


+---------+
|  TITLE  |
+---------+
DSC_0368


+---------------+
|  DESCRIPTION  |
+---------------+
(no description)


+--------+
|  TAGS  |
+--------+
dog dogs "german shepherd" 