+--------------------------------------+
|   Flickr Photo Metadata              |
|   Created by Bulkr on Feb 11, 2016   |
|   http://clipyourphotos.com/bulkr    |
+--------------------------------------+

+--------+
|  INFO  |
+--------+
Photographer : jutuzga
Photo URL    : https://www.flickr.com/photos/22478339@N05/2167244698/
License      : Creative Commons (http://creativecommons.org/licenses)
Taken Date   : Fri Jan 4 14:50:18 GMT+0100 2008
Upload Date  : Fri Jan 4 23:02:34 GMT+0100 2008
Views        : 549
Comments     : 0


+---------+
|  TITLE  |
+---------+
on the ice


+---------------+
|  DESCRIPTION  |
+---------------+
(no description)


+--------+
|  TAGS  |
+--------+
german shepherd alsatian dog 