+--------------------------------------+
|   Flickr Photo Metadata              |
|   Created by Bulkr on Feb 11, 2016   |
|   http://clipyourphotos.com/bulkr    |
+--------------------------------------+

+--------+
|  INFO  |
+--------+
Photographer : Jame and Jess
Photo URL    : https://www.flickr.com/photos/jamehealy/529182208/
License      : Creative Commons (http://creativecommons.org/licenses)
Taken Date   : Mon Jun 4 07:09:20 GMT+0200 2007
Upload Date  : Mon Jun 4 07:13:13 GMT+0200 2007
Views        : 888
Comments     : 2


+---------+
|  TITLE  |
+---------+
Some privacy please...


+---------------+
|  DESCRIPTION  |
+---------------+
&quot;This place looks as good as any to relieve myself...&quot;


+--------+
|  TAGS  |
+--------+
"henry mchenry" henry mchenry german shepherd "german shepherd" puppy 