+--------------------------------------+
|   Flickr Photo Metadata              |
|   Created by Bulkr on Feb 11, 2016   |
|   http://clipyourphotos.com/bulkr    |
+--------------------------------------+

+--------+
|  INFO  |
+--------+
Photographer : marksdk
Photo URL    : https://www.flickr.com/photos/markcph/5694012913/
License      : Creative Commons (http://creativecommons.org/licenses)
Taken Date   : Fri May 6 20:43:15 GMT+0200 2011
Upload Date  : Sat May 7 00:07:09 GMT+0200 2011
Geotag Info  : Latitude:55.802607, Longitude:12.487721
Views        : 271
Comments     : 0


+---------+
|  TITLE  |
+---------+
20:43


+---------------+
|  DESCRIPTION  |
+---------------+
(no description)


+--------+
|  TAGS  |
+--------+
dad dog dogs forest german "german shepherd" green shepherd virum woods 