+--------------------------------------+
|   Flickr Photo Metadata              |
|   Created by Bulkr on Feb 12, 2016   |
|   http://clipyourphotos.com/bulkr    |
+--------------------------------------+

+--------+
|  INFO  |
+--------+
Photographer : Annemeesie
Photo URL    : https://www.flickr.com/photos/31176813@N08/3789477577/
License      : Creative Commons (http://creativecommons.org/licenses)
Taken Date   : Wed Jul 29 14:46:48 GMT+0200 2009
Upload Date  : Tue Aug 4 23:45:28 GMT+0200 2009
Views        : 900
Comments     : 3


+---------+
|  TITLE  |
+---------+
potvisstaat


+---------------+
|  DESCRIPTION  |
+---------------+
(no description)


+--------+
|  TAGS  |
+--------+
Norway whale tail blue diving Arctic-whale-tour 