+--------------------------------------+
|   Flickr Photo Metadata              |
|   Created by Bulkr on Feb 12, 2016   |
|   http://clipyourphotos.com/bulkr    |
+--------------------------------------+

+--------+
|  INFO  |
+--------+
Photographer : Huhnbeauftragter
Photo URL    : https://www.flickr.com/photos/huhnbeauftragter/5949385518/
License      : Creative Commons (http://creativecommons.org/licenses)
Taken Date   : Sun Jul 17 02:22:00 GMT+0200 2011
Upload Date  : Mon Jul 18 06:15:38 GMT+0200 2011
Geotag Info  : Latitude:-42.494142, Longitude:173.598627
Views        : 102
Comments     : 0


+---------+
|  TITLE  |
+---------+
ich tauch dann mal ab...


+---------------+
|  DESCRIPTION  |
+---------------+
(no description)


+--------+
|  TAGS  |
+--------+
Pottwal Kaikoura Meer Neuseeland 