+--------------------------------------+
|   Flickr Photo Metadata              |
|   Created by Bulkr on Feb 12, 2016   |
|   http://clipyourphotos.com/bulkr    |
+--------------------------------------+

+--------+
|  INFO  |
+--------+
Photographer : Christine Wagner
Photo URL    : https://www.flickr.com/photos/christine-wagner/8682993707/
License      : Creative Commons (http://creativecommons.org/licenses)
Taken Date   : Fri Mar 22 15:11:32 GMT+0100 2013
Upload Date  : Fri Apr 26 19:14:42 GMT+0200 2013
Views        : 283
Comments     : 0


+---------+
|  TITLE  |
+---------+
Pottwal


+---------------+
|  DESCRIPTION  |
+---------------+
Kaikoura


+--------+
|  TAGS  |
+--------+
Pottwal Kaikoura Neuseeland 