+--------------------------------------+
|   Flickr Photo Metadata              |
|   Created by Bulkr on Feb 12, 2016   |
|   http://clipyourphotos.com/bulkr    |
+--------------------------------------+

+--------+
|  INFO  |
+--------+
Photographer : indi.ca
Photo URL    : https://www.flickr.com/photos/indi/4318519371/
License      : Creative Commons (http://creativecommons.org/licenses)
Taken Date   : Sun Jan 31 13:06:06 GMT+0100 2010
Upload Date  : Sun Jan 31 16:50:59 GMT+0100 2010
Views        : 1,407
Comments     : 0


+---------+
|  TITLE  |
+---------+
Here Be Monsters


+---------------+
|  DESCRIPTION  |
+---------------+
(no description)


+--------+
|  TAGS  |
+--------+
mirissa whale watching spermwhale sperm 