+--------------------------------------+
|   Flickr Photo Metadata              |
|   Created by Bulkr on Apr 09, 2016   |
|   http://clipyourphotos.com/bulkr    |
+--------------------------------------+

+--------+
|  INFO  |
+--------+
Photographer : MizaPhoto
Photo URL    : https://www.flickr.com/photos/mizaphoto/4418388610/
License      : Creative Commons (http://creativecommons.org/licenses)
Taken Date   : Sun Oct 26 17:57:05 GMT+0100 2008
Upload Date  : Mon Mar 8 23:21:25 GMT+0100 2010
Views        : 218
Comments     : 0


+---------+
|  TITLE  |
+---------+
Wolf


+---------------+
|  DESCRIPTION  |
+---------------+
Young wolfs


+--------+
|  TAGS  |
+--------+
Lupo Lupi "zoo pistoia" canidi animali 