+--------------------------------------+
|   Flickr Photo Metadata              |
|   Created by Bulkr on Apr 09, 2016   |
|   http://clipyourphotos.com/bulkr    |
+--------------------------------------+

+--------+
|  INFO  |
+--------+
Photographer : DirectDish
Photo URL    : https://www.flickr.com/photos/13800911@N08/1400389602/
License      : Creative Commons (http://creativecommons.org/licenses)
Taken Date   : Sat May 12 18:10:14 GMT+0200 2007
Upload Date  : Tue Sep 18 06:04:36 GMT+0200 2007
Views        : 1,171
Comments     : 0


+---------+
|  TITLE  |
+---------+
Yellowstone-Wolf-2007


+---------------+
|  DESCRIPTION  |
+---------------+
Yellowstone-Wolf-2007


+--------+
|  TAGS  |
+--------+
vacation Yellowstone wolf 