+--------------------------------------+
|   Flickr Photo Metadata              |
|   Created by Bulkr on Apr 09, 2016   |
|   http://clipyourphotos.com/bulkr    |
+--------------------------------------+

+--------+
|  INFO  |
+--------+
Photographer : Arctic Wolf Pictures
Photo URL    : https://www.flickr.com/photos/arcticwoof/7105473721/
License      : Creative Commons (http://creativecommons.org/licenses)
Taken Date   : Sun Dec 28 14:07:14 GMT+0100 2008
Upload Date  : Mon Apr 23 11:02:24 GMT+0200 2012
Views        : 1,354
Comments     : 0


+---------+
|  TITLE  |
+---------+
wink wink, nudge nudge


+---------------+
|  DESCRIPTION  |
+---------------+
say no more.


+--------+
|  TAGS  |
+--------+
animals wolf wolves black fangs 