+--------------------------------------+
|   Flickr Photo Metadata              |
|   Created by Bulkr on Apr 09, 2016   |
|   http://clipyourphotos.com/bulkr    |
+--------------------------------------+

+--------+
|  INFO  |
+--------+
Photographer : brookscl
Photo URL    : https://www.flickr.com/photos/chrisbrooks/2222543954/
License      : Creative Commons (http://creativecommons.org/licenses)
Taken Date   : Thu Jan 24 08:57:35 GMT+0100 2008
Upload Date  : Sun Jan 27 06:35:35 GMT+0100 2008
Views        : 987
Comments     : 0


+---------+
|  TITLE  |
+---------+
Wolf Haven-51.jpg


+---------------+
|  DESCRIPTION  |
+---------------+
(no description)


+--------+
|  TAGS  |
+--------+
wildlife wolf wolfhaven 