+--------------------------------------+
|   Flickr Photo Metadata              |
|   Created by Bulkr on Apr 09, 2016   |
|   http://clipyourphotos.com/bulkr    |
+--------------------------------------+

+--------+
|  INFO  |
+--------+
Photographer : Jo Naylor
Photo URL    : https://www.flickr.com/photos/pandora_6666/3899677665/
License      : Creative Commons (http://creativecommons.org/licenses)
Taken Date   : Tue Sep 8 08:23:20 GMT+0200 2009
Upload Date  : Tue Sep 8 15:23:20 GMT+0200 2009
Views        : 1,476
Comments     : 0


+---------+
|  TITLE  |
+---------+
sasha


+---------------+
|  DESCRIPTION  |
+---------------+
(no description)


+--------+
|  TAGS  |
+--------+
dog wolf rural farm 