+--------------------------------------+
|   Flickr Photo Metadata              |
|   Created by Bulkr on Apr 09, 2016   |
|   http://clipyourphotos.com/bulkr    |
+--------------------------------------+

+--------+
|  INFO  |
+--------+
Photographer : ollesvensson
Photo URL    : https://www.flickr.com/photos/ollesvensson/3516178642/
License      : Creative Commons (http://creativecommons.org/licenses)
Taken Date   : Fri Apr 17 00:36:27 GMT+0200 2009
Upload Date  : Sat May 9 19:38:17 GMT+0200 2009
Views        : 900
Comments     : 0


+---------+
|  TITLE  |
+---------+
wolf


+---------------+
|  DESCRIPTION  |
+---------------+
(no description)


+--------+
|  TAGS  |
+--------+
wolf dog gyro 