+--------------------------------------+
|   Flickr Photo Metadata              |
|   Created by Bulkr on Apr 09, 2016   |
|   http://clipyourphotos.com/bulkr    |
+--------------------------------------+

+--------+
|  INFO  |
+--------+
Photographer : CuteKittenHorselover
Photo URL    : https://www.flickr.com/photos/88055512@N04/8088833732/
License      : Creative Commons (http://creativecommons.org/licenses)
Taken Date   : Sun Oct 14 19:49:35 GMT+0200 2012
Upload Date  : Mon Oct 15 04:49:35 GMT+0200 2012
Views        : 905
Comments     : 0


+---------+
|  TITLE  |
+---------+
Huttser


+---------------+
|  DESCRIPTION  |
+---------------+
(no description)


+--------+
|  TAGS  |
+--------+
"large wolf" "male wolf" "muscular wolf" Huttser wolf "The Sight" book "Wolves of the Beyond" 