+--------------------------------------+
|   Flickr Photo Metadata              |
|   Created by Bulkr on Mar 08, 2016   |
|   http://clipyourphotos.com/bulkr    |
+--------------------------------------+

+--------+
|  INFO  |
+--------+
Photographer : Pascal
Photo URL    : https://www.flickr.com/photos/walschots/5702859584/
License      : Creative Commons (http://creativecommons.org/licenses)
Taken Date   : Sun May 8 13:00:01 GMT+0200 2011
Upload Date  : Mon May 9 09:50:47 GMT+0200 2011
Views        : 338
Comments     : 11


+---------+
|  TITLE  |
+---------+
Gorilla family moment


+---------------+
|  DESCRIPTION  |
+---------------+
(no description)


+--------+
|  TAGS  |
+--------+
(no tags)