+--------------------------------------+
|   Flickr Photo Metadata              |
|   Created by Bulkr on Mar 08, 2016   |
|   http://clipyourphotos.com/bulkr    |
+--------------------------------------+

+--------+
|  INFO  |
+--------+
Photographer : Cristina Viñas Marcus
Photo URL    : https://www.flickr.com/photos/cristinavinas/6063158726/
License      : Creative Commons (http://creativecommons.org/licenses)
Taken Date   : Thu Aug 18 17:25:25 GMT+0200 2011
Upload Date  : Sat Aug 20 22:00:43 GMT+0200 2011
Views        : 448
Comments     : 1


+---------+
|  TITLE  |
+---------+
Gorila


+---------------+
|  DESCRIPTION  |
+---------------+
canon 1000D + canon 70-200mm


+--------+
|  TAGS  |
+--------+
(no tags)