+--------------------------------------+
|   Flickr Photo Metadata              |
|   Created by Bulkr on Mar 08, 2016   |
|   http://clipyourphotos.com/bulkr    |
+--------------------------------------+

+--------+
|  INFO  |
+--------+
Photographer : 4everluvnjah
Photo URL    : https://www.flickr.com/photos/4everlovingjah/12639108915/
License      : Creative Commons (http://creativecommons.org/licenses)
Taken Date   : Fri Apr 5 21:15:34 GMT+0200 2013
Upload Date  : Wed Feb 19 19:07:53 GMT+0100 2014
Views        : 7
Comments     : 0


+---------+
|  TITLE  |
+---------+
IMG_1060


+---------------+
|  DESCRIPTION  |
+---------------+
(no description)


+--------+
|  TAGS  |
+--------+
(no tags)