+--------------------------------------+
|   Flickr Photo Metadata              |
|   Created by Bulkr on Mar 08, 2016   |
|   http://clipyourphotos.com/bulkr    |
+--------------------------------------+

+--------+
|  INFO  |
+--------+
Photographer : Derek Keats
Photo URL    : https://www.flickr.com/photos/dkeats/290786857/
License      : Creative Commons (http://creativecommons.org/licenses)
Taken Date   : Sat Nov 4 10:00:58 GMT+0100 2006
Upload Date  : Mon Nov 6 20:22:01 GMT+0100 2006
Views        : 344
Comments     : 0


+---------+
|  TITLE  |
+---------+
IMG_2690


+---------------+
|  DESCRIPTION  |
+---------------+
(no description)


+--------+
|  TAGS  |
+--------+
gorillas rwanda "Volcanoes National Park" primates 