+--------------------------------------+
|   Flickr Photo Metadata              |
|   Created by Bulkr on Mar 08, 2016   |
|   http://clipyourphotos.com/bulkr    |
+--------------------------------------+

+--------+
|  INFO  |
+--------+
Photographer : bonnban
Photo URL    : https://www.flickr.com/photos/bonnban/11897237755/
License      : Creative Commons (http://creativecommons.org/licenses)
Taken Date   : Sat Jun 8 15:48:30 GMT+0200 2013
Upload Date  : Sun Jan 12 02:27:07 GMT+0100 2014
Views        : 67
Comments     : 0


+---------+
|  TITLE  |
+---------+
kend-birthday-zoo_0085


+---------------+
|  DESCRIPTION  |
+---------------+
(no description)


+--------+
|  TAGS  |
+--------+
zoo "como zoo" 