+--------------------------------------+
|   Flickr Photo Metadata              |
|   Created by Bulkr on Mar 08, 2016   |
|   http://clipyourphotos.com/bulkr    |
+--------------------------------------+

+--------+
|  INFO  |
+--------+
Photographer : reneelaurenjarvis
Photo URL    : https://www.flickr.com/photos/10179368@N02/16165044770/
License      : Creative Commons (http://creativecommons.org/licenses)
Taken Date   : Sun Nov 30 02:41:46 GMT+0100 2014
Upload Date  : Sat Jan 24 06:13:06 GMT+0100 2015
Views        : 33
Comments     : 0


+---------+
|  TITLE  |
+---------+
P8160947


+---------------+
|  DESCRIPTION  |
+---------------+
(no description)


+--------+
|  TAGS  |
+--------+
(no tags)