+--------------------------------------+
|   Flickr Photo Metadata              |
|   Created by Bulkr on Mar 08, 2016   |
|   http://clipyourphotos.com/bulkr    |
+--------------------------------------+

+--------+
|  INFO  |
+--------+
Photographer : amandarichard421
Photo URL    : https://www.flickr.com/photos/mndapnda421/5127214439/
License      : Creative Commons (http://creativecommons.org/licenses)
Taken Date   : Sat Apr 17 10:11:36 GMT+0200 2010
Upload Date  : Sat Oct 30 06:04:07 GMT+0200 2010
Views        : 40
Comments     : 0


+---------+
|  TITLE  |
+---------+
IMG_4844


+---------------+
|  DESCRIPTION  |
+---------------+
St. Louis Zoo


+--------+
|  TAGS  |
+--------+
(no tags)