+--------------------------------------+
|   Flickr Photo Metadata              |
|   Created by Bulkr on Mar 08, 2016   |
|   http://clipyourphotos.com/bulkr    |
+--------------------------------------+

+--------+
|  INFO  |
+--------+
Photographer : C. P. Ewing
Photo URL    : https://www.flickr.com/photos/132033298@N04/24266744033/
License      : Creative Commons (http://creativecommons.org/licenses)
Taken Date   : Thu Jan 7 15:50:53 GMT+0100 2016
Upload Date  : Mon Feb 8 12:57:14 GMT+0100 2016
Views        : 4,823
Comments     : 350


+---------+
|  TITLE  |
+---------+
Lowland Gorilla


+---------------+
|  DESCRIPTION  |
+---------------+
(no description)


+--------+
|  TAGS  |
+--------+
lowland gorilla animanl nature outdorrs endangered primate african africa Superfotos Spitzenfotos 