+--------------------------------------+
|   Flickr Photo Metadata              |
|   Created by Bulkr on Mar 08, 2016   |
|   http://clipyourphotos.com/bulkr    |
+--------------------------------------+

+--------+
|  INFO  |
+--------+
Photographer : massmarrier
Photo URL    : https://www.flickr.com/photos/massmarrier/11137535633/
License      : Creative Commons (http://creativecommons.org/licenses)
Taken Date   : Fri Nov 29 14:11:28 GMT+0100 2013
Upload Date  : Sat Nov 30 20:03:43 GMT+0100 2013
Views        : 171
Comments     : 0


+---------+
|  TITLE  |
+---------+
femailepensive


+---------------+
|  DESCRIPTION  |
+---------------+
(no description)


+--------+
|  TAGS  |
+--------+
Boston "Franklin Park" zoo gorilla 