+--------------------------------------+
|   Flickr Photo Metadata              |
|   Created by Bulkr on Mar 08, 2016   |
|   http://clipyourphotos.com/bulkr    |
+--------------------------------------+

+--------+
|  INFO  |
+--------+
Photographer : mikelachance816
Photo URL    : https://www.flickr.com/photos/mjl816/16519101386/
License      : Creative Commons (http://creativecommons.org/licenses)
Taken Date   : Fri Feb 13 11:57:20 GMT+0100 2015
Upload Date  : Mon Feb 16 04:55:36 GMT+0100 2015
Views        : 21
Comments     : 0


+---------+
|  TITLE  |
+---------+
(no title)


+---------------+
|  DESCRIPTION  |
+---------------+
(no description)


+--------+
|  TAGS  |
+--------+
(no tags)