+--------------------------------------+
|   Flickr Photo Metadata              |
|   Created by Bulkr on Mar 08, 2016   |
|   http://clipyourphotos.com/bulkr    |
+--------------------------------------+

+--------+
|  INFO  |
+--------+
Photographer : jjandames
Photo URL    : https://www.flickr.com/photos/jjandames/6615223133/
License      : Creative Commons (http://creativecommons.org/licenses)
Taken Date   : Sat Dec 31 10:39:02 GMT+0100 2011
Upload Date  : Sun Jan 1 23:03:51 GMT+0100 2012
Views        : 70
Comments     : 0


+---------+
|  TITLE  |
+---------+
Gorilla


+---------------+
|  DESCRIPTION  |
+---------------+
(no description)


+--------+
|  TAGS  |
+--------+
"North Carolina" Asheboro zoo 