+--------------------------------------+
|   Flickr Photo Metadata              |
|   Created by Bulkr on Mar 08, 2016   |
|   http://clipyourphotos.com/bulkr    |
+--------------------------------------+

+--------+
|  INFO  |
+--------+
Photographer : jDevaun.Photography
Photo URL    : https://www.flickr.com/photos/34316967@N04/7620196924/
License      : Creative Commons (http://creativecommons.org/licenses)
Taken Date   : Mon Jul 16 00:52:04 GMT+0200 2012
Upload Date  : Sun Jul 22 09:00:01 GMT+0200 2012
Views        : 3,903
Comments     : 52


+---------+
|  TITLE  |
+---------+
Snack Break [Explored]


+---------------+
|  DESCRIPTION  |
+---------------+
(no description)


+--------+
|  TAGS  |
+--------+
animal gorilla jdevaun portrait my_gear_and_me my_gear_and_me_premium my_gear_and_me_bronze pwnature 