+--------------------------------------+
|   Flickr Photo Metadata              |
|   Created by Bulkr on Mar 08, 2016   |
|   http://clipyourphotos.com/bulkr    |
+--------------------------------------+

+--------+
|  INFO  |
+--------+
Photographer : bobosh_t
Photo URL    : https://www.flickr.com/photos/frted/4132715777/
License      : Creative Commons (http://creativecommons.org/licenses)
Taken Date   : Mon Nov 24 15:35:57 GMT+0100 2008
Upload Date  : Wed Nov 25 12:39:40 GMT+0100 2009
Views        : 172
Comments     : 0


+---------+
|  TITLE  |
+---------+
Gorilla


+---------------+
|  DESCRIPTION  |
+---------------+
(no description)


+--------+
|  TAGS  |
+--------+
"Columbus Zoo" "Zoo animals" 