+--------------------------------------+
|   Flickr Photo Metadata              |
|   Created by Bulkr on Mar 08, 2016   |
|   http://clipyourphotos.com/bulkr    |
+--------------------------------------+

+--------+
|  INFO  |
+--------+
Photographer : ChrisMiller513
Photo URL    : https://www.flickr.com/photos/sideonecincy/5580300098/
License      : Creative Commons (http://creativecommons.org/licenses)
Taken Date   : Mon Mar 28 13:10:15 GMT+0200 2011
Upload Date  : Fri Apr 1 20:30:35 GMT+0200 2011
Views        : 293
Comments     : 0


+---------+
|  TITLE  |
+---------+
IMG_0111


+---------------+
|  DESCRIPTION  |
+---------------+
(no description)


+--------+
|  TAGS  |
+--------+
Zoo Columbus Wildlife Animals Outdoors "Columbus Zoo" Monkey Gorilla 