+--------------------------------------+
|   Flickr Photo Metadata              |
|   Created by Bulkr on Mar 08, 2016   |
|   http://clipyourphotos.com/bulkr    |
+--------------------------------------+

+--------+
|  INFO  |
+--------+
Photographer : muffinman71xx
Photo URL    : https://www.flickr.com/photos/muffinman71xx/3208048400/
License      : Creative Commons (http://creativecommons.org/licenses)
Taken Date   : Sat Aug 6 13:24:35 GMT+0200 2005
Upload Date  : Sun Jan 18 23:59:13 GMT+0100 2009
Views        : 20
Comments     : 0


+---------+
|  TITLE  |
+---------+
IMG_3234


+---------------+
|  DESCRIPTION  |
+---------------+
(no description)


+--------+
|  TAGS  |
+--------+
animal nature wildlife 