+--------------------------------------+
|   Flickr Photo Metadata              |
|   Created by Bulkr on Mar 08, 2016   |
|   http://clipyourphotos.com/bulkr    |
+--------------------------------------+

+--------+
|  INFO  |
+--------+
Photographer : Asaf Keisar
Photo URL    : https://www.flickr.com/photos/73689992@N00/470119188/
License      : Creative Commons (http://creativecommons.org/licenses)
Taken Date   : Sun Apr 22 12:04:31 GMT+0200 2007
Upload Date  : Mon Apr 23 19:14:20 GMT+0200 2007
Views        : 110
Comments     : 0


+---------+
|  TITLE  |
+---------+
P4220096


+---------------+
|  DESCRIPTION  |
+---------------+
(no description)


+--------+
|  TAGS  |
+--------+
safari "ramat gan" gorilla 