+--------------------------------------+
|   Flickr Photo Metadata              |
|   Created by Bulkr on Mar 08, 2016   |
|   http://clipyourphotos.com/bulkr    |
+--------------------------------------+

+--------+
|  INFO  |
+--------+
Photographer : PhotographerJohnnyGee
Photo URL    : https://www.flickr.com/photos/79262653@N02/15074136431/
License      : Creative Commons (http://creativecommons.org/licenses)
Taken Date   : Sun Aug 10 12:50:35 GMT+0200 2014
Upload Date  : Sat Aug 30 00:50:44 GMT+0200 2014
Views        : 24
Comments     : 0


+---------+
|  TITLE  |
+---------+
Zoo Day-16


+---------------+
|  DESCRIPTION  |
+---------------+
(no description)


+--------+
|  TAGS  |
+--------+
(no tags)