+--------------------------------------+
|   Flickr Photo Metadata              |
|   Created by Bulkr on Mar 08, 2016   |
|   http://clipyourphotos.com/bulkr    |
+--------------------------------------+

+--------+
|  INFO  |
+--------+
Photographer : jschauma
Photo URL    : https://www.flickr.com/photos/jschauma/4627570600/
License      : Creative Commons (http://creativecommons.org/licenses)
Taken Date   : Sun May 9 15:09:24 GMT+0200 2010
Upload Date  : Fri May 21 21:07:28 GMT+0200 2010
Views        : 77
Comments     : 0


+---------+
|  TITLE  |
+---------+
Gorilla


+---------------+
|  DESCRIPTION  |
+---------------+
(no description)


+--------+
|  TAGS  |
+--------+
newyork 2010 