+--------------------------------------+
|   Flickr Photo Metadata              |
|   Created by Bulkr on Mar 08, 2016   |
|   http://clipyourphotos.com/bulkr    |
+--------------------------------------+

+--------+
|  INFO  |
+--------+
Photographer : jessicafm
Photo URL    : https://www.flickr.com/photos/jessicafm/2707877053/
License      : Creative Commons (http://creativecommons.org/licenses)
Taken Date   : Sun Jul 27 11:20:11 GMT+0200 2008
Upload Date  : Mon Jul 28 02:32:58 GMT+0200 2008
Views        : 27
Comments     : 0


+---------+
|  TITLE  |
+---------+
Gorilla


+---------------+
|  DESCRIPTION  |
+---------------+
(no description)


+--------+
|  TAGS  |
+--------+
san francisco zoo 