+--------------------------------------+
|   Flickr Photo Metadata              |
|   Created by Bulkr on Mar 08, 2016   |
|   http://clipyourphotos.com/bulkr    |
+--------------------------------------+

+--------+
|  INFO  |
+--------+
Photographer : curtis palmer
Photo URL    : https://www.flickr.com/photos/techbirmingham/2634999430/
License      : Creative Commons (http://creativecommons.org/licenses)
Taken Date   : Thu Jul 3 10:22:51 GMT+0200 2008
Upload Date  : Thu Jul 3 23:18:04 GMT+0200 2008
Views        : 78
Comments     : 0


+---------+
|  TITLE  |
+---------+
Gorilla stretch


+---------------+
|  DESCRIPTION  |
+---------------+
(no description)


+--------+
|  TAGS  |
+--------+
"Washington DC" DC 2008 