+--------------------------------------+
|   Flickr Photo Metadata              |
|   Created by Bulkr on Mar 08, 2016   |
|   http://clipyourphotos.com/bulkr    |
+--------------------------------------+

+--------+
|  INFO  |
+--------+
Photographer : chrisinwales
Photo URL    : https://www.flickr.com/photos/chris-collation/15131929694/
License      : Creative Commons (http://creativecommons.org/licenses)
Taken Date   : Fri Oct 31 09:22:50 GMT+0100 2014
Upload Date  : Mon Nov 10 00:21:21 GMT+0100 2014
Geotag Info  : Latitude:-1.088954, Longitude:29.663429
Views        : 183
Comments     : 0


+---------+
|  TITLE  |
+---------+
Oh, I dunno!


+---------------+
|  DESCRIPTION  |
+---------------+
(no description)


+--------+
|  TAGS  |
+--------+
Uganda DreamChallenge Gorilla 