+--------------------------------------+
|   Flickr Photo Metadata              |
|   Created by Bulkr on Mar 08, 2016   |
|   http://clipyourphotos.com/bulkr    |
+--------------------------------------+

+--------+
|  INFO  |
+--------+
Photographer : colink.
Photo URL    : https://www.flickr.com/photos/colink/1574544106/
License      : Creative Commons (http://creativecommons.org/licenses)
Taken Date   : Sun Oct 7 14:55:17 GMT+0200 2007
Upload Date  : Mon Oct 15 06:27:34 GMT+0200 2007
Views        : 142
Comments     : 0


+---------+
|  TITLE  |
+---------+
zoo07-40


+---------------+
|  DESCRIPTION  |
+---------------+
(no description)


+--------+
|  TAGS  |
+--------+
"Toronto Zoo" Gorilla 