+--------------------------------------+
|   Flickr Photo Metadata              |
|   Created by Bulkr on Mar 08, 2016   |
|   http://clipyourphotos.com/bulkr    |
+--------------------------------------+

+--------+
|  INFO  |
+--------+
Photographer : samurai_dave
Photo URL    : https://www.flickr.com/photos/88657298@N00/6767551917/
License      : Creative Commons (http://creativecommons.org/licenses)
Taken Date   : Fri Jan 20 18:28:03 GMT+0100 2012
Upload Date  : Thu Jan 26 22:29:48 GMT+0100 2012
Views        : 509
Comments     : 0


+---------+
|  TITLE  |
+---------+
IMG_9300


+---------------+
|  DESCRIPTION  |
+---------------+
(no description)


+--------+
|  TAGS  |
+--------+
"Mountain Gorillas" Kinigi Rwanda "Golden Monkeys" 