+--------------------------------------+
|   Flickr Photo Metadata              |
|   Created by Bulkr on Mar 08, 2016   |
|   http://clipyourphotos.com/bulkr    |
+--------------------------------------+

+--------+
|  INFO  |
+--------+
Photographer : docsclassicgirl
Photo URL    : https://www.flickr.com/photos/127002994@N07/15591687295/
License      : Creative Commons (http://creativecommons.org/licenses)
Taken Date   : Sat Oct 17 18:00:24 GMT+0200 2015
Upload Date  : Tue Oct 21 16:19:14 GMT+0200 2014
Views        : 15
Comments     : 0


+---------+
|  TITLE  |
+---------+
DSC_5679


+---------------+
|  DESCRIPTION  |
+---------------+
(no description)


+--------+
|  TAGS  |
+--------+
(no tags)