+--------------------------------------+
|   Flickr Photo Metadata              |
|   Created by Bulkr on Mar 08, 2016   |
|   http://clipyourphotos.com/bulkr    |
+--------------------------------------+

+--------+
|  INFO  |
+--------+
Photographer : urasimaru
Photo URL    : https://www.flickr.com/photos/urasimaru/8286328561/
License      : Creative Commons (http://creativecommons.org/licenses)
Taken Date   : Wed Dec 19 14:25:13 GMT+0100 2012
Upload Date  : Wed Dec 19 10:46:13 GMT+0100 2012
Views        : 47
Comments     : 0


+---------+
|  TITLE  |
+---------+
R0023111


+---------------+
|  DESCRIPTION  |
+---------------+
Gorilla gorilla
コモモ


+--------+
|  TAGS  |
+--------+
上野動物園　ueno zoo tokyo japan Ricoh CX5 