+--------------------------------------+
|   Flickr Photo Metadata              |
|   Created by Bulkr on Mar 08, 2016   |
|   http://clipyourphotos.com/bulkr    |
+--------------------------------------+

+--------+
|  INFO  |
+--------+
Photographer : sibtigre2
Photo URL    : https://www.flickr.com/photos/sibtigre2/7224207966/
License      : Creative Commons (http://creativecommons.org/licenses)
Taken Date   : Fri May 18 19:06:12 GMT+0200 2012
Upload Date  : Sat May 19 02:06:12 GMT+0200 2012
Views        : 78
Comments     : 0


+---------+
|  TITLE  |
+---------+
Gorilla


+---------------+
|  DESCRIPTION  |
+---------------+
(no description)


+--------+
|  TAGS  |
+--------+
zoo animals nebraska omaha 