+--------------------------------------+
|   Flickr Photo Metadata              |
|   Created by Bulkr on Mar 08, 2016   |
|   http://clipyourphotos.com/bulkr    |
+--------------------------------------+

+--------+
|  INFO  |
+--------+
Photographer : nickirp
Photo URL    : https://www.flickr.com/photos/growlroar/14923983914/
License      : Creative Commons (http://creativecommons.org/licenses)
Taken Date   : Sun Oct 12 11:47:22 GMT+0200 2014
Upload Date  : Wed Oct 15 22:09:23 GMT+0200 2014
Views        : 185
Comments     : 0


+---------+
|  TITLE  |
+---------+
Port Lympne


+---------------+
|  DESCRIPTION  |
+---------------+
(no description)


+--------+
|  TAGS  |
+--------+
zoo animal mammal portlympne portlymnezoo uk england gorilla 