+--------------------------------------+
|   Flickr Photo Metadata              |
|   Created by Bulkr on Mar 08, 2016   |
|   http://clipyourphotos.com/bulkr    |
+--------------------------------------+

+--------+
|  INFO  |
+--------+
Photographer : jnshimko
Photo URL    : https://www.flickr.com/photos/18218029@N07/7174437100/
License      : Creative Commons (http://creativecommons.org/licenses)
Taken Date   : Sun Apr 10 13:58:53 GMT+0200 2011
Upload Date  : Fri May 11 05:21:02 GMT+0200 2012
Views        : 24
Comments     : 0


+---------+
|  TITLE  |
+---------+
FBDSC04558


+---------------+
|  DESCRIPTION  |
+---------------+
(no description)


+--------+
|  TAGS  |
+--------+
(no tags)