+--------------------------------------+
|   Flickr Photo Metadata              |
|   Created by Bulkr on Mar 08, 2016   |
|   http://clipyourphotos.com/bulkr    |
+--------------------------------------+

+--------+
|  INFO  |
+--------+
Photographer : Roland Klose
Photo URL    : https://www.flickr.com/photos/rwklose/10083809226/
License      : Creative Commons (http://creativecommons.org/licenses)
Taken Date   : Sun Sep 29 01:54:40 GMT+0200 2013
Upload Date  : Fri Oct 4 14:42:06 GMT+0200 2013
Views        : 54
Comments     : 0


+---------+
|  TITLE  |
+---------+
Gorilla


+---------------+
|  DESCRIPTION  |
+---------------+
(no description)


+--------+
|  TAGS  |
+--------+
(no tags)