+--------------------------------------+
|   Flickr Photo Metadata              |
|   Created by Bulkr on Mar 08, 2016   |
|   http://clipyourphotos.com/bulkr    |
+--------------------------------------+

+--------+
|  INFO  |
+--------+
Photographer : dpape
Photo URL    : https://www.flickr.com/photos/dpape/5093891891/
License      : Creative Commons (http://creativecommons.org/licenses)
Taken Date   : Sun Oct 17 11:44:22 GMT+0200 2010
Upload Date  : Mon Oct 18 21:19:36 GMT+0200 2010
Views        : 40
Comments     : 0


+---------+
|  TITLE  |
+---------+
img_42058


+---------------+
|  DESCRIPTION  |
+---------------+
(no description)


+--------+
|  TAGS  |
+--------+
"buffalo zoo" 2010 