+--------------------------------------+
|   Flickr Photo Metadata              |
|   Created by Bulkr on Mar 08, 2016   |
|   http://clipyourphotos.com/bulkr    |
+--------------------------------------+

+--------+
|  INFO  |
+--------+
Photographer : frau schnatterliese
Photo URL    : https://www.flickr.com/photos/frauschnatterliese/9106338243/
License      : Creative Commons (http://creativecommons.org/licenses)
Taken Date   : Sat Jun 22 09:55:16 GMT+0200 2013
Upload Date  : Sat Jun 22 15:41:21 GMT+0200 2013
Views        : 532
Comments     : 0


+---------+
|  TITLE  |
+---------+
n'gayla and her twins


+---------------+
|  DESCRIPTION  |
+---------------+
sleeping kiddos


+--------+
|  TAGS  |
+--------+
"burgers zoo" arnheim gorillas 