+--------------------------------------+
|   Flickr Photo Metadata              |
|   Created by Bulkr on Mar 08, 2016   |
|   http://clipyourphotos.com/bulkr    |
+--------------------------------------+

+--------+
|  INFO  |
+--------+
Photographer : echoforsberg
Photo URL    : https://www.flickr.com/photos/echoforsberg/13854350665/
License      : Creative Commons (http://creativecommons.org/licenses)
Taken Date   : Fri Apr 4 21:22:15 GMT+0200 2014
Upload Date  : Mon Apr 14 21:15:53 GMT+0200 2014
Views        : 24
Comments     : 0


+---------+
|  TITLE  |
+---------+
DSCN1963


+---------------+
|  DESCRIPTION  |
+---------------+
(no description)


+--------+
|  TAGS  |
+--------+
(no tags)