+--------------------------------------+
|   Flickr Photo Metadata              |
|   Created by Bulkr on Mar 08, 2016   |
|   http://clipyourphotos.com/bulkr    |
+--------------------------------------+

+--------+
|  INFO  |
+--------+
Photographer : judy_breck
Photo URL    : https://www.flickr.com/photos/goldenswamp/2436643959/
License      : Creative Commons (http://creativecommons.org/licenses)
Taken Date   : Tue Mar 25 09:19:17 GMT+0100 2008
Upload Date  : Wed Apr 23 22:55:32 GMT+0200 2008
Views        : 1,548
Comments     : 0


+---------+
|  TITLE  |
+---------+
Gorilla with snare in her hand


+---------------+
|  DESCRIPTION  |
+---------------+
<a href="http://www.learnodes.com/2008/03/25/some-good-news-about-gorillas-and-learning-primate-medicine/" rel="nofollow">www.learnodes.com/2008/03/25/some-good-news-about-gorilla...</a>


+--------+
|  TAGS  |
+--------+
gorilla protection doctor surgery 