+--------------------------------------+
|   Flickr Photo Metadata              |
|   Created by Bulkr on Mar 08, 2016   |
|   http://clipyourphotos.com/bulkr    |
+--------------------------------------+

+--------+
|  INFO  |
+--------+
Photographer : jnissa
Photo URL    : https://www.flickr.com/photos/jnissa/1505345639/
License      : Creative Commons (http://creativecommons.org/licenses)
Taken Date   : Sun Sep 30 04:53:57 GMT+0200 2007
Upload Date  : Sun Oct 7 16:02:42 GMT+0200 2007
Views        : 806
Comments     : 2


+---------+
|  TITLE  |
+---------+
bwindi_118


+---------------+
|  DESCRIPTION  |
+---------------+
In fact, it was this exact moment where the baby rolled onto its back to play for its father where I  completely lost it.


+--------+
|  TAGS  |
+--------+
bwindi africa uganda gorilla 