+--------------------------------------+
|   Flickr Photo Metadata              |
|   Created by Bulkr on Mar 08, 2016   |
|   http://clipyourphotos.com/bulkr    |
+--------------------------------------+

+--------+
|  INFO  |
+--------+
Photographer : twicepix
Photo URL    : https://www.flickr.com/photos/twicepix/8116485001/
License      : Creative Commons (http://creativecommons.org/licenses)
Taken Date   : Sat Jul 21 12:22:50 GMT+0200 2012
Upload Date  : Tue Oct 23 18:11:27 GMT+0200 2012
Views        : 1,188
Comments     : 0


+---------+
|  TITLE  |
+---------+
zoo


+---------------+
|  DESCRIPTION  |
+---------------+
gorilla


+--------+
|  TAGS  |
+--------+
zoo zürich schweiz tiere tierpark gorilla baby mutter kind tierbaby 