+--------------------------------------+
|   Flickr Photo Metadata              |
|   Created by Bulkr on Mar 08, 2016   |
|   http://clipyourphotos.com/bulkr    |
+--------------------------------------+

+--------+
|  INFO  |
+--------+
Photographer : mybulldog
Photo URL    : https://www.flickr.com/photos/1967chevrolet/3752826739/
License      : Creative Commons (http://creativecommons.org/licenses)
Taken Date   : Thu Jul 23 16:52:12 GMT+0200 2009
Upload Date  : Sat Jul 25 00:40:18 GMT+0200 2009
Views        : 1,215
Comments     : 12


+---------+
|  TITLE  |
+---------+
You lookin at me.....


+---------------+
|  DESCRIPTION  |
+---------------+
(no description)


+--------+
|  TAGS  |
+--------+
Gorilla Zoo WoodlandParkZoo Seattle Washington Gorillagorillagorilla 