+--------------------------------------+
|   Flickr Photo Metadata              |
|   Created by Bulkr on Mar 07, 2016   |
|   http://clipyourphotos.com/bulkr    |
+--------------------------------------+

+--------+
|  INFO  |
+--------+
Photographer : rob stoeltje
Photo URL    : https://www.flickr.com/photos/46198971@N06/5381248150/
License      : Creative Commons (http://creativecommons.org/licenses)
Taken Date   : Wed May 26 10:55:50 GMT+0200 2010
Upload Date  : Sun Jan 23 16:38:27 GMT+0100 2011
Views        : 38
Comments     : 0


+---------+
|  TITLE  |
+---------+
Moose


+---------------+
|  DESCRIPTION  |
+---------------+
(no description)


+--------+
|  TAGS  |
+--------+
Sony a550 tamron 18-250 F3.5-6.3 