+--------------------------------------+
|   Flickr Photo Metadata              |
|   Created by Bulkr on Mar 07, 2016   |
|   http://clipyourphotos.com/bulkr    |
+--------------------------------------+

+--------+
|  INFO  |
+--------+
Photographer : jeminichronicles
Photo URL    : https://www.flickr.com/photos/jeminichronicles/6094371410/
License      : Creative Commons (http://creativecommons.org/licenses)
Taken Date   : Sun Aug 28 06:27:55 GMT+0200 2011
Upload Date  : Mon Aug 29 22:33:16 GMT+0200 2011
Views        : 364
Comments     : 0


+---------+
|  TITLE  |
+---------+
Pepper helped me find a moose


+---------------+
|  DESCRIPTION  |
+---------------+
(no description)


+--------+
|  TAGS  |
+--------+
moose "camping colorado" 