+--------------------------------------+
|   Flickr Photo Metadata              |
|   Created by Bulkr on Mar 07, 2016   |
|   http://clipyourphotos.com/bulkr    |
+--------------------------------------+

+--------+
|  INFO  |
+--------+
Photographer : tuchodi
Photo URL    : https://www.flickr.com/photos/tuchodi/3441821874/
License      : Creative Commons (http://creativecommons.org/licenses)
Taken Date   : Tue Apr 14 05:54:35 GMT+0200 2009
Upload Date  : Tue Apr 14 15:50:19 GMT+0200 2009
Views        : 77
Comments     : 0


+---------+
|  TITLE  |
+---------+
Leave Our Trees Alone


+---------------+
|  DESCRIPTION  |
+---------------+
(no description)


+--------+
|  TAGS  |
+--------+
"backyard moose" moose 