+--------------------------------------+
|   Flickr Photo Metadata              |
|   Created by Bulkr on Mar 07, 2016   |
|   http://clipyourphotos.com/bulkr    |
+--------------------------------------+

+--------+
|  INFO  |
+--------+
Photographer : amanderson2
Photo URL    : https://www.flickr.com/photos/amanderson/533671585/
License      : Creative Commons (http://creativecommons.org/licenses)
Taken Date   : Wed Jun 6 13:18:09 GMT+0200 2007
Upload Date  : Wed Jun 6 22:18:09 GMT+0200 2007
Views        : 17
Comments     : 0


+---------+
|  TITLE  |
+---------+
Moose Profile


+---------------+
|  DESCRIPTION  |
+---------------+
(no description)


+--------+
|  TAGS  |
+--------+
(no tags)