+--------------------------------------+
|   Flickr Photo Metadata              |
|   Created by Bulkr on Mar 07, 2016   |
|   http://clipyourphotos.com/bulkr    |
+--------------------------------------+

+--------+
|  INFO  |
+--------+
Photographer : Roman Filipkowski
Photo URL    : https://www.flickr.com/photos/filipkowski_roman/21178158270/
License      : Creative Commons (http://creativecommons.org/licenses)
Taken Date   : Sat Sep 5 16:29:54 GMT+0200 2015
Upload Date  : Sun Sep 13 00:30:41 GMT+0200 2015
Views        : 116
Comments     : 0


+---------+
|  TITLE  |
+---------+
DSC09372


+---------------+
|  DESCRIPTION  |
+---------------+
(no description)


+--------+
|  TAGS  |
+--------+
łoś klempa Elch las Wald samica elk natura forest 