+--------------------------------------+
|   Flickr Photo Metadata              |
|   Created by Bulkr on Mar 07, 2016   |
|   http://clipyourphotos.com/bulkr    |
+--------------------------------------+

+--------+
|  INFO  |
+--------+
Photographer : marksontok
Photo URL    : https://www.flickr.com/photos/mark233/24095525989/
License      : Creative Commons (http://creativecommons.org/licenses)
Taken Date   : Thu May 21 09:04:05 GMT+0200 2015
Upload Date  : Mon Jan 18 18:38:45 GMT+0100 2016
Views        : 30
Comments     : 0


+---------+
|  TITLE  |
+---------+
DSC_7134


+---------------+
|  DESCRIPTION  |
+---------------+
(no description)


+--------+
|  TAGS  |
+--------+
"Alaska, Moose" 