+--------------------------------------+
|   Flickr Photo Metadata              |
|   Created by Bulkr on Mar 07, 2016   |
|   http://clipyourphotos.com/bulkr    |
+--------------------------------------+

+--------+
|  INFO  |
+--------+
Photographer : peupleloup
Photo URL    : https://www.flickr.com/photos/peupleloup/3885133403/
License      : Creative Commons (http://creativecommons.org/licenses)
Taken Date   : Tue Sep 1 09:50:10 GMT+0200 2009
Upload Date  : Fri Sep 4 02:19:54 GMT+0200 2009
Views        : 906
Comments     : 0


+---------+
|  TITLE  |
+---------+
Orignal avec son petit


+---------------+
|  DESCRIPTION  |
+---------------+
Sortis du bois, ils vont prendre un peu l'eau


+--------+
|  TAGS  |
+--------+
orignal moose 