+--------------------------------------+
|   Flickr Photo Metadata              |
|   Created by Bulkr on Mar 07, 2016   |
|   http://clipyourphotos.com/bulkr    |
+--------------------------------------+

+--------+
|  INFO  |
+--------+
Photographer : echoforsberg
Photo URL    : https://www.flickr.com/photos/echoforsberg/4558635128/
License      : Creative Commons (http://creativecommons.org/licenses)
Taken Date   : Thu Apr 22 08:08:12 GMT+0200 2010
Upload Date  : Tue Apr 27 21:05:09 GMT+0200 2010
Views        : 21
Comments     : 0


+---------+
|  TITLE  |
+---------+
DSC06115


+---------------+
|  DESCRIPTION  |
+---------------+
(no description)


+--------+
|  TAGS  |
+--------+
moose ungulate dineega tuttuvak 