+--------------------------------------+
|   Flickr Photo Metadata              |
|   Created by Bulkr on Mar 07, 2016   |
|   http://clipyourphotos.com/bulkr    |
+--------------------------------------+

+--------+
|  INFO  |
+--------+
Photographer : roweenaweb
Photo URL    : https://www.flickr.com/photos/roweeena/148330645/
License      : Creative Commons (http://creativecommons.org/licenses)
Taken Date   : Tue Apr 4 02:10:54 GMT+0200 2006
Upload Date  : Wed May 17 21:49:15 GMT+0200 2006
Views        : 485
Comments     : 0


+---------+
|  TITLE  |
+---------+
Moose


+---------------+
|  DESCRIPTION  |
+---------------+
(no description)


+--------+
|  TAGS  |
+--------+
Moose 