+--------------------------------------+
|   Flickr Photo Metadata              |
|   Created by Bulkr on Mar 07, 2016   |
|   http://clipyourphotos.com/bulkr    |
+--------------------------------------+

+--------+
|  INFO  |
+--------+
Photographer : Donelle_photos
Photo URL    : https://www.flickr.com/photos/24613361@N07/4446490848/
License      : Creative Commons (http://creativecommons.org/licenses)
Taken Date   : Sat Aug 29 02:50:44 GMT+0200 2009
Upload Date  : Fri Mar 19 22:10:46 GMT+0100 2010
Views        : 27
Comments     : 1


+---------+
|  TITLE  |
+---------+
Moose


+---------------+
|  DESCRIPTION  |
+---------------+
(no description)


+--------+
|  TAGS  |
+--------+
(no tags)