+--------------------------------------+
|   Flickr Photo Metadata              |
|   Created by Bulkr on Mar 07, 2016   |
|   http://clipyourphotos.com/bulkr    |
+--------------------------------------+

+--------+
|  INFO  |
+--------+
Photographer : tuchodi
Photo URL    : https://www.flickr.com/photos/tuchodi/3441003519/
License      : Creative Commons (http://creativecommons.org/licenses)
Taken Date   : Tue Apr 14 05:53:13 GMT+0200 2009
Upload Date  : Tue Apr 14 15:48:05 GMT+0200 2009
Views        : 83
Comments     : 0


+---------+
|  TITLE  |
+---------+
Leave Our Trees Alone


+---------------+
|  DESCRIPTION  |
+---------------+
They love our willow tree.


+--------+
|  TAGS  |
+--------+
"backyard moose" moose 