+--------------------------------------+
|   Flickr Photo Metadata              |
|   Created by Bulkr on Apr 09, 2016   |
|   http://clipyourphotos.com/bulkr    |
+--------------------------------------+

+--------+
|  INFO  |
+--------+
Photographer : otama
Photo URL    : https://www.flickr.com/photos/otama/47761989/
License      : Creative Commons (http://creativecommons.org/licenses)
Taken Date   : Wed Sep 28 15:26:29 GMT+0200 2005
Upload Date  : Thu Sep 29 19:36:25 GMT+0200 2005
Views        : 108
Comments     : 0


+---------+
|  TITLE  |
+---------+
2005-09-28 Zoo 069


+---------------+
|  DESCRIPTION  |
+---------------+
(no description)


+--------+
|  TAGS  |
+--------+
giraffe 