+--------------------------------------+
|   Flickr Photo Metadata              |
|   Created by Bulkr on Apr 09, 2016   |
|   http://clipyourphotos.com/bulkr    |
+--------------------------------------+

+--------+
|  INFO  |
+--------+
Photographer : ChodHound
Photo URL    : https://www.flickr.com/photos/chodhound/8336202858/
License      : Creative Commons (http://creativecommons.org/licenses)
Taken Date   : Sun Mar 27 16:15:12 GMT+0200 2011
Upload Date  : Wed Jan 2 02:17:18 GMT+0100 2013
Views        : 43
Comments     : 0


+---------+
|  TITLE  |
+---------+
IMG_3304.jpg


+---------------+
|  DESCRIPTION  |
+---------------+
(no description)


+--------+
|  TAGS  |
+--------+
Giraffe "London Zoo" 