+--------------------------------------+
|   Flickr Photo Metadata              |
|   Created by Bulkr on Apr 09, 2016   |
|   http://clipyourphotos.com/bulkr    |
+--------------------------------------+

+--------+
|  INFO  |
+--------+
Photographer : complex_napoleon
Photo URL    : https://www.flickr.com/photos/30230876@N05/15262281865/
License      : Creative Commons (http://creativecommons.org/licenses)
Taken Date   : Mon Jul 28 01:17:15 GMT+0200 2014
Upload Date  : Wed Sep 17 01:39:07 GMT+0200 2014
Views        : 18
Comments     : 0


+---------+
|  TITLE  |
+---------+
DSC_0569


+---------------+
|  DESCRIPTION  |
+---------------+
(no description)


+--------+
|  TAGS  |
+--------+
(no tags)