+--------------------------------------+
|   Flickr Photo Metadata              |
|   Created by Bulkr on Apr 09, 2016   |
|   http://clipyourphotos.com/bulkr    |
+--------------------------------------+

+--------+
|  INFO  |
+--------+
Photographer : collectmoments
Photo URL    : https://www.flickr.com/photos/collectmoments/7176907791/
License      : Creative Commons (http://creativecommons.org/licenses)
Taken Date   : Thu Jan 13 04:58:55 GMT+0100 2011
Upload Date  : Mon Jun 11 18:24:17 GMT+0200 2012
Geotag Info  : Latitude:-1.373813, Longitude:36.736983
Views        : 137
Comments     : 0


+---------+
|  TITLE  |
+---------+
twiga


+---------------+
|  DESCRIPTION  |
+---------------+
(no description)


+--------+
|  TAGS  |
+--------+
kenya nairobi giraffe 