+--------------------------------------+
|   Flickr Photo Metadata              |
|   Created by Bulkr on Apr 09, 2016   |
|   http://clipyourphotos.com/bulkr    |
+--------------------------------------+

+--------+
|  INFO  |
+--------+
Photographer : meaduva
Photo URL    : https://www.flickr.com/photos/meaduva/1467770049/
License      : Creative Commons (http://creativecommons.org/licenses)
Taken Date   : Sat Sep 22 06:22:11 GMT+0200 2007
Upload Date  : Mon Oct 1 16:41:40 GMT+0200 2007
Views        : 141
Comments     : 0


+---------+
|  TITLE  |
+---------+
me and Jock


+---------------+
|  DESCRIPTION  |
+---------------+
A friendly local


+--------+
|  TAGS  |
+--------+
vanessa kenya giraffe 