+--------------------------------------+
|   Flickr Photo Metadata              |
|   Created by Bulkr on Apr 09, 2016   |
|   http://clipyourphotos.com/bulkr    |
+--------------------------------------+

+--------+
|  INFO  |
+--------+
Photographer : chris.murphy
Photo URL    : https://www.flickr.com/photos/chris-murphy/4542096925/
License      : Creative Commons (http://creativecommons.org/licenses)
Taken Date   : Sat Apr 3 07:15:41 GMT+0200 2010
Upload Date  : Thu Apr 22 07:11:43 GMT+0200 2010
Views        : 115
Comments     : 0


+---------+
|  TITLE  |
+---------+
Hell's Gate-7


+---------------+
|  DESCRIPTION  |
+---------------+
(no description)


+--------+
|  TAGS  |
+--------+
"Lake Naivasha" Kenya Giraffe 