+--------------------------------------+
|   Flickr Photo Metadata              |
|   Created by Bulkr on Apr 09, 2016   |
|   http://clipyourphotos.com/bulkr    |
+--------------------------------------+

+--------+
|  INFO  |
+--------+
Photographer : colleen_taugher
Photo URL    : https://www.flickr.com/photos/70268842@N00/530255654/
License      : Creative Commons (http://creativecommons.org/licenses)
Taken Date   : Tue Dec 6 05:40:03 GMT+0100 2005
Upload Date  : Mon Jun 4 21:50:07 GMT+0200 2007
Geotag Info  : Latitude:-1.271391, Longitude:36.811237
Views        : 143
Comments     : 0


+---------+
|  TITLE  |
+---------+
looking for snacks


+---------------+
|  DESCRIPTION  |
+---------------+
(no description)


+--------+
|  TAGS  |
+--------+
giraffe Kenya 