+--------------------------------------+
|   Flickr Photo Metadata              |
|   Created by Bulkr on Apr 09, 2016   |
|   http://clipyourphotos.com/bulkr    |
+--------------------------------------+

+--------+
|  INFO  |
+--------+
Photographer : philip_sheldrake
Photo URL    : https://www.flickr.com/photos/philip_sheldrake/335172534/
License      : Creative Commons (http://creativecommons.org/licenses)
Taken Date   : Tue Aug 29 16:55:15 GMT+0200 2006
Upload Date  : Wed Dec 27 16:43:51 GMT+0100 2006
Views        : 146
Comments     : 0


+---------+
|  TITLE  |
+---------+
P8292322


+---------------+
|  DESCRIPTION  |
+---------------+
(no description)


+--------+
|  TAGS  |
+--------+
africa kenya amboseli giraffe 