+--------------------------------------+
|   Flickr Photo Metadata              |
|   Created by Bulkr on Apr 09, 2016   |
|   http://clipyourphotos.com/bulkr    |
+--------------------------------------+

+--------+
|  INFO  |
+--------+
Photographer : Ian @ ThePaperboy.com
Photo URL    : https://www.flickr.com/photos/thepaperboy/2865029764/
License      : Creative Commons (http://creativecommons.org/licenses)
Taken Date   : Mon Sep 15 14:42:28 GMT+0200 2008
Upload Date  : Wed Sep 17 08:59:17 GMT+0200 2008
Views        : 176
Comments     : 0


+---------+
|  TITLE  |
+---------+
IAN_0343


+---------------+
|  DESCRIPTION  |
+---------------+
(no description)


+--------+
|  TAGS  |
+--------+
"singapore zoo" singapore zoo animals giraffe 