+--------------------------------------+
|   Flickr Photo Metadata              |
|   Created by Bulkr on Apr 09, 2016   |
|   http://clipyourphotos.com/bulkr    |
+--------------------------------------+

+--------+
|  INFO  |
+--------+
Photographer : Thumbling
Photo URL    : https://www.flickr.com/photos/thumbling/92348659/
License      : Creative Commons (http://creativecommons.org/licenses)
Taken Date   : Thu Jan 12 11:36:43 GMT+0100 2006
Upload Date  : Sun Jan 29 01:19:19 GMT+0100 2006
Views        : 123
Comments     : 0


+---------+
|  TITLE  |
+---------+
P1010016


+---------------+
|  DESCRIPTION  |
+---------------+
(no description)


+--------+
|  TAGS  |
+--------+
kenya safari "Masai Mara" giraffe 