+--------------------------------------+
|   Flickr Photo Metadata              |
|   Created by Bulkr on Apr 09, 2016   |
|   http://clipyourphotos.com/bulkr    |
+--------------------------------------+

+--------+
|  INFO  |
+--------+
Photographer : Beige Alert
Photo URL    : https://www.flickr.com/photos/beigephotos/4979526875/
License      : Creative Commons (http://creativecommons.org/licenses)
Taken Date   : Sat Jun 20 20:28:24 GMT+0200 2009
Upload Date  : Sat Sep 11 19:18:03 GMT+0200 2010
Views        : 47
Comments     : 0


+---------+
|  TITLE  |
+---------+
Giraffes


+---------------+
|  DESCRIPTION  |
+---------------+
(no description)


+--------+
|  TAGS  |
+--------+
BrookfieldZoo zoo Brookfield Illinois USA 