+--------------------------------------+
|   Flickr Photo Metadata              |
|   Created by Bulkr on Apr 09, 2016   |
|   http://clipyourphotos.com/bulkr    |
+--------------------------------------+

+--------+
|  INFO  |
+--------+
Photographer : rkramer62
Photo URL    : https://www.flickr.com/photos/rkramer62/4854739693/
License      : Creative Commons (http://creativecommons.org/licenses)
Taken Date   : Thu Jul 29 16:52:34 GMT+0200 2010
Upload Date  : Tue Aug 3 02:11:00 GMT+0200 2010
Views        : 221
Comments     : 2


+---------+
|  TITLE  |
+---------+
Giraffes


+---------------+
|  DESCRIPTION  |
+---------------+
(no description)


+--------+
|  TAGS  |
+--------+
brookfield zoo 