+--------------------------------------+
|   Flickr Photo Metadata              |
|   Created by Bulkr on Apr 09, 2016   |
|   http://clipyourphotos.com/bulkr    |
+--------------------------------------+

+--------+
|  INFO  |
+--------+
Photographer : infowidget
Photo URL    : https://www.flickr.com/photos/infowidget/1326112462/
License      : Creative Commons (http://creativecommons.org/licenses)
Taken Date   : Mon Sep 3 16:13:24 GMT+0200 2007
Upload Date  : Wed Sep 5 03:57:07 GMT+0200 2007
Views        : 36
Comments     : 0


+---------+
|  TITLE  |
+---------+
Giraffe


+---------------+
|  DESCRIPTION  |
+---------------+
(no description)


+--------+
|  TAGS  |
+--------+
cleveland zoo 