+--------------------------------------+
|   Flickr Photo Metadata              |
|   Created by Bulkr on Apr 09, 2016   |
|   http://clipyourphotos.com/bulkr    |
+--------------------------------------+

+--------+
|  INFO  |
+--------+
Photographer : muffinman71xx
Photo URL    : https://www.flickr.com/photos/muffinman71xx/3207983418/
License      : Creative Commons (http://creativecommons.org/licenses)
Taken Date   : Tue Jul 20 14:38:47 GMT+0200 2004
Upload Date  : Sun Jan 18 23:36:39 GMT+0100 2009
Views        : 49
Comments     : 0


+---------+
|  TITLE  |
+---------+
giraffe uo close


+---------------+
|  DESCRIPTION  |
+---------------+
giraffe up close


+--------+
|  TAGS  |
+--------+
animal nature wildlife 