+--------------------------------------+
|   Flickr Photo Metadata              |
|   Created by Bulkr on Apr 09, 2016   |
|   http://clipyourphotos.com/bulkr    |
+--------------------------------------+

+--------+
|  INFO  |
+--------+
Photographer : smplyme84
Photo URL    : https://www.flickr.com/photos/smplyme84/4395170468/
License      : Creative Commons (http://creativecommons.org/licenses)
Taken Date   : Sun Jun 8 16:12:21 GMT+0200 2008
Upload Date  : Sun Feb 28 15:44:38 GMT+0100 2010
Views        : 9
Comments     : 0


+---------+
|  TITLE  |
+---------+
Giraffe 2


+---------------+
|  DESCRIPTION  |
+---------------+
(no description)


+--------+
|  TAGS  |
+--------+
(no tags)