+--------------------------------------+
|   Flickr Photo Metadata              |
|   Created by Bulkr on Apr 09, 2016   |
|   http://clipyourphotos.com/bulkr    |
+--------------------------------------+

+--------+
|  INFO  |
+--------+
Photographer : clickclickclickclick
Photo URL    : https://www.flickr.com/photos/clickclickclickclick/1128679204/
License      : Creative Commons (http://creativecommons.org/licenses)
Taken Date   : Sun Aug 12 13:59:31 GMT+0200 2007
Upload Date  : Wed Aug 15 19:07:36 GMT+0200 2007
Views        : 148
Comments     : 0


+---------+
|  TITLE  |
+---------+
Two giraffes


+---------------+
|  DESCRIPTION  |
+---------------+
(no description)


+--------+
|  TAGS  |
+--------+
kenya safari "Masai Mara" 