+--------------------------------------+
|   Flickr Photo Metadata              |
|   Created by Bulkr on Apr 09, 2016   |
|   http://clipyourphotos.com/bulkr    |
+--------------------------------------+

+--------+
|  INFO  |
+--------+
Photographer : kellynphillong
Photo URL    : https://www.flickr.com/photos/kellylong/3215104354/
License      : Creative Commons (http://creativecommons.org/licenses)
Taken Date   : Fri Jul 22 09:44:12 GMT+0200 2005
Upload Date  : Wed Jan 21 08:44:15 GMT+0100 2009
Views        : 80
Comments     : 0


+---------+
|  TITLE  |
+---------+
Kansas Zoo 2


+---------------+
|  DESCRIPTION  |
+---------------+
(no description)


+--------+
|  TAGS  |
+--------+
giraffe animal animals zooanimals nature 