+--------------------------------------+
|   Flickr Photo Metadata              |
|   Created by Bulkr on Apr 09, 2016   |
|   http://clipyourphotos.com/bulkr    |
+--------------------------------------+

+--------+
|  INFO  |
+--------+
Photographer : koiart71
Photo URL    : https://www.flickr.com/photos/koiart66/5846576190/
License      : Creative Commons (http://creativecommons.org/licenses)
Taken Date   : Sat Jun 18 14:00:18 GMT+0200 2011
Upload Date  : Sat Jun 18 23:00:18 GMT+0200 2011
Views        : 47
Comments     : 0


+---------+
|  TITLE  |
+---------+
Giraffes


+---------------+
|  DESCRIPTION  |
+---------------+
(no description)


+--------+
|  TAGS  |
+--------+
(no tags)