+--------------------------------------+
|   Flickr Photo Metadata              |
|   Created by Bulkr on Apr 09, 2016   |
|   http://clipyourphotos.com/bulkr    |
+--------------------------------------+

+--------+
|  INFO  |
+--------+
Photographer : alison.klein
Photo URL    : https://www.flickr.com/photos/60924502@N00/10217773144/
License      : Creative Commons (http://creativecommons.org/licenses)
Taken Date   : Tue Sep 24 09:49:57 GMT+0200 2013
Upload Date  : Sat Oct 12 04:20:35 GMT+0200 2013
Views        : 17
Comments     : 0


+---------+
|  TITLE  |
+---------+
giraffe-240913-08


+---------------+
|  DESCRIPTION  |
+---------------+
(no description)


+--------+
|  TAGS  |
+--------+
(no tags)