+--------------------------------------+
|   Flickr Photo Metadata              |
|   Created by Bulkr on Apr 09, 2016   |
|   http://clipyourphotos.com/bulkr    |
+--------------------------------------+

+--------+
|  INFO  |
+--------+
Photographer : jjmusgrove
Photo URL    : https://www.flickr.com/photos/jjmusgrove/8855470838/
License      : Creative Commons (http://creativecommons.org/licenses)
Taken Date   : Fri May 2 13:48:29 GMT+0200 2008
Upload Date  : Mon May 27 17:19:22 GMT+0200 2013
Views        : 41
Comments     : 0


+---------+
|  TITLE  |
+---------+
Giraffe 1


+---------------+
|  DESCRIPTION  |
+---------------+
SONY DSC


+--------+
|  TAGS  |
+--------+
"Richmond Zoo" 