+--------------------------------------+
|   Flickr Photo Metadata              |
|   Created by Bulkr on Apr 09, 2016   |
|   http://clipyourphotos.com/bulkr    |
+--------------------------------------+

+--------+
|  INFO  |
+--------+
Photographer : rhoftonphoto
Photo URL    : https://www.flickr.com/photos/rachels_photo_world/3877130735/
License      : Creative Commons (http://creativecommons.org/licenses)
Taken Date   : Tue Sep 1 11:17:53 GMT+0200 2009
Upload Date  : Tue Sep 1 13:16:24 GMT+0200 2009
Views        : 352
Comments     : 0


+---------+
|  TITLE  |
+---------+
giraffe


+---------------+
|  DESCRIPTION  |
+---------------+
(no description)


+--------+
|  TAGS  |
+--------+
melbourne zoo animals spring sun outdoors nature "melbourne zoo" creatures outting large giraffe spots neck hungry eatting tounge lol 