+--------------------------------------+
|   Flickr Photo Metadata              |
|   Created by Bulkr on Apr 09, 2016   |
|   http://clipyourphotos.com/bulkr    |
+--------------------------------------+

+--------+
|  INFO  |
+--------+
Photographer : patsemchism
Photo URL    : https://www.flickr.com/photos/patsemchism/344142641/
License      : Creative Commons (http://creativecommons.org/licenses)
Taken Date   : Thu Aug 10 05:10:05 GMT+0200 2006
Upload Date  : Wed Jan 3 16:50:06 GMT+0100 2007
Views        : 134
Comments     : 0


+---------+
|  TITLE  |
+---------+
test 268


+---------------+
|  DESCRIPTION  |
+---------------+
(no description)


+--------+
|  TAGS  |
+--------+
Giraffe 