+--------------------------------------+
|   Flickr Photo Metadata              |
|   Created by Bulkr on Apr 09, 2016   |
|   http://clipyourphotos.com/bulkr    |
+--------------------------------------+

+--------+
|  INFO  |
+--------+
Photographer : Genista
Photo URL    : https://www.flickr.com/photos/genista/6093852235/
License      : Creative Commons (http://creativecommons.org/licenses)
Taken Date   : Sat Aug 27 12:27:07 GMT+0200 2011
Upload Date  : Mon Aug 29 22:38:49 GMT+0200 2011
Views        : 140
Comments     : 0


+---------+
|  TITLE  |
+---------+
wraparound giraffe


+---------------+
|  DESCRIPTION  |
+---------------+
Being able to kiss your own ass. Luxury!


+--------+
|  TAGS  |
+--------+
(no tags)