+--------------------------------------+
|   Flickr Photo Metadata              |
|   Created by Bulkr on Apr 09, 2016   |
|   http://clipyourphotos.com/bulkr    |
+--------------------------------------+

+--------+
|  INFO  |
+--------+
Photographer : Amanjeev
Photo URL    : https://www.flickr.com/photos/amanjeev/7861678130/
License      : Creative Commons (http://creativecommons.org/licenses)
Taken Date   : Sat Aug 4 15:00:37 GMT+0200 2012
Upload Date  : Sun Aug 26 06:34:48 GMT+0200 2012
Views        : 163
Comments     : 0


+---------+
|  TITLE  |
+---------+
Safari - Giraffe


+---------------+
|  DESCRIPTION  |
+---------------+
(no description)


+--------+
|  TAGS  |
+--------+
Ducks Wildlife animals birds "black swan" "new jersey" ostrich safari yak Giraffe 