+--------------------------------------+
|   Flickr Photo Metadata              |
|   Created by Bulkr on Apr 09, 2016   |
|   http://clipyourphotos.com/bulkr    |
+--------------------------------------+

+--------+
|  INFO  |
+--------+
Photographer : Jacob Davies
Photo URL    : https://www.flickr.com/photos/jacob-davies/3478428361/
License      : Creative Commons (http://creativecommons.org/licenses)
Taken Date   : Sun Apr 26 14:56:38 GMT+0200 2009
Upload Date  : Mon Apr 27 07:32:35 GMT+0200 2009
Views        : 58
Comments     : 2


+---------+
|  TITLE  |
+---------+
bendy giraffe


+---------------+
|  DESCRIPTION  |
+---------------+
(no description)


+--------+
|  TAGS  |
+--------+
oakland zoo oaklandzoo 