+--------------------------------------+
|   Flickr Photo Metadata              |
|   Created by Bulkr on Apr 09, 2016   |
|   http://clipyourphotos.com/bulkr    |
+--------------------------------------+

+--------+
|  INFO  |
+--------+
Photographer : Centrilobular
Photo URL    : https://www.flickr.com/photos/centrilobular/8502683966/
License      : Creative Commons (http://creativecommons.org/licenses)
Taken Date   : Sat Feb 23 13:57:27 GMT+0100 2013
Upload Date  : Sun Feb 24 05:13:28 GMT+0100 2013
Views        : 59
Comments     : 0


+---------+
|  TITLE  |
+---------+
DSC_4944


+---------------+
|  DESCRIPTION  |
+---------------+
(no description)


+--------+
|  TAGS  |
+--------+
giraffe 