+--------------------------------------+
|   Flickr Photo Metadata              |
|   Created by Bulkr on Apr 09, 2016   |
|   http://clipyourphotos.com/bulkr    |
+--------------------------------------+

+--------+
|  INFO  |
+--------+
Photographer : tsuacctnt
Photo URL    : https://www.flickr.com/photos/cedwardmoran/2690777635/
License      : Creative Commons (http://creativecommons.org/licenses)
Taken Date   : Wed Jul 2 22:28:23 GMT+0200 2008
Upload Date  : Tue Jul 22 04:56:47 GMT+0200 2008
Views        : 86
Comments     : 0


+---------+
|  TITLE  |
+---------+
070308 Como Zoo 100


+---------------+
|  DESCRIPTION  |
+---------------+
(no description)


+--------+
|  TAGS  |
+--------+
Giraffe ComoZoo 