+--------------------------------------+
|   Flickr Photo Metadata              |
|   Created by Bulkr on Apr 09, 2016   |
|   http://clipyourphotos.com/bulkr    |
+--------------------------------------+

+--------+
|  INFO  |
+--------+
Photographer : tom.lubbock
Photo URL    : https://www.flickr.com/photos/tomlubbock/10651970615/
License      : Creative Commons (http://creativecommons.org/licenses)
Taken Date   : Wed Sep 11 08:08:20 GMT+0200 2013
Upload Date  : Sun Nov 3 19:26:48 GMT+0100 2013
Views        : 57
Comments     : 0


+---------+
|  TITLE  |
+---------+
IMG_1223


+---------------+
|  DESCRIPTION  |
+---------------+
(no description)


+--------+
|  TAGS  |
+--------+
giraffe 