+--------------------------------------+
|   Flickr Photo Metadata              |
|   Created by Bulkr on Apr 09, 2016   |
|   http://clipyourphotos.com/bulkr    |
+--------------------------------------+

+--------+
|  INFO  |
+--------+
Photographer : mindylou2
Photo URL    : https://www.flickr.com/photos/8770645@N05/1120913971/
License      : Creative Commons (http://creativecommons.org/licenses)
Taken Date   : Sat Jan 1 00:00:00 GMT+0100 2005
Upload Date  : Wed Aug 15 04:09:22 GMT+0200 2007
Views        : 224
Comments     : 0


+---------+
|  TITLE  |
+---------+
Giraffe


+---------------+
|  DESCRIPTION  |
+---------------+
(no description)


+--------+
|  TAGS  |
+--------+
zoo giraffe 