+--------------------------------------+
|   Flickr Photo Metadata              |
|   Created by Bulkr on Apr 09, 2016   |
|   http://clipyourphotos.com/bulkr    |
+--------------------------------------+

+--------+
|  INFO  |
+--------+
Photographer : Zeppelinrace
Photo URL    : https://www.flickr.com/photos/zepplinrace/14082751241/
License      : Creative Commons (http://creativecommons.org/licenses)
Taken Date   : Mon Apr 28 09:56:33 GMT+0200 2014
Upload Date  : Fri May 2 05:51:38 GMT+0200 2014
Views        : 43
Comments     : 0


+---------+
|  TITLE  |
+---------+
Giraffe


+---------------+
|  DESCRIPTION  |
+---------------+
(no description)


+--------+
|  TAGS  |
+--------+
(no tags)