+--------------------------------------+
|   Flickr Photo Metadata              |
|   Created by Bulkr on Apr 09, 2016   |
|   http://clipyourphotos.com/bulkr    |
+--------------------------------------+

+--------+
|  INFO  |
+--------+
Photographer : zanthrax-dot-nl
Photo URL    : https://www.flickr.com/photos/zanthraxnl/3668796323/
License      : Creative Commons (http://creativecommons.org/licenses)
Taken Date   : Sun Jun 28 14:03:51 GMT+0200 2009
Upload Date  : Sun Jun 28 23:06:51 GMT+0200 2009
Views        : 63
Comments     : 0


+---------+
|  TITLE  |
+---------+
IMG_4635


+---------------+
|  DESCRIPTION  |
+---------------+
(no description)


+--------+
|  TAGS  |
+--------+
Giraffe 