+--------------------------------------+
|   Flickr Photo Metadata              |
|   Created by Bulkr on Apr 09, 2016   |
|   http://clipyourphotos.com/bulkr    |
+--------------------------------------+

+--------+
|  INFO  |
+--------+
Photographer : krugergirl26
Photo URL    : https://www.flickr.com/photos/71888644@N00/6114390935/
License      : Creative Commons (http://creativecommons.org/licenses)
Taken Date   : Thu Aug 11 11:09:07 GMT+0200 2011
Upload Date  : Mon Sep 5 04:48:14 GMT+0200 2011
Views        : 50
Comments     : 0


+---------+
|  TITLE  |
+---------+
Giraffe


+---------------+
|  DESCRIPTION  |
+---------------+
(no description)


+--------+
|  TAGS  |
+--------+
(no tags)