+--------------------------------------+
|   Flickr Photo Metadata              |
|   Created by Bulkr on Apr 09, 2016   |
|   http://clipyourphotos.com/bulkr    |
+--------------------------------------+

+--------+
|  INFO  |
+--------+
Photographer : bettyx1138
Photo URL    : https://www.flickr.com/photos/bettyx1138/3016048910/
License      : Creative Commons (http://creativecommons.org/licenses)
Taken Date   : Thu Nov 6 15:55:31 GMT+0100 2008
Upload Date  : Sun Nov 9 16:19:10 GMT+0100 2008
Geotag Info  : Latitude:24.280371, Longitude:52.622108
Views        : 301
Comments     : 0


+---------+
|  TITLE  |
+---------+
giraffe praying


+---------------+
|  DESCRIPTION  |
+---------------+
(no description)


+--------+
|  TAGS  |
+--------+
abudhabi sirbaniyas sir bani yas desertislandresort desert island resort spa anantara abu dhabi uae sirbaniyasisland 