+--------------------------------------+
|   Flickr Photo Metadata              |
|   Created by Bulkr on Apr 09, 2016   |
|   http://clipyourphotos.com/bulkr    |
+--------------------------------------+

+--------+
|  INFO  |
+--------+
Photographer : cchauvet
Photo URL    : https://www.flickr.com/photos/cchauvet/5209836779/
License      : Creative Commons (http://creativecommons.org/licenses)
Taken Date   : Fri Nov 26 13:20:17 GMT+0100 2010
Upload Date  : Sat Nov 27 01:13:13 GMT+0100 2010
Views        : 19
Comments     : 0


+---------+
|  TITLE  |
+---------+
Giraffe


+---------------+
|  DESCRIPTION  |
+---------------+
(no description)


+--------+
|  TAGS  |
+--------+
sdzoo tentative365 