+--------------------------------------+
|   Flickr Photo Metadata              |
|   Created by Bulkr on Apr 09, 2016   |
|   http://clipyourphotos.com/bulkr    |
+--------------------------------------+

+--------+
|  INFO  |
+--------+
Photographer : henribergius
Photo URL    : https://www.flickr.com/photos/bergie/5339912735/
License      : Creative Commons (http://creativecommons.org/licenses)
Taken Date   : Fri Dec 31 08:13:09 GMT+0100 2010
Upload Date  : Sun Jan 9 21:53:17 GMT+0100 2011
Views        : 1,082
Comments     : 0


+---------+
|  TITLE  |
+---------+
Keeping watch


+---------------+
|  DESCRIPTION  |
+---------------+
(no description)


+--------+
|  TAGS  |
+--------+
kenya masaimara giraffe 