+--------------------------------------+
|   Flickr Photo Metadata              |
|   Created by Bulkr on Apr 09, 2016   |
|   http://clipyourphotos.com/bulkr    |
+--------------------------------------+

+--------+
|  INFO  |
+--------+
Photographer : Bob McCaffrey
Photo URL    : https://www.flickr.com/photos/mccaffrey_uk/2792069389/
License      : Creative Commons (http://creativecommons.org/licenses)
Taken Date   : Sun Aug 13 12:20:23 GMT+0200 2006
Upload Date  : Sun Aug 24 16:50:17 GMT+0200 2008
Views        : 75
Comments     : 0


+---------+
|  TITLE  |
+---------+
Picture 068


+---------------+
|  DESCRIPTION  |
+---------------+
(no description)


+--------+
|  TAGS  |
+--------+
Kenya Africa giraffe 